<?xml version="1.0" encoding="UTF-8" standalone="no"?>
<!-- Created with Inkscape (http://www.inkscape.org/) -->

<svg
   xmlns:dc="http://purl.org/dc/elements/1.1/"
   xmlns:cc="http://creativecommons.org/ns#"
   xmlns:rdf="http://www.w3.org/1999/02/22-rdf-syntax-ns#"
   xmlns:svg="http://www.w3.org/2000/svg"
   xmlns="http://www.w3.org/2000/svg"
   xmlns:xlink="http://www.w3.org/1999/xlink"
   xmlns:sodipodi="http://sodipodi.sourceforge.net/DTD/sodipodi-0.dtd"
   xmlns:inkscape="http://www.inkscape.org/namespaces/inkscape"
   width="48"
   height="48"
   id="svg3066"
   version="1.1"
   inkscape:version="0.48.2 r9819"
   sodipodi:docname="preferences-system.svg">
  <defs
     id="defs3068">
    <linearGradient
       id="linearGradient3879">
      <stop
         style="stop-color:#dbdbdb;stop-opacity:1;"
         offset="0"
         id="stop3881" />
      <stop
         style="stop-color:#a6a6a6;stop-opacity:1;"
         offset="1"
         id="stop3883" />
    </linearGradient>
    <linearGradient
       inkscape:collect="always"
       xlink:href="#linearGradient3795"
       id="linearGradient4079"
       gradientUnits="userSpaceOnUse"
       x1="23.204165"
       y1="1053.158"
       x2="23.204165"
       y2="1004.8474" />
    <linearGradient
       id="linearGradient3795">
      <stop
         style="stop-color:#c9c9c9;stop-opacity:1;"
         offset="0"
         id="stop3797" />
      <stop
         style="stop-color:#efefef;stop-opacity:1;"
         offset="1"
         id="stop3799" />
    </linearGradient>
    <linearGradient
       y2="1037.6692"
       x2="23.204165"
       y1="1053.158"
       x1="23.204165"
       gradientUnits="userSpaceOnUse"
       id="linearGradient3064"
       xlink:href="#linearGradient3795"
       inkscape:collect="always"
       gradientTransform="translate(0,2.9e-5)" />
    <radialGradient
       inkscape:collect="always"
       xlink:href="#linearGradient3879"
       id="radialGradient3885"
       cx="24"
       cy="1028.3622"
       fx="24"
       fy="1028.3622"
       r="18.056477"
       gradientTransform="matrix(1.4551505,0,0,1.088849,-10.923612,-91.368974)"
       gradientUnits="userSpaceOnUse" />
    <linearGradient
       inkscape:collect="always"
       xlink:href="#linearGradient3795"
       id="linearGradient3891"
       gradientUnits="userSpaceOnUse"
       gradientTransform="translate(-80.685935,-1004.3622)"
       x1="23.204165"
       y1="1053.158"
       x2="23.204165"
       y2="1037.6692" />
    <radialGradient
       inkscape:collect="always"
       xlink:href="#linearGradient3879"
       id="radialGradient3893"
       gradientUnits="userSpaceOnUse"
       gradientTransform="matrix(1.4551505,0,0,1.088849,-10.671074,-91.495243)"
       cx="24"
       cy="1028.3622"
       fx="24"
       fy="1028.3622"
       r="18.056477" />
    <radialGradient
       inkscape:collect="always"
       xlink:href="#linearGradient3879"
       id="radialGradient3897"
       gradientUnits="userSpaceOnUse"
       gradientTransform="matrix(1.4551505,0,0,1.088849,-91.609552,-91.369007)"
       cx="24"
       cy="1028.3622"
       fx="24"
       fy="1028.3622"
       r="18.056477" />
    <linearGradient
       inkscape:collect="always"
       xlink:href="#linearGradient3879"
       id="linearGradient3908"
       x1="18.091589"
       y1="23.369341"
       x2="18.091589"
       y2="28.902662"
       gradientUnits="userSpaceOnUse" />
  </defs>
  <sodipodi:namedview
     id="base"
     pagecolor="#ffffff"
     bordercolor="#666666"
     borderopacity="1.0"
     inkscape:pageopacity="0.0"
     inkscape:pageshadow="2"
     inkscape:zoom="15.839192"
     inkscape:cx="20.99132"
     inkscape:cy="20.614796"
     inkscape:document-units="px"
     inkscape:current-layer="layer1"
     showgrid="false"
     inkscape:window-width="1278"
     inkscape:window-height="655"
     inkscape:window-x="0"
     inkscape:window-y="0"
     inkscape:window-maximized="1" />
  <metadata
     id="metadata3071">
    <rdf:RDF>
      <cc:Work
         rdf:about="">
        <dc:format>image/svg+xml</dc:format>
        <dc:type
           rdf:resource="http://purl.org/dc/dcmitype/StillImage" />
        <dc:title />
      </cc:Work>
    </rdf:RDF>
  </metadata>
  <g
     inkscape:label="Capa 1"
     inkscape:groupmode="layer"
     id="layer1"
     transform="translate(0,-1004.3622)">
    <rect
       style="fill:url(#radialGradient3893);fill-opacity:1;stroke:none"
       id="rect3877"
       width="36.112953"
       height="18.056477"
       x="6.1960616"
       y="1019.2077"
       ry="1.9445436" />
    <path
       style="fill:url(#linearGradient3064);fill-opacity:1;stroke:none;stroke-opacity:1"
       d="m 1.9375,1004.3622 c -1.07728,0 -1.9375,0.8602 -1.9375,1.9375 l 0,44.125 c 0,1.0773 0.86022,1.9375 1.9375,1.9375 l 44.125,0 c 1.07727,0 1.9375,-0.8602 1.9375,-1.9375 l 0,-44.125 c 0,-1.0773 -0.86023,-1.9375 -1.9375,-1.9375 z m 12.68458,16.4375 19.46294,0 c 4.18963,0 7.5625,3.3729 7.5625,7.5625 0,4.1896 -3.37287,7.5625 -7.5625,7.5625 l -19.46294,0 c -4.18963,0 -7.5625,-3.3729 -7.5625,-7.5625 0,-4.1896 3.37288,-7.5625 7.5625,-7.5625 z"
       id="rect4069"
       inkscape:connector-curvature="0"
       sodipodi:nodetypes="ssssssssssssssss" />
    <path
       style="fill:none;stroke:#666666;stroke-width:0.7;stroke-miterlimit:4;stroke-dasharray:none"
       d="m 14.265625,1020.7997 19.46875,0 c 4.18963,0 7.5625,3.3729 7.5625,7.5625 0,4.1896 -3.37287,7.5625 -7.5625,7.5625 l -19.46875,0 c -4.18963,0 -7.5624998,-3.3729 -7.5624998,-7.5625 0,-4.1896 3.3728798,-7.5625 7.5624998,-7.5625 z"
       id="path3889"
       inkscape:connector-curvature="0"
       sodipodi:nodetypes="sssssss" />
    <path
       sodipodi:type="arc"
       style="fill:url(#linearGradient3908);fill-opacity:1;stroke:#999999;stroke-width:0.7;stroke-linecap:round;stroke-linejoin:round;stroke-miterlimit:4;stroke-opacity:1;stroke-dasharray:none"
       id="path3900"
       sodipodi:cx="18.056477"
       sodipodi:cy="22.746187"
       sodipodi:rx="8.8388348"
       sodipodi:ry="8.8388348"
       d="m 26.895311,22.746187 c 0,4.881554 -3.957281,8.838835 -8.838834,8.838835 -4.881554,0 -8.8388352,-3.957281 -8.8388352,-8.838835 0,-4.881553 3.9572812,-8.838835 8.8388352,-8.838835 4.881553,0 8.838834,3.957282 8.838834,8.838835 z"
       transform="translate(-2.5645166,1005.616)" />
    <text
       xml:space="preserve"
       style="font-size:5.68480061999999986px;font-style:normal;font-variant:normal;font-weight:bold;font-stretch:normal;line-height:125%;letter-spacing:0px;word-spacing:0px;fill:#000000;fill-opacity:1;stroke:none;font-family:Decker;-inkscape-font-specification:Decker Bold"
       x="26.149632"
       y="1030.3829"
       id="text3910"
       sodipodi:linespacing="125%"><tspan
         sodipodi:role="line"
         id="tspan3912"
         x="26.149632"
         y="1030.3829">OFF</tspan></text>
    <path
       inkscape:connector-curvature="0"
       style="opacity:0.15;fill:#ffffff;fill-opacity:1;stroke:none"
       d="m 0,1004.3622 0,48 16.78125,0 12.84375,-48 -29.625,0 z"
       id="rect3790" />
  </g>
</svg>
