<?xml version="1.0" encoding="UTF-8" standalone="no"?>
<!-- Created with Inkscape (http://www.inkscape.org/) -->

<svg
   xmlns:dc="http://purl.org/dc/elements/1.1/"
   xmlns:cc="http://creativecommons.org/ns#"
   xmlns:rdf="http://www.w3.org/1999/02/22-rdf-syntax-ns#"
   xmlns:svg="http://www.w3.org/2000/svg"
   xmlns="http://www.w3.org/2000/svg"
   xmlns:xlink="http://www.w3.org/1999/xlink"
   xmlns:sodipodi="http://sodipodi.sourceforge.net/DTD/sodipodi-0.dtd"
   xmlns:inkscape="http://www.inkscape.org/namespaces/inkscape"
   width="48"
   height="48"
   id="svg3840"
   version="1.1"
   inkscape:version="0.48.2 r9819"
   sodipodi:docname="addressbook.svg">
  <defs
     id="defs3842">
    <linearGradient
       inkscape:collect="always"
       xlink:href="#linearGradient3743-6"
       id="linearGradient3811"
       gradientUnits="userSpaceOnUse"
       gradientTransform="matrix(1.011323,0,0,1.0258207,-35.704255,-646.07139)"
       x1="28.595896"
       y1="1009.6199"
       x2="47.013344"
       y2="1029.014" />
    <linearGradient
       id="linearGradient3743-6">
      <stop
         id="stop3745-4"
         offset="0"
         style="stop-color:#ff2c00;stop-opacity:1;" />
      <stop
         id="stop3747-2"
         offset="1"
         style="stop-color:#6c3935;stop-opacity:1;" />
    </linearGradient>
    <linearGradient
       inkscape:collect="always"
       xlink:href="#linearGradient5574"
       id="linearGradient3815"
       gradientUnits="userSpaceOnUse"
       gradientTransform="matrix(0.18648993,0,0,1.0258207,-26.515237,-646.07139)"
       x1="49.387131"
       y1="1030.889"
       x2="-49.016609"
       y2="1013.3749" />
    <linearGradient
       id="linearGradient5574">
      <stop
         style="stop-color:#000000;stop-opacity:1"
         offset="0"
         id="stop5576" />
      <stop
         style="stop-color:#f0f0f0;stop-opacity:1;"
         offset="1"
         id="stop5578" />
    </linearGradient>
    <linearGradient
       inkscape:collect="always"
       xlink:href="#linearGradient3755-9"
       id="linearGradient3819"
       gradientUnits="userSpaceOnUse"
       x1="30.372152"
       y1="7.2212749"
       x2="30.872379"
       y2="25.747164" />
    <linearGradient
       id="linearGradient3755-9">
      <stop
         style="stop-color:#ffdc64;stop-opacity:1;"
         offset="0"
         id="stop3757-1" />
      <stop
         style="stop-color:#c88109;stop-opacity:1;"
         offset="1"
         id="stop3759-4" />
    </linearGradient>
    <linearGradient
       inkscape:collect="always"
       xlink:href="#linearGradient5604"
       id="linearGradient3822"
       gradientUnits="userSpaceOnUse"
       gradientTransform="matrix(1.1368507,0,0,1.1368507,-40.387678,-763.06344)"
       x1="22.982141"
       y1="1011.6926"
       x2="28.76634"
       y2="1023.4783" />
    <linearGradient
       id="linearGradient5604">
      <stop
         id="stop5606"
         offset="0"
         style="stop-color:#ff6664;stop-opacity:1;" />
      <stop
         id="stop5608"
         offset="1"
         style="stop-color:#c84009;stop-opacity:1;" />
    </linearGradient>
    <linearGradient
       inkscape:collect="always"
       xlink:href="#linearGradient5604"
       id="linearGradient3007"
       gradientUnits="userSpaceOnUse"
       gradientTransform="matrix(1.1368507,0,0,1.1368507,142.50193,-691.63486)"
       x1="22.982141"
       y1="1011.6926"
       x2="28.76634"
       y2="1023.4783" />
    <linearGradient
       inkscape:collect="always"
       xlink:href="#linearGradient5574"
       id="linearGradient3011"
       gradientUnits="userSpaceOnUse"
       gradientTransform="matrix(0.18648993,0,0,1.0258207,156.37437,-574.64281)"
       x1="49.387131"
       y1="1030.889"
       x2="-49.016609"
       y2="1013.3749" />
    <linearGradient
       inkscape:collect="always"
       xlink:href="#linearGradient3743-6"
       id="linearGradient3014"
       gradientUnits="userSpaceOnUse"
       gradientTransform="matrix(1.011323,0,0,1.0258207,147.18536,-574.64281)"
       x1="28.595896"
       y1="1009.6199"
       x2="47.013344"
       y2="1029.014" />
    <linearGradient
       inkscape:collect="always"
       xlink:href="#linearGradient3743-6"
       id="linearGradient3818"
       gradientUnits="userSpaceOnUse"
       gradientTransform="matrix(1.011323,0,0,1.0258207,147.18536,-574.64281)"
       x1="28.595896"
       y1="1009.6199"
       x2="47.013344"
       y2="1029.014" />
    <linearGradient
       inkscape:collect="always"
       xlink:href="#linearGradient5574"
       id="linearGradient3820"
       gradientUnits="userSpaceOnUse"
       gradientTransform="matrix(0.18648993,0,0,1.0258207,156.37437,-574.64281)"
       x1="49.387131"
       y1="1030.889"
       x2="-49.016609"
       y2="1013.3749" />
    <linearGradient
       inkscape:collect="always"
       xlink:href="#linearGradient3743-6"
       id="linearGradient3831"
       gradientUnits="userSpaceOnUse"
       gradientTransform="matrix(1.011323,0,0,1.0258207,147.18536,-574.64281)"
       x1="28.595896"
       y1="1009.6199"
       x2="47.013344"
       y2="1029.014" />
    <linearGradient
       inkscape:collect="always"
       xlink:href="#linearGradient5574"
       id="linearGradient3833"
       gradientUnits="userSpaceOnUse"
       gradientTransform="matrix(0.18648993,0,0,1.0258207,156.37437,-574.64281)"
       x1="49.387131"
       y1="1030.889"
       x2="-49.016609"
       y2="1013.3749" />
    <linearGradient
       inkscape:collect="always"
       xlink:href="#linearGradient3743-6"
       id="linearGradient3017"
       gradientUnits="userSpaceOnUse"
       gradientTransform="matrix(1.011323,0,0,1.0258207,147.18536,-574.64281)"
       x1="28.595896"
       y1="1009.6199"
       x2="47.013344"
       y2="1029.014" />
    <linearGradient
       inkscape:collect="always"
       xlink:href="#linearGradient5574"
       id="linearGradient3019"
       gradientUnits="userSpaceOnUse"
       gradientTransform="matrix(0.18648993,0,0,1.0258207,156.37437,-574.64281)"
       x1="49.387131"
       y1="1030.889"
       x2="-49.016609"
       y2="1013.3749" />
  </defs>
  <sodipodi:namedview
     id="base"
     pagecolor="#ffffff"
     bordercolor="#666666"
     borderopacity="1.0"
     inkscape:pageopacity="0.0"
     inkscape:pageshadow="2"
     inkscape:zoom="7.9195959"
     inkscape:cx="25.618136"
     inkscape:cy="21.65322"
     inkscape:document-units="px"
     inkscape:current-layer="layer1"
     showgrid="false"
     fit-margin-top="0"
     fit-margin-left="0"
     fit-margin-right="0"
     fit-margin-bottom="0"
     inkscape:window-width="1278"
     inkscape:window-height="735"
     inkscape:window-x="0"
     inkscape:window-y="0"
     inkscape:window-maximized="1" />
  <metadata
     id="metadata3845">
    <rdf:RDF>
      <cc:Work
         rdf:about="">
        <dc:format>image/svg+xml</dc:format>
        <dc:type
           rdf:resource="http://purl.org/dc/dcmitype/StillImage" />
        <dc:title></dc:title>
      </cc:Work>
    </rdf:RDF>
  </metadata>
  <g
     inkscape:label="Capa 1"
     inkscape:groupmode="layer"
     id="layer1"
     transform="translate(-153.14285,-456.93362)">
    <rect
       style="fill:none;stroke:none"
       id="rect3801"
       width="48"
       height="48"
       x="153.14285"
       y="456.93362" />
    <g
       id="g3795"
       transform="matrix(0.99999022,0,0,1,0.00172578,-0.00736237)">
      <rect
         ry="0"
         rx="0"
         y="459.37128"
         x="164.43202"
         height="43.13942"
         width="30.299009"
         id="rect5519"
         style="fill:url(#linearGradient3017);fill-opacity:1;stroke:none" />
      <rect
         style="fill:url(#linearGradient3019);fill-opacity:1;stroke:none"
         id="rect5570"
         width="5.5871964"
         height="43.13942"
         x="159.55469"
         y="459.37128"
         rx="0"
         ry="0" />
    </g>
    <text
       xml:space="preserve"
       style="font-size:19.89308357px;font-style:normal;font-variant:normal;font-weight:normal;font-stretch:normal;line-height:125%;letter-spacing:0px;word-spacing:0px;fill:#ffffff;fill-opacity:1;stroke:none;font-family:Decker;-inkscape-font-specification:Decker"
       x="169.63495"
       y="486.62082"
       id="text3016"
       sodipodi:linespacing="125%"><tspan
         sodipodi:role="line"
         id="tspan3018"
         x="169.63495"
         y="486.62082">@</tspan></text>
  </g>
</svg>
