<?xml version="1.0" encoding="UTF-8" standalone="no"?>
<!-- Created with Inkscape (http://www.inkscape.org/) -->

<svg
   xmlns:dc="http://purl.org/dc/elements/1.1/"
   xmlns:cc="http://creativecommons.org/ns#"
   xmlns:rdf="http://www.w3.org/1999/02/22-rdf-syntax-ns#"
   xmlns:svg="http://www.w3.org/2000/svg"
   xmlns="http://www.w3.org/2000/svg"
   xmlns:xlink="http://www.w3.org/1999/xlink"
   xmlns:sodipodi="http://sodipodi.sourceforge.net/DTD/sodipodi-0.dtd"
   xmlns:inkscape="http://www.inkscape.org/namespaces/inkscape"
   width="48"
   height="48"
   id="svg2"
   version="1.1"
   inkscape:version="0.48+devel r11721"
   sodipodi:docname="jpg.svg">
  <defs
     id="defs4">
    <linearGradient
       inkscape:collect="always"
       id="linearGradient3999">
      <stop
         style="stop-color:#677821;stop-opacity:1"
         offset="0"
         id="stop4001" />
      <stop
         style="stop-color:#44aa00;stop-opacity:1"
         offset="1"
         id="stop4003" />
    </linearGradient>
    <linearGradient
       id="linearGradient3778">
      <stop
         style="stop-color:#000000;stop-opacity:1;"
         offset="0"
         id="stop3780" />
      <stop
         id="stop3786"
         offset="0.55333191"
         style="stop-color:#7d7d7d;stop-opacity:1;" />
      <stop
         style="stop-color:#ffffff;stop-opacity:1;"
         offset="1"
         id="stop3782" />
    </linearGradient>
    <linearGradient
       id="linearGradient7182">
      <stop
         style="stop-color:#0dcfff;stop-opacity:1"
         offset="0"
         id="stop7184" />
      <stop
         style="stop-color:#55ddff;stop-opacity:1"
         offset="1"
         id="stop7186" />
    </linearGradient>
    <linearGradient
       inkscape:collect="always"
       xlink:href="#linearGradient3999"
       id="linearGradient4005"
       x1="20.331551"
       y1="39.776001"
       x2="20.331551"
       y2="21.728895"
       gradientUnits="userSpaceOnUse"
       gradientTransform="translate(-0.26222,0.33199)" />
    <linearGradient
       inkscape:collect="always"
       xlink:href="#linearGradient7182"
       id="linearGradient4021"
       x1="400.76904"
       y1="452.95148"
       x2="400.76904"
       y2="418.70148"
       gradientUnits="userSpaceOnUse" />
  </defs>
  <sodipodi:namedview
     id="base"
     pagecolor="#ffffff"
     bordercolor="#666666"
     borderopacity="1.0"
     inkscape:pageopacity="0.0"
     inkscape:pageshadow="2"
     inkscape:zoom="5.6568543"
     inkscape:cx="10.482992"
     inkscape:cy="36.931683"
     inkscape:document-units="px"
     inkscape:current-layer="layer1"
     showgrid="false"
     fit-margin-top="0"
     fit-margin-left="0"
     fit-margin-right="0"
     fit-margin-bottom="0"
     inkscape:window-width="1366"
     inkscape:window-height="746"
     inkscape:window-x="0"
     inkscape:window-y="0"
     inkscape:window-maximized="1" />
  <metadata
     id="metadata7">
    <rdf:RDF>
      <cc:Work
         rdf:about="">
        <dc:format>image/svg+xml</dc:format>
        <dc:type
           rdf:resource="http://purl.org/dc/dcmitype/StillImage" />
        <dc:title />
      </cc:Work>
    </rdf:RDF>
  </metadata>
  <g
     inkscape:label="Capa 1"
     inkscape:groupmode="layer"
     id="layer1"
     transform="translate(-376,-414.07648)">
    <path
       style="opacity:0.35648151;fill:none;stroke:none"
       d="m 376,414.07648 48,0 0,48 -48,0 z"
       id="rect4543" />
    <g
       id="g3983">
      <path
         inkscape:connector-curvature="0"
         id="rect3922"
         d="m 379.79856,415.99447 40.4029,0 c 0.89693,0 1.619,0.79795 1.619,1.78914 l 0,40.58571 c 0,0.99119 -0.72207,1.78914 -1.619,1.78914 l -40.4029,0 c -0.89692,0 -1.61899,-0.79795 -1.61899,-1.78914 l 0,-40.58571 C 378.17957,416.79242 378.90164,415.99447 379.79856,415.99447 Z"
         style="opacity:0.5;fill:#000000;fill-opacity:1;stroke:none" />
      <path
         inkscape:connector-curvature="0"
         id="rect3924"
         d="m 380.20278,416.55497 39.59446,0 c 0.87416,0 1.57791,0.77771 1.57791,1.74374 l 0,39.5556 c 0,0.96604 -0.70375,1.74374 -1.57791,1.74374 l -39.59446,0 c -0.87416,0 -1.5779,-0.7777 -1.5779,-1.74374 l 0,-39.5556 C 378.62488,417.33268 379.32862,416.55497 380.20278,416.55497 Z"
         style="fill:#ffffff;fill-opacity:1;stroke:none" />
    </g>
    <path
       inkscape:connector-curvature="0"
       id="path4009"
       d="m 382.54308,418.99448 34.91388,0 c 0.77508,0 1.39905,0.61276 1.39905,1.37389 l 0,31.1662 c 0,0.76114 -0.62397,1.3739 -1.39905,1.3739 l -34.91388,0 c -0.77507,0 -1.39905,-0.61276 -1.39905,-1.3739 l 0,-31.1662 C 381.14403,419.60724 381.76801,418.99448 382.54308,418.99448 Z"
       style="opacity:1;fill:url(#linearGradient4021);fill-opacity:1;stroke:none" />
    <path
       sodipodi:type="arc"
       style="fill:#ffcc00;fill-opacity:1;stroke:none"
       id="path3981"
       sodipodi:cx="7.9955535"
       sodipodi:cy="12.020009"
       sodipodi:rx="3.6551101"
       sodipodi:ry="3.6551101"
       d="m 11.650664,12.020009 a 3.6551101,3.6551101 0 1 1 -7.3102206,0 A 3.6551101,3.6551101 0 1 1 11.650664,12.020009 Z"
       transform="translate(377.00773,411.62714)" />
    <path
       style="fill:url(#linearGradient4005);fill-opacity:1;stroke:none"
       d="M 12.53125 27.5625 C 9.54869 27.5625 6.89087 28.65488 5.15625 30.34375 L 5.1875 37.71875 C 5.1893249 37.728661 5.1854612 37.740166 5.1875 37.75 C 5.3175303 38.37719 5.8530637 38.84375 6.53125 38.84375 L 38.5625 38.84375 C 37.820055 37.998753 35.59815 36.555223 35.28125 36.15625 C 31.96881 31.98593 29.32295 30.59375 24.8125 30.59375 C 23.3663 30.59375 22.02198 30.88839 20.84375 31.40625 C 19.23088 29.10551 16.11195 27.5625 12.53125 27.5625 z "
       transform="translate(376,414.07648)"
       id="path3987" />
    <path
       style="fill:#ffffff;fill-opacity:1;stroke:none"
       d="m 411.30988,427.71292 c -0.75961,0 -1.43443,0.32307 -1.90108,0.8505 -0.0657,-0.005 -0.13295,0 -0.20012,0 -1.27968,0 -2.30132,1.02161 -2.30132,2.30131 0,1.2797 1.02164,2.32634 2.30132,2.32634 0.35126,0 0.67727,-0.0853 0.97557,-0.22513 0.38929,0.4555 0.95474,0.75042 1.60091,0.75042 1.08623,0 1.97561,-0.82366 2.10121,-1.87607 0.80258,-0.0622 1.42581,-0.73233 1.42581,-1.55088 0,-0.85966 -0.69123,-1.5509 -1.55088,-1.5509 -0.13432,0 -0.25088,0.018 -0.37523,0.0501 C 412.92415,428.14199 412.16508,427.71292 411.30988,427.71292 Z"
       id="path4026"
       inkscape:connector-curvature="0" />
    <path
       id="path4035"
       d="m 403.66876,422.47734 c -0.75962,0 -1.43443,0.32305 -1.90108,0.85048 -0.0657,-0.005 -0.13295,0 -0.20012,0 -1.27971,0 -2.30132,1.02162 -2.30132,2.30132 0,1.27971 1.02161,2.32633 2.30132,2.32633 0.35125,0 0.67725,-0.0853 0.97555,-0.22513 0.38931,0.45552 0.95474,0.75044 1.60092,0.75044 1.08622,0 1.97561,-0.82367 2.1012,-1.87608 0.80259,-0.0623 1.42583,-0.73234 1.42583,-1.55089 0,-0.85964 -0.69126,-1.55088 -1.5509,-1.55088 -0.13432,0 -0.25088,0.018 -0.37521,0.0501 C 405.28303,422.90641 404.52395,422.47734 403.66876,422.47734 Z"
       style="fill:#ffffff;fill-opacity:1;stroke:none"
       inkscape:connector-curvature="0" />
  </g>
</svg>
