<?xml version="1.0" encoding="UTF-8" standalone="no"?>
<!-- Created with Inkscape (http://www.inkscape.org/) -->

<svg
   xmlns:dc="http://purl.org/dc/elements/1.1/"
   xmlns:cc="http://creativecommons.org/ns#"
   xmlns:rdf="http://www.w3.org/1999/02/22-rdf-syntax-ns#"
   xmlns:svg="http://www.w3.org/2000/svg"
   xmlns="http://www.w3.org/2000/svg"
   xmlns:xlink="http://www.w3.org/1999/xlink"
   xmlns:sodipodi="http://sodipodi.sourceforge.net/DTD/sodipodi-0.dtd"
   xmlns:inkscape="http://www.inkscape.org/namespaces/inkscape"
   width="48"
   height="48"
   id="svg6399"
   version="1.1"
   inkscape:version="0.48+devel r11721"
   sodipodi:docname="text-css.svg">
  <defs
     id="defs6401">
    <linearGradient
       id="linearGradient846">
      <stop
         id="stop848"
         offset="0"
         style="stop-color:#ffdd55;stop-opacity:1" />
      <stop
         id="stop850"
         offset="1"
         style="stop-color:#ff9600;stop-opacity:1" />
    </linearGradient>
    <linearGradient
       y2="468.35892"
       x2="314.34872"
       y1="425.61682"
       x1="314.34872"
       gradientTransform="translate(-53.785477,-0.003684)"
       gradientUnits="userSpaceOnUse"
       id="linearGradient1187"
       xlink:href="#linearGradient1069"
       inkscape:collect="always" />
    <linearGradient
       id="linearGradient1069">
      <stop
         style="stop-color:#ffffff;stop-opacity:1"
         offset="0"
         id="stop1071" />
      <stop
         style="stop-color:#e6e6e6;stop-opacity:1"
         offset="1"
         id="stop1073" />
    </linearGradient>
    <linearGradient
       y2="468.35892"
       x2="314.34872"
       y1="425.61682"
       x1="314.34872"
       gradientTransform="translate(165.08181,181.72569)"
       gradientUnits="userSpaceOnUse"
       id="linearGradient1660"
       xlink:href="#linearGradient846"
       inkscape:collect="always" />
    <linearGradient
       gradientTransform="translate(218.88524,181.71843)"
       inkscape:collect="always"
       xlink:href="#linearGradient6707"
       id="linearGradient1110"
       x1="262.01361"
       y1="471.95245"
       x2="262.01361"
       y2="442.7843"
       gradientUnits="userSpaceOnUse" />
    <linearGradient
       id="linearGradient6707">
      <stop
         id="stop6709"
         offset="0"
         style="stop-color:#000000;stop-opacity:1;" />
      <stop
         id="stop6711"
         offset="1"
         style="stop-color:#ffffff;stop-opacity:1;" />
    </linearGradient>
    <linearGradient
       y2="468.35892"
       x2="314.34872"
       y1="425.61682"
       x1="314.34872"
       gradientTransform="translate(-53.785477,-0.003684)"
       gradientUnits="userSpaceOnUse"
       id="linearGradient1758"
       xlink:href="#linearGradient1069-4"
       inkscape:collect="always" />
    <linearGradient
       id="linearGradient1069-4">
      <stop
         style="stop-color:#ffffff;stop-opacity:1"
         offset="0"
         id="stop1071-6" />
      <stop
         style="stop-color:#e6e6e6;stop-opacity:1"
         offset="1"
         id="stop1073-5" />
    </linearGradient>
  </defs>
  <sodipodi:namedview
     id="base"
     pagecolor="#ffffff"
     bordercolor="#666666"
     borderopacity="1.0"
     inkscape:pageopacity="0.0"
     inkscape:pageshadow="2"
     inkscape:zoom="5.6"
     inkscape:cx="3.750535"
     inkscape:cy="29.948271"
     inkscape:document-units="px"
     inkscape:current-layer="layer1"
     showgrid="false"
     fit-margin-top="0"
     fit-margin-left="0"
     fit-margin-right="0"
     fit-margin-bottom="0"
     inkscape:window-width="1366"
     inkscape:window-height="746"
     inkscape:window-x="0"
     inkscape:window-y="0"
     inkscape:window-maximized="1" />
  <metadata
     id="metadata6404">
    <rdf:RDF>
      <cc:Work
         rdf:about="">
        <dc:format>image/svg+xml</dc:format>
        <dc:type
           rdf:resource="http://purl.org/dc/dcmitype/StillImage" />
        <dc:title />
      </cc:Work>
    </rdf:RDF>
  </metadata>
  <g
     inkscape:label="Capa 1"
     inkscape:groupmode="layer"
     id="layer1"
     transform="translate(-456,-605.50507)">
    <path
       style="opacity:0.5;fill:#000000;fill-opacity:1;stroke:none"
       d="m 459.79854,607.42308 40.4029,0 c 0.89693,0 1.619,0.79795 1.619,1.78913 l 0,40.58571 c 0,0.9912 -0.72207,1.78914 -1.619,1.78914 l -40.4029,0 c -0.89692,0 -1.61899,-0.79795 -1.61899,-1.78914 l 0,-40.58571 C 458.17955,608.22103 458.90162,607.42308 459.79854,607.42308 Z"
       id="rect3922"
       inkscape:connector-curvature="0" />
    <path
       inkscape:connector-curvature="0"
       id="path869"
       d="m 460.20276,607.98353 39.59446,0 c 0.87416,0 1.57791,0.77771 1.57791,1.74374 l 0,39.5556 c 0,0.96604 -0.70375,1.74374 -1.57791,1.74374 l -39.59446,0 c -0.87416,0 -1.5779,-0.7777 -1.5779,-1.74374 l 0,-39.5556 C 458.62486,608.76124 459.32861,607.98353 460.20276,607.98353 Z"
       style="fill:url(#linearGradient1660);fill-opacity:1;stroke:none" />
    <path
       inkscape:connector-curvature="0"
       style="fill:url(#linearGradient1110);fill-opacity:1;stroke:none"
       d="m 458.625,642.52661 0,6.75 c 0,0.96604 0.68835,1.75 1.5625,1.75 l 39.625,0 c 0.87416,0 1.5625,-0.78396 1.5625,-1.75 l 0,-6.75 L 458.625,642.52661 Z"
       id="path874" />
    <g
       transform="translate(459.88883,604.7768)"
       style="font-size:7.5px;font-style:normal;font-variant:normal;font-weight:bold;font-stretch:normal;line-height:125%;letter-spacing:0px;word-spacing:0px;fill:#ffffff;fill-opacity:1;stroke:none;font-family:Impact;-inkscape-font-specification:Impact Bold"
       id="text831">
      <path
         d="m 18.014614,41.620781 -1.541748,0 0,-1.032715 q 0,-0.450439 -0.05127,-0.560303 -0.04761,-0.113525 -0.216065,-0.113525 -0.19043,0 -0.241699,0.135498 -0.05127,0.135498 -0.05127,0.585938 l 0,2.753906 q 0,0.432129 0.05127,0.563965 0.05127,0.131836 0.230713,0.131836 0.172119,0 0.223388,-0.131836 0.05493,-0.131836 0.05493,-0.618897 l 0,-0.743408 1.541748,0 0,0.230713 q 0,0.919189 -0.131836,1.303711 -0.128174,0.384521 -0.574951,0.673828 -0.443115,0.289307 -1.094971,0.289307 -0.67749,0 -1.116943,-0.245362 -0.439453,-0.245361 -0.582275,-0.67749 -0.142823,-0.435791 -0.142823,-1.307373 l 0,-1.732178 q 0,-0.640869 0.04395,-0.959472 0.04394,-0.322266 0.260009,-0.618897 0.219727,-0.296631 0.604248,-0.465088 0.388184,-0.172119 0.889893,-0.172119 0.681152,0 1.124268,0.263672 0.443115,0.263672 0.582275,0.65918 0.13916,0.391845 0.13916,1.223144 L 18.014614,41.620781 Z"
         id="path836"
         inkscape:connector-curvature="0" />
      <path
         d="m 21.841518,40.829765 -1.431884,0 0,-0.439453 q 0,-0.307617 -0.05493,-0.391846 -0.05493,-0.08423 -0.183105,-0.08423 -0.139161,0 -0.212403,0.113525 -0.06958,0.113526 -0.06958,0.344239 0,0.296631 0.08057,0.446777 0.0769,0.150146 0.435791,0.362549 1.029052,0.611572 1.296386,1.003418 0.267334,0.391845 0.267334,1.263428 0,0.633544 -0.150146,0.933837 -0.146485,0.300293 -0.571289,0.505372 -0.424805,0.201416 -0.98877,0.201416 -0.618896,0 -1.058349,-0.234375 Q 18.765347,44.620049 18.629848,44.2575 18.49435,43.894951 18.49435,43.228447 l 0,-0.388184 1.431885,0 0,0.721436 q 0,0.333252 0.05859,0.428467 0.06226,0.09521 0.216064,0.09521 0.153809,0 0.227051,-0.12085 0.0769,-0.12085 0.0769,-0.358887 0,-0.523681 -0.142822,-0.684814 -0.146484,-0.161133 -0.721435,-0.53833 -0.574952,-0.38086 -0.761719,-0.552979 -0.186768,-0.172119 -0.311279,-0.476074 -0.12085,-0.303955 -0.12085,-0.776367 0,-0.681153 0.172119,-0.996094 0.175781,-0.314941 0.563965,-0.490723 0.388184,-0.179443 0.9375,-0.179443 0.600586,0 1.021729,0.194092 0.424804,0.194092 0.560302,0.490722 0.13916,0.292969 0.13916,0.999756 L 21.841518,40.829765 Z"
         id="path838"
         inkscape:connector-curvature="0" />
      <path
         d="m 25.723354,40.829765 -1.431884,0 0,-0.439453 q 0,-0.307617 -0.05493,-0.391846 -0.05493,-0.08423 -0.183106,-0.08423 -0.13916,0 -0.212402,0.113525 -0.06958,0.113526 -0.06958,0.344239 0,0.296631 0.08057,0.446777 0.07691,0.150146 0.435791,0.362549 1.029053,0.611572 1.296387,1.003418 0.267334,0.391845 0.267334,1.263428 0,0.633544 -0.150146,0.933837 -0.146485,0.300293 -0.571289,0.505372 -0.424805,0.201416 -0.98877,0.201416 -0.618896,0 -1.05835,-0.234375 -0.435791,-0.234375 -0.571289,-0.596924 -0.135498,-0.362549 -0.135498,-1.029053 l 0,-0.388184 1.431885,0 0,0.721436 q 0,0.333252 0.05859,0.428467 0.06226,0.09521 0.216064,0.09521 0.153809,0 0.227051,-0.12085 0.0769,-0.12085 0.0769,-0.358887 0,-0.523681 -0.142822,-0.684814 -0.146484,-0.161133 -0.721435,-0.53833 -0.574952,-0.38086 -0.761719,-0.552979 -0.186768,-0.172119 -0.311279,-0.476074 -0.12085,-0.303955 -0.12085,-0.776367 0,-0.681153 0.172119,-0.996094 0.175781,-0.314941 0.563965,-0.490723 0.388184,-0.179443 0.9375,-0.179443 0.600586,0 1.021728,0.194092 0.424805,0.194092 0.560303,0.490722 0.13916,0.292969 0.13916,0.999756 L 25.723354,40.829765 Z"
         id="path840"
         inkscape:connector-curvature="0" />
    </g>
    <g
       style="font-size:25.26984215px;font-style:normal;font-variant:normal;font-weight:bold;font-stretch:normal;line-height:125%;letter-spacing:0px;word-spacing:0px;fill:#333333;fill-opacity:1;stroke:none;font-family:Impact;-inkscape-font-specification:Impact Bold"
       id="text842">
      <path
         d="m 466.67412,626.98575 0,-2.96131 q 1.34492,-0.0123 2.02356,-0.78968 0.67863,-0.78968 0.67863,-3.52889 0,-2.08526 0.14807,-3.0847 0.1604,-1.01178 0.75266,-1.69041 0.59226,-0.67864 1.53001,-0.97477 0.93775,-0.30847 2.65284,-0.30847 l 0.65396,0 0,2.94897 q -1.78913,0 -2.14695,0.37017 -0.34549,0.37016 -0.37016,1.44364 -0.074,2.9613 -0.19743,3.8497 -0.11104,0.88839 -0.5429,1.70275 -0.41952,0.80202 -1.57937,1.54235 1.09815,0.66629 1.59171,1.5917 0.50589,0.92541 0.59226,2.66518 l 0.18508,3.59059 q 0.11105,0.51823 0.53057,0.77734 0.41952,0.27146 1.92485,0.27146 l 0,2.96131 -0.64162,0 q -1.9742,0 -3.04768,-0.45654 -1.07347,-0.44419 -1.55469,-1.46831 -0.48121,-1.02412 -0.48121,-3.3068 0,-2.51711 -0.17274,-3.22042 -0.17275,-0.70332 -0.6663,-1.28324 Q 468.04372,627.03511 466.67412,626.98575 Z"
         style=""
         id="path853" />
      <path
         d="m 493.3259,626.98575 q -1.34492,0.0123 -2.02356,0.80203 -0.67863,0.78968 -0.67863,3.50421 0,2.0976 -0.14807,3.09704 -0.14806,1.01178 -0.74032,1.69041 -0.59227,0.67864 -1.53001,0.97477 -0.93775,0.30847 -2.65284,0.30847 l -0.65396,0 0,-2.96131 q 1.71509,0 2.09759,-0.35783 0.39485,-0.35782 0.41952,-1.45597 0.074,-3.15874 0.2221,-4.04713 0.16041,-0.90073 0.61694,-1.67807 0.46887,-0.77735 1.46832,-1.35727 -1.06114,-0.69097 -1.48066,-1.35727 -0.41952,-0.66629 -0.56758,-1.44364 -0.14807,-0.78968 -0.2221,-2.91195 -0.074,-2.13461 -0.17274,-2.44308 -0.0987,-0.30847 -0.48122,-0.53057 -0.37016,-0.2221 -1.91251,-0.2221 l 0,-2.94897 0.65396,0 q 1.9742,0 3.04768,0.45654 1.07347,0.44419 1.55469,1.46831 0.48121,1.02412 0.48121,3.3068 0,2.61582 0.18508,3.29446 0.19742,0.67863 0.67863,1.24621 0.49356,0.55525 1.83848,0.6046 L 493.3259,626.98575 Z"
         style=""
         id="path855" />
    </g>
  </g>
</svg>
