<?xml version="1.0" encoding="UTF-8" standalone="no"?>
<!-- Created with Inkscape (http://www.inkscape.org/) -->

<svg
   xmlns:dc="http://purl.org/dc/elements/1.1/"
   xmlns:cc="http://creativecommons.org/ns#"
   xmlns:rdf="http://www.w3.org/1999/02/22-rdf-syntax-ns#"
   xmlns:svg="http://www.w3.org/2000/svg"
   xmlns="http://www.w3.org/2000/svg"
   xmlns:xlink="http://www.w3.org/1999/xlink"
   xmlns:sodipodi="http://sodipodi.sourceforge.net/DTD/sodipodi-0.dtd"
   xmlns:inkscape="http://www.inkscape.org/namespaces/inkscape"
   width="48"
   height="48"
   id="svg10905"
   version="1.1"
   inkscape:version="0.48+devel r11725"
   sodipodi:docname="add-folder-to-archive.svg">
  <defs
     id="defs10907">
    <linearGradient
       inkscape:collect="always"
       xlink:href="#linearGradient3806"
       id="linearGradient3804"
       x1="250.53169"
       y1="561.87891"
       x2="261.56393"
       y2="585.62891"
       gradientUnits="userSpaceOnUse"
       gradientTransform="matrix(1.2609032,0,0,1.2609032,-66.803688,-148.73912)" />
    <linearGradient
       id="linearGradient3806">
      <stop
         id="stop3808"
         offset="0"
         style="stop-color:#00d0ff;stop-opacity:1;" />
      <stop
         id="stop3810"
         offset="1"
         style="stop-color:#00f0ff;stop-opacity:1;" />
    </linearGradient>
    <linearGradient
       y2="585.62891"
       x2="261.56393"
       y1="561.87891"
       x1="250.53169"
       gradientTransform="matrix(1.091909,0,0,1.091909,-258.17891,408.4169)"
       gradientUnits="userSpaceOnUse"
       id="linearGradient3040"
       xlink:href="#linearGradient3806"
       inkscape:collect="always" />
    <linearGradient
       y2="585.62891"
       x2="261.56393"
       y1="561.87891"
       x1="250.53169"
       gradientTransform="matrix(0.75576969,0,0,0.75576969,-169.51317,597.503)"
       gradientUnits="userSpaceOnUse"
       id="linearGradient3006-86"
       xlink:href="#linearGradient3806-6"
       inkscape:collect="always" />
    <linearGradient
       id="linearGradient3806-6">
      <stop
         id="stop3808-07"
         offset="0"
         style="stop-color:#00d0ff;stop-opacity:1;" />
      <stop
         id="stop3810-4"
         offset="1"
         style="stop-color:#00f0ff;stop-opacity:1;" />
    </linearGradient>
    <linearGradient
       inkscape:collect="always"
       xlink:href="#linearGradient3754"
       id="linearGradient3770"
       gradientUnits="userSpaceOnUse"
       x1="23.673292"
       y1="1046.1796"
       x2="23.673292"
       y2="1004.5619"
       gradientTransform="translate(-0.0416311,0.21835584)" />
    <linearGradient
       id="linearGradient3754">
      <stop
         style="stop-color:#b1731b;stop-opacity:1;"
         offset="0"
         id="stop3756" />
      <stop
         style="stop-color:#e6ac59;stop-opacity:1;"
         offset="1"
         id="stop3758" />
    </linearGradient>
    <linearGradient
       inkscape:collect="always"
       xlink:href="#linearGradient3754"
       id="linearGradient3767"
       gradientUnits="userSpaceOnUse"
       x1="23.673292"
       y1="1046.1796"
       x2="23.673292"
       y2="1004.5619"
       gradientTransform="translate(-0.0416311,0.21835584)" />
    <linearGradient
       id="linearGradient3815">
      <stop
         style="stop-color:#b1731b;stop-opacity:1;"
         offset="0"
         id="stop3817" />
      <stop
         style="stop-color:#e6ac59;stop-opacity:1;"
         offset="1"
         id="stop3819" />
    </linearGradient>
    <linearGradient
       y2="1004.5619"
       x2="23.673292"
       y1="1046.1796"
       x1="23.673292"
       gradientTransform="translate(-0.0416311,0.21835584)"
       gradientUnits="userSpaceOnUse"
       id="linearGradient3824"
       xlink:href="#linearGradient3754"
       inkscape:collect="always" />
    <linearGradient
       inkscape:collect="always"
       xlink:href="#linearGradient3754"
       id="linearGradient3807"
       x1="33.398876"
       y1="1048.6753"
       x2="33.398876"
       y2="1025.4655"
       gradientUnits="userSpaceOnUse"
       gradientTransform="translate(0.05165608,-0.00737733)" />
    <linearGradient
       id="linearGradient3754-5">
      <stop
         style="stop-color:#b1731b;stop-opacity:1;"
         offset="0"
         id="stop3756-2" />
      <stop
         style="stop-color:#e6ac59;stop-opacity:1;"
         offset="1"
         id="stop3758-0" />
    </linearGradient>
    <linearGradient
       inkscape:collect="always"
       xlink:href="#linearGradient3754-5"
       id="linearGradient3799"
       x1="26.961445"
       y1="42.171211"
       x2="26.961445"
       y2="0.56316221"
       gradientUnits="userSpaceOnUse"
       gradientTransform="translate(0,1003.6678)" />
    <linearGradient
       id="linearGradient4102">
      <stop
         style="stop-color:#b1731b;stop-opacity:1;"
         offset="0"
         id="stop4104" />
      <stop
         style="stop-color:#e6ac59;stop-opacity:1;"
         offset="1"
         id="stop4106" />
    </linearGradient>
    <linearGradient
       inkscape:collect="always"
       xlink:href="#linearGradient3754-0"
       id="linearGradient7491"
       gradientUnits="userSpaceOnUse"
       gradientTransform="matrix(0.24983345,0,0,0.32251236,-126.90205,951.71877)"
       x1="328.29959"
       y1="257.2666"
       x2="328.29959"
       y2="152.87801" />
    <linearGradient
       id="linearGradient3754-0">
      <stop
         style="stop-color:#b1731b;stop-opacity:1;"
         offset="0"
         id="stop3756-8" />
      <stop
         style="stop-color:#e6ac59;stop-opacity:1;"
         offset="1"
         id="stop3758-9" />
    </linearGradient>
    <linearGradient
       y2="187.30515"
       x2="328.29959"
       y1="286.21814"
       x1="328.29959"
       gradientTransform="matrix(-0.22802514,0,0,0.28771123,27.552866,965.05683)"
       gradientUnits="userSpaceOnUse"
       id="linearGradient1848"
       xlink:href="#linearGradient3754-0"
       inkscape:collect="always" />
    <linearGradient
       id="linearGradient885">
      <stop
         style="stop-color:#b1731b;stop-opacity:1;"
         offset="0"
         id="stop887" />
      <stop
         style="stop-color:#e6ac59;stop-opacity:1;"
         offset="1"
         id="stop889" />
    </linearGradient>
    <linearGradient
       y2="187.30515"
       x2="328.29959"
       y1="286.21814"
       x1="328.29959"
       gradientTransform="matrix(-0.22802514,0,0,0.28771123,27.552866,965.05683)"
       gradientUnits="userSpaceOnUse"
       id="linearGradient896"
       xlink:href="#linearGradient3754-0"
       inkscape:collect="always" />
  </defs>
  <sodipodi:namedview
     id="base"
     pagecolor="#ffffff"
     bordercolor="#666666"
     borderopacity="1.0"
     inkscape:pageopacity="0.0"
     inkscape:pageshadow="2"
     inkscape:zoom="7.9195959"
     inkscape:cx="15.881459"
     inkscape:cy="24.011102"
     inkscape:document-units="px"
     inkscape:current-layer="layer1"
     showgrid="false"
     inkscape:window-width="1366"
     inkscape:window-height="746"
     inkscape:window-x="0"
     inkscape:window-y="0"
     inkscape:window-maximized="1" />
  <metadata
     id="metadata10910">
    <rdf:RDF>
      <cc:Work
         rdf:about="">
        <dc:format>image/svg+xml</dc:format>
        <dc:type
           rdf:resource="http://purl.org/dc/dcmitype/StillImage" />
        <dc:title />
      </cc:Work>
    </rdf:RDF>
  </metadata>
  <g
     inkscape:label="Capa 1"
     inkscape:groupmode="layer"
     id="layer1"
     transform="translate(0,-1004.3622)">
    <rect
       style="opacity:0.70999995;fill:none;stroke:none"
       id="rect2985"
       width="48"
       height="48"
       x="0"
       y="1004.3622" />
    <g
       id="g864"
       transform="matrix(0.59472867,0,0,0.59472867,44.426017,408.96957)">
      <path
         style="fill:url(#linearGradient7491);fill-opacity:1;stroke:#cccccc;stroke-width:0.1135425;stroke-linecap:square;stroke-linejoin:round;stroke-miterlimit:4;stroke-opacity:1"
         d="m -69.109331,1008.3671 10.897216,0 6.126319,0 0.02895,3.7728 28.878846,0 0,32.5393 L -69.109331,1044.6792 Z"
         id="path7481"
         inkscape:connector-curvature="0"
         sodipodi:nodetypes="cccccccc" />
      <path
         style="opacity:0.14200003;fill:#000000;fill-opacity:1;stroke:#cccccc;stroke-width:0.10210823;stroke-linecap:square;stroke-linejoin:round;stroke-miterlimit:4;stroke-opacity:1"
         d="m -66.978976,1013.0961 c 7.389566,0.1269 15.089572,0.093 22.173688,0.093 l 19.496912,0 0,29.0063 L -66.978976,1042.1956 Z"
         id="path7485"
         inkscape:connector-curvature="0"
         sodipodi:nodetypes="cccccc" />
      <path
         sodipodi:nodetypes="cccccc"
         inkscape:connector-curvature="0"
         id="path7487"
         d="m -65.801662,1014.0939 c 6.972012,0.1226 14.236928,0.09 20.920754,0.09 l 18.395226,0 0,28.0142 L -65.801662,1042.1982 Z"
         style="fill:#ffffff;fill-opacity:1;stroke:none" />
      <path
         id="path7489"
         d="m -69.238739,1015.5853 0,32.7775 45.908058,0 0,-24.5491 -8.228437,-8.2284 -37.543452,0 L -69.238739,1015.5853 Z"
         style="fill:url(#linearGradient896);fill-opacity:1;stroke:#cccccc;stroke-width:0.1024542;stroke-linecap:square;stroke-linejoin:round;stroke-miterlimit:4;stroke-opacity:1"
         inkscape:connector-curvature="0" />
    </g>
    <g
       id="g922"
       transform="translate(-4.1496615e-7,-0.44196567)">
      <rect
         y="1026.146"
         x="20.73139"
         height="22.379744"
         width="24.051323"
         id="rect2991-2"
         style="fill:url(#linearGradient3807);fill-opacity:1;stroke:none" />
      <rect
         y="1029.049"
         x="28.105968"
         height="3.4963815"
         width="3.8241673"
         id="rect2985-7"
         style="fill:#ffffff;fill-opacity:1;stroke:none" />
      <path
         id="rect2987"
         transform="translate(0,1004.3622)"
         d="m 32,28.15625 0,3.46875 3.8125,0 0,-1.53125 -2.15625,-1.9375 L 32,28.15625 Z"
         style="fill:#ffffff;fill-opacity:1;stroke:none"
         inkscape:connector-curvature="0" />
      <rect
         y="1035.9597"
         x="28.105968"
         height="3.4963815"
         width="3.8241673"
         id="rect2990"
         style="fill:#ffffff;fill-opacity:1;stroke:none" />
      <rect
         style="fill:#ffffff;fill-opacity:1;stroke:none"
         id="rect2992"
         width="3.8241673"
         height="3.4963815"
         x="31.984766"
         y="1039.415" />
      <rect
         y="1042.8705"
         x="28.160599"
         height="3.4963815"
         width="3.8241673"
         id="rect2994"
         style="fill:#ffffff;fill-opacity:1;stroke:none" />
      <rect
         transform="matrix(0.67033385,-0.74205966,0.74205966,0.67033385,0,0)"
         style="fill:#ffffff;fill-opacity:1;stroke:none"
         id="rect3764"
         width="1.9120836"
         height="5.9547749"
         x="-743.29382"
         y="713.76562" />
    </g>
    <path
       inkscape:connector-curvature="0"
       style="fill:#5fbcd3;fill-opacity:1;stroke:#ffffff;stroke-width:0.60000002;stroke-miterlimit:4;stroke-dasharray:none"
       d="m 13.981734,1026.035 0,6.2958 6.870352,0 0,6.8704 6.295828,0 0,-6.8704 6.870352,0 0,-6.2958 -6.870352,0 0,-6.8704 -6.295828,0 0,6.8704 L 13.981734,1026.035 Z"
       id="rect1923" />
    <rect
       style="fill:none;stroke:none"
       id="rect3010"
       width="25.999998"
       height="25.999998"
       x="11.000003"
       y="1016.1829" />
  </g>
</svg>
