<?xml version="1.0" encoding="UTF-8" standalone="no"?>
<!-- Created with Inkscape (http://www.inkscape.org/) -->

<svg
   xmlns:dc="http://purl.org/dc/elements/1.1/"
   xmlns:cc="http://creativecommons.org/ns#"
   xmlns:rdf="http://www.w3.org/1999/02/22-rdf-syntax-ns#"
   xmlns:svg="http://www.w3.org/2000/svg"
   xmlns="http://www.w3.org/2000/svg"
   xmlns:sodipodi="http://sodipodi.sourceforge.net/DTD/sodipodi-0.dtd"
   xmlns:inkscape="http://www.inkscape.org/namespaces/inkscape"
   width="48"
   height="48"
   id="svg2"
   version="1.1"
   inkscape:version="0.48.2 r9819"
   sodipodi:docname="gdu-encrypted-lock.svg">
  <defs
     id="defs4" />
  <sodipodi:namedview
     id="base"
     pagecolor="#ffffff"
     bordercolor="#666666"
     borderopacity="1.0"
     inkscape:pageopacity="0.0"
     inkscape:pageshadow="2"
     inkscape:zoom="7.9195959"
     inkscape:cx="15.157705"
     inkscape:cy="29.531434"
     inkscape:document-units="px"
     inkscape:current-layer="layer1"
     showgrid="true"
     inkscape:window-width="1280"
     inkscape:window-height="747"
     inkscape:window-x="0"
     inkscape:window-y="0"
     inkscape:window-maximized="1" />
  <metadata
     id="metadata7">
    <rdf:RDF>
      <cc:Work
         rdf:about="">
        <dc:format>image/svg+xml</dc:format>
        <dc:type
           rdf:resource="http://purl.org/dc/dcmitype/StillImage" />
        <dc:title></dc:title>
      </cc:Work>
    </rdf:RDF>
  </metadata>
  <g
     inkscape:label="Capa 1"
     inkscape:groupmode="layer"
     id="layer1"
     transform="translate(0,-1004.3622)">
    <path
       style="fill:none;stroke:#4d4d4d;stroke-width:1.38866413000000000"
       d="M 11.61431 25.2726 C 11.60801 24.9984 11.60491 24.7229 11.60491 24.4461 C 11.60491 12.829 15.087252 3.4115 24.000025 3.4115 C 31.167124 3.4115 34.781981 9.3897776 35.955358 17.695672 "
       id="path3031"
       transform="translate(0,1004.3622)" />
    <path
       style="fill:#4d4d4d;stroke:none"
       d="M 7.71875 24.6875 C 7.71875 52.2431 40.28125 52.0279 40.28125 24.6875 L 7.71875 24.6875 z M 24 31.96875 C 25.668573 31.96875 27.03125 33.331427 27.03125 35 C 27.03125 36.668573 25.668573 38 24 38 C 22.331429 38 20.96875 36.668573 20.96875 35 C 20.96875 33.331427 22.331429 31.96875 24 31.96875 z "
       transform="translate(0,1004.3622)"
       id="path3035" />
    <rect
       style="fill:none;stroke:none"
       id="rect3053"
       width="48"
       height="48"
       x="0"
       y="1004.3622"
       ry="0" />
  </g>
</svg>
