<?xml version="1.0" encoding="UTF-8" standalone="no"?>
<!-- Created with Inkscape (http://www.inkscape.org/) -->

<svg
   xmlns:dc="http://purl.org/dc/elements/1.1/"
   xmlns:cc="http://creativecommons.org/ns#"
   xmlns:rdf="http://www.w3.org/1999/02/22-rdf-syntax-ns#"
   xmlns:svg="http://www.w3.org/2000/svg"
   xmlns="http://www.w3.org/2000/svg"
   xmlns:xlink="http://www.w3.org/1999/xlink"
   xmlns:sodipodi="http://sodipodi.sourceforge.net/DTD/sodipodi-0.dtd"
   xmlns:inkscape="http://www.inkscape.org/namespaces/inkscape"
   width="48"
   height="48"
   id="svg2"
   version="1.1"
   inkscape:version="0.48+devel r11743"
   sodipodi:docname="user-home.svg">
  <defs
     id="defs4">
    <linearGradient
       id="linearGradient963">
      <stop
         id="stop965"
         offset="0"
         style="stop-color:#d86c23;stop-opacity:1" />
      <stop
         id="stop967"
         offset="1"
         style="stop-color:#894222;stop-opacity:1" />
    </linearGradient>
    <linearGradient
       id="linearGradient941">
      <stop
         style="stop-color:#d86c23;stop-opacity:1"
         offset="0"
         id="stop943" />
      <stop
         style="stop-color:#4b2212;stop-opacity:1"
         offset="1"
         id="stop945" />
    </linearGradient>
    <linearGradient
       id="linearGradient867-0">
      <stop
         id="stop933"
         offset="0"
         style="stop-color:#5b5b5b;stop-opacity:1" />
      <stop
         id="stop935"
         offset="1"
         style="stop-color:#000000;stop-opacity:1" />
    </linearGradient>
    <linearGradient
       id="linearGradient867">
      <stop
         style="stop-color:#5b5b5b;stop-opacity:1"
         offset="0"
         id="stop869" />
      <stop
         style="stop-color:#000000;stop-opacity:1"
         offset="1"
         id="stop871" />
    </linearGradient>
    <linearGradient
       id="linearGradient3795">
      <stop
         id="stop3797"
         offset="0"
         style="stop-color:#96a4aa;stop-opacity:1;" />
      <stop
         id="stop3799"
         offset="1"
         style="stop-color:#6c7b81;stop-opacity:1;" />
    </linearGradient>
    <linearGradient
       id="linearGradient3698">
      <stop
         style="stop-color:#96d0e1;stop-opacity:1"
         offset="0"
         id="stop3700" />
      <stop
         id="stop3706"
         offset="0.67819428"
         style="stop-color:#89b7e1;stop-opacity:1" />
      <stop
         style="stop-color:#699dd3;stop-opacity:1"
         offset="1"
         id="stop3702" />
    </linearGradient>
    <linearGradient
       id="linearGradient3708">
      <stop
         style="stop-color:#658db6;stop-opacity:1"
         offset="0"
         id="stop3710" />
      <stop
         id="stop3716"
         offset="0.76777935"
         style="stop-color:#527fab;stop-opacity:1;" />
      <stop
         style="stop-color:#4071a0;stop-opacity:1"
         offset="1"
         id="stop3712" />
    </linearGradient>
    <linearGradient
       id="linearGradient3750">
      <stop
         id="stop3752"
         offset="0"
         style="stop-color:#d0e2f1;stop-opacity:1" />
      <stop
         style="stop-color:#cadef0;stop-opacity:1"
         offset="0.85580856"
         id="stop3756" />
      <stop
         id="stop3754"
         offset="1"
         style="stop-color:#95bee3;stop-opacity:1" />
    </linearGradient>
    <linearGradient
       id="linearGradient3803">
      <stop
         style="stop-color:#d7def0;stop-opacity:1;"
         offset="0"
         id="stop3805" />
      <stop
         id="stop3811"
         offset="0.5"
         style="stop-color:#ffffff;stop-opacity:1" />
      <stop
         style="stop-color:#d5def0;stop-opacity:1"
         offset="1"
         id="stop3807" />
    </linearGradient>
    <linearGradient
       gradientTransform="translate(0,-2056.7244)"
       gradientUnits="userSpaceOnUse"
       y2="1004.8474"
       x2="23.204165"
       y1="1053.158"
       x1="23.204165"
       id="linearGradient3801"
       xlink:href="#linearGradient3795"
       inkscape:collect="always" />
    <linearGradient
       gradientUnits="userSpaceOnUse"
       y2="1024.0002"
       x2="28.641211"
       y1="1024.0002"
       x1="26.192217"
       id="linearGradient3859"
       xlink:href="#linearGradient3795"
       inkscape:collect="always" />
    <linearGradient
       y2="1024.0002"
       x2="28.641211"
       y1="1024.0002"
       x1="26.192217"
       gradientUnits="userSpaceOnUse"
       id="linearGradient3867"
       xlink:href="#linearGradient3795"
       inkscape:collect="always" />
    <linearGradient
       y2="1024.0002"
       x2="28.641211"
       y1="1024.0002"
       x1="26.192217"
       gradientUnits="userSpaceOnUse"
       id="linearGradient3869"
       xlink:href="#linearGradient3795"
       inkscape:collect="always" />
    <linearGradient
       y2="1024.0002"
       x2="28.641211"
       y1="1024.0002"
       x1="26.192217"
       gradientUnits="userSpaceOnUse"
       id="linearGradient3871"
       xlink:href="#linearGradient3795"
       inkscape:collect="always" />
    <linearGradient
       y2="1015.5485"
       x2="22.811094"
       y1="1027.8575"
       x1="29.718235"
       gradientUnits="userSpaceOnUse"
       id="linearGradient3877"
       xlink:href="#linearGradient3795"
       inkscape:collect="always" />
    <linearGradient
       y2="1030.9086"
       x2="31.448042"
       y1="1006.2238"
       x1="17.196316"
       gradientUnits="userSpaceOnUse"
       id="linearGradient3879"
       xlink:href="#linearGradient3795"
       inkscape:collect="always" />
    <linearGradient
       gradientUnits="userSpaceOnUse"
       y2="24.798252"
       x2="42.475323"
       y1="34.43922"
       x1="21.973417"
       id="linearGradient3895"
       xlink:href="#linearGradient3795"
       inkscape:collect="always" />
    <linearGradient
       y2="1004.8474"
       x2="23.204165"
       y1="1053.158"
       x1="23.204165"
       gradientTransform="matrix(1,0,0,-1,-18.738329,2058.1386)"
       gradientUnits="userSpaceOnUse"
       id="linearGradient3860"
       xlink:href="#linearGradient3795"
       inkscape:collect="always" />
    <linearGradient
       id="linearGradient3795-4">
      <stop
         style="stop-color:#68b8d8;stop-opacity:1;"
         offset="0"
         id="stop3797-0" />
      <stop
         style="stop-color:#3097bd;stop-opacity:1;"
         offset="1"
         id="stop3799-0" />
    </linearGradient>
    <linearGradient
       y2="1049.5842"
       x2="24.113745"
       y1="1007.2183"
       x1="24.113745"
       gradientTransform="matrix(0.96799712,0,0,1.0252613,0.76812014,-25.977808)"
       gradientUnits="userSpaceOnUse"
       id="linearGradient3030"
       xlink:href="#linearGradient3795-4"
       inkscape:collect="always" />
    <linearGradient
       inkscape:collect="always"
       xlink:href="#linearGradient3795-0"
       id="linearGradient3801-7"
       x1="23.204165"
       y1="1053.158"
       x2="23.204165"
       y2="1004.8474"
       gradientUnits="userSpaceOnUse" />
    <linearGradient
       inkscape:collect="always"
       xlink:href="#linearGradient3914"
       id="linearGradient3920"
       x1="6.8000002"
       y1="25.0625"
       x2="45.325001"
       y2="25.0625"
       gradientUnits="userSpaceOnUse" />
    <linearGradient
       id="linearGradient3803-7">
      <stop
         id="stop3805-5"
         offset="0"
         style="stop-color:#d7def0;stop-opacity:1;" />
      <stop
         style="stop-color:#ffffff;stop-opacity:1"
         offset="0.5"
         id="stop3811-0" />
      <stop
         id="stop3807-0"
         offset="1"
         style="stop-color:#d5def0;stop-opacity:1" />
    </linearGradient>
    <linearGradient
       id="linearGradient3750-9">
      <stop
         style="stop-color:#d0e2f1;stop-opacity:1"
         offset="0"
         id="stop3752-0" />
      <stop
         id="stop3756-0"
         offset="0.85580856"
         style="stop-color:#cadef0;stop-opacity:1" />
      <stop
         style="stop-color:#95bee3;stop-opacity:1"
         offset="1"
         id="stop3754-0" />
    </linearGradient>
    <linearGradient
       id="linearGradient3708-1">
      <stop
         id="stop3710-5"
         offset="0"
         style="stop-color:#658db6;stop-opacity:1" />
      <stop
         style="stop-color:#527fab;stop-opacity:1;"
         offset="0.76777935"
         id="stop3716-0" />
      <stop
         id="stop3712-5"
         offset="1"
         style="stop-color:#4071a0;stop-opacity:1" />
    </linearGradient>
    <linearGradient
       id="linearGradient3698-3">
      <stop
         id="stop3700-2"
         offset="0"
         style="stop-color:#96d0e1;stop-opacity:1" />
      <stop
         style="stop-color:#89b7e1;stop-opacity:1"
         offset="0.67819428"
         id="stop3706-9" />
      <stop
         id="stop3702-3"
         offset="1"
         style="stop-color:#699dd3;stop-opacity:1" />
    </linearGradient>
    <linearGradient
       inkscape:collect="always"
       id="linearGradient3914">
      <stop
         style="stop-color:#59b3e1;stop-opacity:1;"
         offset="0"
         id="stop3916" />
      <stop
         style="stop-color:#59b3e1;stop-opacity:0;"
         offset="1"
         id="stop3918" />
    </linearGradient>
    <linearGradient
       id="linearGradient3795-0">
      <stop
         style="stop-color:#52a2cc;stop-opacity:1;"
         offset="0"
         id="stop3797-3" />
      <stop
         style="stop-color:#59b3e1;stop-opacity:1;"
         offset="1"
         id="stop3799-4" />
    </linearGradient>
    <linearGradient
       id="linearGradient867-0-2">
      <stop
         id="stop933-7"
         offset="0"
         style="stop-color:#5b5b5b;stop-opacity:1" />
      <stop
         id="stop935-2"
         offset="1"
         style="stop-color:#000000;stop-opacity:1" />
    </linearGradient>
    <linearGradient
       id="linearGradient941-9">
      <stop
         style="stop-color:#d86c23;stop-opacity:1"
         offset="0"
         id="stop943-4" />
      <stop
         style="stop-color:#4b2212;stop-opacity:1"
         offset="1"
         id="stop945-6" />
    </linearGradient>
    <linearGradient
       id="linearGradient963-2">
      <stop
         id="stop965-4"
         offset="0"
         style="stop-color:#d86c23;stop-opacity:1" />
      <stop
         id="stop967-6"
         offset="1"
         style="stop-color:#894222;stop-opacity:1" />
    </linearGradient>
  </defs>
  <sodipodi:namedview
     id="base"
     pagecolor="#ffffff"
     bordercolor="#666666"
     borderopacity="1.0"
     inkscape:pageopacity="0.0"
     inkscape:pageshadow="2"
     inkscape:zoom="5.6"
     inkscape:cx="-9.8372085"
     inkscape:cy="27.639483"
     inkscape:document-units="px"
     inkscape:current-layer="layer1"
     showgrid="false"
     fit-margin-top="0"
     fit-margin-left="0"
     fit-margin-right="0"
     fit-margin-bottom="0"
     inkscape:window-width="1366"
     inkscape:window-height="711"
     inkscape:window-x="0"
     inkscape:window-y="0"
     inkscape:window-maximized="1" />
  <metadata
     id="metadata7">
    <rdf:RDF>
      <cc:Work
         rdf:about="">
        <dc:format>image/svg+xml</dc:format>
        <dc:type
           rdf:resource="http://purl.org/dc/dcmitype/StillImage" />
        <dc:title />
      </cc:Work>
    </rdf:RDF>
  </metadata>
  <g
     inkscape:label="Capa 1"
     inkscape:groupmode="layer"
     id="layer1"
     transform="translate(-180.23661,-689.8125)">
    <rect
       style="fill:none;stroke:none"
       id="rect2984"
       width="48"
       height="48"
       x="180.2366"
       y="689.8125" />
    <path
       style="fill:#4d4d4d;fill-opacity:1;fill-rule:nonzero;stroke:#ffffff;stroke-width:0.53126794;stroke-miterlimit:4;stroke-dasharray:none"
       d="m 204.23637,693.48187 -22.5789,24.29443 7.77535,0 0,16.49146 25.2629,0 4.3442,0 0,-16.49146 7.77535,0 -7.77535,-8.35639 0,-12.1749 -4.3442,0 0,7.49863 L 204.23637,693.48187 Z"
       id="rect886"
       inkscape:connector-curvature="0" />
  </g>
</svg>
