<?xml version="1.0" encoding="UTF-8" standalone="no"?>
<!-- Created with Inkscape (http://www.inkscape.org/) -->

<svg
   xmlns:dc="http://purl.org/dc/elements/1.1/"
   xmlns:cc="http://creativecommons.org/ns#"
   xmlns:rdf="http://www.w3.org/1999/02/22-rdf-syntax-ns#"
   xmlns:svg="http://www.w3.org/2000/svg"
   xmlns="http://www.w3.org/2000/svg"
   xmlns:sodipodi="http://sodipodi.sourceforge.net/DTD/sodipodi-0.dtd"
   xmlns:inkscape="http://www.inkscape.org/namespaces/inkscape"
   width="48"
   height="48"
   id="svg2"
   version="1.1"
   inkscape:version="0.48.2 r9819"
   sodipodi:docname="format-indent-less.svg">
  <defs
     id="defs4" />
  <sodipodi:namedview
     id="base"
     pagecolor="#ffffff"
     bordercolor="#666666"
     borderopacity="1.0"
     inkscape:pageopacity="0.0"
     inkscape:pageshadow="2"
     inkscape:zoom="5.6"
     inkscape:cx="24.218357"
     inkscape:cy="17.407184"
     inkscape:document-units="px"
     inkscape:current-layer="layer1"
     showgrid="false"
     inkscape:window-width="591"
     inkscape:window-height="527"
     inkscape:window-x="87"
     inkscape:window-y="144"
     inkscape:window-maximized="0" />
  <metadata
     id="metadata7">
    <rdf:RDF>
      <cc:Work
         rdf:about="">
        <dc:format>image/svg+xml</dc:format>
        <dc:type
           rdf:resource="http://purl.org/dc/dcmitype/StillImage" />
        <dc:title></dc:title>
      </cc:Work>
    </rdf:RDF>
  </metadata>
  <g
     inkscape:label="Capa 1"
     inkscape:groupmode="layer"
     id="layer1"
     transform="translate(0,-1004.3622)">
    <rect
       style="fill:none;stroke:none"
       id="rect3767"
       width="48"
       height="48"
       x="0"
       y="1004.3622" />
    <rect
       style="fill:none;stroke:none"
       id="rect2991"
       width="48"
       height="48"
       x="0"
       y="1004.3622" />
    <g
       id="g3008"
       transform="matrix(-1,0,0,1,47.924967,-1.8139638)">
      <path
         inkscape:connector-curvature="0"
         id="path3753"
         d="m 11.327295,1016.1561 25.34541,0"
         style="fill:none;stroke:#000000;stroke-width:0.74311149px;stroke-linecap:butt;stroke-linejoin:miter;stroke-opacity:1" />
      <path
         style="fill:none;stroke:#000000;stroke-width:0.6284982px;stroke-linecap:butt;stroke-linejoin:miter;stroke-opacity:1"
         d="m 14.934966,1020.5352 18.130068,0"
         id="path3755"
         inkscape:connector-curvature="0" />
      <path
         inkscape:connector-curvature="0"
         id="path3757"
         d="m 10.341675,1024.6489 27.31665,0"
         style="fill:none;stroke:#000000;stroke-width:0.77146822px;stroke-linecap:butt;stroke-linejoin:miter;stroke-opacity:1" />
      <path
         style="fill:none;stroke:#000000;stroke-width:0.60067105px;stroke-linecap:butt;stroke-linejoin:miter;stroke-opacity:1"
         d="m 15.719916,1028.3645 16.560167,0"
         id="path3759"
         inkscape:connector-curvature="0" />
      <path
         inkscape:connector-curvature="0"
         id="path3761"
         d="m 6.5185728,1032.2127 28.1443242,0"
         style="fill:none;stroke:#000000;stroke-width:0.78306848px;stroke-linecap:butt;stroke-linejoin:miter;stroke-opacity:1" />
      <path
         inkscape:connector-curvature="0"
         id="path3763"
         d="m 11.525701,1036.7244 18.130068,0"
         style="fill:none;stroke:#000000;stroke-width:0.6284982px;stroke-linecap:butt;stroke-linejoin:miter;stroke-opacity:1" />
      <path
         style="fill:none;stroke:#000000;stroke-width:0.46895754px;stroke-linecap:butt;stroke-linejoin:miter;stroke-opacity:1"
         d="m 15.543791,1040.7053 10.093887,0"
         id="path3765"
         inkscape:connector-curvature="0" />
      <path
         inkscape:transform-center-x="1.61296"
         transform="matrix(1.3729739,0,0,1.3729739,-18.193101,987.81349)"
         d="m 43.639574,33.197521 10e-7,4.069607 0,4.069607 -3.524384,-2.034803 -3.524383,-2.034804 3.524383,-2.034804 z"
         inkscape:randomized="0"
         inkscape:rounded="0"
         inkscape:flatsided="false"
         sodipodi:arg2="0"
         sodipodi:arg1="-1.0471976"
         sodipodi:r2="2.3495889"
         sodipodi:r1="4.6991777"
         sodipodi:cy="37.267128"
         sodipodi:cx="41.289986"
         sodipodi:sides="3"
         id="path3006"
         style="fill:#4d4d4d;fill-opacity:1;stroke:none"
         sodipodi:type="star" />
    </g>
  </g>
</svg>
