<?xml version="1.0" encoding="UTF-8" standalone="no"?>
<!-- Created with Inkscape (http://www.inkscape.org/) -->

<svg
   xmlns:dc="http://purl.org/dc/elements/1.1/"
   xmlns:cc="http://creativecommons.org/ns#"
   xmlns:rdf="http://www.w3.org/1999/02/22-rdf-syntax-ns#"
   xmlns:svg="http://www.w3.org/2000/svg"
   xmlns="http://www.w3.org/2000/svg"
   xmlns:xlink="http://www.w3.org/1999/xlink"
   xmlns:sodipodi="http://sodipodi.sourceforge.net/DTD/sodipodi-0.dtd"
   xmlns:inkscape="http://www.inkscape.org/namespaces/inkscape"
   width="48"
   height="48"
   id="svg2"
   version="1.1"
   inkscape:version="0.48+devel r11725"
   sodipodi:docname="gtk-about.svg">
  <defs
     id="defs4">
    <linearGradient
       inkscape:collect="always"
       xlink:href="#linearGradient3755-9"
       id="linearGradient3942"
       gradientUnits="userSpaceOnUse"
       x1="30.372152"
       y1="7.2212749"
       x2="30.872379"
       y2="25.747164" />
    <linearGradient
       id="linearGradient3755-9">
      <stop
         id="stop3757-1"
         offset="0"
         style="stop-color:#ffdc64;stop-opacity:1;" />
      <stop
         id="stop3759-4"
         offset="1"
         style="stop-color:#c88109;stop-opacity:1;" />
    </linearGradient>
    <linearGradient
       y2="25.747164"
       x2="30.872379"
       y1="7.2212749"
       x1="30.372152"
       gradientUnits="userSpaceOnUse"
       id="linearGradient877"
       xlink:href="#linearGradient3755-9"
       inkscape:collect="always" />
  </defs>
  <sodipodi:namedview
     id="base"
     pagecolor="#ffffff"
     bordercolor="#666666"
     borderopacity="1.0"
     inkscape:pageopacity="0.0"
     inkscape:pageshadow="2"
     inkscape:zoom="7.9195959"
     inkscape:cx="7.6845828"
     inkscape:cy="37.470304"
     inkscape:document-units="px"
     inkscape:current-layer="layer1"
     showgrid="false"
     inkscape:window-width="1366"
     inkscape:window-height="746"
     inkscape:window-x="0"
     inkscape:window-y="0"
     inkscape:window-maximized="1" />
  <metadata
     id="metadata7">
    <rdf:RDF>
      <cc:Work
         rdf:about="">
        <dc:format>image/svg+xml</dc:format>
        <dc:type
           rdf:resource="http://purl.org/dc/dcmitype/StillImage" />
        <dc:title />
      </cc:Work>
    </rdf:RDF>
  </metadata>
  <g
     inkscape:label="Capa 1"
     inkscape:groupmode="layer"
     id="layer1"
     transform="translate(0,-1004.3622)">
    <rect
       style="fill:none;stroke:none"
       id="rect3762"
       width="48"
       height="48"
       x="0"
       y="1004.3668" />
    <g
       id="g872"
       transform="matrix(1.7442715,0,0,1.7442715,-450.51188,143.35486)">
      <path
         sodipodi:type="star"
         style="fill:#ffffff;fill-opacity:1;stroke:none"
         id="path868"
         sodipodi:sides="5"
         sodipodi:cx="30.714287"
         sodipodi:cy="14.25"
         sodipodi:r1="12.75005"
         sodipodi:r2="6.6087499"
         sodipodi:arg1="0.9244941"
         sodipodi:arg2="1.5528126"
         inkscape:flatsided="false"
         inkscape:rounded="0"
         inkscape:randomized="0"
         d="m 38.392858,24.428571 -7.559728,-3.57089 -7.426431,3.840426 1.060034,-8.293194 -5.947355,-5.876199 8.214865,-1.5545859 3.750763,-7.472116 4.017032,7.332407 8.265454,1.2581769 L 37.03529,16.178859 Z"
         transform="matrix(0.7753681,0.02093609,-0.02093609,0.7753681,248.49607,496.60546)"
         inkscape:transform-center-x="-0.02422484"
         inkscape:transform-center-y="-0.80761328" />
      <path
         inkscape:transform-center-y="-0.7217427"
         inkscape:transform-center-x="-0.02164757"
         transform="matrix(0.69292749,0.01871007,-0.01871007,0.69292749,250.99938,497.75099)"
         d="m 38.392858,24.428571 -7.559728,-3.57089 -7.426431,3.840426 1.060034,-8.293194 -5.947355,-5.876199 8.214865,-1.5545859 3.750763,-7.472116 4.017032,7.332407 8.265454,1.2581769 L 37.03529,16.178859 Z"
         inkscape:randomized="0"
         inkscape:rounded="0"
         inkscape:flatsided="false"
         sodipodi:arg2="1.5528126"
         sodipodi:arg1="0.9244941"
         sodipodi:r2="6.6087499"
         sodipodi:r1="12.75005"
         sodipodi:cy="14.25"
         sodipodi:cx="30.714287"
         sodipodi:sides="5"
         id="path5582"
         style="fill:url(#linearGradient877);fill-opacity:1;stroke:none"
         sodipodi:type="star" />
    </g>
  </g>
</svg>
