<?xml version="1.0" encoding="UTF-8" standalone="no"?>
<!-- Created with Inkscape (http://www.inkscape.org/) -->

<svg
   xmlns:dc="http://purl.org/dc/elements/1.1/"
   xmlns:cc="http://creativecommons.org/ns#"
   xmlns:rdf="http://www.w3.org/1999/02/22-rdf-syntax-ns#"
   xmlns:svg="http://www.w3.org/2000/svg"
   xmlns="http://www.w3.org/2000/svg"
   xmlns:xlink="http://www.w3.org/1999/xlink"
   xmlns:sodipodi="http://sodipodi.sourceforge.net/DTD/sodipodi-0.dtd"
   xmlns:inkscape="http://www.inkscape.org/namespaces/inkscape"
   width="48"
   height="48"
   id="svg3048"
   version="1.1"
   inkscape:version="0.48+devel r11521"
   sodipodi:docname="mail-message-new.svg">
  <defs
     id="defs3050">
    <linearGradient
       inkscape:collect="always"
       xlink:href="#linearGradient4300"
       id="linearGradient6523"
       gradientUnits="userSpaceOnUse"
       gradientTransform="matrix(0.72180936,0,0,0.72180936,737.73031,-35.045409)"
       x1="27.348625"
       y1="1011.7791"
       x2="27.348625"
       y2="1014.2515" />
    <linearGradient
       id="linearGradient4300">
      <stop
         id="stop4302"
         offset="0"
         style="stop-color:#f5dfe5;stop-opacity:1" />
      <stop
         id="stop4304"
         offset="1"
         style="stop-color:#f3abab;stop-opacity:1;" />
    </linearGradient>
    <radialGradient
       inkscape:collect="always"
       xlink:href="#linearGradient4462"
       id="radialGradient6525"
       gradientUnits="userSpaceOnUse"
       gradientTransform="matrix(0.97452491,4.9682081e-8,-5.2664569e-8,1.0330271,12.592785,1011.4531)"
       cx="23.301378"
       cy="21.428253"
       fx="23.301378"
       fy="21.428253"
       r="10.352485" />
    <linearGradient
       inkscape:collect="always"
       id="linearGradient4462">
      <stop
         style="stop-color:#ffffff;stop-opacity:1;"
         offset="0"
         id="stop4464" />
      <stop
         style="stop-color:#ffffff;stop-opacity:0;"
         offset="1"
         id="stop4466" />
    </linearGradient>
    <linearGradient
       inkscape:collect="always"
       xlink:href="#linearGradient4444"
       id="linearGradient6527"
       gradientUnits="userSpaceOnUse"
       gradientTransform="matrix(0.72180935,0,0,0.72180935,18.481405,293.16393)"
       x1="14.180883"
       y1="1035.715"
       x2="12.56142"
       y2="1032.0587" />
    <linearGradient
       id="linearGradient4444">
      <stop
         style="stop-color:#ffecaa;stop-opacity:1;"
         offset="0"
         id="stop4446" />
      <stop
         style="stop-color:#ffffff;stop-opacity:1;"
         offset="1"
         id="stop4448" />
    </linearGradient>
    <linearGradient
       inkscape:collect="always"
       xlink:href="#linearGradient4444"
       id="linearGradient3144"
       gradientUnits="userSpaceOnUse"
       gradientTransform="matrix(0.72180935,0,0,0.72180935,-97.699765,282.18691)"
       x1="14.180883"
       y1="1035.715"
       x2="12.56142"
       y2="1032.0587" />
    <radialGradient
       inkscape:collect="always"
       xlink:href="#linearGradient4462"
       id="radialGradient3152"
       gradientUnits="userSpaceOnUse"
       gradientTransform="matrix(0.97452491,4.9682081e-8,-5.2664569e-8,1.0330271,-103.58838,1000.4761)"
       cx="23.301378"
       cy="21.428253"
       fx="23.301378"
       fy="21.428253"
       r="10.352485" />
    <linearGradient
       inkscape:collect="always"
       xlink:href="#linearGradient4300"
       id="linearGradient3159"
       gradientUnits="userSpaceOnUse"
       gradientTransform="matrix(0.72180936,0,0,0.72180936,647.81589,39.345157)"
       x1="27.348625"
       y1="1011.7791"
       x2="27.348625"
       y2="1014.2515" />
    <linearGradient
       inkscape:collect="always"
       xlink:href="#linearGradient4300"
       id="linearGradient3177"
       gradientUnits="userSpaceOnUse"
       gradientTransform="matrix(0.72180936,0,0,0.72180936,647.81589,39.345157)"
       x1="27.348625"
       y1="1011.7791"
       x2="27.348625"
       y2="1014.2515" />
    <radialGradient
       inkscape:collect="always"
       xlink:href="#linearGradient4462"
       id="radialGradient3179"
       gradientUnits="userSpaceOnUse"
       gradientTransform="matrix(0.97452491,4.9682081e-8,-5.2664569e-8,1.0330271,-103.58838,1000.4761)"
       cx="23.301378"
       cy="21.428253"
       fx="23.301378"
       fy="21.428253"
       r="10.352485" />
    <linearGradient
       inkscape:collect="always"
       xlink:href="#linearGradient4444"
       id="linearGradient3181"
       gradientUnits="userSpaceOnUse"
       gradientTransform="matrix(0.72180935,0,0,0.72180935,-97.699765,282.18691)"
       x1="14.180883"
       y1="1035.715"
       x2="12.56142"
       y2="1032.0587" />
    <linearGradient
       inkscape:collect="always"
       xlink:href="#linearGradient4300"
       id="linearGradient3209"
       gradientUnits="userSpaceOnUse"
       gradientTransform="matrix(0.72180936,0,0,0.72180936,647.81589,39.345157)"
       x1="27.348625"
       y1="1011.7791"
       x2="27.348625"
       y2="1014.2515" />
    <radialGradient
       inkscape:collect="always"
       xlink:href="#linearGradient4462"
       id="radialGradient3211"
       gradientUnits="userSpaceOnUse"
       gradientTransform="matrix(0.97452491,4.9682081e-8,-5.2664569e-8,1.0330271,-103.58838,1000.4761)"
       cx="23.301378"
       cy="21.428253"
       fx="23.301378"
       fy="21.428253"
       r="10.352485" />
    <linearGradient
       inkscape:collect="always"
       xlink:href="#linearGradient4444"
       id="linearGradient3213"
       gradientUnits="userSpaceOnUse"
       gradientTransform="matrix(0.72180935,0,0,0.72180935,-97.699765,282.18691)"
       x1="14.180883"
       y1="1035.715"
       x2="12.56142"
       y2="1032.0587" />
  </defs>
  <sodipodi:namedview
     id="base"
     pagecolor="#ffffff"
     bordercolor="#666666"
     borderopacity="1.0"
     inkscape:pageopacity="0.0"
     inkscape:pageshadow="2"
     inkscape:zoom="7.919596"
     inkscape:cx="-5.2049443"
     inkscape:cy="26.661985"
     inkscape:document-units="px"
     inkscape:current-layer="layer1"
     showgrid="false"
     inkscape:window-width="960"
     inkscape:window-height="1035"
     inkscape:window-x="0"
     inkscape:window-y="26"
     inkscape:window-maximized="0" />
  <metadata
     id="metadata3053">
    <rdf:RDF>
      <cc:Work
         rdf:about="">
        <dc:format>image/svg+xml</dc:format>
        <dc:type
           rdf:resource="http://purl.org/dc/dcmitype/StillImage" />
        <dc:title />
      </cc:Work>
    </rdf:RDF>
  </metadata>
  <g
     inkscape:label="Capa 1"
     inkscape:groupmode="layer"
     id="layer1"
     transform="translate(0,-1004.3622)">
    <path
       inkscape:connector-curvature="0"
       style="fill:#4d4d4d;fill-opacity:1;stroke:none"
       d="m 2.2475942,1017.3622 0,22 34.6874998,0 0,-22 -17.84375,17.8125 -16.8437498,-17.8125 z m 1.75,0 15.1562498,16.0313 16.03125,-16.0313 -31.1874998,0 z"
       id="rect26795-9" />
    <g
       id="g3161"
       transform="translate(115.16359,4.9829826)">
      <rect
         transform="matrix(0.70710678,0.70710678,-0.70710678,0.70710678,0,0)"
         style="fill:url(#linearGradient3209);fill-opacity:1;stroke:none"
         id="rect4290"
         width="6.1649737"
         height="3.1899769"
         x="664.27863"
         y="768.60583" />
      <rect
         transform="matrix(0.70710678,0.70710678,-0.70710678,0.70710678,0,0)"
         y="771.89911"
         x="664.27863"
         height="3.1899769"
         width="6.1649737"
         id="rect4284"
         style="fill:#999999;fill-opacity:1;stroke:none" />
      <path
         inkscape:connector-curvature="0"
         id="path4286"
         d="m -76.770545,1016.3669 4.19482,4.1948"
         style="fill:none;stroke:#4d4d4d;stroke-width:0.72180933px;stroke-linecap:butt;stroke-linejoin:miter;stroke-opacity:1" />
      <path
         style="fill:none;stroke:#4d4d4d;stroke-width:0.72180933px;stroke-linecap:butt;stroke-linejoin:miter;stroke-opacity:1"
         d="m -77.536139,1017.1325 4.194819,4.1949"
         id="path4288"
         inkscape:connector-curvature="0" />
      <rect
         transform="matrix(0.70710678,0.70710678,-0.70710678,0.70710678,0,0)"
         y="775.12952"
         x="664.27863"
         height="14.972926"
         width="6.1649737"
         id="rect4274"
         style="fill:#0097cc;fill-opacity:1;stroke:none" />
      <path
         inkscape:connector-curvature="0"
         id="path4460"
         d="m -88.353133,1028.3939 1.658788,1.6588 13.286253,-13.2862 -1.594988,-1.595 z"
         style="opacity:0.35648151;fill:url(#radialGradient3211);fill-opacity:1;stroke:none" />
      <rect
         transform="matrix(0.70710678,0.70710678,-0.70710678,0.70710678,0,0)"
         y="775.12958"
         x="665.88135"
         height="14.972926"
         width="0.74667394"
         id="rect4308"
         style="fill:#e6e6e6;fill-opacity:0.53645833;stroke:none" />
      <rect
         transform="matrix(0.70710678,0.70710678,-0.70710678,0.70710678,0,0)"
         style="fill:#cccccc;fill-opacity:0.53645833;stroke:none"
         id="rect4310"
         width="0.74667394"
         height="14.972926"
         x="669.20068"
         y="775.12958" />
      <rect
         transform="matrix(0.70710678,0.70710678,-0.70710678,0.70710678,0,0)"
         y="775.12958"
         x="666.98779"
         height="14.972926"
         width="0.74667394"
         id="rect4312"
         style="fill:#e6e6e6;fill-opacity:0.53645833;stroke:none" />
      <rect
         transform="matrix(0.70710678,0.70710678,-0.70710678,0.70710678,0,0)"
         style="fill:#e6e6e6;fill-opacity:0.53645833;stroke:none"
         id="rect4314"
         width="0.74667394"
         height="14.972926"
         x="668.09424"
         y="775.12958" />
      <rect
         ry="0"
         transform="matrix(0.70710678,0.70710678,-0.70710678,0.70710678,0,0)"
         style="fill:#e6e6e6;fill-opacity:0.53645833;stroke:none"
         id="rect4306"
         width="0.74667394"
         height="14.972926"
         x="664.77484"
         y="775.12958" />
      <path
         sodipodi:nodetypes="ccccccc"
         inkscape:connector-curvature="0"
         id="path4255"
         d="m -84.621951,1032.7724 -5.954723,1.5955 1.595563,-5.9548 2.120177,-0.036 0.0594,2.2158 2.120177,-0.036 z"
         inkscape:transform-center-y="1.2328826"
         style="fill:url(#linearGradient3213);fill-opacity:1;stroke:none" />
      <path
         inkscape:transform-center-y="0.49305512"
         transform="matrix(0.22121423,0.22121423,-0.22121423,0.22121423,-84.437729,1025.1787)"
         d="M 10.834766,27.870519 6.8942909,34.695622 2.9538157,27.870519 z"
         inkscape:randomized="0"
         inkscape:rounded="0"
         inkscape:flatsided="true"
         sodipodi:arg2="0.52359878"
         sodipodi:arg1="-0.52359878"
         sodipodi:r2="2.2750342"
         sodipodi:r1="4.5500689"
         sodipodi:cy="30.145554"
         sodipodi:cx="6.8942909"
         sodipodi:sides="3"
         id="path4253"
         style="fill:#000000;fill-opacity:1;stroke:none"
         sodipodi:type="star" />
      <path
         sodipodi:nodetypes="cccccc"
         inkscape:connector-curvature="0"
         id="path4381"
         d="m -89.742944,1032.1968 -0.845871,2.1824 0.06767,-0.022 1.466175,-1.4661 -0.687974,-0.6937 z"
         style="opacity:0.70833333;fill:#ffffff;fill-opacity:1;stroke:none" />
    </g>
    <rect
       style="fill:none;stroke:none"
       id="rect3187"
       width="48"
       height="48"
       x="0"
       y="1004.3622" />
  </g>
</svg>
