<?xml version="1.0" encoding="UTF-8" standalone="no"?>
<!-- Created with Inkscape (http://www.inkscape.org/) -->

<svg
   xmlns:dc="http://purl.org/dc/elements/1.1/"
   xmlns:cc="http://creativecommons.org/ns#"
   xmlns:rdf="http://www.w3.org/1999/02/22-rdf-syntax-ns#"
   xmlns:svg="http://www.w3.org/2000/svg"
   xmlns="http://www.w3.org/2000/svg"
   xmlns:xlink="http://www.w3.org/1999/xlink"
   xmlns:sodipodi="http://sodipodi.sourceforge.net/DTD/sodipodi-0.dtd"
   xmlns:inkscape="http://www.inkscape.org/namespaces/inkscape"
   width="48"
   height="48"
   id="svg2"
   version="1.1"
   inkscape:version="0.48.2 r9819"
   sodipodi:docname="media-skip-backward.svg">
  <defs
     id="defs4">
    <linearGradient
       id="linearGradient3776">
      <stop
         style="stop-color:#92cb55;stop-opacity:1;"
         offset="0"
         id="stop3778" />
      <stop
         style="stop-color:#bed655;stop-opacity:1;"
         offset="1"
         id="stop3780" />
    </linearGradient>
    <radialGradient
       r="15.678572"
       fy="1040.3323"
       fx="24"
       cy="1040.3323"
       cx="24"
       gradientTransform="matrix(1,0,0,0.22551253,0,805.72436)"
       gradientUnits="userSpaceOnUse"
       id="radialGradient3823"
       xlink:href="#linearGradient2679"
       inkscape:collect="always" />
    <radialGradient
       r="18.885624"
       fy="12.12002"
       fx="18.737123"
       cy="12.12002"
       cx="18.737123"
       gradientUnits="userSpaceOnUse"
       id="radialGradient3821"
       xlink:href="#linearGradient2679"
       inkscape:collect="always" />
    <radialGradient
       gradientUnits="userSpaceOnUse"
       r="18.885624"
       fy="12.12002"
       fx="18.737123"
       cy="12.12002"
       cx="18.737123"
       id="radialGradient4021"
       xlink:href="#linearGradient2679"
       inkscape:collect="always" />
    <radialGradient
       gradientUnits="userSpaceOnUse"
       gradientTransform="matrix(1,0,0,0.22551253,0,805.72436)"
       r="15.678572"
       fy="1040.3323"
       fx="24"
       cy="1040.3323"
       cx="24"
       id="radialGradient4019"
       xlink:href="#linearGradient2679"
       inkscape:collect="always" />
    <inkscape:perspective
       sodipodi:type="inkscape:persp3d"
       inkscape:vp_x="0 : 24 : 1"
       inkscape:vp_y="0 : 1000 : 0"
       inkscape:vp_z="48 : 24 : 1"
       inkscape:persp3d-origin="24 : 16 : 1"
       id="perspective68" />
    <linearGradient
       id="linearGradient4061">
      <stop
         id="stop4063"
         offset="0"
         style="stop-color:#474845;stop-opacity:1;" />
      <stop
         id="stop4065"
         offset="1"
         style="stop-color:#838681;stop-opacity:1" />
    </linearGradient>
    <linearGradient
       id="linearGradient3881">
      <stop
         style="stop-color:#474845;stop-opacity:1;"
         offset="0"
         id="stop3883" />
      <stop
         style="stop-color:#838681;stop-opacity:1"
         offset="1"
         id="stop3885" />
    </linearGradient>
    <linearGradient
       id="linearGradient2684">
      <stop
         id="stop2686"
         offset="0"
         style="stop-color:#ffffff;stop-opacity:1;" />
      <stop
         id="stop2688"
         offset="1"
         style="stop-color:#000000;stop-opacity:1;" />
    </linearGradient>
    <linearGradient
       id="linearGradient2584">
      <stop
         style="stop-color:#000000;stop-opacity:1;"
         offset="0"
         id="stop2586" />
      <stop
         style="stop-color:#ffffff;stop-opacity:0;"
         offset="1"
         id="stop2588" />
    </linearGradient>
    <linearGradient
       id="linearGradient5075">
      <stop
         style="stop-color:#adb0a8;stop-opacity:1;"
         offset="0"
         id="stop5077" />
      <stop
         style="stop-color:#464744;stop-opacity:1"
         offset="1"
         id="stop5079" />
    </linearGradient>
    <linearGradient
       gradientUnits="userSpaceOnUse"
       y2="36"
       x2="23.750401"
       y1="13.658564"
       x1="24.476166"
       id="linearGradient2322"
       xlink:href="#linearGradient2316"
       inkscape:collect="always" />
    <radialGradient
       r="8.75"
       fy="147.99352"
       fx="64.227074"
       cy="147.99352"
       cx="64.227074"
       gradientTransform="matrix(0.222659,-0.996273,2.129992,0.476041,-308.946,20.8517)"
       gradientUnits="userSpaceOnUse"
       id="radialGradient1439"
       xlink:href="#linearGradient2679"
       inkscape:collect="always" />
    <radialGradient
       r="8.75"
       fy="147.99352"
       fx="64.227074"
       cy="147.99352"
       cx="64.227074"
       gradientTransform="matrix(0.222659,-0.996273,2.129992,0.476041,-290.946,20.8517)"
       gradientUnits="userSpaceOnUse"
       id="radialGradient1436"
       xlink:href="#linearGradient2679"
       inkscape:collect="always" />
    <linearGradient
       y2="115.13713"
       x2="49.667324"
       y1="112.94963"
       x1="49.430401"
       gradientTransform="translate(-44.99051,-97.26213)"
       gradientUnits="userSpaceOnUse"
       id="linearGradient1426"
       xlink:href="#linearGradient2584"
       inkscape:collect="always" />
    <linearGradient
       y2="142.18799"
       x2="54.896976"
       y1="156"
       x1="54.988514"
       gradientTransform="translate(-47.9996,-121)"
       gradientUnits="userSpaceOnUse"
       id="linearGradient1401"
       xlink:href="#linearGradient5075"
       inkscape:collect="always" />
    <linearGradient
       inkscape:collect="always"
       id="linearGradient2679">
      <stop
         style="stop-color:#ffffff;stop-opacity:1"
         offset="0"
         id="stop2681" />
      <stop
         style="stop-color:#d3d7cf"
         offset="1"
         id="stop2683" />
    </linearGradient>
    <linearGradient
       id="linearGradient2316">
      <stop
         id="stop2318"
         offset="0"
         style="stop-color:#000000;stop-opacity:1;" />
      <stop
         id="stop2320"
         offset="1"
         style="stop-color:#ffffff;stop-opacity:0.65979379;" />
    </linearGradient>
    <linearGradient
       id="linearGradient8666">
      <stop
         style="stop-color:#f5f5f5;stop-opacity:1;"
         offset="0"
         id="stop8668" />
      <stop
         style="stop-color:#f5f5f5;stop-opacity:0;"
         offset="1"
         id="stop8670" />
    </linearGradient>
    <linearGradient
       id="linearGradient8658">
      <stop
         style="stop-color:#000000;stop-opacity:1;"
         offset="0"
         id="stop8660" />
      <stop
         style="stop-color:#000000;stop-opacity:0;"
         offset="1"
         id="stop8662" />
    </linearGradient>
    <linearGradient
       id="linearGradient8645">
      <stop
         style="stop-color:#333333;stop-opacity:1;"
         offset="0"
         id="stop8647" />
      <stop
         style="stop-color:#333333;stop-opacity:0;"
         offset="1"
         id="stop8649" />
    </linearGradient>
    <linearGradient
       id="linearGradient8635">
      <stop
         id="stop8637"
         offset="0"
         style="stop-color:#333333;stop-opacity:1;" />
      <stop
         id="stop8639"
         offset="1"
         style="stop-color:#f0f0f0;stop-opacity:0;" />
    </linearGradient>
    <linearGradient
       id="linearGradient8657">
      <stop
         style="stop-color:#ffffff;stop-opacity:1;"
         offset="0"
         id="stop8659" />
      <stop
         style="stop-color:#dce1e5;stop-opacity:1;"
         offset="1"
         id="stop8661" />
    </linearGradient>
    <linearGradient
       id="linearGradient8649">
      <stop
         style="stop-color:#8c8c8c;stop-opacity:1;"
         offset="0"
         id="stop8651" />
      <stop
         style="stop-color:#f0f0f0;stop-opacity:0;"
         offset="1"
         id="stop8653" />
    </linearGradient>
    <linearGradient
       id="linearGradient8636">
      <stop
         style="stop-color:#646464;stop-opacity:1;"
         offset="0"
         id="stop8638" />
      <stop
         style="stop-color:#333333;stop-opacity:1;"
         offset="1"
         id="stop8640" />
    </linearGradient>
    <inkscape:perspective
       sodipodi:type="inkscape:persp3d"
       inkscape:vp_x="0 : 526.18109 : 1"
       inkscape:vp_y="0 : 1000 : 0"
       inkscape:vp_z="744.09448 : 526.18109 : 1"
       inkscape:persp3d-origin="372.04724 : 350.78739 : 1"
       id="perspective10" />
    <inkscape:perspective
       id="perspective7856"
       inkscape:persp3d-origin="372.04724 : 350.78739 : 1"
       inkscape:vp_z="744.09448 : 526.18109 : 1"
       inkscape:vp_y="0 : 1000 : 0"
       inkscape:vp_x="0 : 526.18109 : 1"
       sodipodi:type="inkscape:persp3d" />
    <radialGradient
       inkscape:collect="always"
       xlink:href="#linearGradient8636"
       id="radialGradient8642"
       cx="70.458"
       cy="73.199226"
       fx="70.458"
       fy="73.199226"
       r="55.811367"
       gradientTransform="matrix(2.1073751,0,0,2.1073803,-78.023434,-81.059384)"
       gradientUnits="userSpaceOnUse" />
    <radialGradient
       inkscape:collect="always"
       xlink:href="#linearGradient8657"
       id="radialGradient8665"
       cx="70.458"
       cy="73.199226"
       fx="70.458"
       fy="73.199226"
       r="55.811367"
       gradientTransform="matrix(1,0,0,1.0000025,0,-1.8169358e-4)"
       gradientUnits="userSpaceOnUse" />
    <linearGradient
       inkscape:collect="always"
       xlink:href="#linearGradient8645"
       id="linearGradient8651"
       x1="70.205498"
       y1="7.3844137"
       x2="70.205498"
       y2="34.237083"
       gradientUnits="userSpaceOnUse" />
    <linearGradient
       inkscape:collect="always"
       xlink:href="#linearGradient8645"
       id="linearGradient8664"
       x1="70.458"
       y1="14.799726"
       x2="70.458"
       y2="87.977859"
       gradientUnits="userSpaceOnUse" />
    <linearGradient
       inkscape:collect="always"
       xlink:href="#linearGradient8666"
       id="linearGradient8672"
       x1="70.205498"
       y1="14.045123"
       x2="70.205498"
       y2="60.825073"
       gradientUnits="userSpaceOnUse" />
    <radialGradient
       inkscape:collect="always"
       xlink:href="#linearGradient8636"
       id="radialGradient8689"
       cx="70.458"
       cy="73.199226"
       fx="70.458"
       fy="73.199226"
       r="60.276276"
       gradientTransform="matrix(1.8914286,0,0,1.7898877,-62.808273,-57.81917)"
       gradientUnits="userSpaceOnUse" />
    <radialGradient
       inkscape:collect="always"
       xlink:href="#linearGradient8657"
       id="radialGradient8699"
       gradientUnits="userSpaceOnUse"
       gradientTransform="matrix(1,0,0,1.0000025,0,-1.8169358e-4)"
       cx="70.458"
       cy="73.199226"
       fx="70.458"
       fy="73.199226"
       r="55.811367" />
    <linearGradient
       inkscape:collect="always"
       xlink:href="#linearGradient8645"
       id="linearGradient8701"
       gradientUnits="userSpaceOnUse"
       x1="70.458"
       y1="14.799726"
       x2="70.458"
       y2="87.977859" />
    <linearGradient
       inkscape:collect="always"
       xlink:href="#linearGradient8666"
       id="linearGradient8703"
       gradientUnits="userSpaceOnUse"
       x1="70.205498"
       y1="-7.918128"
       x2="70.205498"
       y2="60.825073" />
    <radialGradient
       inkscape:collect="always"
       xlink:href="#linearGradient8636"
       id="radialGradient8705"
       gradientUnits="userSpaceOnUse"
       gradientTransform="matrix(1.8914286,0,0,1.7898877,-62.808273,-57.81917)"
       cx="70.458"
       cy="73.199226"
       fx="70.458"
       fy="73.199226"
       r="60.276276" />
    <inkscape:perspective
       id="perspective8732"
       inkscape:persp3d-origin="372.04724 : 350.78739 : 1"
       inkscape:vp_z="744.09448 : 526.18109 : 1"
       inkscape:vp_y="0 : 1000 : 0"
       inkscape:vp_x="0 : 526.18109 : 1"
       sodipodi:type="inkscape:persp3d" />
  </defs>
  <sodipodi:namedview
     id="base"
     pagecolor="#ffffff"
     bordercolor="#666666"
     borderopacity="1.0"
     inkscape:pageopacity="0.0"
     inkscape:pageshadow="2"
     inkscape:zoom="5.6"
     inkscape:cx="-17.802599"
     inkscape:cy="21.856666"
     inkscape:document-units="px"
     inkscape:current-layer="layer1"
     showgrid="false"
     inkscape:window-width="1278"
     inkscape:window-height="735"
     inkscape:window-x="0"
     inkscape:window-y="0"
     inkscape:window-maximized="1" />
  <metadata
     id="metadata7">
    <rdf:RDF>
      <cc:Work
         rdf:about="">
        <dc:format>image/svg+xml</dc:format>
        <dc:type
           rdf:resource="http://purl.org/dc/dcmitype/StillImage" />
        <dc:title />
      </cc:Work>
    </rdf:RDF>
  </metadata>
  <g
     inkscape:label="Capa 1"
     inkscape:groupmode="layer"
     id="layer1"
     transform="translate(0,-1004.3622)">
    <rect
       style="fill:none;stroke:none"
       id="rect2987"
       width="48"
       height="48"
       x="0"
       y="1004.3622" />
    <g
       id="g3059"
       transform="translate(-8.2876569e-7,1.0373402)">
      <rect
         transform="scale(-1,1)"
         ry="0"
         y="1014.8248"
         x="-10.555996"
         height="25.000027"
         width="5.1785698"
         id="rect4052"
         style="fill:#4d4d4d;fill-opacity:1;stroke:none" />
      <path
         inkscape:transform-center-y="-1.2453932e-05"
         inkscape:transform-center-x="-3.5249884"
         transform="matrix(-0.67288182,0,0,0.67288182,47.227871,1020.3798)"
         d="m 38.276007,10.321428 -15.715934,9.073601 -15.7159339,9.073597 -1.9e-6,-18.147198 1.9e-6,-18.1471969 15.7159349,9.0735972 z"
         inkscape:randomized="0"
         inkscape:rounded="0"
         inkscape:flatsided="false"
         sodipodi:arg2="1.0471976"
         sodipodi:arg1="0"
         sodipodi:r2="10.477291"
         sodipodi:r1="20.954578"
         sodipodi:cy="10.321428"
         sodipodi:cx="17.321428"
         sodipodi:sides="3"
         id="path4100"
         style="fill:#4d4d4d;fill-opacity:1;stroke:none"
         sodipodi:type="star" />
      <path
         sodipodi:type="star"
         style="fill:#4d4d4d;fill-opacity:1;stroke:none"
         id="path4102"
         sodipodi:sides="3"
         sodipodi:cx="17.321428"
         sodipodi:cy="10.321428"
         sodipodi:r1="20.954578"
         sodipodi:r2="10.477291"
         sodipodi:arg1="0"
         sodipodi:arg2="1.0471976"
         inkscape:flatsided="false"
         inkscape:rounded="0"
         inkscape:randomized="0"
         d="m 38.276007,10.321428 -15.715934,9.073601 -15.7159339,9.073597 -1.9e-6,-18.147198 1.9e-6,-18.1471969 15.7159349,9.0735972 z"
         transform="matrix(-0.67288182,0,0,0.67288182,35.50121,1020.3798)"
         inkscape:transform-center-x="-3.5249884"
         inkscape:transform-center-y="-1.2453932e-05" />
    </g>
  </g>
</svg>
