<?xml version="1.0" encoding="UTF-8" standalone="no"?>
<!-- Created with Inkscape (http://www.inkscape.org/) -->

<svg
   xmlns:dc="http://purl.org/dc/elements/1.1/"
   xmlns:cc="http://creativecommons.org/ns#"
   xmlns:rdf="http://www.w3.org/1999/02/22-rdf-syntax-ns#"
   xmlns:svg="http://www.w3.org/2000/svg"
   xmlns="http://www.w3.org/2000/svg"
   xmlns:xlink="http://www.w3.org/1999/xlink"
   xmlns:sodipodi="http://sodipodi.sourceforge.net/DTD/sodipodi-0.dtd"
   xmlns:inkscape="http://www.inkscape.org/namespaces/inkscape"
   width="48"
   height="48"
   id="svg2"
   version="1.1"
   inkscape:version="0.48.2 r9819"
   sodipodi:docname="format-text-strikethrough.svg">
  <defs
     id="defs4">
    <linearGradient
       inkscape:collect="always"
       xlink:href="#linearGradient3618"
       id="linearGradient3731"
       gradientUnits="userSpaceOnUse"
       gradientTransform="matrix(0.76078938,0.2038529,-0.2038529,0.76078938,28.364641,-374.93099)"
       x1="6.4285712"
       y1="1027.8086"
       x2="41.607143"
       y2="1027.8086" />
    <linearGradient
       id="linearGradient3618">
      <stop
         id="stop3620"
         offset="0"
         style="stop-color:#7cc430;stop-opacity:1;" />
      <stop
         id="stop3622-3"
         offset="1"
         style="stop-color:#bada59;stop-opacity:1;" />
    </linearGradient>
    <linearGradient
       y2="1027.8086"
       x2="41.607143"
       y1="1027.8086"
       x1="6.4285712"
       gradientTransform="matrix(0.58364393,0.15638692,-0.15638692,0.58364393,178.60524,412.79568)"
       gradientUnits="userSpaceOnUse"
       id="linearGradient3363"
       xlink:href="#linearGradient3618"
       inkscape:collect="always" />
    <linearGradient
       inkscape:collect="always"
       xlink:href="#linearGradient3618"
       id="linearGradient3789"
       gradientUnits="userSpaceOnUse"
       gradientTransform="matrix(0.58364393,0.15638692,-0.15638692,0.58364393,181.2396,411.29987)"
       x1="6.4285712"
       y1="1027.8086"
       x2="41.607143"
       y2="1027.8086" />
  </defs>
  <sodipodi:namedview
     id="base"
     pagecolor="#ffffff"
     bordercolor="#666666"
     borderopacity="1.0"
     inkscape:pageopacity="0.0"
     inkscape:pageshadow="2"
     inkscape:zoom="11.2"
     inkscape:cx="24.929006"
     inkscape:cy="25.561401"
     inkscape:document-units="px"
     inkscape:current-layer="layer1"
     showgrid="false"
     inkscape:window-width="1280"
     inkscape:window-height="748"
     inkscape:window-x="0"
     inkscape:window-y="0"
     inkscape:window-maximized="1" />
  <metadata
     id="metadata7">
    <rdf:RDF>
      <cc:Work
         rdf:about="">
        <dc:format>image/svg+xml</dc:format>
        <dc:type
           rdf:resource="http://purl.org/dc/dcmitype/StillImage" />
        <dc:title></dc:title>
      </cc:Work>
    </rdf:RDF>
  </metadata>
  <g
     inkscape:label="Capa 1"
     inkscape:groupmode="layer"
     id="layer1"
     transform="translate(0,-1004.3622)">
    <rect
       style="opacity:0.51999996;fill:none;stroke:none"
       id="rect2989"
       width="48"
       height="48"
       x="0"
       y="1004.3622" />
    <g
       id="g3854"
       transform="translate(-1.5e-7,3.2142907)">
      <g
         transform="translate(2.7790933,-8.0275727)"
         id="g3793">
        <text
           xml:space="preserve"
           style="font-size:56px;font-style:normal;font-variant:normal;font-weight:normal;font-stretch:normal;line-height:125%;letter-spacing:0px;word-spacing:0px;fill:#000000;fill-opacity:1;stroke:none;font-family:DejaVu Sans;-inkscape-font-specification:DejaVu Sans"
           x="4.9240317"
           y="1045.2463"
           id="text2985"
           sodipodi:linespacing="125%"><tspan
             style="font-style:normal;-inkscape-font-specification:DejaVu Sans"
             sodipodi:role="line"
             id="tspan2987"
             x="4.9240317"
             y="1045.2463">a</tspan></text>
      </g>
      <path
         sodipodi:nodetypes="cc"
         inkscape:connector-curvature="0"
         id="path3055"
         d="m 5.4732143,1042.1403 37.0535717,0"
         style="fill:none;stroke:#000000;stroke-width:4.5999999;stroke-linecap:butt;stroke-linejoin:miter;stroke-miterlimit:4;stroke-opacity:1;stroke-dasharray:none" />
    </g>
  </g>
</svg>
