<?xml version="1.0" encoding="UTF-8" standalone="no"?>
<!-- Created with Inkscape (http://www.inkscape.org/) -->

<svg
   xmlns:dc="http://purl.org/dc/elements/1.1/"
   xmlns:cc="http://creativecommons.org/ns#"
   xmlns:rdf="http://www.w3.org/1999/02/22-rdf-syntax-ns#"
   xmlns:svg="http://www.w3.org/2000/svg"
   xmlns="http://www.w3.org/2000/svg"
   xmlns:xlink="http://www.w3.org/1999/xlink"
   xmlns:sodipodi="http://sodipodi.sourceforge.net/DTD/sodipodi-0.dtd"
   xmlns:inkscape="http://www.inkscape.org/namespaces/inkscape"
   width="48"
   height="48"
   id="svg3987"
   version="1.1"
   inkscape:version="0.48+devel r11725"
   sodipodi:docname="stock_help-add-bookmark.svg">
  <defs
     id="defs3989">
    <linearGradient
       inkscape:collect="always"
       xlink:href="#linearGradient3743-6"
       id="linearGradient3938"
       gradientUnits="userSpaceOnUse"
       gradientTransform="matrix(1.011323,0,0,1.0258207,232.89964,-534.64284)"
       x1="28.595896"
       y1="1009.6199"
       x2="47.013344"
       y2="1029.014" />
    <linearGradient
       id="linearGradient3743-6">
      <stop
         style="stop-color:#0099ff;stop-opacity:1;"
         offset="0"
         id="stop3745-4" />
      <stop
         style="stop-color:#353e6c;stop-opacity:1;"
         offset="1"
         id="stop3747-2" />
    </linearGradient>
    <linearGradient
       inkscape:collect="always"
       xlink:href="#linearGradient5574"
       id="linearGradient3940"
       gradientUnits="userSpaceOnUse"
       gradientTransform="matrix(0.18648993,0,0,1.0258207,242.08866,-534.64284)"
       x1="49.387131"
       y1="1030.889"
       x2="-49.016609"
       y2="1013.3749" />
    <linearGradient
       id="linearGradient5574">
      <stop
         id="stop5576"
         offset="0"
         style="stop-color:#000000;stop-opacity:1" />
      <stop
         id="stop5578"
         offset="1"
         style="stop-color:#f0f0f0;stop-opacity:1;" />
    </linearGradient>
    <linearGradient
       inkscape:collect="always"
       xlink:href="#linearGradient3755-9"
       id="linearGradient3942"
       gradientUnits="userSpaceOnUse"
       x1="30.372152"
       y1="7.2212749"
       x2="30.872379"
       y2="25.747164" />
    <linearGradient
       id="linearGradient3755-9">
      <stop
         id="stop3757-1"
         offset="0"
         style="stop-color:#ffdc64;stop-opacity:1;" />
      <stop
         id="stop3759-4"
         offset="1"
         style="stop-color:#c88109;stop-opacity:1;" />
    </linearGradient>
    <linearGradient
       inkscape:collect="always"
       xlink:href="#linearGradient5604"
       id="linearGradient3944"
       gradientUnits="userSpaceOnUse"
       gradientTransform="matrix(1.1368507,0,0,1.1368507,228.21621,-651.63489)"
       x1="22.982141"
       y1="1011.6926"
       x2="28.76634"
       y2="1023.4783" />
    <linearGradient
       id="linearGradient5604">
      <stop
         style="stop-color:#ff6664;stop-opacity:1;"
         offset="0"
         id="stop5606" />
      <stop
         style="stop-color:#c84009;stop-opacity:1;"
         offset="1"
         id="stop5608" />
    </linearGradient>
    <linearGradient
       inkscape:collect="always"
       xlink:href="#linearGradient3806"
       id="linearGradient3946"
       gradientUnits="userSpaceOnUse"
       gradientTransform="matrix(0.5214008,0,0,0.5214008,-121.09563,744.84116)"
       x1="250.53169"
       y1="561.87891"
       x2="261.56393"
       y2="585.62891" />
    <linearGradient
       id="linearGradient3806">
      <stop
         id="stop3808-07"
         offset="0"
         style="stop-color:#00d0ff;stop-opacity:1;" />
      <stop
         id="stop3810"
         offset="1"
         style="stop-color:#00f0ff;stop-opacity:1;" />
    </linearGradient>
  </defs>
  <sodipodi:namedview
     id="base"
     pagecolor="#ffffff"
     bordercolor="#666666"
     borderopacity="1.0"
     inkscape:pageopacity="0.0"
     inkscape:pageshadow="2"
     inkscape:zoom="15.839192"
     inkscape:cx="-0.69405445"
     inkscape:cy="7.869681"
     inkscape:document-units="px"
     inkscape:current-layer="layer1"
     showgrid="false"
     fit-margin-top="0"
     fit-margin-left="0"
     fit-margin-right="0"
     fit-margin-bottom="0"
     inkscape:window-width="1366"
     inkscape:window-height="746"
     inkscape:window-x="0"
     inkscape:window-y="0"
     inkscape:window-maximized="1" />
  <metadata
     id="metadata3992">
    <rdf:RDF>
      <cc:Work
         rdf:about="">
        <dc:format>image/svg+xml</dc:format>
        <dc:type
           rdf:resource="http://purl.org/dc/dcmitype/StillImage" />
        <dc:title />
      </cc:Work>
    </rdf:RDF>
  </metadata>
  <g
     inkscape:label="Capa 1"
     inkscape:groupmode="layer"
     id="layer1"
     transform="translate(-238.85715,-496.93362)">
    <g
       id="g861">
      <rect
         ry="0"
         rx="0"
         y="499.37122"
         x="250.1463"
         height="43.13942"
         width="30.299009"
         id="rect5519"
         style="fill:url(#linearGradient3938);fill-opacity:1;stroke:none" />
      <rect
         style="fill:url(#linearGradient3940);fill-opacity:1;stroke:none"
         id="rect5570"
         width="5.5871964"
         height="43.13942"
         x="245.26897"
         y="499.37122"
         rx="0"
         ry="0" />
      <g
         id="g857">
        <path
           style="fill:url(#linearGradient3944);fill-opacity:1;stroke:#ffc900;stroke-width:0.11368507;stroke-linecap:butt;stroke-linejoin:miter;stroke-miterlimit:4;stroke-opacity:1;stroke-dasharray:none"
           d="m 254.09987,499.42071 0,25.0223 3.29877,-5.7137 2.95218,5.1133 L 260.35082,499.41901 Z"
           id="path5594"
           inkscape:connector-curvature="0"
           sodipodi:nodetypes="cccccc" />
        <path
           style="opacity:0.10454544;fill:#000000;fill-opacity:1;stroke:none"
           d="m 260.35872,503.66581 c -2.55436,4.2102 -4.98575,9.0294 -6.25268,13.7488 l 0,6.9277 3.30397,-5.7198 2.94871,5.1159 L 260.35872,503.66581 Z"
           id="path5614"
           inkscape:connector-curvature="0" />
      </g>
    </g>
    <rect
       style="fill:none;stroke:none"
       id="rect3834"
       width="48"
       height="48"
       x="238.85715"
       y="496.93362" />
    <g
       id="g872"
       transform="translate(-1.000009,0.95384289)">
      <path
         sodipodi:type="star"
         style="fill:#ffffff;fill-opacity:1;stroke:none"
         id="path868"
         sodipodi:sides="5"
         sodipodi:cx="30.714287"
         sodipodi:cy="14.25"
         sodipodi:r1="12.75005"
         sodipodi:r2="6.6087499"
         sodipodi:arg1="0.9244941"
         sodipodi:arg2="1.5528126"
         inkscape:flatsided="false"
         inkscape:rounded="0"
         inkscape:randomized="0"
         d="m 38.392858,24.428571 -7.559728,-3.57089 -7.426431,3.840426 1.060034,-8.293194 -5.947355,-5.876199 8.214865,-1.5545859 3.750763,-7.472116 4.017032,7.332407 8.265454,1.2581769 L 37.03529,16.178859 Z"
         transform="matrix(0.7753681,0.02093609,-0.02093609,0.7753681,248.49607,496.60546)"
         inkscape:transform-center-x="-0.02422484"
         inkscape:transform-center-y="-0.80761328" />
      <path
         inkscape:transform-center-y="-0.7217427"
         inkscape:transform-center-x="-0.02164757"
         transform="matrix(0.69292749,0.01871007,-0.01871007,0.69292749,250.99938,497.75099)"
         d="m 38.392858,24.428571 -7.559728,-3.57089 -7.426431,3.840426 1.060034,-8.293194 -5.947355,-5.876199 8.214865,-1.5545859 3.750763,-7.472116 4.017032,7.332407 8.265454,1.2581769 L 37.03529,16.178859 Z"
         inkscape:randomized="0"
         inkscape:rounded="0"
         inkscape:flatsided="false"
         sodipodi:arg2="1.5528126"
         sodipodi:arg1="0.9244941"
         sodipodi:r2="6.6087499"
         sodipodi:r1="12.75005"
         sodipodi:cy="14.25"
         sodipodi:cx="30.714287"
         sodipodi:sides="5"
         id="path5582"
         style="fill:url(#linearGradient3942);fill-opacity:1;stroke:none"
         sodipodi:type="star" />
    </g>
    <path
       inkscape:connector-curvature="0"
       style="fill:#5fbcd3;fill-opacity:1;stroke:#ffffff;stroke-width:0.60000002;stroke-miterlimit:4;stroke-dasharray:none"
       d="m 245.56897,532.06472 0,4.85159 5.29432,0 0,5.29433 4.85159,0 0,-5.29433 5.29433,0 0,-4.85159 -5.29433,0 0,-5.29432 -4.85159,0 0,5.29432 L 245.56897,532.06472 Z"
       id="rect1923" />
  </g>
</svg>
