<?xml version="1.0" encoding="UTF-8" standalone="no"?>
<!-- Created with Inkscape (http://www.inkscape.org/) -->

<svg
   xmlns:dc="http://purl.org/dc/elements/1.1/"
   xmlns:cc="http://creativecommons.org/ns#"
   xmlns:rdf="http://www.w3.org/1999/02/22-rdf-syntax-ns#"
   xmlns:svg="http://www.w3.org/2000/svg"
   xmlns="http://www.w3.org/2000/svg"
   xmlns:xlink="http://www.w3.org/1999/xlink"
   xmlns:sodipodi="http://sodipodi.sourceforge.net/DTD/sodipodi-0.dtd"
   xmlns:inkscape="http://www.inkscape.org/namespaces/inkscape"
   width="48"
   height="48"
   id="svg3048"
   version="1.1"
   inkscape:version="0.48+devel r11725"
   sodipodi:docname="mail-reply-all.svg">
  <defs
     id="defs3050">
    <linearGradient
       inkscape:collect="always"
       xlink:href="#linearGradient4300"
       id="linearGradient6523"
       gradientUnits="userSpaceOnUse"
       gradientTransform="matrix(0.72180936,0,0,0.72180936,737.73031,-35.045409)"
       x1="27.348625"
       y1="1011.7791"
       x2="27.348625"
       y2="1014.2515" />
    <linearGradient
       id="linearGradient4300">
      <stop
         id="stop4302"
         offset="0"
         style="stop-color:#f5dfe5;stop-opacity:1" />
      <stop
         id="stop4304"
         offset="1"
         style="stop-color:#f3abab;stop-opacity:1;" />
    </linearGradient>
    <radialGradient
       inkscape:collect="always"
       xlink:href="#linearGradient4462"
       id="radialGradient6525"
       gradientUnits="userSpaceOnUse"
       gradientTransform="matrix(0.97452491,4.9682081e-8,-5.2664569e-8,1.0330271,12.592785,1011.4531)"
       cx="23.301378"
       cy="21.428253"
       fx="23.301378"
       fy="21.428253"
       r="10.352485" />
    <linearGradient
       inkscape:collect="always"
       id="linearGradient4462">
      <stop
         style="stop-color:#ffffff;stop-opacity:1;"
         offset="0"
         id="stop4464" />
      <stop
         style="stop-color:#ffffff;stop-opacity:0;"
         offset="1"
         id="stop4466" />
    </linearGradient>
    <linearGradient
       inkscape:collect="always"
       xlink:href="#linearGradient4444"
       id="linearGradient6527"
       gradientUnits="userSpaceOnUse"
       gradientTransform="matrix(0.72180935,0,0,0.72180935,18.481405,293.16393)"
       x1="14.180883"
       y1="1035.715"
       x2="12.56142"
       y2="1032.0587" />
    <linearGradient
       id="linearGradient4444">
      <stop
         style="stop-color:#ffecaa;stop-opacity:1;"
         offset="0"
         id="stop4446" />
      <stop
         style="stop-color:#ffffff;stop-opacity:1;"
         offset="1"
         id="stop4448" />
    </linearGradient>
    <linearGradient
       inkscape:collect="always"
       xlink:href="#linearGradient4444"
       id="linearGradient3144"
       gradientUnits="userSpaceOnUse"
       gradientTransform="matrix(0.72180935,0,0,0.72180935,-97.699765,282.18691)"
       x1="14.180883"
       y1="1035.715"
       x2="12.56142"
       y2="1032.0587" />
    <radialGradient
       inkscape:collect="always"
       xlink:href="#linearGradient4462"
       id="radialGradient3152"
       gradientUnits="userSpaceOnUse"
       gradientTransform="matrix(0.97452491,4.9682081e-8,-5.2664569e-8,1.0330271,-103.58838,1000.4761)"
       cx="23.301378"
       cy="21.428253"
       fx="23.301378"
       fy="21.428253"
       r="10.352485" />
    <linearGradient
       inkscape:collect="always"
       xlink:href="#linearGradient4300"
       id="linearGradient3159"
       gradientUnits="userSpaceOnUse"
       gradientTransform="matrix(0.72180936,0,0,0.72180936,647.81589,39.345157)"
       x1="27.348625"
       y1="1011.7791"
       x2="27.348625"
       y2="1014.2515" />
    <linearGradient
       inkscape:collect="always"
       xlink:href="#linearGradient4300"
       id="linearGradient3177"
       gradientUnits="userSpaceOnUse"
       gradientTransform="matrix(0.72180936,0,0,0.72180936,647.81589,39.345157)"
       x1="27.348625"
       y1="1011.7791"
       x2="27.348625"
       y2="1014.2515" />
    <radialGradient
       inkscape:collect="always"
       xlink:href="#linearGradient4462"
       id="radialGradient3179"
       gradientUnits="userSpaceOnUse"
       gradientTransform="matrix(0.97452491,4.9682081e-8,-5.2664569e-8,1.0330271,-103.58838,1000.4761)"
       cx="23.301378"
       cy="21.428253"
       fx="23.301378"
       fy="21.428253"
       r="10.352485" />
    <linearGradient
       inkscape:collect="always"
       xlink:href="#linearGradient4444"
       id="linearGradient3181"
       gradientUnits="userSpaceOnUse"
       gradientTransform="matrix(0.72180935,0,0,0.72180935,-97.699765,282.18691)"
       x1="14.180883"
       y1="1035.715"
       x2="12.56142"
       y2="1032.0587" />
    <linearGradient
       inkscape:collect="always"
       xlink:href="#linearGradient4300"
       id="linearGradient3209"
       gradientUnits="userSpaceOnUse"
       gradientTransform="matrix(0.72180936,0,0,0.72180936,647.81589,39.345157)"
       x1="27.348625"
       y1="1011.7791"
       x2="27.348625"
       y2="1014.2515" />
    <radialGradient
       inkscape:collect="always"
       xlink:href="#linearGradient4462"
       id="radialGradient3211"
       gradientUnits="userSpaceOnUse"
       gradientTransform="matrix(0.97452491,4.9682081e-8,-5.2664569e-8,1.0330271,-103.58838,1000.4761)"
       cx="23.301378"
       cy="21.428253"
       fx="23.301378"
       fy="21.428253"
       r="10.352485" />
    <linearGradient
       inkscape:collect="always"
       xlink:href="#linearGradient4444"
       id="linearGradient3213"
       gradientUnits="userSpaceOnUse"
       gradientTransform="matrix(0.72180935,0,0,0.72180935,-97.699765,282.18691)"
       x1="14.180883"
       y1="1035.715"
       x2="12.56142"
       y2="1032.0587" />
  </defs>
  <sodipodi:namedview
     id="base"
     pagecolor="#ffffff"
     bordercolor="#666666"
     borderopacity="1.0"
     inkscape:pageopacity="0.0"
     inkscape:pageshadow="2"
     inkscape:zoom="5.6"
     inkscape:cx="18.318405"
     inkscape:cy="22.045387"
     inkscape:document-units="px"
     inkscape:current-layer="layer1"
     showgrid="false"
     inkscape:window-width="960"
     inkscape:window-height="768"
     inkscape:window-x="0"
     inkscape:window-y="0"
     inkscape:window-maximized="0" />
  <metadata
     id="metadata3053">
    <rdf:RDF>
      <cc:Work
         rdf:about="">
        <dc:format>image/svg+xml</dc:format>
        <dc:type
           rdf:resource="http://purl.org/dc/dcmitype/StillImage" />
        <dc:title />
      </cc:Work>
    </rdf:RDF>
  </metadata>
  <g
     inkscape:label="Capa 1"
     inkscape:groupmode="layer"
     id="layer1"
     transform="translate(0,-1004.3622)">
    <path
       id="path33"
       d="m 3.5312502,1012.0943 0,22 34.6874998,0 0,-22 -17.84375,17.8125 -16.8437499,-17.8125 z m 1.7499999,0 15.1562499,16.0313 16.03125,-16.0313 -31.1874998,0 z"
       style="fill:#4d4d4d;fill-opacity:1;stroke:none"
       inkscape:connector-curvature="0" />
    <rect
       style="fill:none;stroke:none"
       id="rect3187"
       width="48"
       height="48"
       x="0"
       y="1004.3622" />
    <path
       inkscape:connector-curvature="0"
       style="fill:#4d4d4d;fill-opacity:1;stroke:none"
       d="m 3.5312502,1012.0943 0,22 34.6874998,0 0,-22 -17.84375,17.8125 -16.8437499,-17.8125 z m 1.7499999,0 15.1562499,16.0313 16.03125,-16.0313 -31.1874998,0 z"
       id="rect26795-6" />
    <path
       id="path61"
       d="m 9.78125,1022.63 0,22 34.6875,0 0,-22 L 26.625,1040.4425 9.7812499,1022.63 z m 1.75,0 15.15625,16.0313 16.03125,-16.0313 -31.1875,0 z"
       style="fill:#0092a4;fill-opacity:1;stroke:none"
       inkscape:connector-curvature="0" />
    <g
       id="g18160"
       transform="matrix(0.65799542,0,0,-0.65799542,18.43735,1707.9506)"
       style="fill:#ffcc00;stroke:#ffcc00">
      <path
         sodipodi:nodetypes="cccccccc"
         inkscape:connector-curvature="0"
         id="path5583"
         d="m 24.985762,1036.3607 0,-6.5677 14.119981,0 0,-9.4056 -14.119981,0 0,-7.1132 L 7.6064357,1024.9888 Z"
         style="fill:#ffcc00;stroke:#ffffff;stroke-width:0.91186047;stroke-miterlimit:4;stroke-dasharray:none" />
    </g>
  </g>
</svg>
