<?xml version="1.0" encoding="UTF-8" standalone="no"?>
<!-- Created with Inkscape (http://www.inkscape.org/) -->

<svg
   xmlns:dc="http://purl.org/dc/elements/1.1/"
   xmlns:cc="http://creativecommons.org/ns#"
   xmlns:rdf="http://www.w3.org/1999/02/22-rdf-syntax-ns#"
   xmlns:svg="http://www.w3.org/2000/svg"
   xmlns="http://www.w3.org/2000/svg"
   xmlns:sodipodi="http://sodipodi.sourceforge.net/DTD/sodipodi-0.dtd"
   xmlns:inkscape="http://www.inkscape.org/namespaces/inkscape"
   width="48"
   height="48"
   id="svg2"
   version="1.1"
   inkscape:version="0.48.2 r9819"
   sodipodi:docname="format-justify-center.svg">
  <defs
     id="defs4" />
  <sodipodi:namedview
     id="base"
     pagecolor="#ffffff"
     bordercolor="#666666"
     borderopacity="1.0"
     inkscape:pageopacity="0.0"
     inkscape:pageshadow="2"
     inkscape:zoom="7.9195959"
     inkscape:cx="-2.2325393"
     inkscape:cy="33.082496"
     inkscape:document-units="px"
     inkscape:current-layer="layer1"
     showgrid="false"
     inkscape:window-width="1278"
     inkscape:window-height="735"
     inkscape:window-x="0"
     inkscape:window-y="0"
     inkscape:window-maximized="1" />
  <metadata
     id="metadata7">
    <rdf:RDF>
      <cc:Work
         rdf:about="">
        <dc:format>image/svg+xml</dc:format>
        <dc:type
           rdf:resource="http://purl.org/dc/dcmitype/StillImage" />
        <dc:title />
      </cc:Work>
    </rdf:RDF>
  </metadata>
  <g
     inkscape:label="Capa 1"
     inkscape:groupmode="layer"
     id="layer1"
     transform="translate(0,-1004.3622)">
    <g
       id="g3769"
       transform="matrix(0.74311149,0,0,0.74311149,5.8866572,265.31782)">
      <path
         transform="translate(0,1004.3622)"
         inkscape:connector-curvature="0"
         id="path3753"
         d="m 7.3214286,6.0357142 34.1071434,0"
         style="fill:none;stroke:#000000;stroke-width:1px;stroke-linecap:butt;stroke-linejoin:miter;stroke-opacity:1" />
      <path
         style="fill:none;stroke:#000000;stroke-width:0.84576571px;stroke-linecap:butt;stroke-linejoin:miter;stroke-opacity:1"
         d="m 12.176246,1016.2908 24.397508,0"
         id="path3755"
         inkscape:connector-curvature="0" />
      <path
         inkscape:connector-curvature="0"
         id="path3757"
         d="m 5.9950864,1021.8266 36.7598276,0"
         style="fill:none;stroke:#000000;stroke-width:1.03815949px;stroke-linecap:butt;stroke-linejoin:miter;stroke-opacity:1" />
      <path
         style="fill:none;stroke:#000000;stroke-width:0.80831885px;stroke-linecap:butt;stroke-linejoin:miter;stroke-opacity:1"
         d="m 13.232549,1026.8266 22.284902,0"
         id="path3759"
         inkscape:connector-curvature="0" />
      <path
         inkscape:connector-curvature="0"
         id="path3761"
         d="m 5.4381887,1032.0052 37.8736233,0"
         style="fill:none;stroke:#000000;stroke-width:1.05376983px;stroke-linecap:butt;stroke-linejoin:miter;stroke-opacity:1" />
      <path
         inkscape:connector-curvature="0"
         id="path3763"
         d="m 12.176246,1038.0765 24.397508,0"
         style="fill:none;stroke:#000000;stroke-width:0.84576571px;stroke-linecap:butt;stroke-linejoin:miter;stroke-opacity:1" />
      <path
         style="fill:none;stroke:#000000;stroke-width:0.63107294px;stroke-linecap:butt;stroke-linejoin:miter;stroke-opacity:1"
         d="m 17.583363,1043.4336 13.583274,0"
         id="path3765"
         inkscape:connector-curvature="0" />
    </g>
    <rect
       style="fill:none;stroke:none"
       id="rect3767"
       width="48"
       height="48"
       x="0"
       y="1004.3622" />
    <rect
       style="fill:none;stroke:none"
       id="rect2991"
       width="48"
       height="48"
       x="0"
       y="1004.3622" />
  </g>
</svg>
