<?xml version="1.0" encoding="UTF-8" standalone="no"?>
<!-- Created with Inkscape (http://www.inkscape.org/) -->

<svg
   xmlns:dc="http://purl.org/dc/elements/1.1/"
   xmlns:cc="http://creativecommons.org/ns#"
   xmlns:rdf="http://www.w3.org/1999/02/22-rdf-syntax-ns#"
   xmlns:svg="http://www.w3.org/2000/svg"
   xmlns="http://www.w3.org/2000/svg"
   xmlns:sodipodi="http://sodipodi.sourceforge.net/DTD/sodipodi-0.dtd"
   xmlns:inkscape="http://www.inkscape.org/namespaces/inkscape"
   width="48"
   height="48"
   id="svg2"
   version="1.1"
   inkscape:version="0.48.2 r9819"
   sodipodi:docname="format-justify-left.svg">
  <defs
     id="defs4" />
  <sodipodi:namedview
     id="base"
     pagecolor="#ffffff"
     bordercolor="#666666"
     borderopacity="1.0"
     inkscape:pageopacity="0.0"
     inkscape:pageshadow="2"
     inkscape:zoom="11.2"
     inkscape:cx="17.323116"
     inkscape:cy="26.737316"
     inkscape:document-units="px"
     inkscape:current-layer="layer1"
     showgrid="false"
     inkscape:window-width="1278"
     inkscape:window-height="735"
     inkscape:window-x="0"
     inkscape:window-y="0"
     inkscape:window-maximized="1" />
  <metadata
     id="metadata7">
    <rdf:RDF>
      <cc:Work
         rdf:about="">
        <dc:format>image/svg+xml</dc:format>
        <dc:type
           rdf:resource="http://purl.org/dc/dcmitype/StillImage" />
        <dc:title />
      </cc:Work>
    </rdf:RDF>
  </metadata>
  <g
     inkscape:label="Capa 1"
     inkscape:groupmode="layer"
     id="layer1"
     transform="translate(0,-1004.3622)">
    <g
       id="g2992"
       transform="translate(1.6631641e-7,2.1104145e-5)">
      <path
         inkscape:connector-curvature="0"
         id="path3753"
         d="m 9.9078592,1016.1561 25.3454098,0"
         style="fill:none;stroke:#000000;stroke-width:0.74311149px;stroke-linecap:butt;stroke-linejoin:miter;stroke-opacity:1" />
      <path
         style="fill:none;stroke:#000000;stroke-width:0.6284982px;stroke-linecap:butt;stroke-linejoin:miter;stroke-opacity:1"
         d="m 9.8505526,1020.5352 18.1300684,0"
         id="path3755"
         inkscape:connector-curvature="0" />
      <path
         inkscape:connector-curvature="0"
         id="path3757"
         d="m 9.9220376,1024.6489 27.3166504,0"
         style="fill:none;stroke:#000000;stroke-width:0.77146822px;stroke-linecap:butt;stroke-linejoin:miter;stroke-opacity:1" />
      <path
         style="fill:none;stroke:#000000;stroke-width:0.60067105px;stroke-linecap:butt;stroke-linejoin:miter;stroke-opacity:1"
         d="m 9.836639,1028.3645 16.560167,0"
         id="path3759"
         inkscape:connector-curvature="0" />
      <path
         inkscape:connector-curvature="0"
         id="path3761"
         d="m 9.9278377,1032.2127 28.1443243,0"
         style="fill:none;stroke:#000000;stroke-width:0.78306848px;stroke-linecap:butt;stroke-linejoin:miter;stroke-opacity:1" />
      <path
         inkscape:connector-curvature="0"
         id="path3763"
         d="m 9.8505526,1036.7244 18.1300684,0"
         style="fill:none;stroke:#000000;stroke-width:0.6284982px;stroke-linecap:butt;stroke-linejoin:miter;stroke-opacity:1" />
      <path
         style="fill:none;stroke:#000000;stroke-width:0.46895754px;stroke-linecap:butt;stroke-linejoin:miter;stroke-opacity:1"
         d="m 9.7707822,1040.7053 10.0938868,0"
         id="path3765"
         inkscape:connector-curvature="0" />
    </g>
    <rect
       style="fill:none;stroke:none"
       id="rect3767"
       width="48"
       height="48"
       x="0"
       y="1004.3622" />
    <rect
       style="fill:none;stroke:none"
       id="rect2990"
       width="48"
       height="48"
       x="0"
       y="1004.3622" />
  </g>
</svg>
