<?xml version="1.0" encoding="UTF-8" standalone="no"?>
<!-- Created with Inkscape (http://www.inkscape.org/) -->

<svg
   xmlns:dc="http://purl.org/dc/elements/1.1/"
   xmlns:cc="http://creativecommons.org/ns#"
   xmlns:rdf="http://www.w3.org/1999/02/22-rdf-syntax-ns#"
   xmlns:svg="http://www.w3.org/2000/svg"
   xmlns="http://www.w3.org/2000/svg"
   xmlns:xlink="http://www.w3.org/1999/xlink"
   xmlns:sodipodi="http://sodipodi.sourceforge.net/DTD/sodipodi-0.dtd"
   xmlns:inkscape="http://www.inkscape.org/namespaces/inkscape"
   width="48"
   height="48"
   id="svg2"
   version="1.1"
   inkscape:version="0.48+devel r11704"
   sodipodi:docname="folder-move.svg">
  <defs
     id="defs4">
    <linearGradient
       inkscape:collect="always"
       xlink:href="#linearGradient3754"
       id="linearGradient3770"
       gradientUnits="userSpaceOnUse"
       x1="23.673292"
       y1="1046.1796"
       x2="23.673292"
       y2="1004.5619"
       gradientTransform="translate(-0.0416311,0.21835584)" />
    <linearGradient
       id="linearGradient3754">
      <stop
         style="stop-color:#b1731b;stop-opacity:1;"
         offset="0"
         id="stop3756" />
      <stop
         style="stop-color:#e6ac59;stop-opacity:1;"
         offset="1"
         id="stop3758" />
    </linearGradient>
    <linearGradient
       inkscape:collect="always"
       xlink:href="#linearGradient3754"
       id="linearGradient3767"
       gradientUnits="userSpaceOnUse"
       x1="23.673292"
       y1="1046.1796"
       x2="23.673292"
       y2="1004.5619"
       gradientTransform="translate(-0.0416311,0.21835584)" />
    <linearGradient
       id="linearGradient3815">
      <stop
         style="stop-color:#b1731b;stop-opacity:1;"
         offset="0"
         id="stop3817" />
      <stop
         style="stop-color:#e6ac59;stop-opacity:1;"
         offset="1"
         id="stop3819" />
    </linearGradient>
    <linearGradient
       y2="1004.5619"
       x2="23.673292"
       y1="1046.1796"
       x1="23.673292"
       gradientTransform="translate(-0.0416311,0.21835584)"
       gradientUnits="userSpaceOnUse"
       id="linearGradient3824"
       xlink:href="#linearGradient3754"
       inkscape:collect="always" />
    <linearGradient
       id="linearGradient3754-2">
      <stop
         style="stop-color:#b1731b;stop-opacity:1;"
         offset="0"
         id="stop3756-8" />
      <stop
         style="stop-color:#e6ac59;stop-opacity:1;"
         offset="1"
         id="stop3758-3" />
    </linearGradient>
    <linearGradient
       inkscape:collect="always"
       xlink:href="#linearGradient3754-2"
       id="linearGradient3799"
       x1="26.961445"
       y1="42.171211"
       x2="26.961445"
       y2="0.56316221"
       gradientUnits="userSpaceOnUse"
       gradientTransform="translate(0,1003.6678)" />
    <linearGradient
       id="linearGradient4128">
      <stop
         style="stop-color:#b1731b;stop-opacity:1;"
         offset="0"
         id="stop4130" />
      <stop
         style="stop-color:#e6ac59;stop-opacity:1;"
         offset="1"
         id="stop4132" />
    </linearGradient>
    <linearGradient
       gradientTransform="translate(-0.0416311,0.21835584)"
       y2="1004.5619"
       x2="23.673292"
       y1="1046.1796"
       x1="23.673292"
       gradientUnits="userSpaceOnUse"
       id="linearGradient3770-2"
       xlink:href="#linearGradient3754-8"
       inkscape:collect="always" />
    <linearGradient
       id="linearGradient3754-8">
      <stop
         id="stop3756-0"
         offset="0"
         style="stop-color:#b1731b;stop-opacity:1;" />
      <stop
         id="stop3758-8"
         offset="1"
         style="stop-color:#e6ac59;stop-opacity:1;" />
    </linearGradient>
    <linearGradient
       gradientTransform="translate(-0.0416311,0.21835584)"
       y2="1004.5619"
       x2="23.673292"
       y1="1046.1796"
       x1="23.673292"
       gradientUnits="userSpaceOnUse"
       id="linearGradient3767-9"
       xlink:href="#linearGradient3754-8"
       inkscape:collect="always" />
    <linearGradient
       id="linearGradient3815-9">
      <stop
         id="stop3817-0"
         offset="0"
         style="stop-color:#b1731b;stop-opacity:1;" />
      <stop
         id="stop3819-0"
         offset="1"
         style="stop-color:#e6ac59;stop-opacity:1;" />
    </linearGradient>
    <linearGradient
       inkscape:collect="always"
       xlink:href="#linearGradient3754-8"
       id="linearGradient3824-4"
       gradientUnits="userSpaceOnUse"
       gradientTransform="translate(-0.0416311,0.21835584)"
       x1="23.673292"
       y1="1046.1796"
       x2="23.673292"
       y2="1004.5619" />
    <linearGradient
       id="linearGradient3754-2-4">
      <stop
         id="stop3756-8-7"
         offset="0"
         style="stop-color:#b1731b;stop-opacity:1;" />
      <stop
         id="stop3758-3-3"
         offset="1"
         style="stop-color:#e6ac59;stop-opacity:1;" />
    </linearGradient>
    <linearGradient
       gradientTransform="translate(0,1003.6678)"
       gradientUnits="userSpaceOnUse"
       y2="0.56316221"
       x2="26.961445"
       y1="42.171211"
       x1="26.961445"
       id="linearGradient3799-1"
       xlink:href="#linearGradient3754-2-4"
       inkscape:collect="always" />
    <linearGradient
       id="linearGradient4128-5">
      <stop
         id="stop4130-1"
         offset="0"
         style="stop-color:#b1731b;stop-opacity:1;" />
      <stop
         id="stop4132-8"
         offset="1"
         style="stop-color:#e6ac59;stop-opacity:1;" />
    </linearGradient>
    <linearGradient
       y2="152.87801"
       x2="328.29959"
       y1="257.2666"
       x1="328.29959"
       gradientTransform="matrix(0.24983345,0,0,0.32251236,-126.90205,951.71877)"
       gradientUnits="userSpaceOnUse"
       id="linearGradient7491"
       xlink:href="#linearGradient3754-3"
       inkscape:collect="always" />
    <linearGradient
       id="linearGradient3754-3">
      <stop
         id="stop3756-2"
         offset="0"
         style="stop-color:#b1731b;stop-opacity:1;" />
      <stop
         id="stop3758-7"
         offset="1"
         style="stop-color:#e6ac59;stop-opacity:1;" />
    </linearGradient>
    <linearGradient
       inkscape:collect="always"
       xlink:href="#linearGradient3754-3"
       id="linearGradient1848"
       gradientUnits="userSpaceOnUse"
       gradientTransform="matrix(-0.22802514,0,0,0.28771123,27.552866,965.05683)"
       x1="328.29959"
       y1="286.21814"
       x2="328.29959"
       y2="187.30515" />
    <linearGradient
       id="linearGradient885">
      <stop
         id="stop887"
         offset="0"
         style="stop-color:#b1731b;stop-opacity:1;" />
      <stop
         id="stop889"
         offset="1"
         style="stop-color:#e6ac59;stop-opacity:1;" />
    </linearGradient>
    <linearGradient
       inkscape:collect="always"
       xlink:href="#linearGradient3754-3"
       id="linearGradient896"
       gradientUnits="userSpaceOnUse"
       gradientTransform="matrix(-0.22802514,0,0,0.28771123,27.552866,965.05683)"
       x1="328.29959"
       y1="286.21814"
       x2="328.29959"
       y2="187.30515" />
  </defs>
  <sodipodi:namedview
     id="base"
     pagecolor="#ffffff"
     bordercolor="#666666"
     borderopacity="1.0"
     inkscape:pageopacity="0.0"
     inkscape:pageshadow="2"
     inkscape:zoom="5.6"
     inkscape:cx="13.67917"
     inkscape:cy="25.590798"
     inkscape:document-units="px"
     inkscape:current-layer="layer1"
     showgrid="false"
     inkscape:window-width="1366"
     inkscape:window-height="746"
     inkscape:window-x="0"
     inkscape:window-y="0"
     inkscape:window-maximized="1" />
  <metadata
     id="metadata7">
    <rdf:RDF>
      <cc:Work
         rdf:about="">
        <dc:format>image/svg+xml</dc:format>
        <dc:type
           rdf:resource="http://purl.org/dc/dcmitype/StillImage" />
        <dc:title />
      </cc:Work>
    </rdf:RDF>
  </metadata>
  <g
     inkscape:label="Capa 1"
     inkscape:groupmode="layer"
     id="layer1"
     transform="translate(0,-1004.3622)">
    <rect
       style="fill:none;stroke:none"
       id="rect2989"
       width="48"
       height="48"
       x="0"
       y="1004.3622" />
    <g
       id="layer1-0"
       inkscape:label="Capa 1"
       transform="translate(0,1.7382813e-5)">
      <g
         transform="translate(-0.10714325,0.01788464)"
         id="g879">
        <g
           transform="matrix(0.61012576,0,0,0.61012576,46.22694,392.61049)"
           id="g865">
          <path
             sodipodi:nodetypes="cccccccc"
             inkscape:connector-curvature="0"
             id="path867"
             d="m -69.109331,1008.3671 10.897216,0 6.126319,0 0.02895,3.7728 28.878846,0 0,32.5393 L -69.109331,1044.6792 Z"
             style="fill:#808080;fill-opacity:1;stroke:#cccccc;stroke-width:0.1135425;stroke-linecap:square;stroke-linejoin:round;stroke-miterlimit:4;stroke-opacity:1" />
          <path
             sodipodi:nodetypes="cccccc"
             inkscape:connector-curvature="0"
             id="path869"
             d="m -66.978976,1013.0961 c 7.389566,0.1269 15.089572,0.093 22.173688,0.093 l 19.496912,0 0,29.0063 L -66.978976,1042.1956 Z"
             style="opacity:0.14200003;fill:#000000;fill-opacity:1;stroke:#cccccc;stroke-width:0.10210823;stroke-linecap:square;stroke-linejoin:round;stroke-miterlimit:4;stroke-opacity:1" />
          <path
             style="fill:#ffffff;fill-opacity:1;stroke:none"
             d="m -65.801662,1014.0939 c 6.972012,0.1226 14.236928,0.09 20.920754,0.09 l 18.395226,0 0,28.0142 L -65.801662,1042.1982 Z"
             id="path871"
             inkscape:connector-curvature="0"
             sodipodi:nodetypes="cccccc" />
          <path
             inkscape:connector-curvature="0"
             style="fill:#808080;fill-opacity:1;stroke:#cccccc;stroke-width:0.1024542;stroke-linecap:square;stroke-linejoin:round;stroke-miterlimit:4;stroke-opacity:1"
             d="m -69.238739,1015.5853 0,32.7775 45.908058,0 0,-24.5491 -8.228437,-8.2284 -37.543452,0 L -69.238739,1015.5853 Z"
             id="path873" />
        </g>
        <g
           id="g864"
           transform="matrix(0.61012576,0,0,0.61012576,58.369797,409.21763)">
          <path
             style="fill:url(#linearGradient7491);fill-opacity:1;stroke:#cccccc;stroke-width:0.1135425;stroke-linecap:square;stroke-linejoin:round;stroke-miterlimit:4;stroke-opacity:1"
             d="m -69.109331,1008.3671 10.897216,0 6.126319,0 0.02895,3.7728 28.878846,0 0,32.5393 L -69.109331,1044.6792 Z"
             id="path7481"
             inkscape:connector-curvature="0"
             sodipodi:nodetypes="cccccccc" />
          <path
             style="opacity:0.14200003;fill:#000000;fill-opacity:1;stroke:#cccccc;stroke-width:0.10210823;stroke-linecap:square;stroke-linejoin:round;stroke-miterlimit:4;stroke-opacity:1"
             d="m -66.978976,1013.0961 c 7.389566,0.1269 15.089572,0.093 22.173688,0.093 l 19.496912,0 0,29.0063 L -66.978976,1042.1956 Z"
             id="path7485"
             inkscape:connector-curvature="0"
             sodipodi:nodetypes="cccccc" />
          <path
             sodipodi:nodetypes="cccccc"
             inkscape:connector-curvature="0"
             id="path7487"
             d="m -65.801662,1014.0939 c 6.972012,0.1226 14.236928,0.09 20.920754,0.09 l 18.395226,0 0,28.0142 L -65.801662,1042.1982 Z"
             style="fill:#ffffff;fill-opacity:1;stroke:none" />
          <path
             id="path7489"
             d="m -69.238739,1015.5853 0,32.7775 45.908058,0 0,-24.5491 -8.228437,-8.2284 -37.543452,0 L -69.238739,1015.5853 Z"
             style="fill:url(#linearGradient896);fill-opacity:1;stroke:#cccccc;stroke-width:0.1024542;stroke-linecap:square;stroke-linejoin:round;stroke-miterlimit:4;stroke-opacity:1"
             inkscape:connector-curvature="0" />
        </g>
      </g>
      <rect
         y="1004.3622"
         x="0"
         height="48"
         width="48"
         id="rect2989-2"
         style="fill:none;stroke:none" />
    </g>
  </g>
</svg>
