<?xml version="1.0" encoding="UTF-8" standalone="no"?>
<!-- Created with Inkscape (http://www.inkscape.org/) -->

<svg
   xmlns:dc="http://purl.org/dc/elements/1.1/"
   xmlns:cc="http://creativecommons.org/ns#"
   xmlns:rdf="http://www.w3.org/1999/02/22-rdf-syntax-ns#"
   xmlns:svg="http://www.w3.org/2000/svg"
   xmlns="http://www.w3.org/2000/svg"
   xmlns:xlink="http://www.w3.org/1999/xlink"
   xmlns:sodipodi="http://sodipodi.sourceforge.net/DTD/sodipodi-0.dtd"
   xmlns:inkscape="http://www.inkscape.org/namespaces/inkscape"
   width="48"
   height="48"
   id="svg3049"
   version="1.1"
   inkscape:version="0.48+devel r11725"
   sodipodi:docname="view-list-icons-symbolic.svg">
  <defs
     id="defs3051">
    <linearGradient
       inkscape:collect="always"
       xlink:href="#linearGradient3754"
       id="linearGradient3770"
       gradientUnits="userSpaceOnUse"
       x1="23.673292"
       y1="1046.1796"
       x2="23.673292"
       y2="1004.5619"
       gradientTransform="translate(-0.0416311,0.21835584)" />
    <linearGradient
       id="linearGradient3754">
      <stop
         style="stop-color:#b1731b;stop-opacity:1;"
         offset="0"
         id="stop3756" />
      <stop
         style="stop-color:#e6ac59;stop-opacity:1;"
         offset="1"
         id="stop3758" />
    </linearGradient>
    <linearGradient
       inkscape:collect="always"
       xlink:href="#linearGradient3754"
       id="linearGradient3767"
       gradientUnits="userSpaceOnUse"
       x1="23.673292"
       y1="1046.1796"
       x2="23.673292"
       y2="1004.5619"
       gradientTransform="translate(-0.0416311,0.21835584)" />
    <linearGradient
       id="linearGradient3919">
      <stop
         style="stop-color:#b1731b;stop-opacity:1;"
         offset="0"
         id="stop3921" />
      <stop
         style="stop-color:#e6ac59;stop-opacity:1;"
         offset="1"
         id="stop3923" />
    </linearGradient>
    <linearGradient
       y2="1004.5619"
       x2="23.673292"
       y1="1046.1796"
       x1="23.673292"
       gradientTransform="translate(-0.0416311,0.21835584)"
       gradientUnits="userSpaceOnUse"
       id="linearGradient3928"
       xlink:href="#linearGradient3754"
       inkscape:collect="always" />
    <linearGradient
       id="linearGradient3754-0">
      <stop
         style="stop-color:#b1731b;stop-opacity:1;"
         offset="0"
         id="stop3756-7" />
      <stop
         style="stop-color:#e6ac59;stop-opacity:1;"
         offset="1"
         id="stop3758-3" />
    </linearGradient>
  </defs>
  <sodipodi:namedview
     id="base"
     pagecolor="#ffffff"
     bordercolor="#666666"
     borderopacity="1.0"
     inkscape:pageopacity="0.0"
     inkscape:pageshadow="2"
     inkscape:zoom="7.919596"
     inkscape:cx="19.821506"
     inkscape:cy="27.571091"
     inkscape:document-units="px"
     inkscape:current-layer="layer1"
     showgrid="false"
     fit-margin-top="0"
     fit-margin-left="0"
     fit-margin-right="0"
     fit-margin-bottom="0"
     inkscape:window-width="1366"
     inkscape:window-height="746"
     inkscape:window-x="0"
     inkscape:window-y="0"
     inkscape:window-maximized="1" />
  <metadata
     id="metadata3054">
    <rdf:RDF>
      <cc:Work
         rdf:about="">
        <dc:format>image/svg+xml</dc:format>
        <dc:type
           rdf:resource="http://purl.org/dc/dcmitype/StillImage" />
        <dc:title />
      </cc:Work>
    </rdf:RDF>
  </metadata>
  <g
     inkscape:label="Capa 1"
     inkscape:groupmode="layer"
     id="layer1"
     transform="translate(-421.71429,-499.79074)">
    <g
       id="g831"
       transform="translate(-0.75761036,0)">
      <path
         transform="translate(420.83928,499.78186)"
         d="m 15.152288,12.328988 c 0,2.126963 -1.724244,3.851207 -3.851206,3.851207 -2.126963,0 -3.8512069,-1.724244 -3.8512069,-3.851207 0,-2.126963 1.7242439,-3.8512065 3.8512069,-3.8512065 C 13.428044,8.4777815 15.152288,10.202025 15.152288,12.328988 Z"
         sodipodi:ry="3.8512065"
         sodipodi:rx="3.8512065"
         sodipodi:cy="12.328988"
         sodipodi:cx="11.301082"
         id="path833"
         style="fill:#4d4d4d;fill-opacity:1;fill-rule:nonzero;stroke:#ffffff;stroke-width:0.60000002;stroke-linecap:butt;stroke-linejoin:miter;stroke-miterlimit:4;stroke-opacity:1;stroke-dasharray:none"
         sodipodi:type="arc" />
      <path
         sodipodi:type="arc"
         style="fill:#4d4d4d;fill-opacity:1;fill-rule:nonzero;stroke:#ffffff;stroke-width:0.60000002;stroke-linecap:butt;stroke-linejoin:miter;stroke-miterlimit:4;stroke-opacity:1;stroke-dasharray:none"
         id="path835"
         sodipodi:cx="11.301082"
         sodipodi:cy="12.328988"
         sodipodi:rx="3.8512065"
         sodipodi:ry="3.8512065"
         d="m 15.152288,12.328988 c 0,2.126963 -1.724244,3.851207 -3.851206,3.851207 -2.126963,0 -3.8512069,-1.724244 -3.8512069,-3.851207 0,-2.126963 1.7242439,-3.8512065 3.8512069,-3.8512065 C 13.428044,8.4777815 15.152288,10.202025 15.152288,12.328988 Z"
         transform="translate(420.83928,511.46175)" />
      <path
         transform="translate(420.83928,523.14164)"
         d="m 15.152288,12.328988 c 0,2.126963 -1.724244,3.851207 -3.851206,3.851207 -2.126963,0 -3.8512069,-1.724244 -3.8512069,-3.851207 0,-2.126963 1.7242439,-3.8512065 3.8512069,-3.8512065 C 13.428044,8.4777815 15.152288,10.202025 15.152288,12.328988 Z"
         sodipodi:ry="3.8512065"
         sodipodi:rx="3.8512065"
         sodipodi:cy="12.328988"
         sodipodi:cx="11.301082"
         id="path837"
         style="fill:#4d4d4d;fill-opacity:1;fill-rule:nonzero;stroke:#ffffff;stroke-width:0.60000002;stroke-linecap:butt;stroke-linejoin:miter;stroke-miterlimit:4;stroke-opacity:1;stroke-dasharray:none"
         sodipodi:type="arc" />
    </g>
    <rect
       style="fill:#4d4d4d;fill-opacity:1;fill-rule:nonzero;stroke:#ffffff;stroke-width:0.69193882;stroke-linecap:butt;stroke-linejoin:miter;stroke-miterlimit:4;stroke-opacity:1;stroke-dasharray:none"
       id="rect827"
       width="36.399822"
       height="3.0198998"
       x="474.61273"
       y="510.64157" />
    <rect
       y="522.28076"
       x="474.61273"
       height="3.0198998"
       width="36.399822"
       id="rect829"
       style="fill:#4d4d4d;fill-opacity:1;fill-rule:nonzero;stroke:#ffffff;stroke-width:0.69193882;stroke-linecap:butt;stroke-linejoin:miter;stroke-miterlimit:4;stroke-opacity:1;stroke-dasharray:none" />
    <rect
       style="fill:#4d4d4d;fill-opacity:1;fill-rule:nonzero;stroke:#ffffff;stroke-width:0.69193882;stroke-linecap:butt;stroke-linejoin:miter;stroke-miterlimit:4;stroke-opacity:1;stroke-dasharray:none"
       id="rect831"
       width="36.399822"
       height="3.0198998"
       x="474.61273"
       y="533.91998" />
    <g
       id="g836"
       transform="translate(-2.1076374e-6,0)">
      <path
         sodipodi:type="arc"
         style="fill:#4d4d4d;fill-opacity:1;fill-rule:nonzero;stroke:#ffffff;stroke-width:0.60000002;stroke-linecap:butt;stroke-linejoin:miter;stroke-miterlimit:4;stroke-opacity:1;stroke-dasharray:none"
         id="path885"
         sodipodi:cx="11.301082"
         sodipodi:cy="12.328988"
         sodipodi:rx="3.8512065"
         sodipodi:ry="3.8512065"
         d="m 15.152288,12.328988 c 0,2.126963 -1.724244,3.851207 -3.851206,3.851207 -2.126963,0 -3.8512069,-1.724244 -3.8512069,-3.851207 0,-2.126963 1.7242439,-3.8512065 3.8512069,-3.8512065 C 13.428044,8.4777815 15.152288,10.202025 15.152288,12.328988 Z"
         transform="translate(434.41321,499.78186)" />
      <path
         transform="translate(434.41321,511.46175)"
         d="m 15.152288,12.328988 c 0,2.126963 -1.724244,3.851207 -3.851206,3.851207 -2.126963,0 -3.8512069,-1.724244 -3.8512069,-3.851207 0,-2.126963 1.7242439,-3.8512065 3.8512069,-3.8512065 C 13.428044,8.4777815 15.152288,10.202025 15.152288,12.328988 Z"
         sodipodi:ry="3.8512065"
         sodipodi:rx="3.8512065"
         sodipodi:cy="12.328988"
         sodipodi:cx="11.301082"
         id="path887"
         style="fill:#4d4d4d;fill-opacity:1;fill-rule:nonzero;stroke:#ffffff;stroke-width:0.60000002;stroke-linecap:butt;stroke-linejoin:miter;stroke-miterlimit:4;stroke-opacity:1;stroke-dasharray:none"
         sodipodi:type="arc" />
      <path
         sodipodi:type="arc"
         style="fill:#4d4d4d;fill-opacity:1;fill-rule:nonzero;stroke:#ffffff;stroke-width:0.60000002;stroke-linecap:butt;stroke-linejoin:miter;stroke-miterlimit:4;stroke-opacity:1;stroke-dasharray:none"
         id="path889"
         sodipodi:cx="11.301082"
         sodipodi:cy="12.328988"
         sodipodi:rx="3.8512065"
         sodipodi:ry="3.8512065"
         d="m 15.152288,12.328988 c 0,2.126963 -1.724244,3.851207 -3.851206,3.851207 -2.126963,0 -3.8512069,-1.724244 -3.8512069,-3.851207 0,-2.126963 1.7242439,-3.8512065 3.8512069,-3.8512065 C 13.428044,8.4777815 15.152288,10.202025 15.152288,12.328988 Z"
         transform="translate(434.41321,523.14164)" />
    </g>
    <g
       id="g841"
       transform="translate(-0.75761296,0)">
      <path
         transform="translate(449.50236,499.78186)"
         d="m 15.152288,12.328988 c 0,2.126963 -1.724244,3.851207 -3.851206,3.851207 -2.126963,0 -3.8512069,-1.724244 -3.8512069,-3.851207 0,-2.126963 1.7242439,-3.8512065 3.8512069,-3.8512065 C 13.428044,8.4777815 15.152288,10.202025 15.152288,12.328988 Z"
         sodipodi:ry="3.8512065"
         sodipodi:rx="3.8512065"
         sodipodi:cy="12.328988"
         sodipodi:cx="11.301082"
         id="path891"
         style="fill:#4d4d4d;fill-opacity:1;fill-rule:nonzero;stroke:#ffffff;stroke-width:0.60000002;stroke-linecap:butt;stroke-linejoin:miter;stroke-miterlimit:4;stroke-opacity:1;stroke-dasharray:none"
         sodipodi:type="arc" />
      <path
         sodipodi:type="arc"
         style="fill:#4d4d4d;fill-opacity:1;fill-rule:nonzero;stroke:#ffffff;stroke-width:0.60000002;stroke-linecap:butt;stroke-linejoin:miter;stroke-miterlimit:4;stroke-opacity:1;stroke-dasharray:none"
         id="path893"
         sodipodi:cx="11.301082"
         sodipodi:cy="12.328988"
         sodipodi:rx="3.8512065"
         sodipodi:ry="3.8512065"
         d="m 15.152288,12.328988 c 0,2.126963 -1.724244,3.851207 -3.851206,3.851207 -2.126963,0 -3.8512069,-1.724244 -3.8512069,-3.851207 0,-2.126963 1.7242439,-3.8512065 3.8512069,-3.8512065 C 13.428044,8.4777815 15.152288,10.202025 15.152288,12.328988 Z"
         transform="translate(449.50236,511.46175)" />
      <path
         transform="translate(449.50236,523.14164)"
         d="m 15.152288,12.328988 c 0,2.126963 -1.724244,3.851207 -3.851206,3.851207 -2.126963,0 -3.8512069,-1.724244 -3.8512069,-3.851207 0,-2.126963 1.7242439,-3.8512065 3.8512069,-3.8512065 C 13.428044,8.4777815 15.152288,10.202025 15.152288,12.328988 Z"
         sodipodi:ry="3.8512065"
         sodipodi:rx="3.8512065"
         sodipodi:cy="12.328988"
         sodipodi:cx="11.301082"
         id="path895"
         style="fill:#4d4d4d;fill-opacity:1;fill-rule:nonzero;stroke:#ffffff;stroke-width:0.60000002;stroke-linecap:butt;stroke-linejoin:miter;stroke-miterlimit:4;stroke-opacity:1;stroke-dasharray:none"
         sodipodi:type="arc" />
    </g>
  </g>
</svg>
