<?xml version="1.0" encoding="UTF-8" standalone="no"?>
<!-- Created with Inkscape (http://www.inkscape.org/) -->

<svg
   xmlns:dc="http://purl.org/dc/elements/1.1/"
   xmlns:cc="http://creativecommons.org/ns#"
   xmlns:rdf="http://www.w3.org/1999/02/22-rdf-syntax-ns#"
   xmlns:svg="http://www.w3.org/2000/svg"
   xmlns="http://www.w3.org/2000/svg"
   xmlns:xlink="http://www.w3.org/1999/xlink"
   xmlns:sodipodi="http://sodipodi.sourceforge.net/DTD/sodipodi-0.dtd"
   xmlns:inkscape="http://www.inkscape.org/namespaces/inkscape"
   width="48"
   height="48"
   id="svg3840"
   version="1.1"
   inkscape:version="0.48+devel r11521"
   sodipodi:docname="address-book-insert.svg">
  <defs
     id="defs3842">
    <linearGradient
       inkscape:collect="always"
       xlink:href="#linearGradient3743-6"
       id="linearGradient3811"
       gradientUnits="userSpaceOnUse"
       gradientTransform="matrix(1.011323,0,0,1.0258207,-35.704255,-646.07139)"
       x1="28.595896"
       y1="1009.6199"
       x2="47.013344"
       y2="1029.014" />
    <linearGradient
       id="linearGradient3743-6">
      <stop
         id="stop3745-4"
         offset="0"
         style="stop-color:#ff2c00;stop-opacity:1;" />
      <stop
         id="stop3747-2"
         offset="1"
         style="stop-color:#6c3935;stop-opacity:1;" />
    </linearGradient>
    <linearGradient
       inkscape:collect="always"
       xlink:href="#linearGradient5574"
       id="linearGradient3815"
       gradientUnits="userSpaceOnUse"
       gradientTransform="matrix(0.18648993,0,0,1.0258207,-26.515237,-646.07139)"
       x1="49.387131"
       y1="1030.889"
       x2="-49.016609"
       y2="1013.3749" />
    <linearGradient
       id="linearGradient5574">
      <stop
         style="stop-color:#000000;stop-opacity:1"
         offset="0"
         id="stop5576" />
      <stop
         style="stop-color:#f0f0f0;stop-opacity:1;"
         offset="1"
         id="stop5578" />
    </linearGradient>
    <linearGradient
       inkscape:collect="always"
       xlink:href="#linearGradient3755-9"
       id="linearGradient3819"
       gradientUnits="userSpaceOnUse"
       x1="30.372152"
       y1="7.2212749"
       x2="30.872379"
       y2="25.747164" />
    <linearGradient
       id="linearGradient3755-9">
      <stop
         style="stop-color:#ffdc64;stop-opacity:1;"
         offset="0"
         id="stop3757-1" />
      <stop
         style="stop-color:#c88109;stop-opacity:1;"
         offset="1"
         id="stop3759-4" />
    </linearGradient>
    <linearGradient
       inkscape:collect="always"
       xlink:href="#linearGradient5604"
       id="linearGradient3822"
       gradientUnits="userSpaceOnUse"
       gradientTransform="matrix(1.1368507,0,0,1.1368507,-40.387678,-763.06344)"
       x1="22.982141"
       y1="1011.6926"
       x2="28.76634"
       y2="1023.4783" />
    <linearGradient
       id="linearGradient5604">
      <stop
         id="stop5606"
         offset="0"
         style="stop-color:#ff6664;stop-opacity:1;" />
      <stop
         id="stop5608"
         offset="1"
         style="stop-color:#c84009;stop-opacity:1;" />
    </linearGradient>
    <linearGradient
       inkscape:collect="always"
       xlink:href="#linearGradient5604"
       id="linearGradient3007"
       gradientUnits="userSpaceOnUse"
       gradientTransform="matrix(1.1368507,0,0,1.1368507,142.50193,-691.63486)"
       x1="22.982141"
       y1="1011.6926"
       x2="28.76634"
       y2="1023.4783" />
    <linearGradient
       inkscape:collect="always"
       xlink:href="#linearGradient5574"
       id="linearGradient3011"
       gradientUnits="userSpaceOnUse"
       gradientTransform="matrix(0.18648993,0,0,1.0258207,156.37437,-574.64281)"
       x1="49.387131"
       y1="1030.889"
       x2="-49.016609"
       y2="1013.3749" />
    <linearGradient
       inkscape:collect="always"
       xlink:href="#linearGradient3743-6"
       id="linearGradient3014"
       gradientUnits="userSpaceOnUse"
       gradientTransform="matrix(1.011323,0,0,1.0258207,147.18536,-574.64281)"
       x1="28.595896"
       y1="1009.6199"
       x2="47.013344"
       y2="1029.014" />
    <linearGradient
       inkscape:collect="always"
       xlink:href="#linearGradient3743-6"
       id="linearGradient3818"
       gradientUnits="userSpaceOnUse"
       gradientTransform="matrix(1.011323,0,0,1.0258207,147.18536,-574.64281)"
       x1="28.595896"
       y1="1009.6199"
       x2="47.013344"
       y2="1029.014" />
    <linearGradient
       inkscape:collect="always"
       xlink:href="#linearGradient5574"
       id="linearGradient3820"
       gradientUnits="userSpaceOnUse"
       gradientTransform="matrix(0.18648993,0,0,1.0258207,156.37437,-574.64281)"
       x1="49.387131"
       y1="1030.889"
       x2="-49.016609"
       y2="1013.3749" />
    <linearGradient
       inkscape:collect="always"
       xlink:href="#linearGradient3743-6-5"
       id="linearGradient3816"
       gradientUnits="userSpaceOnUse"
       gradientTransform="matrix(0.96799712,0,0,1.0252613,194.68701,-571.88238)"
       x1="24.113745"
       y1="1007.2183"
       x2="24.113745"
       y2="1049.5842" />
    <linearGradient
       id="linearGradient3743-6-5">
      <stop
         id="stop3745-4-8"
         offset="0"
         style="stop-color:#ff2c00;stop-opacity:1;" />
      <stop
         id="stop3747-2-0"
         offset="1"
         style="stop-color:#6c3935;stop-opacity:1;" />
    </linearGradient>
    <linearGradient
       inkscape:collect="always"
       xlink:href="#linearGradient5574-7"
       id="linearGradient3821"
       gradientUnits="userSpaceOnUse"
       gradientTransform="matrix(0.96799712,0,0,-1.0252613,194.68701,1536.7809)"
       x1="13.159639"
       y1="1026.1847"
       x2="-32.093723"
       y2="1026.1847" />
    <linearGradient
       id="linearGradient5574-7">
      <stop
         style="stop-color:#000000;stop-opacity:1"
         offset="0"
         id="stop5576-9" />
      <stop
         style="stop-color:#f0f0f0;stop-opacity:1;"
         offset="1"
         id="stop5578-4" />
    </linearGradient>
    <linearGradient
       y2="1026.1847"
       x2="-32.093723"
       y1="1026.1847"
       x1="13.159639"
       gradientTransform="matrix(0.96799712,0,0,-1.0252613,194.68701,1536.7809)"
       gradientUnits="userSpaceOnUse"
       id="linearGradient70"
       xlink:href="#linearGradient5574-7"
       inkscape:collect="always" />
    <linearGradient
       id="linearGradient3755-9-4">
      <stop
         id="stop3757-1-2"
         offset="0"
         style="stop-color:#ffdc64;stop-opacity:1;" />
      <stop
         id="stop3759-4-6"
         offset="1"
         style="stop-color:#c88109;stop-opacity:1;" />
    </linearGradient>
    <linearGradient
       y2="25.747164"
       x2="30.872379"
       y1="7.2212749"
       x1="30.372152"
       gradientUnits="userSpaceOnUse"
       id="linearGradient3819-8"
       xlink:href="#linearGradient3755-9-4"
       inkscape:collect="always" />
  </defs>
  <sodipodi:namedview
     id="base"
     pagecolor="#ffffff"
     bordercolor="#666666"
     borderopacity="1.0"
     inkscape:pageopacity="0.0"
     inkscape:pageshadow="2"
     inkscape:zoom="7.9195959"
     inkscape:cx="19.304682"
     inkscape:cy="21.400682"
     inkscape:document-units="px"
     inkscape:current-layer="layer1"
     showgrid="false"
     fit-margin-top="0"
     fit-margin-left="0"
     fit-margin-right="0"
     fit-margin-bottom="0"
     inkscape:window-width="960"
     inkscape:window-height="1035"
     inkscape:window-x="0"
     inkscape:window-y="26"
     inkscape:window-maximized="0" />
  <metadata
     id="metadata3845">
    <rdf:RDF>
      <cc:Work
         rdf:about="">
        <dc:format>image/svg+xml</dc:format>
        <dc:type
           rdf:resource="http://purl.org/dc/dcmitype/StillImage" />
        <dc:title />
      </cc:Work>
    </rdf:RDF>
  </metadata>
  <g
     inkscape:label="Capa 1"
     inkscape:groupmode="layer"
     id="layer1"
     transform="translate(-153.14285,-456.93362)">
    <g
       id="g3809"
       transform="translate(-40.776025,-1.5241189)">
      <rect
         style="fill:url(#linearGradient3816);fill-opacity:1;stroke:#7d7d7d;stroke-width:0.39848712;stroke-miterlimit:4;stroke-opacity:1;stroke-dasharray:none"
         id="rect2992"
         width="44.601513"
         height="44.601513"
         x="195.61812"
         y="460.15698"
         ry="5.6755357" />
      <text
         sodipodi:linespacing="125%"
         id="text3016-9"
         y="488.38858"
         x="207.64194"
         style="font-size:19.89308357px;font-style:normal;font-variant:normal;font-weight:normal;font-stretch:normal;line-height:125%;letter-spacing:0px;word-spacing:0px;fill:#ffffff;fill-opacity:1;stroke:none;font-family:Decker;-inkscape-font-specification:Decker"
         xml:space="preserve"><tspan
           y="488.38858"
           x="207.64194"
           id="tspan3018-7"
           sodipodi:role="line">@</tspan></text>
      <path
         inkscape:connector-curvature="0"
         id="rect3799"
         d="m 201.2991,504.74612 c -3.14424,0 -5.6875,-2.54325 -5.6875,-5.6875 l 0,-33.25 c 0,-3.14425 2.54326,-5.65625 5.6875,-5.65625 l 1.21875,0 0,44.59375 -1.21875,0 z"
         style="fill:url(#linearGradient70);fill-opacity:1;stroke:none" />
    </g>
    <rect
       style="fill:none;stroke:none"
       id="rect3801"
       width="48"
       height="48"
       x="153.14285"
       y="456.93362" />
    <path
       style="fill:#5fbcd3;fill-opacity:1;stroke:none"
       d="m 161.68639,490.98697 0,3.27621 -7.04354,0 0,4.69184 7.04354,0 0,3.54832 8.66943,-5.84367 z"
       id="path5583-3"
       inkscape:connector-curvature="0"
       sodipodi:nodetypes="cccccccc" />
  </g>
</svg>
