<?xml version="1.0" encoding="UTF-8" standalone="no"?>
<!-- Created with Inkscape (http://www.inkscape.org/) -->

<svg
   xmlns:dc="http://purl.org/dc/elements/1.1/"
   xmlns:cc="http://creativecommons.org/ns#"
   xmlns:rdf="http://www.w3.org/1999/02/22-rdf-syntax-ns#"
   xmlns:svg="http://www.w3.org/2000/svg"
   xmlns="http://www.w3.org/2000/svg"
   xmlns:sodipodi="http://sodipodi.sourceforge.net/DTD/sodipodi-0.dtd"
   xmlns:inkscape="http://www.inkscape.org/namespaces/inkscape"
   width="48"
   height="48"
   id="svg6388"
   version="1.1"
   inkscape:version="0.48+devel r11556"
   sodipodi:docname="document-new.svg">
  <defs
     id="defs6390">
    <linearGradient
       id="linearGradient3806">
      <stop
         id="stop3808-07"
         offset="0"
         style="stop-color:#00d0ff;stop-opacity:1;" />
      <stop
         id="stop3810"
         offset="1"
         style="stop-color:#00f0ff;stop-opacity:1;" />
    </linearGradient>
  </defs>
  <sodipodi:namedview
     id="base"
     pagecolor="#ffffff"
     bordercolor="#666666"
     borderopacity="1.0"
     inkscape:pageopacity="0.0"
     inkscape:pageshadow="2"
     inkscape:zoom="1.1648877"
     inkscape:cx="-26.972767"
     inkscape:cy="17.575602"
     inkscape:document-units="px"
     inkscape:current-layer="layer1"
     showgrid="false"
     inkscape:window-width="1366"
     inkscape:window-height="746"
     inkscape:window-x="0"
     inkscape:window-y="0"
     inkscape:window-maximized="1"
     showguides="true"
     inkscape:guide-bbox="true" />
  <metadata
     id="metadata6393">
    <rdf:RDF>
      <cc:Work
         rdf:about="">
        <dc:format>image/svg+xml</dc:format>
        <dc:type
           rdf:resource="http://purl.org/dc/dcmitype/StillImage" />
        <dc:title />
      </cc:Work>
    </rdf:RDF>
  </metadata>
  <g
     inkscape:label="Capa 1"
     inkscape:groupmode="layer"
     id="layer1"
     transform="translate(0,-1004.3622)">
    <g
       id="g992"
       transform="matrix(1.5557949,0,0,1.5557949,-87.636609,-583.82035)">
      <path
         sodipodi:nodetypes="ccccccccccccc"
         inkscape:connector-curvature="0"
         id="path970"
         d="m 76.795759,1036.3793 3.72918,0 0,4.4121 4.517013,0 0,3.7293 -4.538768,0 0,4.3856 -3.702909,0 0,-4.3319 -4.547793,0 0,-3.7618 4.543277,0 c 0,-1.5582 0,-2.8749 0,-4.4333 z"
         style="fill:#5fbcd3;fill-opacity:1;stroke:none" />
      <path
         sodipodi:nodetypes="ccccccccccccccc"
         inkscape:connector-curvature="0"
         id="rect975"
         transform="translate(0,1004.3622)"
         d="m 58.46875,19.21875 0,25.3125 17.456172,0 0,-3.50025 -4.395926,0 0,-5.338898 4.364676,0 0,-4.524035 4.606328,0 0,-5.980567 L 80.28125,25 l -6.4375,0 -0.0625,-5.59375 -0.21875,-0.1875 z"
         style="fill:#4d4d4d;fill-opacity:1;stroke:none" />
      <path
         sodipodi:nodetypes="cccc"
         inkscape:connector-curvature="0"
         id="path977"
         d="m 80.5,1028.5359 -5.721561,0 -0.05157,-4.9549 z"
         inkscape:transform-center-y="-0.63645977"
         inkscape:transform-center-x="-0.32798422"
         style="fill:#4d4d4d;fill-opacity:1;stroke:none" />
    </g>
    <rect
       style="fill:none;stroke:none"
       id="rect6424"
       width="48"
       height="48"
       x="0"
       y="1004.3622" />
  </g>
</svg>
