<?xml version="1.0" encoding="UTF-8" standalone="no"?>
<!-- Created with Inkscape (http://www.inkscape.org/) -->

<svg
   xmlns:dc="http://purl.org/dc/elements/1.1/"
   xmlns:cc="http://creativecommons.org/ns#"
   xmlns:rdf="http://www.w3.org/1999/02/22-rdf-syntax-ns#"
   xmlns:svg="http://www.w3.org/2000/svg"
   xmlns="http://www.w3.org/2000/svg"
   xmlns:sodipodi="http://sodipodi.sourceforge.net/DTD/sodipodi-0.dtd"
   xmlns:inkscape="http://www.inkscape.org/namespaces/inkscape"
   width="48"
   height="48"
   id="svg4283"
   version="1.1"
   inkscape:version="0.48+devel r11556"
   sodipodi:docname="Nuevo documento 6">
  <defs
     id="defs4285" />
  <sodipodi:namedview
     id="base"
     pagecolor="#ffffff"
     bordercolor="#666666"
     borderopacity="1.0"
     inkscape:pageopacity="0.0"
     inkscape:pageshadow="2"
     inkscape:zoom="4.615625"
     inkscape:cx="27.422146"
     inkscape:cy="28.383682"
     inkscape:document-units="px"
     inkscape:current-layer="layer1"
     showgrid="false"
     width="0px"
     height="0px"
     fit-margin-top="0"
     fit-margin-left="0"
     fit-margin-right="0"
     fit-margin-bottom="0"
     inkscape:window-width="891"
     inkscape:window-height="709"
     inkscape:window-x="313"
     inkscape:window-y="18"
     inkscape:window-maximized="0" />
  <metadata
     id="metadata4288">
    <rdf:RDF>
      <cc:Work
         rdf:about="">
        <dc:format>image/svg+xml</dc:format>
        <dc:type
           rdf:resource="http://purl.org/dc/dcmitype/StillImage" />
        <dc:title></dc:title>
      </cc:Work>
    </rdf:RDF>
  </metadata>
  <g
     inkscape:label="Capa 1"
     inkscape:groupmode="layer"
     id="layer1"
     transform="translate(-513.14288,-468.36218)">
    <rect
       style="opacity:0.35648151;fill:none;stroke:none"
       id="rect4543"
       width="48"
       height="48"
       x="513.14288"
       y="468.36218" />
    <path
       style="fill:#4d4d4d;fill-opacity:1;stroke:none"
       d="m 521.02424,473.817 0,17.5305 0,1.2942 0,18.2658 6.67687,0 18.88349,0 6.67687,0 0,-19.5894 0,-7.4122 0,-1.3236 -0.32355,-0.2942 -9.41233,0 -0.0882,-8.1769 -0.32355,-0.2942 -22.08955,0 z m 23.79555,0 0.0588,7.2652 8.38285,0 -8.44168,-7.2652 z"
       id="rect975"
       inkscape:connector-curvature="0" />
    <g
       transform="translate(513.33122,-538.8007)"
       id="g3131"
       style="fill:#ffffff;stroke:none">
      <rect
         transform="matrix(0.8660254,0.5,-0.5,0.8660254,0,0)"
         style="fill:#ffffff;stroke:none"
         id="rect4290-7"
         width="4.5694046"
         height="2.3643727"
         x="546.71985"
         y="875.00049" />
      <path
         inkscape:connector-curvature="0"
         id="rect4274-6"
         d="m 34.218248,1034.1552 -5.547311,9.6082 1.518722,-0.4069 0.467118,1.5535 1.498663,-0.4186 0.487177,1.5651 5.547311,-9.6082 -3.97168,-2.2931 z"
         style="fill:#ffffff;stroke:none" />
      <path
         inkscape:transform-center-x="0.008284"
         sodipodi:nodetypes="ccccccc"
         inkscape:connector-curvature="0"
         id="path4255-3"
         d="m 31.843653,1047.4236 -3.95712,2.2846 4e-6,-4.5694 1.510986,-0.4324 0.467584,1.5749 1.511023,-0.4325 z"
         inkscape:transform-center-y="1.8927826"
         style="fill:#ffffff;stroke:none" />
    </g>
  </g>
</svg>
