<?xml version="1.0" encoding="UTF-8" standalone="no"?>
<!-- Created with Inkscape (http://www.inkscape.org/) -->

<svg
   xmlns:dc="http://purl.org/dc/elements/1.1/"
   xmlns:cc="http://creativecommons.org/ns#"
   xmlns:rdf="http://www.w3.org/1999/02/22-rdf-syntax-ns#"
   xmlns:svg="http://www.w3.org/2000/svg"
   xmlns="http://www.w3.org/2000/svg"
   xmlns:sodipodi="http://sodipodi.sourceforge.net/DTD/sodipodi-0.dtd"
   xmlns:inkscape="http://www.inkscape.org/namespaces/inkscape"
   width="48"
   height="48"
   id="svg11925"
   version="1.1"
   inkscape:version="0.48+devel r11556"
   sodipodi:docname="stock_save.svg">
  <defs
     id="defs11927" />
  <sodipodi:namedview
     id="base"
     pagecolor="#ffffff"
     bordercolor="#666666"
     borderopacity="1.0"
     inkscape:pageopacity="0.0"
     inkscape:pageshadow="2"
     inkscape:zoom="2.866279"
     inkscape:cx="59.458214"
     inkscape:cy="38.164223"
     inkscape:document-units="px"
     inkscape:current-layer="layer1"
     showgrid="true"
     fit-margin-top="0"
     fit-margin-left="0"
     fit-margin-right="0"
     fit-margin-bottom="0"
     inkscape:window-width="1102"
     inkscape:window-height="748"
     inkscape:window-x="262"
     inkscape:window-y="-3"
     inkscape:window-maximized="0" />
  <metadata
     id="metadata11930">
    <rdf:RDF>
      <cc:Work
         rdf:about="">
        <dc:format>image/svg+xml</dc:format>
        <dc:type
           rdf:resource="http://purl.org/dc/dcmitype/StillImage" />
        <dc:title></dc:title>
      </cc:Work>
    </rdf:RDF>
  </metadata>
  <g
     inkscape:label="Capa 1"
     inkscape:groupmode="layer"
     id="layer1"
     transform="translate(-387.42856,-548.36218)">
    <rect
       style="fill:none;stroke:none"
       id="rect4323"
       width="48"
       height="48"
       x="387.42856"
       y="548.36218" />
    <path
       style="fill:#4d4d4d;fill-opacity:1;stroke:none"
       d="m 390.75733,552.66162 0,39.38106 27.15823,0 0,-2.30026 -6.83916,-6.84589 0,-2.01542 6.79054,0 0,-9.6288 7.1665,0 0,-9.30454 -0.34033,-0.29171 -10.01543,0 -0.0972,-8.70273 -0.34033,-0.29171 z"
       id="rect975"
       inkscape:connector-curvature="0"
       sodipodi:nodetypes="ccccccccccccccc" />
    <path
       style="fill:#4d4d4d;fill-opacity:1;stroke:none"
       inkscape:transform-center-x="-0.32798422"
       inkscape:transform-center-y="-0.63645977"
       d="m 425.03344,560.37051 -8.90158,0 -0.0802,-7.70881 z"
       id="path977"
       inkscape:connector-curvature="0"
       sodipodi:nodetypes="cccc" />
    <path
       sodipodi:nodetypes="cccccccc"
       inkscape:connector-curvature="0"
       id="path5583-3"
       d="m 432.01257,582.16255 -6.93634,0 0,-9.60422 -5.93114,0 0,9.60422 -6.87497,0 10.0178,9.98941 z"
       style="fill:#55d400;fill-opacity:1;stroke:none" />
  </g>
</svg>
