<?xml version="1.0" encoding="UTF-8" standalone="no"?>
<!-- Created with Inkscape (http://www.inkscape.org/) -->

<svg
   xmlns:dc="http://purl.org/dc/elements/1.1/"
   xmlns:cc="http://creativecommons.org/ns#"
   xmlns:rdf="http://www.w3.org/1999/02/22-rdf-syntax-ns#"
   xmlns:svg="http://www.w3.org/2000/svg"
   xmlns="http://www.w3.org/2000/svg"
   xmlns:xlink="http://www.w3.org/1999/xlink"
   xmlns:sodipodi="http://sodipodi.sourceforge.net/DTD/sodipodi-0.dtd"
   xmlns:inkscape="http://www.inkscape.org/namespaces/inkscape"
   width="48"
   height="48"
   id="svg2"
   version="1.1"
   inkscape:version="0.48.3.1 r9886"
   sodipodi:docname="edit-find.svg">
  <defs
     id="defs4">
    <linearGradient
       id="linearGradient4020">
      <stop
         id="stop4022"
         offset="0"
         style="stop-color:#333333;stop-opacity:1;" />
      <stop
         style="stop-color:#333333;stop-opacity:1;"
         offset="0.6659556"
         id="stop4024" />
      <stop
         style="stop-color:#c8c8c8;stop-opacity:1;"
         offset="0.94655997"
         id="stop4026" />
      <stop
         id="stop4028"
         offset="1"
         style="stop-color:#646464;stop-opacity:1;" />
    </linearGradient>
    <linearGradient
       id="linearGradient3995">
      <stop
         style="stop-color:#333333;stop-opacity:1;"
         offset="0"
         id="stop3997" />
      <stop
         id="stop3999"
         offset="0.18056653"
         style="stop-color:#646464;stop-opacity:1;" />
      <stop
         id="stop4001"
         offset="0.33613682"
         style="stop-color:#a0a0a0;stop-opacity:1;" />
      <stop
         id="stop4003"
         offset="0.66973937"
         style="stop-color:#dcdcdc;stop-opacity:1;" />
      <stop
         style="stop-color:#646464;stop-opacity:1;"
         offset="1"
         id="stop4005" />
    </linearGradient>
    <radialGradient
       gradientTransform="translate(41.932939,999.9737)"
       r="14.5"
       fy="16.84375"
       fx="-17.9375"
       cy="16.84375"
       cx="-17.9375"
       gradientUnits="userSpaceOnUse"
       id="radialGradient3779"
       xlink:href="#linearGradient3781"
       inkscape:collect="always" />
    <linearGradient
       y2="21.763468"
       x2="-14.10183"
       y1="-6.2416911"
       x1="-18.055481"
       gradientTransform="matrix(0.72379074,0.33750916,-0.33750916,0.72379074,42.108304,1010.899)"
       gradientUnits="userSpaceOnUse"
       id="linearGradient3775"
       xlink:href="#linearGradient3632"
       inkscape:collect="always" />
    <linearGradient
       y2="21.763468"
       x2="-14.10183"
       y1="-6.2416911"
       x1="-18.055481"
       gradientTransform="matrix(0.72379074,0.33750916,-0.33750916,0.72379074,0.17536536,1015.2875)"
       gradientUnits="userSpaceOnUse"
       id="linearGradient3772"
       xlink:href="#linearGradient3632"
       inkscape:collect="always" />
    <linearGradient
       y2="9.8220205"
       x2="-22.746845"
       y1="23.23811"
       x1="-17.425131"
       gradientUnits="userSpaceOnUse"
       id="linearGradient3770"
       xlink:href="#linearGradient3621"
       inkscape:collect="always" />
    <radialGradient
       r="14.5"
       fy="16.84375"
       fx="-17.9375"
       cy="16.84375"
       cx="-17.9375"
       gradientUnits="userSpaceOnUse"
       id="radialGradient3768"
       xlink:href="#linearGradient3681"
       inkscape:collect="always" />
    <linearGradient
       y2="1035.832"
       x2="28.587054"
       y1="1035.832"
       x1="22.694197"
       gradientTransform="matrix(0.95474209,0,0,0.93769314,-0.48474606,61.395429)"
       gradientUnits="userSpaceOnUse"
       id="linearGradient3766"
       xlink:href="#linearGradient3642"
       inkscape:collect="always" />
    <linearGradient
       y2="1050.5346"
       x2="29.140625"
       y1="1050.5346"
       x1="22.140625"
       gradientTransform="matrix(0.93769314,0,0,0.93769314,-0.04759942,61.395429)"
       gradientUnits="userSpaceOnUse"
       id="linearGradient3759"
       xlink:href="#linearGradient3659"
       inkscape:collect="always" />
    <linearGradient
       y2="1060.3436"
       x2="25.640625"
       y1="1063.1384"
       x1="25.640625"
       gradientTransform="matrix(0.93769314,0,0,0.93769314,-0.04759942,61.395429)"
       gradientUnits="userSpaceOnUse"
       id="linearGradient3756"
       xlink:href="#linearGradient3707"
       inkscape:collect="always" />
    <linearGradient
       y2="1060.3436"
       x2="25.640625"
       y1="1063.1384"
       x1="25.640625"
       gradientTransform="matrix(0.93769314,0,0,0.93769314,-0.04759942,61.395429)"
       gradientUnits="userSpaceOnUse"
       id="linearGradient3752"
       xlink:href="#linearGradient3707"
       inkscape:collect="always" />
    <linearGradient
       y2="1050.5346"
       x2="29.140625"
       y1="1050.5346"
       x1="22.140625"
       gradientTransform="matrix(0.93769314,0,0,0.93769314,-0.04759942,61.395429)"
       gradientUnits="userSpaceOnUse"
       id="linearGradient3750"
       xlink:href="#linearGradient3659"
       inkscape:collect="always" />
    <linearGradient
       y2="21.763468"
       x2="-14.10183"
       y1="-6.2416911"
       x1="-18.055481"
       gradientTransform="matrix(0.72379074,0.33750916,-0.33750916,0.72379074,0.17536536,1015.2875)"
       gradientUnits="userSpaceOnUse"
       id="linearGradient3748"
       xlink:href="#linearGradient3632"
       inkscape:collect="always" />
    <linearGradient
       y2="9.8220205"
       x2="-22.746845"
       y1="23.23811"
       x1="-17.425131"
       gradientUnits="userSpaceOnUse"
       id="linearGradient3746"
       xlink:href="#linearGradient3621"
       inkscape:collect="always" />
    <radialGradient
       r="14.5"
       fy="16.84375"
       fx="-17.9375"
       cy="16.84375"
       cx="-17.9375"
       gradientUnits="userSpaceOnUse"
       id="radialGradient3744"
       xlink:href="#linearGradient3681"
       inkscape:collect="always" />
    <linearGradient
       y2="1035.832"
       x2="28.587054"
       y1="1035.832"
       x1="22.694197"
       gradientTransform="matrix(0.95474209,0,0,0.93769314,-0.48474606,61.395429)"
       gradientUnits="userSpaceOnUse"
       id="linearGradient3742"
       xlink:href="#linearGradient3642"
       inkscape:collect="always" />
    <linearGradient
       y2="21.763468"
       x2="-14.10183"
       y1="-6.2416911"
       x1="-18.055481"
       gradientTransform="matrix(0.72379074,0.33750916,-0.33750916,0.72379074,0.17536536,1015.2875)"
       gradientUnits="userSpaceOnUse"
       id="linearGradient3718"
       xlink:href="#linearGradient3632"
       inkscape:collect="always" />
    <linearGradient
       y2="9.8220205"
       x2="-22.746845"
       y1="23.23811"
       x1="-17.425131"
       gradientUnits="userSpaceOnUse"
       id="linearGradient3716"
       xlink:href="#linearGradient3621"
       inkscape:collect="always" />
    <radialGradient
       r="14.5"
       fy="16.84375"
       fx="-17.9375"
       cy="16.84375"
       cx="-17.9375"
       gradientUnits="userSpaceOnUse"
       id="radialGradient3714"
       xlink:href="#linearGradient3681"
       inkscape:collect="always" />
    <linearGradient
       gradientTransform="matrix(0.72379074,0.33750916,-0.33750916,0.72379074,0.17536536,1015.2875)"
       y2="21.763468"
       x2="-14.10183"
       y1="-6.2416911"
       x1="-18.055481"
       gradientUnits="userSpaceOnUse"
       id="linearGradient3702"
       xlink:href="#linearGradient3632"
       inkscape:collect="always" />
    <linearGradient
       gradientUnits="userSpaceOnUse"
       y2="9.8220205"
       x2="-22.746845"
       y1="23.23811"
       x1="-17.425131"
       id="linearGradient3697"
       xlink:href="#linearGradient3621"
       inkscape:collect="always" />
    <radialGradient
       gradientUnits="userSpaceOnUse"
       r="14.5"
       fy="16.84375"
       fx="-17.9375"
       cy="16.84375"
       cx="-17.9375"
       id="radialGradient3679"
       xlink:href="#linearGradient3681"
       inkscape:collect="always" />
    <linearGradient
       y2="1035.832"
       x2="28.587054"
       y1="1035.832"
       x1="22.694197"
       gradientTransform="matrix(0.95474209,0,0,0.93769314,-0.48474606,61.395429)"
       gradientUnits="userSpaceOnUse"
       id="linearGradient3663"
       xlink:href="#linearGradient3642"
       inkscape:collect="always" />
    <radialGradient
       r="13.265625"
       fy="16.3125"
       fx="25.640625"
       cy="16.3125"
       cx="25.640625"
       gradientTransform="matrix(1.0806687,0,0,1.0793958,-3.7135822,999.20982)"
       gradientUnits="userSpaceOnUse"
       id="radialGradient3660"
       xlink:href="#linearGradient3609"
       inkscape:collect="always" />
    <linearGradient
       y2="27.826067"
       x2="25.380083"
       y1="-0.69271553"
       x1="25.380083"
       gradientTransform="matrix(0.86748493,0.40451486,-0.40451486,0.86748493,9.5933315,990.2176)"
       gradientUnits="userSpaceOnUse"
       id="linearGradient3656"
       xlink:href="#linearGradient3632"
       inkscape:collect="always" />
    <linearGradient
       y2="1050.5346"
       x2="29.140625"
       y1="1050.5346"
       x1="22.140625"
       gradientTransform="matrix(0.93769314,0,0,0.93769314,-0.04759942,61.395429)"
       gradientUnits="userSpaceOnUse"
       id="linearGradient3653"
       xlink:href="#linearGradient3659"
       inkscape:collect="always" />
    <linearGradient
       y2="1060.3436"
       x2="25.640625"
       y1="1063.1384"
       x1="25.640625"
       gradientTransform="matrix(0.93769314,0,0,0.93769314,-0.04759942,61.395429)"
       gradientUnits="userSpaceOnUse"
       id="linearGradient3650"
       xlink:href="#linearGradient3707"
       inkscape:collect="always" />
    <linearGradient
       y2="1060.3436"
       x2="25.640625"
       y1="1063.1384"
       x1="25.640625"
       gradientTransform="translate(-1.6460832,-3.4019119)"
       gradientUnits="userSpaceOnUse"
       id="linearGradient2925"
       xlink:href="#linearGradient3707"
       inkscape:collect="always" />
    <linearGradient
       y2="1050.5346"
       x2="29.140625"
       y1="1050.5346"
       x1="22.140625"
       gradientTransform="translate(-1.6460832,-3.4019119)"
       gradientUnits="userSpaceOnUse"
       id="linearGradient2923"
       xlink:href="#linearGradient3659"
       inkscape:collect="always" />
    <linearGradient
       y2="27.826067"
       x2="25.380083"
       y1="-0.69271553"
       x1="25.380083"
       gradientTransform="matrix(0.92512667,0.43139364,-0.43139364,0.92512667,8.6354583,987.13767)"
       gradientUnits="userSpaceOnUse"
       id="linearGradient2921"
       xlink:href="#linearGradient3632"
       inkscape:collect="always" />
    <linearGradient
       y2="8.5673914"
       x2="19.392487"
       y1="28.811174"
       x1="31.652805"
       gradientUnits="userSpaceOnUse"
       id="linearGradient2919"
       xlink:href="#linearGradient3621"
       inkscape:collect="always" />
    <radialGradient
       r="13.265625"
       fy="16.3125"
       fx="25.640625"
       cy="16.3125"
       cx="25.640625"
       gradientTransform="matrix(1.1524759,0,0,1.1511184,-5.5556594,996.7274)"
       gradientUnits="userSpaceOnUse"
       id="radialGradient2917"
       xlink:href="#linearGradient3609"
       inkscape:collect="always" />
    <linearGradient
       y2="1035.832"
       x2="28.587054"
       y1="1035.832"
       x1="22.694197"
       gradientTransform="matrix(1.0181818,0,0,1,-2.1122769,-3.4019119)"
       gradientUnits="userSpaceOnUse"
       id="linearGradient2915"
       xlink:href="#linearGradient3642"
       inkscape:collect="always" />
    <linearGradient
       y2="8.5673914"
       x2="19.392487"
       y1="28.811174"
       x1="31.652805"
       gradientUnits="userSpaceOnUse"
       id="linearGradient2905"
       xlink:href="#linearGradient3621"
       inkscape:collect="always" />
    <linearGradient
       y2="1035.832"
       x2="28.587054"
       y1="1035.832"
       x1="22.694197"
       gradientTransform="matrix(1.0181818,0,0,1,-2.1122769,-3.4019119)"
       gradientUnits="userSpaceOnUse"
       id="linearGradient2903"
       xlink:href="#linearGradient3642"
       inkscape:collect="always" />
    <radialGradient
       r="13.265625"
       fy="16.3125"
       fx="25.640625"
       cy="16.3125"
       cx="25.640625"
       gradientTransform="matrix(1.1524759,0,0,1.1511184,-5.5556594,996.7274)"
       gradientUnits="userSpaceOnUse"
       id="radialGradient2900"
       xlink:href="#linearGradient3609"
       inkscape:collect="always" />
    <linearGradient
       y2="27.826067"
       x2="25.380083"
       y1="-0.69271553"
       x1="25.380083"
       gradientTransform="matrix(0.92512667,0.43139364,-0.43139364,0.92512667,8.6354583,987.13767)"
       gradientUnits="userSpaceOnUse"
       id="linearGradient2896"
       xlink:href="#linearGradient3632"
       inkscape:collect="always" />
    <linearGradient
       gradientTransform="translate(-1.6460832,-3.4019119)"
       y2="1050.5346"
       x2="29.140625"
       y1="1050.5346"
       x1="22.140625"
       gradientUnits="userSpaceOnUse"
       id="linearGradient2893"
       xlink:href="#linearGradient3659"
       inkscape:collect="always" />
    <linearGradient
       gradientTransform="translate(-1.6460832,-3.4019119)"
       y2="1060.3436"
       x2="25.640625"
       y1="1063.1384"
       x1="25.640625"
       gradientUnits="userSpaceOnUse"
       id="linearGradient2890"
       xlink:href="#linearGradient3707"
       inkscape:collect="always" />
    <linearGradient
       y2="1060.3436"
       x2="25.640625"
       y1="1063.1384"
       x1="25.640625"
       gradientUnits="userSpaceOnUse"
       id="linearGradient2887"
       xlink:href="#linearGradient3707"
       inkscape:collect="always" />
    <linearGradient
       y2="1050.5346"
       x2="29.140625"
       y1="1050.5346"
       x1="22.140625"
       gradientUnits="userSpaceOnUse"
       id="linearGradient2885"
       xlink:href="#linearGradient3659"
       inkscape:collect="always" />
    <linearGradient
       y2="27.826067"
       x2="25.380083"
       y1="-0.69271553"
       x1="25.380083"
       gradientTransform="matrix(0.80272976,0.37431903,-0.37431903,0.80272976,12.313592,996.06043)"
       gradientUnits="userSpaceOnUse"
       id="linearGradient2883"
       xlink:href="#linearGradient3632"
       inkscape:collect="always" />
    <linearGradient
       y2="8.5673914"
       x2="19.392487"
       y1="28.811174"
       x1="31.652805"
       gradientUnits="userSpaceOnUse"
       id="linearGradient2881"
       xlink:href="#linearGradient3621"
       inkscape:collect="always" />
    <radialGradient
       r="13.265625"
       fy="16.3125"
       fx="25.640625"
       cy="16.3125"
       cx="25.640625"
       gradientTransform="matrix(1,0,0,0.99882214,0,0.01921378)"
       gradientUnits="userSpaceOnUse"
       id="radialGradient2879"
       xlink:href="#linearGradient3609"
       inkscape:collect="always" />
    <linearGradient
       y2="1035.832"
       x2="28.587054"
       y1="1035.832"
       x1="22.694197"
       gradientTransform="matrix(1.0181818,0,0,1,-0.46619373,0)"
       gradientUnits="userSpaceOnUse"
       id="linearGradient2877"
       xlink:href="#linearGradient3642"
       inkscape:collect="always" />
    <linearGradient
       y2="1060.3436"
       x2="25.640625"
       y1="1063.1384"
       x1="25.640625"
       gradientUnits="userSpaceOnUse"
       id="linearGradient3755"
       xlink:href="#linearGradient3707"
       inkscape:collect="always" />
    <linearGradient
       y2="1050.5346"
       x2="29.140625"
       y1="1050.5346"
       x1="22.140625"
       gradientUnits="userSpaceOnUse"
       id="linearGradient3753"
       xlink:href="#linearGradient3659"
       inkscape:collect="always" />
    <linearGradient
       y2="27.826067"
       x2="25.380083"
       y1="-0.69271553"
       x1="25.380083"
       gradientTransform="matrix(0.80272976,0.37431903,-0.37431903,0.80272976,12.313592,996.06043)"
       gradientUnits="userSpaceOnUse"
       id="linearGradient3751"
       xlink:href="#linearGradient3632"
       inkscape:collect="always" />
    <linearGradient
       y2="8.5673914"
       x2="19.392487"
       y1="28.811174"
       x1="31.652805"
       gradientUnits="userSpaceOnUse"
       id="linearGradient3749"
       xlink:href="#linearGradient3621"
       inkscape:collect="always" />
    <radialGradient
       r="13.265625"
       fy="16.3125"
       fx="25.640625"
       cy="16.3125"
       cx="25.640625"
       gradientTransform="matrix(1,0,0,0.99882214,0,0.01921378)"
       gradientUnits="userSpaceOnUse"
       id="radialGradient3747"
       xlink:href="#linearGradient3609"
       inkscape:collect="always" />
    <linearGradient
       y2="1035.832"
       x2="28.587054"
       y1="1035.832"
       x1="22.694197"
       gradientTransform="matrix(1.0181818,0,0,1,-0.46619373,0)"
       gradientUnits="userSpaceOnUse"
       id="linearGradient3745"
       xlink:href="#linearGradient3642"
       inkscape:collect="always" />
    <linearGradient
       gradientTransform="matrix(0.80272976,0.37431903,-0.37431903,0.80272976,12.313592,996.06043)"
       y2="27.826067"
       x2="25.380083"
       y1="-0.69271553"
       x1="25.380083"
       gradientUnits="userSpaceOnUse"
       id="linearGradient3735"
       xlink:href="#linearGradient3632"
       inkscape:collect="always" />
    <linearGradient
       gradientUnits="userSpaceOnUse"
       y2="1060.3436"
       x2="25.640625"
       y1="1063.1384"
       x1="25.640625"
       id="linearGradient3713"
       xlink:href="#linearGradient3707"
       inkscape:collect="always" />
    <linearGradient
       gradientUnits="userSpaceOnUse"
       y2="1050.5346"
       x2="29.140625"
       y1="1050.5346"
       x1="22.140625"
       id="linearGradient3665"
       xlink:href="#linearGradient3659"
       inkscape:collect="always" />
    <linearGradient
       gradientTransform="matrix(1.0181818,0,0,1,-0.46619373,0)"
       gradientUnits="userSpaceOnUse"
       y2="1035.832"
       x2="28.587054"
       y1="1035.832"
       x1="22.694197"
       id="linearGradient3648"
       xlink:href="#linearGradient3642"
       inkscape:collect="always" />
    <linearGradient
       gradientUnits="userSpaceOnUse"
       y2="27.826067"
       x2="25.380083"
       y1="-0.69271553"
       x1="25.380083"
       id="linearGradient3638"
       xlink:href="#linearGradient3632"
       inkscape:collect="always" />
    <linearGradient
       gradientUnits="userSpaceOnUse"
       y2="8.5673914"
       x2="19.392487"
       y1="28.811174"
       x1="31.652805"
       id="linearGradient3627"
       xlink:href="#linearGradient3621"
       inkscape:collect="always" />
    <radialGradient
       gradientUnits="userSpaceOnUse"
       gradientTransform="matrix(1,0,0,0.99882214,0,0.01921378)"
       r="13.265625"
       fy="16.3125"
       fx="25.640625"
       cy="16.3125"
       cx="25.640625"
       id="radialGradient3615"
       xlink:href="#linearGradient3609"
       inkscape:collect="always" />
    <inkscape:perspective
       sodipodi:type="inkscape:persp3d"
       inkscape:vp_x="0 : 0.5 : 1"
       inkscape:vp_y="0 : 1000 : 0"
       inkscape:vp_z="1 : 0.5 : 1"
       inkscape:persp3d-origin="0.5 : 0.33333333 : 1"
       id="perspective2824" />
    <inkscape:perspective
       id="perspective10"
       inkscape:persp3d-origin="372.04724 : 350.78739 : 1"
       inkscape:vp_z="744.09448 : 526.18109 : 1"
       inkscape:vp_y="0 : 1000 : 0"
       inkscape:vp_x="0 : 526.18109 : 1"
       sodipodi:type="inkscape:persp3d" />
    <linearGradient
       id="linearGradient3609">
      <stop
         id="stop3611"
         offset="0"
         style="stop-color:#333333;stop-opacity:1;" />
      <stop
         style="stop-color:#333333;stop-opacity:1;"
         offset="0.87822205"
         id="stop3619" />
      <stop
         style="stop-color:#c8c8c8;stop-opacity:1;"
         offset="0.93785173"
         id="stop3617" />
      <stop
         id="stop3613"
         offset="1"
         style="stop-color:#646464;stop-opacity:1;" />
    </linearGradient>
    <linearGradient
       id="linearGradient3621">
      <stop
         id="stop3623"
         offset="0"
         style="stop-color:#62f9f9;stop-opacity:0.58823532;" />
      <stop
         id="stop3625"
         offset="1"
         style="stop-color:#00adff;stop-opacity:0.58823532;" />
    </linearGradient>
    <linearGradient
       id="linearGradient3632">
      <stop
         id="stop3634"
         offset="0"
         style="stop-color:#ffffff;stop-opacity:1;" />
      <stop
         id="stop3636"
         offset="1"
         style="stop-color:#ffffff;stop-opacity:0;" />
    </linearGradient>
    <linearGradient
       id="linearGradient3642">
      <stop
         id="stop3644"
         offset="0"
         style="stop-color:#333333;stop-opacity:1;" />
      <stop
         style="stop-color:#646464;stop-opacity:1;"
         offset="0.08214504"
         id="stop3654" />
      <stop
         style="stop-color:#a0a0a0;stop-opacity:1;"
         offset="0.33613682"
         id="stop3652" />
      <stop
         style="stop-color:#dcdcdc;stop-opacity:1;"
         offset="0.66973937"
         id="stop3650" />
      <stop
         id="stop3646"
         offset="1"
         style="stop-color:#646464;stop-opacity:1;" />
    </linearGradient>
    <linearGradient
       id="linearGradient3659">
      <stop
         id="stop3661"
         offset="0"
         style="stop-color:#000000;stop-opacity:1;" />
      <stop
         style="stop-color:#1e1e1e;stop-opacity:1;"
         offset="0.2602883"
         id="stop3671" />
      <stop
         style="stop-color:#323232;stop-opacity:1;"
         offset="0.5205766"
         id="stop3669" />
      <stop
         style="stop-color:#8c8c8c;stop-opacity:1;"
         offset="0.7254805"
         id="stop3667" />
      <stop
         id="stop3663"
         offset="1"
         style="stop-color:#141414;stop-opacity:1;" />
    </linearGradient>
    <linearGradient
       id="linearGradient3707"
       inkscape:collect="always">
      <stop
         id="stop3709"
         offset="0"
         style="stop-color:#000000;stop-opacity:1;" />
      <stop
         id="stop3711"
         offset="1"
         style="stop-color:#000000;stop-opacity:0;" />
    </linearGradient>
    <linearGradient
       id="linearGradient3681">
      <stop
         style="stop-color:#333333;stop-opacity:1;"
         offset="0"
         id="stop3683" />
      <stop
         id="stop3685"
         offset="0.81073338"
         style="stop-color:#333333;stop-opacity:1;" />
      <stop
         id="stop3687"
         offset="0.94655997"
         style="stop-color:#c8c8c8;stop-opacity:1;" />
      <stop
         style="stop-color:#646464;stop-opacity:1;"
         offset="1"
         id="stop3689" />
    </linearGradient>
    <linearGradient
       id="linearGradient3781">
      <stop
         id="stop3783"
         offset="0"
         style="stop-color:#333333;stop-opacity:1;" />
      <stop
         style="stop-color:#333333;stop-opacity:1;"
         offset="0.77686638"
         id="stop3785" />
      <stop
         style="stop-color:#c8c8c8;stop-opacity:1;"
         offset="0.9188506"
         id="stop3787" />
      <stop
         id="stop3789"
         offset="1"
         style="stop-color:#646464;stop-opacity:1;" />
    </linearGradient>
    <linearGradient
       inkscape:collect="always"
       xlink:href="#linearGradient3642"
       id="linearGradient3983"
       x1="35.263714"
       y1="33.569965"
       x2="24.579269"
       y2="10.198764"
       gradientUnits="userSpaceOnUse" />
    <linearGradient
       inkscape:collect="always"
       xlink:href="#linearGradient3995"
       id="linearGradient3993"
       x1="-848.62976"
       y1="588.08368"
       x2="-848.77667"
       y2="581.36169"
       gradientUnits="userSpaceOnUse"
       gradientTransform="matrix(0.63900343,0,0,0.64946218,-315.35465,221.00562)" />
    <linearGradient
       inkscape:collect="always"
       xlink:href="#linearGradient4020"
       id="linearGradient4018"
       x1="23.964285"
       y1="40.526058"
       x2="16.387018"
       y2="35.436771"
       gradientUnits="userSpaceOnUse" />
    <linearGradient
       inkscape:collect="always"
       xlink:href="#linearGradient4020"
       id="linearGradient4032"
       gradientUnits="userSpaceOnUse"
       x1="23.964285"
       y1="40.526058"
       x2="16.387018"
       y2="35.436771"
       gradientTransform="translate(-7.8125,-7.45536)" />
    <radialGradient
       inkscape:collect="always"
       xlink:href="#linearGradient4020"
       id="radialGradient4074"
       cx="13.224844"
       cy="1049.8702"
       fx="13.224844"
       fy="1049.8702"
       r="2.1707892"
       gradientTransform="matrix(-1.2164713,-2.7934545,2.3387077,-1.0184418,-2424.8094,2158.4407)"
       gradientUnits="userSpaceOnUse" />
    <linearGradient
       inkscape:collect="always"
       xlink:href="#linearGradient3621"
       id="linearGradient4094"
       x1="16.607141"
       y1="17.910715"
       x2="43.571426"
       y2="17.910715"
       gradientUnits="userSpaceOnUse" />
    <linearGradient
       inkscape:collect="always"
       xlink:href="#linearGradient3621"
       id="linearGradient4136"
       gradientUnits="userSpaceOnUse"
       x1="16.607141"
       y1="17.910715"
       x2="43.571426"
       y2="17.910715" />
    <linearGradient
       inkscape:collect="always"
       xlink:href="#linearGradient3995"
       id="linearGradient4138"
       gradientUnits="userSpaceOnUse"
       gradientTransform="matrix(0.63900343,0,0,0.64946218,-315.35465,221.00562)"
       x1="-848.62976"
       y1="588.08368"
       x2="-848.77667"
       y2="581.36169" />
    <linearGradient
       inkscape:collect="always"
       xlink:href="#linearGradient3642"
       id="linearGradient4140"
       gradientUnits="userSpaceOnUse"
       x1="35.263714"
       y1="33.569965"
       x2="24.579269"
       y2="10.198764" />
    <radialGradient
       inkscape:collect="always"
       xlink:href="#linearGradient4020"
       id="radialGradient4142"
       gradientUnits="userSpaceOnUse"
       gradientTransform="matrix(-1.2164713,-2.7934545,2.3387077,-1.0184418,-2424.8094,2158.4407)"
       cx="13.224844"
       cy="1049.8702"
       fx="13.224844"
       fy="1049.8702"
       r="2.1707892" />
    <linearGradient
       inkscape:collect="always"
       xlink:href="#linearGradient4020"
       id="linearGradient4144"
       gradientUnits="userSpaceOnUse"
       x1="23.964285"
       y1="40.526058"
       x2="16.387018"
       y2="35.436771" />
  </defs>
  <sodipodi:namedview
     id="base"
     pagecolor="#ffffff"
     bordercolor="#666666"
     borderopacity="1.0"
     inkscape:pageopacity="0.0"
     inkscape:pageshadow="2"
     inkscape:zoom="11.313709"
     inkscape:cx="8.445432"
     inkscape:cy="25.205819"
     inkscape:document-units="px"
     inkscape:current-layer="layer1"
     showgrid="false"
     inkscape:window-width="1776"
     inkscape:window-height="951"
     inkscape:window-x="0"
     inkscape:window-y="26"
     inkscape:window-maximized="1"
     showguides="true"
     inkscape:guide-bbox="true" />
  <metadata
     id="metadata7">
    <rdf:RDF>
      <cc:Work
         rdf:about="">
        <dc:format>image/svg+xml</dc:format>
        <dc:type
           rdf:resource="http://purl.org/dc/dcmitype/StillImage" />
        <dc:title />
      </cc:Work>
    </rdf:RDF>
  </metadata>
  <g
     inkscape:label="Capa 1"
     inkscape:groupmode="layer"
     id="layer1"
     transform="translate(0,-1004.3622)">
    <rect
       style="fill:none;stroke:none"
       id="rect4146"
       width="48"
       height="48"
       x="0"
       y="1004.3622" />
    <g
       id="g3922"
       transform="matrix(1.2802909,0.73917628,-0.73917628,1.2802909,-12.938193,41.944459)"
       style="fill:#4d4d4d">
      <path
         transform="matrix(0.44524868,-0.25706445,0.25706445,0.44524868,336.28429,558.73933)"
         d="m 43.571427,17.910715 c 0,7.445982 -6.03616,13.482143 -13.482142,13.482143 -7.445982,0 -13.482143,-6.036161 -13.482143,-13.482143 0,-7.445982 6.036161,-13.4821423 13.482143,-13.4821423 7.445982,0 13.482142,6.0361603 13.482142,13.4821423 z"
         sodipodi:ry="13.482142"
         sodipodi:rx="13.482142"
         sodipodi:cy="17.910715"
         sodipodi:cx="30.089285"
         id="path3975-1"
         style="fill:none;stroke:#4d4d4d;stroke-width:6.80763149000000034;stroke-miterlimit:4;stroke-opacity:1;stroke-dasharray:none"
         sodipodi:type="arc" />
      <rect
         ry="0"
         y="566.00507"
         x="352.58929"
         height="5.2678576"
         width="3.3928571"
         id="rect3910"
         style="fill:#4d4d4d;fill-opacity:1;stroke:none" />
      <rect
         style="fill:#4d4d4d;fill-opacity:1;stroke:none"
         id="rect3912"
         width="5.625"
         height="10.9375"
         x="351.47324"
         y="570.87115"
         ry="1.3125" />
    </g>
  </g>
</svg>
