<?xml version="1.0" encoding="UTF-8" standalone="no"?>
<!-- Created with Inkscape (http://www.inkscape.org/) -->

<svg
   xmlns:dc="http://purl.org/dc/elements/1.1/"
   xmlns:cc="http://creativecommons.org/ns#"
   xmlns:rdf="http://www.w3.org/1999/02/22-rdf-syntax-ns#"
   xmlns:svg="http://www.w3.org/2000/svg"
   xmlns="http://www.w3.org/2000/svg"
   xmlns:xlink="http://www.w3.org/1999/xlink"
   xmlns:sodipodi="http://sodipodi.sourceforge.net/DTD/sodipodi-0.dtd"
   xmlns:inkscape="http://www.inkscape.org/namespaces/inkscape"
   width="48"
   height="48"
   id="svg2"
   version="1.1"
   inkscape:version="0.48.3.1 r9886"
   sodipodi:docname="folder-videos.svg">
  <defs
     id="defs4">
    <linearGradient
       id="linearGradient3101">
      <stop
         style="stop-color:#797979;stop-opacity:1;"
         offset="0"
         id="stop3103" />
      <stop
         style="stop-color:#ffffff;stop-opacity:1;"
         offset="1"
         id="stop3105" />
    </linearGradient>
    <linearGradient
       id="linearGradient3841">
      <stop
         id="stop3843"
         offset="0"
         style="stop-color:#00a3ff;stop-opacity:1" />
      <stop
         style="stop-color:#00b8ff;stop-opacity:1;"
         offset="0.72981125"
         id="stop3845" />
      <stop
         id="stop3847"
         offset="1"
         style="stop-color:#95eeff;stop-opacity:1;" />
    </linearGradient>
    <linearGradient
       id="linearGradient3784">
      <stop
         style="stop-color:#00a3ff;stop-opacity:1"
         offset="0"
         id="stop3786" />
      <stop
         id="stop3831"
         offset="0.61268902"
         style="stop-color:#00b8ff;stop-opacity:1;" />
      <stop
         style="stop-color:#95eeff;stop-opacity:1;"
         offset="1"
         id="stop3788" />
    </linearGradient>
    <linearGradient
       inkscape:collect="always"
       xlink:href="#linearGradient3784"
       id="linearGradient3829"
       x1="75.61158"
       y1="18.694632"
       x2="86.780518"
       y2="13.27266"
       gradientUnits="userSpaceOnUse" />
    <linearGradient
       inkscape:collect="always"
       xlink:href="#linearGradient3841"
       id="linearGradient3839"
       x1="79.64949"
       y1="1034.9347"
       x2="89.780151"
       y2="1030.0597"
       gradientUnits="userSpaceOnUse" />
    <linearGradient
       inkscape:collect="always"
       xlink:href="#linearGradient3841"
       id="linearGradient3815"
       x1="83.295242"
       y1="1044.2874"
       x2="99.829758"
       y2="1044.2874"
       gradientUnits="userSpaceOnUse" />
    <linearGradient
       inkscape:collect="always"
       xlink:href="#linearGradient3841"
       id="linearGradient3831"
       x1="83.357742"
       y1="1026.2059"
       x2="99.767258"
       y2="1026.2059"
       gradientUnits="userSpaceOnUse" />
    <linearGradient
       id="linearGradient3848">
      <stop
         id="stop3850"
         offset="0"
         style="stop-color:#51809a;stop-opacity:1;" />
      <stop
         style="stop-color:#56889c;stop-opacity:1;"
         offset="0.2"
         id="stop3852" />
      <stop
         id="stop3854"
         offset="1"
         style="stop-color:#69b8df;stop-opacity:1;" />
    </linearGradient>
    <linearGradient
       inkscape:collect="always"
       xlink:href="#linearGradient3848"
       id="linearGradient3091"
       gradientUnits="userSpaceOnUse"
       x1="11.596957"
       y1="28.812357"
       x2="21.335011"
       y2="11.945556" />
    <linearGradient
       inkscape:collect="always"
       xlink:href="#linearGradient3101"
       id="linearGradient3099"
       x1="25.4214"
       y1="1045.929"
       x2="25.4214"
       y2="1029.8489"
       gradientUnits="userSpaceOnUse" />
    <linearGradient
       inkscape:collect="always"
       xlink:href="#linearGradient3101"
       id="linearGradient3881"
       x1="25.723486"
       y1="1042.4471"
       x2="25.723486"
       y2="1009.8562"
       gradientUnits="userSpaceOnUse" />
    <linearGradient
       inkscape:collect="always"
       xlink:href="#linearGradient3101"
       id="linearGradient3890"
       x1="25.992558"
       y1="1039.4531"
       x2="25.992558"
       y2="1015.9078"
       gradientUnits="userSpaceOnUse" />
    <linearGradient
       inkscape:collect="always"
       xlink:href="#linearGradient3101"
       id="linearGradient3031"
       gradientUnits="userSpaceOnUse"
       x1="25.723486"
       y1="1042.4471"
       x2="25.723486"
       y2="1009.8562"
       gradientTransform="matrix(1.1127389,0,0,1.1127389,-4.2410564,-115.98863)" />
    <linearGradient
       inkscape:collect="always"
       xlink:href="#linearGradient3101"
       id="linearGradient3047"
       gradientUnits="userSpaceOnUse"
       x1="25.4214"
       y1="1045.929"
       x2="25.4214"
       y2="1029.8489"
       gradientTransform="matrix(1.1127389,0,0,1.1127389,-4.2410564,-115.98863)" />
    <linearGradient
       inkscape:collect="always"
       xlink:href="#linearGradient3101"
       id="linearGradient3050"
       gradientUnits="userSpaceOnUse"
       x1="25.992558"
       y1="1039.4531"
       x2="25.992558"
       y2="1015.9078"
       gradientTransform="matrix(1.1127389,0,0,1.1127389,-4.2410564,-115.98863)" />
    <linearGradient
       inkscape:collect="always"
       xlink:href="#linearGradient3009"
       id="linearGradient4090"
       gradientUnits="userSpaceOnUse"
       x1="24.312502"
       y1="1042.2383"
       x2="24.312502"
       y2="1016.6967"
       gradientTransform="matrix(1.2663564,0,0,1.7932342,-6.3925527,-819.3052)" />
    <linearGradient
       id="linearGradient3009">
      <stop
         style="stop-color:#7b7b7b;stop-opacity:1;"
         offset="0"
         id="stop3011" />
      <stop
         style="stop-color:#ffffff;stop-opacity:1;"
         offset="1"
         id="stop3013" />
    </linearGradient>
    <linearGradient
       y2="1016.6967"
       x2="24.312502"
       y1="1042.2383"
       x1="24.312502"
       gradientTransform="matrix(1.2663564,0,0,1.7932342,-7.62999,-818.06762)"
       gradientUnits="userSpaceOnUse"
       id="linearGradient3106"
       xlink:href="#linearGradient3009"
       inkscape:collect="always" />
    <linearGradient
       inkscape:collect="always"
       xlink:href="#linearGradient3101"
       id="linearGradient3039"
       gradientUnits="userSpaceOnUse"
       gradientTransform="matrix(1.1127389,0,0,1.1127389,-4.2410564,-115.98863)"
       x1="25.992558"
       y1="1039.4531"
       x2="25.992558"
       y2="1015.9078" />
    <linearGradient
       inkscape:collect="always"
       xlink:href="#linearGradient3101"
       id="linearGradient3041"
       gradientUnits="userSpaceOnUse"
       gradientTransform="matrix(1.1127389,0,0,1.1127389,-4.2410564,-115.98863)"
       x1="25.4214"
       y1="1045.929"
       x2="25.4214"
       y2="1029.8489" />
    <linearGradient
       inkscape:collect="always"
       xlink:href="#linearGradient3101"
       id="linearGradient3043"
       gradientUnits="userSpaceOnUse"
       gradientTransform="matrix(1.1127389,0,0,1.1127389,-4.2410564,-115.98863)"
       x1="25.723486"
       y1="1042.4471"
       x2="25.723486"
       y2="1009.8562" />
    <linearGradient
       inkscape:collect="always"
       xlink:href="#linearGradient3848"
       id="linearGradient3045"
       gradientUnits="userSpaceOnUse"
       x1="11.596957"
       y1="28.812357"
       x2="21.335011"
       y2="11.945556" />
    <linearGradient
       inkscape:collect="always"
       xlink:href="#linearGradient3101"
       id="linearGradient3049"
       gradientUnits="userSpaceOnUse"
       gradientTransform="matrix(1.1127389,0,0,1.1127389,-4.2410564,-115.98863)"
       x1="25.723486"
       y1="1042.4471"
       x2="25.723486"
       y2="1009.8562" />
    <linearGradient
       inkscape:collect="always"
       xlink:href="#linearGradient3101"
       id="linearGradient3052"
       gradientUnits="userSpaceOnUse"
       gradientTransform="matrix(1.1127389,0,0,1.1127389,-4.2410564,-115.98863)"
       x1="25.4214"
       y1="1045.929"
       x2="25.4214"
       y2="1029.8489" />
    <linearGradient
       inkscape:collect="always"
       xlink:href="#linearGradient3101"
       id="linearGradient3055"
       gradientUnits="userSpaceOnUse"
       gradientTransform="matrix(1.1127389,0,0,1.1127389,-4.2410564,-115.98863)"
       x1="25.992558"
       y1="1039.4531"
       x2="25.992558"
       y2="1015.9078" />
    <linearGradient
       y2="1002.9312"
       x2="24.113745"
       y1="1065.1559"
       x1="24.113745"
       gradientTransform="matrix(0.96799712,0,0,1.0252613,479.62521,-499.12074)"
       gradientUnits="userSpaceOnUse"
       id="linearGradient3180"
       xlink:href="#linearGradient3762"
       inkscape:collect="always" />
    <linearGradient
       id="linearGradient3762">
      <stop
         style="stop-color:#2c83b4;stop-opacity:1;"
         offset="0"
         id="stop3765" />
      <stop
         style="stop-color:#00cbfd;stop-opacity:1;"
         offset="1"
         id="stop3767" />
    </linearGradient>
    <linearGradient
       y2="1002.9312"
       x2="24.113745"
       y1="1065.1559"
       x1="24.113745"
       gradientTransform="matrix(0.96799712,0,0,1.0252613,0.76806055,-25.977998)"
       gradientUnits="userSpaceOnUse"
       id="linearGradient3321"
       xlink:href="#linearGradient3009"
       inkscape:collect="always" />
  </defs>
  <sodipodi:namedview
     id="base"
     pagecolor="#ffffff"
     bordercolor="#666666"
     borderopacity="1.0"
     inkscape:pageopacity="0.0"
     inkscape:pageshadow="2"
     inkscape:zoom="7.9999996"
     inkscape:cx="19.451271"
     inkscape:cy="22.647185"
     inkscape:document-units="px"
     inkscape:current-layer="layer1"
     showgrid="false"
     inkscape:window-width="1280"
     inkscape:window-height="654"
     inkscape:window-x="0"
     inkscape:window-y="18"
     inkscape:window-maximized="1"
     showguides="true"
     inkscape:guide-bbox="true">
    <inkscape:grid
       type="xygrid"
       id="grid3031" />
  </sodipodi:namedview>
  <metadata
     id="metadata7">
    <rdf:RDF>
      <cc:Work
         rdf:about="">
        <dc:format>image/svg+xml</dc:format>
        <dc:type
           rdf:resource="http://purl.org/dc/dcmitype/StillImage" />
        <dc:title />
      </cc:Work>
    </rdf:RDF>
  </metadata>
  <g
     inkscape:label="Capa 1"
     inkscape:groupmode="layer"
     id="layer1"
     transform="translate(0,-1004.3622)">
    <rect
       style="fill:url(#linearGradient3321);fill-opacity:1;stroke:#7d7d7d;stroke-width:0.39848711999999997;stroke-miterlimit:4;stroke-opacity:1;stroke-dasharray:none;"
       id="rect2992"
       width="44.601513"
       height="44.601513"
       x="1.6992435"
       y="1006.0614"
       ry="5.6755357" />
    <rect
       style="opacity:0.29064038;fill:none;stroke:none"
       id="rect3873"
       width="48"
       height="48"
       x="0"
       y="1004.3622"
       ry="3.3244677" />
    <path
       style="fill:#000000;stroke:none"
       d="m 11.423281,1006.2997 -0.676498,1.134 -5.073738,0 c -2.7388693,0 -3.2514194,1.8357 -3.766795,3.3518 l 0.0625,34.4201 c 0.0828,0.4451 0.1883209,2.6818 0.844552,3.0316 l 2.4094958,0 0.019748,-0.5625 5.6579862,0 0.584249,2.8831 25.276438,0 0.584248,-2.789 5.196737,-0.062 0.768749,0.8504 1.568246,-0.031 c 0.504481,-0.2604 1.19802,-2.3514 1.214551,-3.0529 l 0,-34.8143 c -0.67789,-1.6773 -0.964703,-3.1615 -3.551546,-3.1615 l -5.012237,0 c -0.85639,-0.305 -0.845606,-0.513 -1.168497,-1.197 l -24.938189,0 z m 3.751491,2.331 17.312207,0 c 0.161418,0 0.276749,0.1496 0.276749,0.3151 l 0,6.489 c 0,0.1653 -0.115331,0.315 -0.276749,0.315 l -17.312207,0 c -0.161418,0 -0.27675,-0.1497 -0.27675,-0.315 l 0,-6.489 c 0,-0.1655 0.115332,-0.3151 0.27675,-0.3151 z m -9.4709771,1.1655 4.5509891,0 c 0.527265,0 0.953247,0.4093 0.953247,0.9136 l 0,1.2915 c 0,0.5042 -0.425982,0.9134 -0.953247,0.9134 l -4.5509891,0 c -0.5272654,0 -0.9532476,-0.4092 -0.9532476,-0.9134 l 0,-1.2915 c 0,-0.5043 0.4259822,-0.9136 0.9532476,-0.9136 z m 32.1336711,0 4.489489,0 c 0.527265,0 0.953248,0.4093 0.953248,0.9136 l 0,1.2915 c 0,0.5042 -0.425983,0.9134 -0.953248,0.9134 l -4.489489,0 c -0.527265,0 -0.953248,-0.4092 -0.953248,-0.9134 l 0,-1.2915 c 0,-0.5043 0.425983,-0.9136 0.953248,-0.9136 z m -32.1336711,5.5756 4.5509891,0 c 0.527265,0 0.953247,0.4091 0.953247,0.9135 l 0,1.323 c 0,0.5043 -0.425982,0.9136 -0.953247,0.9136 l -4.5509891,0 c -0.5272655,0 -0.9532476,-0.4093 -0.9532476,-0.9136 l 0,-1.323 c 0,-0.5044 0.4259821,-0.9135 0.9532476,-0.9135 z m 32.1336711,0 4.489489,0 c 0.527265,0 0.953248,0.4091 0.953248,0.9135 l 0,1.323 c 0,0.5043 -0.425983,0.9136 -0.953248,0.9136 l -4.489489,0 c -0.527265,0 -0.953248,-0.4093 -0.953248,-0.9136 l 0,-1.323 c 0,-0.5044 0.425983,-0.9135 0.953248,-0.9135 z m -22.078446,2.3625 16.174461,0 c 0.469746,0 0.830247,0.3693 0.830247,0.8505 l 0,18.9633 c 0,0.4812 -0.360501,0.8505 -0.830247,0.8505 l -16.174461,0 c -0.469746,0 -0.860998,-0.3693 -0.860998,-0.8505 l 0,-18.9633 c 0,-0.4812 0.391252,-0.8505 0.860998,-0.8505 z m -10.0552251,3.213 4.5509891,0 c 0.527265,0 0.953247,0.4092 0.953247,0.9136 l 0,1.2914 c 0,0.5045 -0.425982,0.9136 -0.953247,0.9136 l -4.5509891,0 c -0.5272655,0 -0.9532476,-0.4091 -0.9532476,-0.9136 l 0,-1.2914 c 0,-0.5044 0.4259821,-0.9136 0.9532476,-0.9136 z m 32.1336711,0 4.489489,0 c 0.527265,0 0.953248,0.4092 0.953248,0.9136 l 0,1.2914 c 0,0.5045 -0.425983,0.9136 -0.953248,0.9136 l -4.489489,0 c -0.527265,0 -0.953248,-0.4091 -0.953248,-0.9136 l 0,-1.2914 c 0,-0.5044 0.425983,-0.9136 0.953248,-0.9136 z m -32.1336711,5.5757 4.5509891,0 c 0.527265,0 0.953247,0.409 0.953247,0.9134 l 0,1.323 c 0,0.5045 -0.425982,0.9136 -0.953247,0.9136 l -4.5509891,0 c -0.5272655,0 -0.9532476,-0.4091 -0.9532476,-0.9136 l 0,-1.323 c 0,-0.5044 0.4259821,-0.9134 0.9532476,-0.9134 z m 32.1336711,0 4.489489,0 c 0.527265,0 0.953248,0.409 0.953248,0.9134 l 0,1.323 c 0,0.5045 -0.425983,0.9136 -0.953248,0.9136 l -4.489489,0 c -0.527265,0 -0.953248,-0.4091 -0.953248,-0.9136 l 0,-1.323 c 0,-0.5044 0.425983,-0.9134 0.953248,-0.9134 z m -32.1336711,5.5755 4.5509891,0 c 0.527265,0 0.953247,0.4092 0.953247,0.9136 l 0,1.2914 c 0,0.5044 -0.425982,0.9135 -0.953247,0.9135 l -4.5509891,0 c -0.5272655,0 -0.9532476,-0.4091 -0.9532476,-0.9135 l 0,-1.2914 c 0,-0.5044 0.4259821,-0.9136 0.9532476,-0.9136 z m 32.1336711,0 4.489489,0 c 0.527265,0 0.953248,0.4092 0.953248,0.9136 l 0,1.2914 c 0,0.5044 -0.425983,0.9135 -0.953248,0.9135 l -4.489489,0 c -0.527265,0 -0.953248,-0.4091 -0.953248,-0.9135 l 0,-1.2914 c 0,-0.5044 0.425983,-0.9136 0.953248,-0.9136 z m -32.1336711,5.5756 4.5509891,0 c 0.527265,0 0.953247,0.3775 0.953247,0.882 l 0,1.3545 c 0,0.5043 -0.425982,0.9135 -0.953247,0.9135 l -4.5509891,0 c -0.5272655,0 -0.9532476,-0.4092 -0.9532476,-0.9135 l 0,-1.3545 c 0,-0.5045 0.4259821,-0.882 0.9532476,-0.882 z m 32.1336711,0 4.489489,0 c 0.527265,0 0.953248,0.3775 0.953248,0.882 l 0,1.3545 c 0,0.5043 -0.425983,0.9135 -0.953248,0.9135 l -4.489489,0 c -0.527265,0 -0.953248,-0.4092 -0.953248,-0.9135 l 0,-1.3545 c 0,-0.5045 0.425983,-0.882 0.953248,-0.882 z m -22.662694,3.2445 17.312207,0 c 0.161418,0 0.276749,0.1181 0.276749,0.2836 l 0,6.5205 c 0,0.1654 -0.115331,0.2835 -0.276749,0.2835 l -17.312207,0 c -0.161418,0 -0.27675,-0.1181 -0.27675,-0.2835 l 0,-6.5205 c 0,-0.1655 0.115332,-0.2836 0.27675,-0.2836 z m -9.4709771,2.331 4.5509891,0 c 0.527265,0 0.953247,0.4092 0.953247,0.9136 l 0,1.2914 c 0,0.5045 -0.425982,0.9136 -0.953247,0.9136 l -4.5509891,0 c -0.5272655,0 -0.9532476,-0.4091 -0.9532476,-0.9136 l 0,-1.2914 c 0,-0.5044 0.4259821,-0.9136 0.9532476,-0.9136 z m 32.1336711,0 4.489489,0 c 0.527265,0 0.953248,0.4092 0.953248,0.9136 l 0,1.2914 c 0,0.5045 -0.425983,0.9136 -0.953248,0.9136 l -4.489489,0 c -0.527265,0 -0.953248,-0.4091 -0.953248,-0.9136 l 0,-1.2914 c 0,-0.5044 0.425983,-0.9136 0.953248,-0.9136 z"
       id="path3803-3"
       inkscape:connector-curvature="0"
       sodipodi:nodetypes="ccccccccccccccccccccccsssssssssssssssssssssssssssssssssssssssssssssssssssssssssssssssssssssssssssssssssssssssssssssssssssssssssssssssssssssssssssssssssssssssssssssssssssssssss" />
    <path
       sodipodi:type="star"
       style="fill:url(#linearGradient3045);fill-opacity:1;stroke:none"
       id="path3817"
       sodipodi:sides="3"
       sodipodi:cx="15.875"
       sodipodi:cy="19.125"
       sodipodi:r1="15.525181"
       sodipodi:r2="7.7625904"
       sodipodi:arg1="1.0471976"
       sodipodi:arg2="2.0943951"
       inkscape:flatsided="false"
       inkscape:rounded="0"
       inkscape:randomized="0"
       d="M 23.63759,32.570201 11.993705,25.847601 0.34981918,19.124999 11.993705,12.4024 23.637591,5.6797994 23.63759,19.125 z"
       transform="matrix(0.25300361,0.43821508,-0.43821508,0.25300361,26.400468,1016.5668)"
       inkscape:transform-center-x="-1.7649828" />
  </g>
</svg>
