<?xml version="1.0" encoding="UTF-8" standalone="no"?>
<!-- Created with Inkscape (http://www.inkscape.org/) -->

<svg
   xmlns:dc="http://purl.org/dc/elements/1.1/"
   xmlns:cc="http://creativecommons.org/ns#"
   xmlns:rdf="http://www.w3.org/1999/02/22-rdf-syntax-ns#"
   xmlns:svg="http://www.w3.org/2000/svg"
   xmlns="http://www.w3.org/2000/svg"
   xmlns:xlink="http://www.w3.org/1999/xlink"
   xmlns:sodipodi="http://sodipodi.sourceforge.net/DTD/sodipodi-0.dtd"
   xmlns:inkscape="http://www.inkscape.org/namespaces/inkscape"
   width="48"
   height="48"
   id="svg2"
   version="1.1"
   inkscape:version="0.48.3.1 r9886"
   sodipodi:docname="folder-music.svg">
  <defs
     id="defs4">
    <linearGradient
       id="linearGradient4355">
      <stop
         id="stop4357"
         offset="0"
         style="stop-color:#a1a1a1;stop-opacity:1;" />
      <stop
         style="stop-color:#282828;stop-opacity:1;"
         offset="0.36255941"
         id="stop4359" />
      <stop
         id="stop4361"
         offset="0.66252601"
         style="stop-color:#141414;stop-opacity:1;" />
      <stop
         id="stop4363"
         offset="1"
         style="stop-color:#6e6e6e;stop-opacity:1;" />
    </linearGradient>
    <linearGradient
       id="linearGradient4337">
      <stop
         id="stop4339"
         offset="0"
         style="stop-color:#a1a1a1;stop-opacity:1;" />
      <stop
         style="stop-color:#282828;stop-opacity:1;"
         offset="0.31308109"
         id="stop4341" />
      <stop
         id="stop4343"
         offset="0.57612914"
         style="stop-color:#141414;stop-opacity:1;" />
      <stop
         id="stop4345"
         offset="1"
         style="stop-color:#6e6e6e;stop-opacity:1;" />
    </linearGradient>
    <linearGradient
       id="linearGradient4295">
      <stop
         style="stop-color:#a1a1a1;stop-opacity:1;"
         offset="0"
         id="stop4297" />
      <stop
         id="stop4299"
         offset="0.36255941"
         style="stop-color:#282828;stop-opacity:1;" />
      <stop
         style="stop-color:#141414;stop-opacity:1;"
         offset="0.53551346"
         id="stop4301" />
      <stop
         style="stop-color:#6e6e6e;stop-opacity:1;"
         offset="1"
         id="stop4303" />
    </linearGradient>
    <linearGradient
       id="linearGradient4287">
      <stop
         style="stop-color:#434343;stop-opacity:1;"
         offset="0"
         id="stop4289" />
      <stop
         id="stop4291"
         offset="0.33653909"
         style="stop-color:#ffffff;stop-opacity:1;" />
      <stop
         style="stop-color:#3c3c3c;stop-opacity:1;"
         offset="1"
         id="stop4293" />
    </linearGradient>
    <linearGradient
       id="linearGradient4267">
      <stop
         id="stop4269"
         offset="0"
         style="stop-color:#a1a1a1;stop-opacity:1;" />
      <stop
         style="stop-color:#282828;stop-opacity:1;"
         offset="0.45120651"
         id="stop4271" />
      <stop
         id="stop4273"
         offset="0.83125597"
         style="stop-color:#141414;stop-opacity:1;" />
      <stop
         id="stop4275"
         offset="1"
         style="stop-color:#6e6e6e;stop-opacity:1;" />
    </linearGradient>
    <linearGradient
       id="linearGradient4249">
      <stop
         style="stop-color:#505050;stop-opacity:1;"
         offset="0"
         id="stop4251" />
      <stop
         style="stop-color:#000000;stop-opacity:1;"
         offset="1"
         id="stop4253" />
    </linearGradient>
    <linearGradient
       id="linearGradient4235">
      <stop
         style="stop-color:#a1a1a1;stop-opacity:1;"
         offset="0"
         id="stop4237" />
      <stop
         id="stop4243"
         offset="0.27735531"
         style="stop-color:#282828;stop-opacity:1;" />
      <stop
         style="stop-color:#141414;stop-opacity:1;"
         offset="0.75467402"
         id="stop4245" />
      <stop
         style="stop-color:#6e6e6e;stop-opacity:1;"
         offset="1"
         id="stop4239" />
    </linearGradient>
    <linearGradient
       id="linearGradient4158">
      <stop
         id="stop4160"
         offset="0"
         style="stop-color:#434343;stop-opacity:1;" />
      <stop
         style="stop-color:#ffffff;stop-opacity:1;"
         offset="0.5"
         id="stop4166" />
      <stop
         id="stop4162"
         offset="1"
         style="stop-color:#3c3c3c;stop-opacity:1;" />
    </linearGradient>
    <linearGradient
       id="linearGradient4120">
      <stop
         style="stop-color:#b34d0a;stop-opacity:1;"
         offset="0"
         id="stop4122" />
      <stop
         style="stop-color:#ff9638;stop-opacity:1;"
         offset="1"
         id="stop4124" />
    </linearGradient>
    <linearGradient
       id="linearGradient3783">
      <stop
         id="stop3785"
         offset="0"
         style="stop-color:#adadad;stop-opacity:0.61428571;" />
      <stop
         id="stop3787"
         offset="1"
         style="stop-color:#ededed;stop-opacity:0.00714286;" />
    </linearGradient>
    <linearGradient
       id="linearGradient3762">
      <stop
         style="stop-color:#969696;stop-opacity:1;"
         offset="0"
         id="stop3765" />
      <stop
         style="stop-color:#c7c7c7;stop-opacity:1;"
         offset="1"
         id="stop3767" />
    </linearGradient>
    <linearGradient
       id="linearGradient3760">
      <stop
         style="stop-color:#ff8b00;stop-opacity:1;"
         offset="0"
         id="stop3762" />
      <stop
         style="stop-color:#ff6a00;stop-opacity:1;"
         offset="1"
         id="stop3764" />
    </linearGradient>
    <linearGradient
       inkscape:collect="always"
       xlink:href="#linearGradient3762"
       id="linearGradient3769"
       x1="24.113745"
       y1="1065.1559"
       x2="24.113745"
       y2="1002.9312"
       gradientUnits="userSpaceOnUse"
       gradientTransform="matrix(0.96799712,0,0,1.0252613,0.76806921,-25.977857)" />
    <linearGradient
       id="linearGradient3883">
      <stop
         style="stop-color:#ff00b7;stop-opacity:0.18085106;"
         offset="0"
         id="stop3885" />
      <stop
         style="stop-color:#999999;stop-opacity:0;"
         offset="1"
         id="stop3887" />
    </linearGradient>
    <linearGradient
       id="linearGradient3789">
      <stop
         style="stop-color:#ff0013;stop-opacity:0.18085106;"
         offset="0"
         id="stop3791" />
      <stop
         style="stop-color:#ffffff;stop-opacity:0"
         offset="1"
         id="stop3793" />
    </linearGradient>
    <linearGradient
       id="linearGradient3802">
      <stop
         id="stop3804"
         offset="0"
         style="stop-color:#ffc300;stop-opacity:0.18039216;" />
      <stop
         id="stop3806"
         offset="1"
         style="stop-color:#ffffff;stop-opacity:0" />
    </linearGradient>
    <linearGradient
       id="linearGradient3823">
      <stop
         style="stop-color:#4d9600;stop-opacity:0.18039216;"
         offset="0"
         id="stop3825" />
      <stop
         style="stop-color:#ffffff;stop-opacity:0"
         offset="1"
         id="stop3827" />
    </linearGradient>
    <linearGradient
       id="linearGradient3311">
      <stop
         id="stop3313"
         offset="0"
         style="stop-color:#ffc300;stop-opacity:0.18039216;" />
      <stop
         id="stop3315"
         offset="1"
         style="stop-color:#ffffff;stop-opacity:0" />
    </linearGradient>
    <linearGradient
       id="linearGradient3877">
      <stop
         style="stop-color:#00dfff;stop-opacity:0.18039216;"
         offset="0"
         id="stop3879" />
      <stop
         style="stop-color:#ffffff;stop-opacity:0"
         offset="1"
         id="stop3881" />
    </linearGradient>
    <linearGradient
       id="linearGradient3322">
      <stop
         style="stop-color:#00dfff;stop-opacity:0.18039216;"
         offset="0"
         id="stop3324" />
      <stop
         style="stop-color:#ffffff;stop-opacity:0"
         offset="1"
         id="stop3326" />
    </linearGradient>
    <linearGradient
       id="linearGradient3981">
      <stop
         id="stop3983"
         offset="0"
         style="stop-color:#ffffff;stop-opacity:0.18039218;" />
      <stop
         id="stop3985"
         offset="1"
         style="stop-color:#ffffff;stop-opacity:0" />
    </linearGradient>
    <linearGradient
       id="linearGradient3333">
      <stop
         style="stop-color:#ff00b7;stop-opacity:0.18085106;"
         offset="0"
         id="stop3335" />
      <stop
         style="stop-color:#999999;stop-opacity:0;"
         offset="1"
         id="stop3337" />
    </linearGradient>
    <linearGradient
       id="linearGradient3340">
      <stop
         style="stop-color:#ff0013;stop-opacity:0.18085106;"
         offset="0"
         id="stop3342" />
      <stop
         style="stop-color:#ffffff;stop-opacity:0"
         offset="1"
         id="stop3344" />
    </linearGradient>
    <linearGradient
       id="linearGradient3347">
      <stop
         id="stop3349"
         offset="0"
         style="stop-color:#ffc300;stop-opacity:0.18039216;" />
      <stop
         id="stop3351"
         offset="1"
         style="stop-color:#ffffff;stop-opacity:0" />
    </linearGradient>
    <linearGradient
       id="linearGradient3354">
      <stop
         style="stop-color:#4d9600;stop-opacity:0.18039216;"
         offset="0"
         id="stop3356" />
      <stop
         style="stop-color:#ffffff;stop-opacity:0"
         offset="1"
         id="stop3358" />
    </linearGradient>
    <linearGradient
       id="linearGradient3361">
      <stop
         id="stop3363"
         offset="0"
         style="stop-color:#ffc300;stop-opacity:0.18039216;" />
      <stop
         id="stop3365"
         offset="1"
         style="stop-color:#ffffff;stop-opacity:0" />
    </linearGradient>
    <linearGradient
       id="linearGradient3368">
      <stop
         style="stop-color:#00dfff;stop-opacity:0.18039216;"
         offset="0"
         id="stop3370" />
      <stop
         style="stop-color:#ffffff;stop-opacity:0"
         offset="1"
         id="stop3372" />
    </linearGradient>
    <linearGradient
       id="linearGradient3375">
      <stop
         style="stop-color:#00dfff;stop-opacity:0.18039216;"
         offset="0"
         id="stop3377" />
      <stop
         style="stop-color:#ffffff;stop-opacity:0"
         offset="1"
         id="stop3379" />
    </linearGradient>
    <linearGradient
       id="linearGradient3993">
      <stop
         style="stop-color:#000000;stop-opacity:0.43617022;"
         offset="0"
         id="stop3995" />
      <stop
         style="stop-color:#ffffff;stop-opacity:0"
         offset="1"
         id="stop3997" />
    </linearGradient>
    <linearGradient
       id="linearGradient3386">
      <stop
         style="stop-color:#000000;stop-opacity:0.43617022;"
         offset="0"
         id="stop3388" />
      <stop
         style="stop-color:#ffffff;stop-opacity:0"
         offset="1"
         id="stop3390" />
    </linearGradient>
    <linearGradient
       id="linearGradient4009">
      <stop
         style="stop-color:#9a9a9a;stop-opacity:0.64361703;"
         offset="0"
         id="stop4011" />
      <stop
         style="stop-color:#ffffff;stop-opacity:0"
         offset="1"
         id="stop4013" />
    </linearGradient>
    <linearGradient
       inkscape:collect="always"
       xlink:href="#linearGradient4235"
       id="linearGradient4241"
       x1="29.75215"
       y1="30.609049"
       x2="31.933249"
       y2="34.155731"
       gradientUnits="userSpaceOnUse" />
    <linearGradient
       inkscape:collect="always"
       xlink:href="#linearGradient4249"
       id="linearGradient4255"
       x1="29.262857"
       y1="33.833206"
       x2="28.221663"
       y2="34.511906"
       gradientUnits="userSpaceOnUse" />
    <linearGradient
       inkscape:collect="always"
       xlink:href="#linearGradient4295"
       id="linearGradient4285"
       x1="37.950424"
       y1="19.452148"
       x2="40.411366"
       y2="20.153172"
       gradientUnits="userSpaceOnUse" />
    <linearGradient
       inkscape:collect="always"
       xlink:href="#linearGradient4295"
       id="linearGradient4314"
       gradientUnits="userSpaceOnUse"
       x1="37.950424"
       y1="19.452148"
       x2="40.411366"
       y2="20.153172" />
    <linearGradient
       inkscape:collect="always"
       xlink:href="#linearGradient4295"
       id="linearGradient4321"
       gradientUnits="userSpaceOnUse"
       x1="37.950424"
       y1="19.452148"
       x2="40.411366"
       y2="20.153172" />
    <radialGradient
       inkscape:collect="always"
       xlink:href="#linearGradient4235"
       id="radialGradient4351"
       cx="13.922702"
       cy="44.087013"
       fx="13.922702"
       fy="44.087013"
       r="1.8051779"
       gradientTransform="matrix(1,0,0,0.41019049,0,26.00294)"
       gradientUnits="userSpaceOnUse" />
    <linearGradient
       inkscape:collect="always"
       xlink:href="#linearGradient3993"
       id="linearGradient4165"
       gradientUnits="userSpaceOnUse"
       gradientTransform="matrix(0.63975216,-1.1457154,1.1457154,0.63975216,-1167.6897,397.17164)"
       x1="8.8905392"
       y1="1026.2065"
       x2="19.3482"
       y2="1026.2065" />
    <linearGradient
       inkscape:collect="always"
       xlink:href="#linearGradient3993"
       id="linearGradient4167"
       gradientUnits="userSpaceOnUse"
       gradientTransform="matrix(0.76092138,-1.0690861,1.0690861,0.76092138,-1092.157,270.663)"
       x1="8.8905392"
       y1="1026.2065"
       x2="19.3482"
       y2="1026.2065" />
    <linearGradient
       inkscape:collect="always"
       xlink:href="#linearGradient4009"
       id="linearGradient4169"
       gradientUnits="userSpaceOnUse"
       gradientTransform="matrix(0.93830874,-0.91734577,0.91734577,0.93830874,-940.76278,84.246569)"
       x1="8.8905392"
       y1="1026.2065"
       x2="19.3482"
       y2="1026.2065" />
    <linearGradient
       inkscape:collect="always"
       xlink:href="#linearGradient3993"
       id="linearGradient4171"
       gradientUnits="userSpaceOnUse"
       gradientTransform="matrix(0.63975216,-1.1457154,1.1457154,0.63975216,-1167.6897,397.17164)"
       x1="8.8905392"
       y1="1026.2065"
       x2="19.3482"
       y2="1026.2065" />
    <linearGradient
       inkscape:collect="always"
       xlink:href="#linearGradient3993"
       id="linearGradient4173"
       gradientUnits="userSpaceOnUse"
       gradientTransform="matrix(0.76092138,-1.0690861,1.0690861,0.76092138,-1092.157,270.663)"
       x1="8.8905392"
       y1="1026.2065"
       x2="19.3482"
       y2="1026.2065" />
    <linearGradient
       inkscape:collect="always"
       xlink:href="#linearGradient4009"
       id="linearGradient4175"
       gradientUnits="userSpaceOnUse"
       gradientTransform="matrix(0.93830874,-0.91734577,0.91734577,0.93830874,-940.76278,84.246569)"
       x1="8.8905392"
       y1="1026.2065"
       x2="19.3482"
       y2="1026.2065" />
    <linearGradient
       inkscape:collect="always"
       xlink:href="#linearGradient4120"
       id="linearGradient4177"
       gradientUnits="userSpaceOnUse"
       x1="12.951997"
       y1="18.167904"
       x2="25.041744"
       y2="45.721012" />
    <linearGradient
       inkscape:collect="always"
       xlink:href="#linearGradient4158"
       id="linearGradient4179"
       gradientUnits="userSpaceOnUse"
       x1="36.426159"
       y1="5.0235925"
       x2="48.46384"
       y2="8.3785639" />
    <linearGradient
       inkscape:collect="always"
       xlink:href="#linearGradient3993"
       id="linearGradient4181"
       gradientUnits="userSpaceOnUse"
       gradientTransform="matrix(0.67127663,-1.1275346,1.1275346,0.67127663,-1101.3634,347.8327)"
       x1="8.8905392"
       y1="1026.2065"
       x2="19.3482"
       y2="1026.2065" />
    <linearGradient
       inkscape:collect="always"
       xlink:href="#linearGradient3993"
       id="linearGradient4183"
       gradientUnits="userSpaceOnUse"
       gradientTransform="matrix(0.67127663,-1.1275346,1.1275346,0.67127663,-1101.3634,347.8327)"
       x1="8.8905392"
       y1="1026.2065"
       x2="19.3482"
       y2="1026.2065" />
    <linearGradient
       inkscape:collect="always"
       xlink:href="#linearGradient3993"
       id="linearGradient4185"
       gradientUnits="userSpaceOnUse"
       gradientTransform="matrix(0.67127663,-1.1275346,1.1275346,0.67127663,-1101.3634,347.8327)"
       x1="8.8905392"
       y1="1026.2065"
       x2="19.3482"
       y2="1026.2065" />
    <linearGradient
       inkscape:collect="always"
       xlink:href="#linearGradient4249"
       id="linearGradient4187"
       gradientUnits="userSpaceOnUse"
       x1="29.262857"
       y1="33.833206"
       x2="28.000692"
       y2="34.551365" />
    <linearGradient
       inkscape:collect="always"
       xlink:href="#linearGradient4337"
       id="linearGradient4189"
       gradientUnits="userSpaceOnUse"
       x1="13.810229"
       y1="42.751705"
       x2="13.97814"
       y2="45.845737" />
    <linearGradient
       inkscape:collect="always"
       xlink:href="#linearGradient4355"
       id="linearGradient4191"
       gradientUnits="userSpaceOnUse"
       x1="37.950424"
       y1="19.452148"
       x2="40.411366"
       y2="20.153172" />
    <linearGradient
       inkscape:collect="always"
       xlink:href="#linearGradient4267"
       id="linearGradient4193"
       gradientUnits="userSpaceOnUse"
       x1="30.332506"
       y1="29.805477"
       x2="32.60289"
       y2="34.021801" />
    <linearGradient
       inkscape:collect="always"
       xlink:href="#linearGradient3993"
       id="linearGradient4259"
       gradientUnits="userSpaceOnUse"
       gradientTransform="matrix(0.63975216,-1.1457154,1.1457154,0.63975216,-1167.6897,397.17164)"
       x1="8.8905392"
       y1="1026.2065"
       x2="19.3482"
       y2="1026.2065" />
    <linearGradient
       inkscape:collect="always"
       xlink:href="#linearGradient3993"
       id="linearGradient4261"
       gradientUnits="userSpaceOnUse"
       gradientTransform="matrix(0.76092138,-1.0690861,1.0690861,0.76092138,-1092.157,270.663)"
       x1="8.8905392"
       y1="1026.2065"
       x2="19.3482"
       y2="1026.2065" />
    <linearGradient
       inkscape:collect="always"
       xlink:href="#linearGradient4009"
       id="linearGradient4263"
       gradientUnits="userSpaceOnUse"
       gradientTransform="matrix(0.93830874,-0.91734577,0.91734577,0.93830874,-940.76278,84.246569)"
       x1="8.8905392"
       y1="1026.2065"
       x2="19.3482"
       y2="1026.2065" />
    <linearGradient
       inkscape:collect="always"
       xlink:href="#linearGradient3993"
       id="linearGradient4265"
       gradientUnits="userSpaceOnUse"
       gradientTransform="matrix(0.63975216,-1.1457154,1.1457154,0.63975216,-1167.6897,397.17164)"
       x1="8.8905392"
       y1="1026.2065"
       x2="19.3482"
       y2="1026.2065" />
    <linearGradient
       inkscape:collect="always"
       xlink:href="#linearGradient3993"
       id="linearGradient4268"
       gradientUnits="userSpaceOnUse"
       gradientTransform="matrix(0.76092138,-1.0690861,1.0690861,0.76092138,-1092.157,270.663)"
       x1="8.8905392"
       y1="1026.2065"
       x2="19.3482"
       y2="1026.2065" />
    <linearGradient
       inkscape:collect="always"
       xlink:href="#linearGradient4009"
       id="linearGradient4270"
       gradientUnits="userSpaceOnUse"
       gradientTransform="matrix(0.93830874,-0.91734577,0.91734577,0.93830874,-940.76278,84.246569)"
       x1="8.8905392"
       y1="1026.2065"
       x2="19.3482"
       y2="1026.2065" />
    <linearGradient
       inkscape:collect="always"
       xlink:href="#linearGradient4120"
       id="linearGradient4272"
       gradientUnits="userSpaceOnUse"
       x1="12.951997"
       y1="18.167904"
       x2="25.041744"
       y2="45.721012" />
    <linearGradient
       inkscape:collect="always"
       xlink:href="#linearGradient3009"
       id="linearGradient4090"
       gradientUnits="userSpaceOnUse"
       x1="24.312502"
       y1="1042.2383"
       x2="24.312502"
       y2="1016.6967"
       gradientTransform="matrix(1.2663564,0,0,1.7932342,-6.3659454,-818.90605)" />
    <linearGradient
       id="linearGradient3009">
      <stop
         style="stop-color:#7b7b7b;stop-opacity:1;"
         offset="0"
         id="stop3011" />
      <stop
         style="stop-color:#ffffff;stop-opacity:1;"
         offset="1"
         id="stop3013" />
    </linearGradient>
    <linearGradient
       y2="1016.6967"
       x2="24.312502"
       y1="1042.2383"
       x1="24.312502"
       gradientTransform="matrix(1.2663564,0,0,1.7932342,-6.3925534,-1823.6673)"
       gradientUnits="userSpaceOnUse"
       id="linearGradient3123"
       xlink:href="#linearGradient3009"
       inkscape:collect="always" />
  </defs>
  <sodipodi:namedview
     id="base"
     pagecolor="#ffffff"
     bordercolor="#666666"
     borderopacity="1.0"
     inkscape:pageopacity="0.0"
     inkscape:pageshadow="2"
     inkscape:zoom="5.6"
     inkscape:cx="-5.8889085"
     inkscape:cy="41.477371"
     inkscape:document-units="px"
     inkscape:current-layer="layer2"
     showgrid="false"
     inkscape:window-width="1280"
     inkscape:window-height="654"
     inkscape:window-x="0"
     inkscape:window-y="18"
     inkscape:window-maximized="1"
     showborder="true"
     inkscape:showpageshadow="false" />
  <metadata
     id="metadata7">
    <rdf:RDF>
      <cc:Work
         rdf:about="">
        <dc:format>image/svg+xml</dc:format>
        <dc:type
           rdf:resource="http://purl.org/dc/dcmitype/StillImage" />
        <dc:title />
      </cc:Work>
    </rdf:RDF>
  </metadata>
  <g
     inkscape:label="Capa 1"
     inkscape:groupmode="layer"
     id="layer1"
     transform="translate(0,-1004.3622)"
     sodipodi:insensitive="true">
    <g
       id="g3781"
       transform="translate(-55.357143,0.093344)">
      <path
         inkscape:connector-curvature="0"
         id="path2992"
         d="m 8.4118481,1028.3344 c -2.5832243,0.048 -4.6770699,3.2897 -4.6770699,7.2656 0,3.976 2.0938456,7.2178 4.6770699,7.2658 l 0,-14.5314 z"
         style="fill:#ff7f2a;fill-opacity:1;stroke:#ff7f2a;stroke-width:1.36887562" />
      <rect
         ry="1.5058243"
         y="1026.8558"
         x="8.8328686"
         height="17.581516"
         width="3.0846989"
         id="rect3765"
         style="fill:#4d4d4d;fill-opacity:1;stroke:#4d4d4d;stroke-width:1.35256994;stroke-opacity:1" />
      <path
         sodipodi:nodetypes="csccsc"
         inkscape:connector-curvature="0"
         id="path3780"
         d="m 37.637286,1026.5718 c 0.0074,-0.1844 0.02918,-0.3681 0.02918,-0.5542 0,-7.5283 -6.098655,-13.6271 -13.626867,-13.6271 l 0,0 c -7.528212,0 -13.626865,6.0988 -13.626865,13.6271 0,0.186 0.02179,0.37 0.02918,0.5542"
         style="fill:none;stroke:#4d4d4d;stroke-width:3.36148787;stroke-linecap:butt;stroke-miterlimit:4;stroke-dasharray:none" />
      <path
         style="fill:#ff7f2a;fill-opacity:1;stroke:#ff7f2a;stroke-width:1.36887562"
         d="m 39.588152,1028.3344 c 2.583224,0.048 4.67707,3.2897 4.67707,7.2657 0,3.9761 -2.093846,7.2178 -4.67707,7.2657 l 0,-14.5314 z"
         id="path3782"
         inkscape:connector-curvature="0" />
      <rect
         transform="scale(-1,1)"
         style="fill:#4d4d4d;fill-opacity:1;stroke:#4d4d4d;stroke-width:1.35256994;stroke-opacity:1"
         id="rect3784"
         width="3.0846989"
         height="17.581516"
         x="-39.16713"
         y="1026.8558"
         ry="1.5058243" />
    </g>
  </g>
  <g
     inkscape:groupmode="layer"
     id="layer2"
     inkscape:label="Capa 2">
    <rect
       style="fill:url(#linearGradient3123);fill-opacity:1;stroke:#7d7d7d;stroke-width:0.45690089;stroke-miterlimit:4;stroke-opacity:1;stroke-dasharray:none"
       id="rect2988"
       width="44.543098"
       height="44.543098"
       x="1.7284508"
       y="1.7284334"
       ry="5.425631" />
    <rect
       transform="translate(0,-1004.3622)"
       style="fill:none;stroke:none"
       id="rect2989"
       width="48"
       height="48"
       x="0"
       y="1004.3622" />
    <g
       id="g3182">
      <g
         transform="translate(1.5025542e-8,1.3293339e-5)"
         id="g4237">
        <path
           sodipodi:type="arc"
           style="fill:#000000;fill-opacity:1;stroke:none"
           id="path3771"
           sodipodi:cx="18.035715"
           sodipodi:cy="25.857143"
           sodipodi:rx="19.821428"
           sodipodi:ry="19.821428"
           d="m 37.857143,25.857143 c 0,10.947073 -8.874355,19.821429 -19.821428,19.821429 -10.9470725,0 -19.8214282,-8.874356 -19.8214282,-19.821429 0,-10.947072 8.8743557,-19.8214279 19.8214282,-19.8214279 10.947073,0 19.821428,8.8743559 19.821428,19.8214279 z"
           transform="matrix(0.91441441,0,0,0.91441441,7.5078822,0.3558)" />
        <g
           id="g4089"
           transform="matrix(0.99961545,0.02772982,-0.02772982,0.99961545,28.855,-1004.5614)">
          <path
             style="fill:url(#linearGradient4259);fill-opacity:1;stroke:none"
             d="m 23.175867,1033.7325 -6.196495,11.536 c -2.363853,-1.1363 -4.123593,-2.5088 -5.989075,-4.411 l 8.9862,-9.5881 c 1.018091,1.1522 2.116019,1.9142 3.19937,2.4631 z"
             id="path3987"
             inkscape:connector-curvature="0"
             sodipodi:nodetypes="ccccc"
             inkscape:transform-center-x="7.0608935"
             inkscape:transform-center-y="9.6868356" />
          <path
             inkscape:transform-center-y="8.9746856"
             inkscape:transform-center-x="7.9945275"
             sodipodi:nodetypes="ccccc"
             inkscape:connector-curvature="0"
             id="path3999"
             d="m 22.158018,1033.3376 -7.417996,10.7911 c -2.225775,-1.3874 -3.825289,-2.9437 -5.472123,-5.038 l 9.97854,-8.5505 c 0.886327,1.2563 1.894574,2.1336 2.911579,2.7974 z"
             style="fill:url(#linearGradient4261);fill-opacity:1;stroke:none" />
          <path
             style="fill:url(#linearGradient4263);fill-opacity:1;stroke:none"
             d="m 20.785531,1032.2947 -9.212659,9.306 c -1.9447249,-1.7598 -3.243177,-3.5749 -4.492869,-5.928 l 11.335681,-6.6471 c 0.649699,1.3935 1.486559,2.4355 2.369847,3.2691 z"
             id="path4003"
             inkscape:connector-curvature="0"
             sodipodi:nodetypes="ccccc"
             inkscape:transform-center-x="9.3069495"
             inkscape:transform-center-y="7.5890356" />
        </g>
        <g
           id="g4094"
           inkscape:transform-center-x="-8.3746351"
           inkscape:transform-center-y="-7.7774479"
           transform="matrix(-0.99819164,-0.06011196,0.06011196,-0.99819164,-14.207635,1051.9266)">
          <path
             inkscape:transform-center-y="9.6868356"
             inkscape:transform-center-x="7.0608935"
             sodipodi:nodetypes="ccccc"
             inkscape:connector-curvature="0"
             id="path4096"
             d="m 23.175867,1033.7325 -6.196495,11.536 c -2.363853,-1.1363 -4.123593,-2.5088 -5.989075,-4.411 l 8.9862,-9.5881 c 1.018091,1.1522 2.116019,1.9142 3.19937,2.4631 z"
             style="fill:url(#linearGradient4265);fill-opacity:1;stroke:none" />
          <path
             style="fill:url(#linearGradient4268);fill-opacity:1;stroke:none"
             d="m 22.158018,1033.3376 -7.417996,10.7911 c -2.225775,-1.3874 -3.825289,-2.9437 -5.472123,-5.038 l 9.97854,-8.5505 c 0.886327,1.2563 1.894574,2.1336 2.911579,2.7974 z"
             id="path4098"
             inkscape:connector-curvature="0"
             sodipodi:nodetypes="ccccc"
             inkscape:transform-center-x="7.9945275"
             inkscape:transform-center-y="8.9746856" />
          <path
             inkscape:transform-center-y="7.5890356"
             inkscape:transform-center-x="9.3069495"
             sodipodi:nodetypes="ccccc"
             inkscape:connector-curvature="0"
             id="path4100"
             d="m 20.785531,1032.2947 -9.212659,9.306 c -1.9447249,-1.7598 -3.243177,-3.5749 -4.492869,-5.928 l 11.335681,-6.6471 c 0.649699,1.3935 1.486559,2.4355 2.369847,3.2691 z"
             style="fill:url(#linearGradient4270);fill-opacity:1;stroke:none" />
        </g>
        <path
           transform="matrix(0.37742787,0,0,0.36017282,17.192818,14.6869)"
           d="m 37.857143,25.857143 c 0,10.947073 -8.874355,19.821429 -19.821428,19.821429 -10.9470725,0 -19.8214282,-8.874356 -19.8214282,-19.821429 0,-10.947072 8.8743557,-19.8214279 19.8214282,-19.8214279 10.947073,0 19.821428,8.8743559 19.821428,19.8214279 z"
           sodipodi:ry="19.821428"
           sodipodi:rx="19.821428"
           sodipodi:cy="25.857143"
           sodipodi:cx="18.035715"
           id="path4114"
           style="fill:url(#linearGradient4272);fill-opacity:1;stroke:none"
           sodipodi:type="arc" />
        <path
           sodipodi:type="arc"
           style="fill:none;stroke:#000000;stroke-width:2.22289133;stroke-miterlimit:4;stroke-dasharray:none"
           id="path4116"
           sodipodi:cx="18.035715"
           sodipodi:cy="25.857143"
           sodipodi:rx="19.821428"
           sodipodi:ry="19.821428"
           d="m 37.857143,25.857143 c 0,10.947073 -8.874355,19.821429 -19.821428,19.821429 -10.9470725,0 -19.8214282,-8.874356 -19.8214282,-19.821429 0,-10.947072 8.8743557,-19.8214279 19.8214282,-19.8214279 10.947073,0 19.821428,8.8743559 19.821428,19.8214279 z"
           transform="matrix(0.17994581,0,0,0.17994581,20.754549,19.3471)" />
        <path
           transform="matrix(0.1084895,0,0,0.1084895,22.043314,21.1948)"
           d="m 37.857143,25.857143 c 0,10.947073 -8.874355,19.821429 -19.821428,19.821429 -10.9470725,0 -19.8214282,-8.874356 -19.8214282,-19.821429 0,-10.947072 8.8743557,-19.8214279 19.8214282,-19.8214279 10.947073,0 19.821428,8.8743559 19.821428,19.8214279 z"
           sodipodi:ry="19.821428"
           sodipodi:rx="19.821428"
           sodipodi:cy="25.857143"
           sodipodi:cx="18.035715"
           id="path4118"
           style="fill:#000000;stroke:none"
           sodipodi:type="arc" />
        <path
           transform="matrix(0.86159888,0,0,0.86159888,8.4604481,1.7215)"
           d="m 37.857143,25.857143 c 0,10.947073 -8.874355,19.821429 -19.821428,19.821429 -10.9470725,0 -19.8214282,-8.874356 -19.8214282,-19.821429 0,-10.947072 8.8743557,-19.8214279 19.8214282,-19.8214279 10.947073,0 19.821428,8.8743559 19.821428,19.8214279 z"
           sodipodi:ry="19.821428"
           sodipodi:rx="19.821428"
           sodipodi:cy="25.857143"
           sodipodi:cx="18.035715"
           id="path4128"
           style="opacity:0.08999999;fill:none;stroke:#ffffff;stroke-width:0.30408582;stroke-miterlimit:4;stroke-dasharray:none"
           sodipodi:type="arc" />
        <path
           sodipodi:type="arc"
           style="opacity:0.08999999;fill:none;stroke:#ffffff;stroke-width:0.30408582;stroke-miterlimit:4;stroke-dasharray:none"
           id="path4130"
           sodipodi:cx="18.035715"
           sodipodi:cy="25.857143"
           sodipodi:rx="19.821428"
           sodipodi:ry="19.821428"
           d="m 37.857143,25.857143 c 0,10.947073 -8.874355,19.821429 -19.821428,19.821429 -10.9470725,0 -19.8214282,-8.874356 -19.8214282,-19.821429 0,-10.947072 8.8743557,-19.8214279 19.8214282,-19.8214279 10.947073,0 19.821428,8.8743559 19.821428,19.8214279 z"
           transform="matrix(0.81734601,0,0,0.81734601,9.2585802,2.8658)" />
        <path
           transform="matrix(0.76817365,0,0,0.76817365,10.145439,4.1372)"
           d="m 37.857143,25.857143 c 0,10.947073 -8.874355,19.821429 -19.821428,19.821429 -10.9470725,0 -19.8214282,-8.874356 -19.8214282,-19.821429 0,-10.947072 8.8743557,-19.8214279 19.8214282,-19.8214279 10.947073,0 19.821428,8.8743559 19.821428,19.8214279 z"
           sodipodi:ry="19.821428"
           sodipodi:rx="19.821428"
           sodipodi:cy="25.857143"
           sodipodi:cx="18.035715"
           id="path4134"
           style="opacity:0.08999999;fill:none;stroke:#ffffff;stroke-width:0.30408582;stroke-miterlimit:4;stroke-dasharray:none"
           sodipodi:type="arc" />
        <path
           sodipodi:type="arc"
           style="opacity:0.08999999;fill:none;stroke:#ffffff;stroke-width:0.30408582;stroke-miterlimit:4;stroke-dasharray:none"
           id="path4136"
           sodipodi:cx="18.035715"
           sodipodi:cy="25.857143"
           sodipodi:rx="19.821428"
           sodipodi:ry="19.821428"
           d="m 37.857143,25.857143 c 0,10.947073 -8.874355,19.821429 -19.821428,19.821429 -10.9470725,0 -19.8214282,-8.874356 -19.8214282,-19.821429 0,-10.947072 8.8743557,-19.8214279 19.8214282,-19.8214279 10.947073,0 19.821428,8.8743559 19.821428,19.8214279 z"
           transform="matrix(0.73196264,0,0,0.73196264,10.79853,5.0735)" />
        <path
           transform="matrix(0.676983,0,0,0.676983,11.790127,6.4951)"
           d="m 37.857143,25.857143 c 0,10.947073 -8.874355,19.821429 -19.821428,19.821429 -10.9470725,0 -19.8214282,-8.874356 -19.8214282,-19.821429 0,-10.947072 8.8743557,-19.8214279 19.8214282,-19.8214279 10.947073,0 19.821428,8.8743559 19.821428,19.8214279 z"
           sodipodi:ry="19.821428"
           sodipodi:rx="19.821428"
           sodipodi:cy="25.857143"
           sodipodi:cx="18.035715"
           id="path4138"
           style="opacity:0.08999999;fill:none;stroke:#ffffff;stroke-width:0.30408582;stroke-miterlimit:4;stroke-dasharray:none"
           sodipodi:type="arc" />
        <path
           sodipodi:type="arc"
           style="opacity:0.08999999;fill:none;stroke:#ffffff;stroke-width:0.30408582;stroke-miterlimit:4;stroke-dasharray:none"
           id="path4140"
           sodipodi:cx="18.035715"
           sodipodi:cy="25.857143"
           sodipodi:rx="19.821428"
           sodipodi:ry="19.821428"
           d="m 37.857143,25.857143 c 0,10.947073 -8.874355,19.821429 -19.821428,19.821429 -10.9470725,0 -19.8214282,-8.874356 -19.8214282,-19.821429 0,-10.947072 8.8743557,-19.8214279 19.8214282,-19.8214279 10.947073,0 19.821428,8.8743559 19.821428,19.8214279 z"
           transform="matrix(0.61940453,0,0,0.61940453,12.828596,7.984)" />
        <path
           transform="matrix(0.57246727,0,0,0.57246727,13.675143,9.1976)"
           d="m 37.857143,25.857143 c 0,10.947073 -8.874355,19.821429 -19.821428,19.821429 -10.9470725,0 -19.8214282,-8.874356 -19.8214282,-19.821429 0,-10.947072 8.8743557,-19.8214279 19.8214282,-19.8214279 10.947073,0 19.821428,8.8743559 19.821428,19.8214279 z"
           sodipodi:ry="19.821428"
           sodipodi:rx="19.821428"
           sodipodi:cy="25.857143"
           sodipodi:cx="18.035715"
           id="path4142"
           style="opacity:0.08999999;fill:none;stroke:#ffffff;stroke-width:0.30408582;stroke-miterlimit:4;stroke-dasharray:none"
           sodipodi:type="arc" />
        <path
           sodipodi:type="arc"
           style="opacity:0.08999999;fill:none;stroke:#ffffff;stroke-width:0.30408582;stroke-miterlimit:4;stroke-dasharray:none"
           id="path4144"
           sodipodi:cx="18.035715"
           sodipodi:cy="25.857143"
           sodipodi:rx="19.821428"
           sodipodi:ry="19.821428"
           d="m 37.857143,25.857143 c 0,10.947073 -8.874355,19.821429 -19.821428,19.821429 -10.9470725,0 -19.8214282,-8.874356 -19.8214282,-19.821429 0,-10.947072 8.8743557,-19.8214279 19.8214282,-19.8214279 10.947073,0 19.821428,8.8743559 19.821428,19.8214279 z"
           transform="matrix(0.51658958,0,0,0.51658958,14.682938,10.6425)" />
      </g>
      <g
         transform="translate(-2.3214286,-2.8571428e-8)"
         id="g3956">
        <g
           transform="translate(0,-1004.3622)"
           id="g3923">
          <rect
             transform="matrix(0.70710678,0.70710678,-0.70710678,0.70710678,0,0)"
             ry="0.859375"
             y="680.24768"
             x="744.15704"
             height="3.2366071"
             width="1.71875"
             id="rect4220"
             style="fill:#4d4d4d;fill-opacity:1;stroke:none" />
          <path
             transform="matrix(0.91111111,0,0,0.88888889,3.7777778,1005.2224)"
             d="m 46.517857,7.5535712 c 0,2.2190012 -1.798856,4.0178568 -4.017857,4.0178568 -2.219001,0 -4.017857,-1.7988556 -4.017857,-4.0178568 0,-2.2190012 1.798856,-4.0178571 4.017857,-4.0178571 2.219001,0 4.017857,1.7988559 4.017857,4.0178571 z"
             sodipodi:ry="4.0178571"
             sodipodi:rx="4.0178571"
             sodipodi:cy="7.5535712"
             sodipodi:cx="42.5"
             id="path4146"
             style="fill:#4d4d4d;fill-opacity:1;stroke:none"
             sodipodi:type="arc" />
          <path
             sodipodi:type="arc"
             style="fill:url(#linearGradient4179);fill-opacity:1;stroke:#ffffff;stroke-width:0.26199999;stroke-linecap:square;stroke-miterlimit:4;stroke-opacity:1;stroke-dasharray:none"
             id="path4148"
             sodipodi:cx="42.5"
             sodipodi:cy="7.5535712"
             sodipodi:rx="4.0178571"
             sodipodi:ry="4.0178571"
             d="m 46.517857,7.5535712 c 0,2.2190012 -1.798856,4.0178568 -4.017857,4.0178568 -2.219001,0 -4.017857,-1.7988556 -4.017857,-4.0178568 0,-2.2190012 1.798856,-4.0178571 4.017857,-4.0178571 2.219001,0 4.017857,1.7988559 4.017857,4.0178571 z"
             transform="matrix(0.81169512,0,0,0.81169512,8.0029574,1005.8055)" />
          <g
             transform="matrix(0.16006812,-0.00972582,0.00972582,0.16006812,20.936307,850.85429)"
             id="g4193">
            <path
               style="fill:url(#linearGradient4181);fill-opacity:1;stroke:none"
               d="m 71.392453,1017.1713 -6.514004,11.3597 c -2.331434,-1.2014 -4.052438,-2.6222 -5.864455,-4.5754 l 9.24862,-9.3352 c 0.985749,1.18 2.062125,1.9721 3.129839,2.5509 z"
               id="path4172"
               inkscape:connector-curvature="0"
               sodipodi:nodetypes="ccccc"
               inkscape:transform-center-x="7.0608935"
               inkscape:transform-center-y="9.6868356" />
            <path
               inkscape:transform-center-y="8.9746856"
               inkscape:transform-center-x="7.9945275"
               sodipodi:nodetypes="ccccc"
               inkscape:connector-curvature="0"
               id="path4174"
               d="m 70.385945,1016.7483 -7.714378,10.5812 c -2.186447,-1.4485 -3.74219,-3.0486 -5.330316,-5.1878 l 10.211807,-8.2705 c 0.851149,1.2804 1.834681,2.1853 2.832887,2.8771 z"
               style="fill:#454545;fill-opacity:0.61170206;stroke:none" />
            <path
               style="fill:#b3b3b3;fill-opacity:0.47340429;stroke:none"
               d="m 69.042906,1015.6677 -9.46717,9.047 c -1.895178,-1.8131 -3.142799,-3.6635 -4.326759,-6.0503 l 11.515645,-6.3302 c 0.610807,1.411 1.418451,2.4758 2.278284,3.3335 z"
               id="path4176"
               inkscape:connector-curvature="0"
               sodipodi:nodetypes="ccccc"
               inkscape:transform-center-x="9.3069495"
               inkscape:transform-center-y="7.5890356" />
          </g>
          <g
             id="g4200"
             transform="matrix(-0.13887871,-0.08018166,0.08018166,-0.13887871,-28.352145,1158.1999)">
            <path
               inkscape:transform-center-y="9.6868356"
               inkscape:transform-center-x="7.0608935"
               sodipodi:nodetypes="ccccc"
               inkscape:connector-curvature="0"
               id="path4202"
               d="m 71.392453,1017.1713 -6.514004,11.3597 c -2.331434,-1.2014 -4.052438,-2.6222 -5.864455,-4.5754 l 9.24862,-9.3352 c 0.985749,1.18 2.062125,1.9721 3.129839,2.5509 z"
               style="fill:url(#linearGradient4183);fill-opacity:1;stroke:none" />
            <path
               style="fill:#454545;fill-opacity:0.61170206;stroke:none"
               d="m 70.385945,1016.7483 -7.714378,10.5812 c -2.186447,-1.4485 -3.74219,-3.0486 -5.330316,-5.1878 l 10.211807,-8.2705 c 0.851149,1.2804 1.834681,2.1853 2.832887,2.8771 z"
               id="path4204"
               inkscape:connector-curvature="0"
               sodipodi:nodetypes="ccccc"
               inkscape:transform-center-x="7.9945275"
               inkscape:transform-center-y="8.9746856" />
            <path
               inkscape:transform-center-y="7.5890356"
               inkscape:transform-center-x="9.3069495"
               sodipodi:nodetypes="ccccc"
               inkscape:connector-curvature="0"
               id="path4206"
               d="m 69.042906,1015.6677 -9.46717,9.047 c -1.895178,-1.8131 -3.142799,-3.6635 -4.326759,-6.0503 l 11.515645,-6.3302 c 0.610807,1.411 1.418451,2.4758 2.278284,3.3335 z"
               style="fill:#b3b3b3;fill-opacity:0.47340429;stroke:none" />
          </g>
          <g
             transform="matrix(-0.02390796,0.15857113,-0.15857113,-0.02390796,204.51682,1024.5119)"
             id="g4210">
            <path
               style="fill:url(#linearGradient4185);fill-opacity:1;stroke:none"
               d="m 71.392453,1017.1713 -6.514004,11.3597 c -2.331434,-1.2014 -4.052438,-2.6222 -5.864455,-4.5754 l 9.24862,-9.3352 c 0.985749,1.18 2.062125,1.9721 3.129839,2.5509 z"
               id="path4212"
               inkscape:connector-curvature="0"
               sodipodi:nodetypes="ccccc"
               inkscape:transform-center-x="7.0608935"
               inkscape:transform-center-y="9.6868356" />
            <path
               inkscape:transform-center-y="8.9746856"
               inkscape:transform-center-x="7.9945275"
               sodipodi:nodetypes="ccccc"
               inkscape:connector-curvature="0"
               id="path4214"
               d="m 70.385945,1016.7483 -7.714378,10.5812 c -2.186447,-1.4485 -3.74219,-3.0486 -5.330316,-5.1878 l 10.211807,-8.2705 c 0.851149,1.2804 1.834681,2.1853 2.832887,2.8771 z"
               style="fill:#454545;fill-opacity:0.61170206;stroke:none" />
            <path
               style="fill:#b3b3b3;fill-opacity:0.47340429;stroke:none"
               d="m 69.042906,1015.6677 -9.46717,9.047 c -1.895178,-1.8131 -3.142799,-3.6635 -4.326759,-6.0503 l 11.515645,-6.3302 c 0.610807,1.411 1.418451,2.4758 2.278284,3.3335 z"
               id="path4216"
               inkscape:connector-curvature="0"
               sodipodi:nodetypes="ccccc"
               inkscape:transform-center-x="9.3069495"
               inkscape:transform-center-y="7.5890356" />
          </g>
        </g>
        <g
           id="g4365">
          <path
             sodipodi:nodetypes="cccc"
             inkscape:connector-curvature="0"
             id="path4247"
             d="m 27.794979,32.595174 0.394591,1.894035 1.247432,0.676734 z"
             style="fill:url(#linearGradient4187);fill-opacity:1;stroke:none" />
          <path
             sodipodi:nodetypes="sssssssss"
             inkscape:connector-curvature="0"
             id="rect4326"
             d="m 12.251746,43.43837 3.00261,-0.09161 c 0.262202,-0.008 0.473509,0.211185 0.473509,0.473509 l 0,0.441942 c 0,0.262324 0.0098,0.458763 -0.473509,0.473509 l -3.00261,0.09161 c -0.262202,0.008 -0.05942,-0.302799 -0.05942,-0.565123 l 0,-0.441942 c 0,-0.262324 -0.202787,-0.373895 0.05942,-0.381895 z"
             style="fill:url(#linearGradient4189);fill-opacity:1;stroke:none"
             transform="matrix(0.84315795,-0.53766594,0.53766594,0.84315795,0,0)" />
          <path
             sodipodi:nodetypes="ccccccc"
             inkscape:connector-curvature="0"
             id="path4317"
             d="m 40.875,10.53125 -3.90625,14.59375 -0.819123,3.23957 1.006623,0.91668 0.9375,-3.46875 4,-14.75 z"
             style="fill:url(#linearGradient4191);fill-opacity:1;stroke:none" />
          <path
             sodipodi:nodetypes="ccccc"
             inkscape:connector-curvature="0"
             id="path4222"
             d="m 27.779195,32.595174 c 0.542997,0.940498 1.023859,1.489271 1.621707,2.524774 l 5.29711,-3.021836 c -0.275377,-1.150297 -0.824852,-2.06076 -1.77313,-2.622269 z"
             style="fill:url(#linearGradient4193);fill-opacity:1;stroke:none" />
        </g>
      </g>
    </g>
  </g>
</svg>
