<?xml version="1.0" encoding="UTF-8" standalone="no"?>
<!-- Created with Inkscape (http://www.inkscape.org/) -->

<svg
   xmlns:dc="http://purl.org/dc/elements/1.1/"
   xmlns:cc="http://creativecommons.org/ns#"
   xmlns:rdf="http://www.w3.org/1999/02/22-rdf-syntax-ns#"
   xmlns:svg="http://www.w3.org/2000/svg"
   xmlns="http://www.w3.org/2000/svg"
   xmlns:xlink="http://www.w3.org/1999/xlink"
   xmlns:sodipodi="http://sodipodi.sourceforge.net/DTD/sodipodi-0.dtd"
   xmlns:inkscape="http://www.inkscape.org/namespaces/inkscape"
   width="48"
   height="48"
   id="svg8900"
   version="1.1"
   inkscape:version="0.48.3.1 r9886"
   sodipodi:docname="document-print.svg">
  <defs
     id="defs8902">
    <linearGradient
       id="linearGradient3824">
      <stop
         style="stop-color:#000000;stop-opacity:1;"
         offset="0"
         id="stop3826" />
      <stop
         style="stop-color:#ffffff;stop-opacity:1;"
         offset="1"
         id="stop3828" />
    </linearGradient>
    <linearGradient
       id="linearGradient8773">
      <stop
         style="stop-color:#000000;stop-opacity:1;"
         offset="0"
         id="stop8775" />
      <stop
         style="stop-color:#ffffff;stop-opacity:1;"
         offset="1"
         id="stop8777" />
    </linearGradient>
    <linearGradient
       id="linearGradient3944">
      <stop
         style="stop-color:#5b5b5b;stop-opacity:1;"
         offset="0"
         id="stop3946" />
      <stop
         id="stop3948"
         offset="0.50158662"
         style="stop-color:#c1c1c1;stop-opacity:1;" />
      <stop
         style="stop-color:#000000;stop-opacity:1;"
         offset="1"
         id="stop3950" />
    </linearGradient>
    <linearGradient
       id="linearGradient3916">
      <stop
         id="stop3918"
         offset="0"
         style="stop-color:#5b5b5b;stop-opacity:1;" />
      <stop
         style="stop-color:#c1c1c1;stop-opacity:1;"
         offset="0.2"
         id="stop3920" />
      <stop
         id="stop3922"
         offset="1"
         style="stop-color:#000000;stop-opacity:1;" />
    </linearGradient>
    <linearGradient
       id="linearGradient3908">
      <stop
         id="stop3910"
         offset="0"
         style="stop-color:#5b5b5b;stop-opacity:1;" />
      <stop
         style="stop-color:#c1c1c1;stop-opacity:1;"
         offset="0.2"
         id="stop3912" />
      <stop
         id="stop3914"
         offset="1"
         style="stop-color:#000000;stop-opacity:1;" />
    </linearGradient>
    <linearGradient
       id="linearGradient8797">
      <stop
         style="stop-color:#000000;stop-opacity:1;"
         offset="0"
         id="stop8799" />
      <stop
         style="stop-color:#ffffff;stop-opacity:1;"
         offset="1"
         id="stop8801" />
    </linearGradient>
    <linearGradient
       id="linearGradient8804">
      <stop
         style="stop-color:#000000;stop-opacity:1;"
         offset="0"
         id="stop8806" />
      <stop
         style="stop-color:#ffffff;stop-opacity:1;"
         offset="1"
         id="stop8808" />
    </linearGradient>
    <linearGradient
       id="linearGradient8811">
      <stop
         style="stop-color:#000000;stop-opacity:1;"
         offset="0"
         id="stop8813" />
      <stop
         style="stop-color:#ffffff;stop-opacity:1;"
         offset="1"
         id="stop8815" />
    </linearGradient>
    <linearGradient
       inkscape:collect="always"
       id="linearGradient4027">
      <stop
         style="stop-color:#ffffff;stop-opacity:1;"
         offset="0"
         id="stop4029" />
      <stop
         style="stop-color:#ffffff;stop-opacity:0;"
         offset="1"
         id="stop4031" />
    </linearGradient>
    <linearGradient
       inkscape:collect="always"
       id="linearGradient4065">
      <stop
         style="stop-color:#000000;stop-opacity:1;"
         offset="0"
         id="stop4067" />
      <stop
         style="stop-color:#000000;stop-opacity:0;"
         offset="1"
         id="stop4069" />
    </linearGradient>
    <linearGradient
       inkscape:collect="always"
       id="linearGradient4057">
      <stop
         style="stop-color:#000000;stop-opacity:1;"
         offset="0"
         id="stop4059" />
      <stop
         style="stop-color:#000000;stop-opacity:0;"
         offset="1"
         id="stop4061" />
    </linearGradient>
    <linearGradient
       inkscape:collect="always"
       id="linearGradient4049">
      <stop
         style="stop-color:#000000;stop-opacity:1;"
         offset="0"
         id="stop4051" />
      <stop
         style="stop-color:#000000;stop-opacity:0;"
         offset="1"
         id="stop4053" />
    </linearGradient>
    <linearGradient
       id="linearGradient3737-3-5">
      <stop
         id="stop3739-6-0"
         style="stop-color:#000000;stop-opacity:1;"
         offset="0" />
      <stop
         id="stop3741-1-8"
         style="stop-color:#ffffff;stop-opacity:1;"
         offset="1" />
    </linearGradient>
    <linearGradient
       id="linearGradient8853">
      <stop
         id="stop8855"
         style="stop-color:#000000;stop-opacity:1;"
         offset="0" />
      <stop
         id="stop8857"
         style="stop-color:#ffffff;stop-opacity:1;"
         offset="1" />
    </linearGradient>
    <linearGradient
       inkscape:collect="always"
       xlink:href="#linearGradient3737-3-5"
       id="linearGradient9538"
       gradientUnits="userSpaceOnUse"
       gradientTransform="matrix(1,0,0,0.70161302,3.4802912,1011.9183)"
       x1="37.77441"
       y1="23.825788"
       x2="37.819725"
       y2="21.107847" />
    <linearGradient
       id="linearGradient8860">
      <stop
         id="stop8862"
         style="stop-color:#000000;stop-opacity:1;"
         offset="0" />
      <stop
         id="stop8864"
         style="stop-color:#ffffff;stop-opacity:1;"
         offset="1" />
    </linearGradient>
    <linearGradient
       inkscape:collect="always"
       xlink:href="#linearGradient3737-3-5"
       id="linearGradient3091"
       gradientUnits="userSpaceOnUse"
       gradientTransform="matrix(1,0,0,0.70161302,93.867423,621.63259)"
       x1="37.77441"
       y1="23.825788"
       x2="37.819725"
       y2="21.107847" />
    <linearGradient
       inkscape:collect="always"
       xlink:href="#linearGradient3737-3-5"
       id="linearGradient3094"
       gradientUnits="userSpaceOnUse"
       gradientTransform="matrix(1,0,0,0.70161302,91.724003,621.63259)"
       x1="37.77441"
       y1="23.825788"
       x2="37.819725"
       y2="21.107847" />
    <linearGradient
       inkscape:collect="always"
       xlink:href="#linearGradient3737-3-5"
       id="linearGradient3097"
       gradientUnits="userSpaceOnUse"
       gradientTransform="matrix(1,0,0,0.70161302,92.795713,621.63259)"
       x1="37.77441"
       y1="23.825788"
       x2="37.819725"
       y2="21.107847" />
    <radialGradient
       inkscape:collect="always"
       xlink:href="#linearGradient4049"
       id="radialGradient3108"
       gradientUnits="userSpaceOnUse"
       gradientTransform="matrix(1,0,0,86.527628,90.170633,-87272.282)"
       cx="31.625"
       cy="1015.831"
       fx="31.625"
       fy="1015.831"
       r="0.0625" />
    <radialGradient
       inkscape:collect="always"
       xlink:href="#linearGradient4057"
       id="radialGradient3111"
       gradientUnits="userSpaceOnUse"
       gradientTransform="matrix(1,0,0,96,90.170633,-96861.771)"
       cx="27.25"
       cy="1015.4872"
       fx="27.25"
       fy="1015.4872"
       r="0.0625" />
    <radialGradient
       inkscape:collect="always"
       xlink:href="#linearGradient4065"
       id="radialGradient3114"
       gradientUnits="userSpaceOnUse"
       gradientTransform="matrix(1,0,0,95.5,90.170633,-96368.793)"
       cx="21.75"
       cy="1015.6435"
       fx="21.75"
       fy="1015.6435"
       r="0.0625" />
    <radialGradient
       inkscape:collect="always"
       xlink:href="#linearGradient4065"
       id="radialGradient3117"
       gradientUnits="userSpaceOnUse"
       gradientTransform="matrix(1,0,0,90.5,90.170633,-91290.576)"
       cx="17.3125"
       cy="1015.6435"
       fx="17.3125"
       fy="1015.6435"
       r="0.0625" />
    <linearGradient
       inkscape:collect="always"
       xlink:href="#linearGradient4027"
       id="linearGradient3120"
       gradientUnits="userSpaceOnUse"
       gradientTransform="matrix(1,0,0,0.84422997,90.170633,-228.6141)"
       x1="24.586102"
       y1="1041.9475"
       x2="24.586102"
       y2="1039.7168" />
    <linearGradient
       inkscape:collect="always"
       xlink:href="#linearGradient3824"
       id="linearGradient3124"
       gradientUnits="userSpaceOnUse"
       gradientTransform="translate(90.170633,613.87579)"
       x1="24.285713"
       y1="28.143274"
       x2="24.285713"
       y2="15.131048" />
    <linearGradient
       inkscape:collect="always"
       xlink:href="#linearGradient3824"
       id="linearGradient3132"
       gradientUnits="userSpaceOnUse"
       gradientTransform="translate(90.170633,-390.48637)"
       x1="24.52697"
       y1="1047.1616"
       x2="24.52697"
       y2="1025.7197" />
    <linearGradient
       inkscape:collect="always"
       xlink:href="#linearGradient3824"
       id="linearGradient3135"
       gradientUnits="userSpaceOnUse"
       gradientTransform="translate(90.170633,-390.48637)"
       x1="25.173595"
       y1="1007.3634"
       x2="25.173595"
       y2="1035.0579" />
    <linearGradient
       inkscape:collect="always"
       xlink:href="#linearGradient3908"
       id="linearGradient3139"
       gradientUnits="userSpaceOnUse"
       gradientTransform="matrix(0.98198198,0,0,1.0434783,90.239813,612.99999)"
       x1="9.3080359"
       y1="25.907064"
       x2="9.3080359"
       y2="19.311537" />
    <linearGradient
       inkscape:collect="always"
       xlink:href="#linearGradient3916"
       id="linearGradient3142"
       gradientUnits="userSpaceOnUse"
       gradientTransform="matrix(-0.98198198,0,0,1.0434783,138.59033,612.99999)"
       x1="9.3080359"
       y1="25.906807"
       x2="9.3080359"
       y2="18.958965" />
    <linearGradient
       inkscape:collect="always"
       xlink:href="#linearGradient3944"
       id="linearGradient3145"
       gradientUnits="userSpaceOnUse"
       gradientTransform="matrix(1.0157729,0,0,1,89.979583,613.93829)"
       x1="24.730925"
       y1="32.601627"
       x2="24.730925"
       y2="21.445097" />
    <linearGradient
       inkscape:collect="always"
       xlink:href="#linearGradient3824"
       id="linearGradient3148"
       gradientUnits="userSpaceOnUse"
       gradientTransform="translate(90.170633,613.87579)"
       x1="24.6875"
       y1="33.393127"
       x2="24.6875"
       y2="39.286556" />
    <linearGradient
       inkscape:collect="always"
       xlink:href="#linearGradient3824"
       id="linearGradient3151"
       gradientUnits="userSpaceOnUse"
       gradientTransform="translate(90.170633,600.43833)"
       x1="24.6875"
       y1="33.393127"
       x2="24.6875"
       y2="39.286556" />
    <linearGradient
       id="linearGradient4464">
      <stop
         style="stop-color:#b6b6b6;stop-opacity:1;"
         offset="0"
         id="stop4466" />
      <stop
         id="stop4468"
         offset="0.36464298"
         style="stop-color:#e5e5e5;stop-opacity:1;" />
      <stop
         id="stop4470"
         offset="0.42982948"
         style="stop-color:#f0f0f0;stop-opacity:1;" />
      <stop
         style="stop-color:#9f9f9f;stop-opacity:1;"
         offset="1"
         id="stop4472" />
    </linearGradient>
    <linearGradient
       id="linearGradient4454">
      <stop
         id="stop4456"
         offset="0"
         style="stop-color:#b6b6b6;stop-opacity:1;" />
      <stop
         style="stop-color:#e0e0e0;stop-opacity:1;"
         offset="0.36464298"
         id="stop4458" />
      <stop
         style="stop-color:#ededed;stop-opacity:1;"
         offset="0.42982948"
         id="stop4460" />
      <stop
         id="stop4462"
         offset="1"
         style="stop-color:#9f9f9f;stop-opacity:1;" />
    </linearGradient>
    <linearGradient
       id="linearGradient4490">
      <stop
         style="stop-color:#b6b6b6;stop-opacity:1;"
         offset="0"
         id="stop4492" />
      <stop
         id="stop4494"
         offset="0.36464298"
         style="stop-color:#e0e0e0;stop-opacity:1;" />
      <stop
         id="stop4496"
         offset="0.68232149"
         style="stop-color:#ededed;stop-opacity:1;" />
      <stop
         style="stop-color:#9f9f9f;stop-opacity:1;"
         offset="1"
         id="stop4498" />
    </linearGradient>
    <linearGradient
       id="linearGradient4438">
      <stop
         id="stop4440"
         offset="0"
         style="stop-color:#636363;stop-opacity:1;" />
      <stop
         style="stop-color:#979797;stop-opacity:1;"
         offset="0.09999999"
         id="stop4442" />
      <stop
         id="stop4444"
         offset="1"
         style="stop-color:#323232;stop-opacity:1;" />
    </linearGradient>
    <linearGradient
       id="linearGradient4596">
      <stop
         id="stop4598"
         offset="0"
         style="stop-color:#ffffff;stop-opacity:1;" />
      <stop
         style="stop-color:#bbbbbb;stop-opacity:1;"
         offset="0.11831769"
         id="stop4600" />
      <stop
         style="stop-color:#ffffff;stop-opacity:1;"
         offset="0.48967344"
         id="stop4602" />
      <stop
         id="stop4606"
         offset="0.71154857"
         style="stop-color:#909090;stop-opacity:1;" />
      <stop
         id="stop4604"
         offset="1"
         style="stop-color:#e5e5e5;stop-opacity:1;" />
    </linearGradient>
    <linearGradient
       id="linearGradient4578">
      <stop
         style="stop-color:#c5c5c5;stop-opacity:1;"
         offset="0"
         id="stop4580" />
      <stop
         id="stop4582"
         offset="0.30773756"
         style="stop-color:#e0e0e0;stop-opacity:1;" />
      <stop
         id="stop4584"
         offset="0.4230971"
         style="stop-color:#ffffff;stop-opacity:1;" />
      <stop
         style="stop-color:#cbcbcb;stop-opacity:1;"
         offset="1"
         id="stop4586" />
    </linearGradient>
    <linearGradient
       id="linearGradient4390">
      <stop
         id="stop4392"
         offset="0"
         style="stop-color:#2d9cd8;stop-opacity:1;" />
      <stop
         style="stop-color:#88c6f7;stop-opacity:1"
         offset="0.72347784"
         id="stop4396" />
      <stop
         id="stop4394"
         offset="1"
         style="stop-color:#2d9cd8;stop-opacity:1;" />
    </linearGradient>
    <linearGradient
       id="linearGradient4500">
      <stop
         style="stop-color:#f2ff0e;stop-opacity:1;"
         offset="0"
         id="stop4502" />
      <stop
         style="stop-color:#abf34d;stop-opacity:1;"
         offset="1"
         id="stop4504" />
    </linearGradient>
    <linearGradient
       id="linearGradient8860-2">
      <stop
         id="stop8862-6"
         style="stop-color:#000000;stop-opacity:1;"
         offset="0" />
      <stop
         id="stop8864-3"
         style="stop-color:#ffffff;stop-opacity:1;"
         offset="1" />
    </linearGradient>
    <linearGradient
       id="linearGradient4712">
      <stop
         id="stop4714"
         style="stop-color:#000000;stop-opacity:1;"
         offset="0" />
      <stop
         id="stop4716"
         style="stop-color:#ffffff;stop-opacity:1;"
         offset="1" />
    </linearGradient>
    <linearGradient
       id="linearGradient4528">
      <stop
         id="stop4530"
         offset="0"
         style="stop-color:#ffffff;stop-opacity:0.64814815" />
      <stop
         id="stop4532"
         offset="1"
         style="stop-color:#e0e0e0;stop-opacity:0;" />
    </linearGradient>
    <linearGradient
       id="linearGradient3987">
      <stop
         style="stop-color:#b6b6b6;stop-opacity:1;"
         offset="0"
         id="stop3989" />
      <stop
         id="stop3995"
         offset="0.30686653"
         style="stop-color:#e0e0e0;stop-opacity:1;" />
      <stop
         id="stop3991"
         offset="0.61373305"
         style="stop-color:#ededed;stop-opacity:1;" />
      <stop
         style="stop-color:#9f9f9f;stop-opacity:1;"
         offset="1"
         id="stop3993" />
    </linearGradient>
    <linearGradient
       id="linearGradient3997">
      <stop
         style="stop-color:#737373;stop-opacity:1;"
         offset="0"
         id="stop3999" />
      <stop
         id="stop4001"
         offset="0.44699538"
         style="stop-color:#444444;stop-opacity:1;" />
      <stop
         style="stop-color:#505050;stop-opacity:1;"
         offset="1"
         id="stop4003" />
    </linearGradient>
    <linearGradient
       id="linearGradient4768">
      <stop
         style="stop-color:#737373;stop-opacity:1;"
         offset="0"
         id="stop4770" />
      <stop
         id="stop4772"
         offset="0.44699538"
         style="stop-color:#444444;stop-opacity:1;" />
      <stop
         style="stop-color:#505050;stop-opacity:1;"
         offset="1"
         id="stop4774" />
    </linearGradient>
    <linearGradient
       id="linearGradient3953">
      <stop
         style="stop-color:#1f73a7;stop-opacity:1;"
         offset="0"
         id="stop3955" />
      <stop
         style="stop-color:#87b8ea;stop-opacity:1;"
         offset="1"
         id="stop3957" />
    </linearGradient>
    <linearGradient
       id="linearGradient4005">
      <stop
         style="stop-color:#636363;stop-opacity:1;"
         offset="0"
         id="stop4007" />
      <stop
         id="stop4009"
         offset="0.44699538"
         style="stop-color:#979797;stop-opacity:1;" />
      <stop
         style="stop-color:#323232;stop-opacity:1;"
         offset="1"
         id="stop4011" />
    </linearGradient>
    <linearGradient
       inkscape:collect="always"
       xlink:href="#linearGradient8140"
       id="linearGradient8220"
       gradientUnits="userSpaceOnUse"
       gradientTransform="matrix(1,0,0,0.78399091,-8.079887,156.42073)"
       x1="356.01141"
       y1="600.81055"
       x2="356.01141"
       y2="579.06647" />
    <linearGradient
       id="linearGradient8140">
      <stop
         style="stop-color:#959595;stop-opacity:1;"
         offset="0"
         id="stop8142" />
      <stop
         id="stop8144"
         offset="0.1564638"
         style="stop-color:#e0e0e0;stop-opacity:1;" />
      <stop
         id="stop8146"
         offset="0.75194097"
         style="stop-color:#ededed;stop-opacity:1;" />
      <stop
         style="stop-color:#868686;stop-opacity:1;"
         offset="1"
         id="stop8148" />
    </linearGradient>
    <linearGradient
       inkscape:collect="always"
       xlink:href="#linearGradient4846"
       id="linearGradient8044"
       gradientUnits="userSpaceOnUse"
       gradientTransform="translate(208.43658,605.82824)"
       x1="116.64389"
       y1="31.333487"
       x2="161.78897"
       y2="31.333487" />
    <linearGradient
       id="linearGradient4846">
      <stop
         style="stop-color:#626262;stop-opacity:1;"
         offset="0"
         id="stop4848" />
      <stop
         id="stop4858"
         offset="0.01761973"
         style="stop-color:#ababab;stop-opacity:1;" />
      <stop
         id="stop4850"
         offset="0.04698669"
         style="stop-color:#ffffff;stop-opacity:1;" />
      <stop
         id="stop4852"
         offset="0.35622254"
         style="stop-color:#c7c7c7;stop-opacity:1;" />
      <stop
         style="stop-color:#ffffff;stop-opacity:1;"
         offset="0.95644945"
         id="stop4856" />
      <stop
         id="stop4860"
         offset="0.97822475"
         style="stop-color:#ababab;stop-opacity:1;" />
      <stop
         style="stop-color:#626262;stop-opacity:1;"
         offset="1"
         id="stop4854" />
    </linearGradient>
    <linearGradient
       inkscape:collect="always"
       xlink:href="#linearGradient7983"
       id="linearGradient8038"
       gradientUnits="userSpaceOnUse"
       gradientTransform="translate(145.35221,608.19549)"
       x1="179.81503"
       y1="37.171722"
       x2="225.70694"
       y2="37.171722" />
    <linearGradient
       id="linearGradient7983">
      <stop
         style="stop-color:#000000;stop-opacity:1;"
         offset="0"
         id="stop7985" />
      <stop
         id="stop7987"
         offset="0.04053095"
         style="stop-color:#848484;stop-opacity:1;" />
      <stop
         style="stop-color:#000000;stop-opacity:1;"
         offset="0.11928526"
         id="stop7989" />
      <stop
         id="stop7991"
         offset="0.87064826"
         style="stop-color:#000000;stop-opacity:1;" />
      <stop
         style="stop-color:#5a5a5a;stop-opacity:1;"
         offset="0.96640164"
         id="stop7993" />
      <stop
         style="stop-color:#000000;stop-opacity:1;"
         offset="1"
         id="stop7995" />
    </linearGradient>
    <linearGradient
       inkscape:collect="always"
       xlink:href="#linearGradient7983"
       id="linearGradient8032"
       gradientUnits="userSpaceOnUse"
       gradientTransform="translate(145.37891,591.98728)"
       x1="179.87579"
       y1="37.773869"
       x2="225.70694"
       y2="37.773869" />
    <linearGradient
       id="linearGradient8308">
      <stop
         style="stop-color:#000000;stop-opacity:1;"
         offset="0"
         id="stop8310" />
      <stop
         id="stop8312"
         offset="0.04053095"
         style="stop-color:#848484;stop-opacity:1;" />
      <stop
         style="stop-color:#000000;stop-opacity:1;"
         offset="0.11928526"
         id="stop8314" />
      <stop
         id="stop8316"
         offset="0.87064826"
         style="stop-color:#000000;stop-opacity:1;" />
      <stop
         style="stop-color:#5a5a5a;stop-opacity:1;"
         offset="0.96640164"
         id="stop8318" />
      <stop
         style="stop-color:#000000;stop-opacity:1;"
         offset="1"
         id="stop8320" />
    </linearGradient>
    <linearGradient
       inkscape:collect="always"
       xlink:href="#linearGradient8092"
       id="linearGradient8090"
       x1="333.70633"
       y1="626.37421"
       x2="333.70633"
       y2="630.12933"
       gradientUnits="userSpaceOnUse" />
    <linearGradient
       id="linearGradient8092">
      <stop
         id="stop8094"
         offset="0"
         style="stop-color:#ffffff;stop-opacity:1;" />
      <stop
         style="stop-color:#ffffff;stop-opacity:0.58510637;"
         offset="0.5"
         id="stop8098" />
      <stop
         id="stop8096"
         offset="1"
         style="stop-color:#ffffff;stop-opacity:1;" />
    </linearGradient>
    <linearGradient
       inkscape:collect="always"
       xlink:href="#linearGradient7947"
       id="linearGradient8192"
       gradientUnits="userSpaceOnUse"
       gradientTransform="translate(208.40237,605.73406)"
       x1="138.91542"
       y1="37.618633"
       x2="138.91542"
       y2="36.010155" />
    <linearGradient
       id="linearGradient7947">
      <stop
         id="stop7949"
         offset="0"
         style="stop-color:#ffffff;stop-opacity:1;" />
      <stop
         id="stop7951"
         offset="1"
         style="stop-color:#ffffff;stop-opacity:0;" />
    </linearGradient>
    <linearGradient
       inkscape:collect="always"
       xlink:href="#linearGradient7963"
       id="linearGradient8189"
       gradientUnits="userSpaceOnUse"
       gradientTransform="translate(153.08467,609.23406)"
       x1="179.46417"
       y1="37.448074"
       x2="209.81184"
       y2="36.994949" />
    <linearGradient
       id="linearGradient7963">
      <stop
         id="stop7965"
         offset="0"
         style="stop-color:#000000;stop-opacity:1;" />
      <stop
         style="stop-color:#848484;stop-opacity:1;"
         offset="0.03981626"
         id="stop7967" />
      <stop
         id="stop7971"
         offset="0.08496448"
         style="stop-color:#000000;stop-opacity:1;" />
      <stop
         style="stop-color:#000000;stop-opacity:1;"
         offset="0.94245821"
         id="stop7973" />
      <stop
         id="stop7975"
         offset="0.97122908"
         style="stop-color:#5a5a5a;stop-opacity:1;" />
      <stop
         id="stop7969"
         offset="1"
         style="stop-color:#000000;stop-opacity:1;" />
    </linearGradient>
  </defs>
  <sodipodi:namedview
     id="base"
     pagecolor="#ffffff"
     bordercolor="#666666"
     borderopacity="1.0"
     inkscape:pageopacity="0.0"
     inkscape:pageshadow="2"
     inkscape:zoom="7.919596"
     inkscape:cx="-4.2045857"
     inkscape:cy="20.716797"
     inkscape:document-units="px"
     inkscape:current-layer="layer1"
     showgrid="false"
     fit-margin-top="0"
     fit-margin-left="0"
     fit-margin-right="0"
     fit-margin-bottom="0"
     inkscape:window-width="833"
     inkscape:window-height="691"
     inkscape:window-x="419"
     inkscape:window-y="182"
     inkscape:window-maximized="0"
     showguides="true"
     inkscape:guide-bbox="true" />
  <metadata
     id="metadata8905">
    <rdf:RDF>
      <cc:Work
         rdf:about="">
        <dc:format>image/svg+xml</dc:format>
        <dc:type
           rdf:resource="http://purl.org/dc/dcmitype/StillImage" />
        <dc:title />
      </cc:Work>
    </rdf:RDF>
  </metadata>
  <g
     inkscape:label="Capa 1"
     inkscape:groupmode="layer"
     id="layer1"
     transform="translate(-153.14286,-614.07647)">
    <rect
       style="fill:none;stroke:none"
       id="rect15519"
       width="48"
       height="48"
       x="153.14285"
       y="614.07648"
       ry="0.23958488" />
    <g
       id="g3203">
      <path
         sodipodi:nodetypes="sssscsssscssssssssss"
         inkscape:connector-curvature="0"
         id="rect3227"
         d="m 158.56474,632.31421 c -1.33556,0 -2.40625,1.07071 -2.40625,2.40625 l 0,15 c 0,1.33554 1.07069,2.40625 2.40625,2.40625 l 6.34818,0 0,-7.05357 c 0,-0.87951 0.71424,-2.17411 1.59375,-2.17411 l 21.34822,0 c 0.87953,0 1.59375,1.2946 1.59375,2.17411 l 0,7.05357 6.27234,0 c 1.33554,0 2.40625,-1.07071 2.40625,-2.40625 l 0,-15 c 0,-1.33554 -1.07071,-2.40625 -2.40625,-2.40625 z m 33.65625,2.78125 c 1.0355,0 1.875,0.83947 1.875,1.875 0,1.03553 -0.8395,1.875 -1.875,1.875 -1.03553,0 -1.875,-0.83947 -1.875,-1.875 0,-1.03553 0.83947,-1.875 1.875,-1.875 z"
         style="fill:#4d4d4d;fill-opacity:1;stroke:none" />
      <path
         sodipodi:nodetypes="cssssccsssscc"
         inkscape:connector-curvature="0"
         id="rect3229"
         d="m 167.53126,620.79189 -2.59375,0 c -0.48729,0 -0.875,0.38771 -0.875,0.875 l 0,6.98661 c 0,0.48729 0.38771,0.875 0.875,0.875 l 4.03125,0 16.31694,0 4.03125,0 c 0.48729,0 0.90625,-0.38771 0.90625,-0.875 l 0,-6.98661 c 0,-0.48729 -0.41896,-0.875 -0.90625,-0.875 l -2.59375,0 c -6.33105,0 -12.11492,0 -19.19194,0 z"
         style="fill:#4d4d4d;fill-opacity:1;stroke:none" />
      <rect
         transform="scale(1,-1)"
         ry="1.3076764"
         y="-655.36102"
         x="166.9315"
         height="10.752006"
         width="20.422705"
         id="rect3233"
         style="fill:#4d4d4d;stroke:none" />
    </g>
    <path
       sodipodi:nodetypes="cccccccc"
       inkscape:connector-curvature="0"
       id="path5583-3"
       d="m 170.58331,630.44177 3.73213,0 0,-8.02383 5.34477,0 0,8.02383 4.04221,0 -6.54168,9.89818 z"
       style="fill:#5fbcd3;fill-opacity:1;stroke:none" />
  </g>
</svg>
