<?xml version="1.0" encoding="UTF-8" standalone="no"?>
<!-- Created with Inkscape (http://www.inkscape.org/) -->

<svg
   xmlns:dc="http://purl.org/dc/elements/1.1/"
   xmlns:cc="http://creativecommons.org/ns#"
   xmlns:rdf="http://www.w3.org/1999/02/22-rdf-syntax-ns#"
   xmlns:svg="http://www.w3.org/2000/svg"
   xmlns="http://www.w3.org/2000/svg"
   xmlns:sodipodi="http://sodipodi.sourceforge.net/DTD/sodipodi-0.dtd"
   xmlns:inkscape="http://www.inkscape.org/namespaces/inkscape"
   width="48"
   height="48"
   id="svg11925"
   version="1.1"
   inkscape:version="0.48+devel r11556"
   sodipodi:docname="document-revert.svg">
  <defs
     id="defs11927" />
  <sodipodi:namedview
     id="base"
     pagecolor="#ffffff"
     bordercolor="#666666"
     borderopacity="1.0"
     inkscape:pageopacity="0.0"
     inkscape:pageshadow="2"
     inkscape:zoom="3.6815608"
     inkscape:cx="29.731087"
     inkscape:cy="43.603321"
     inkscape:document-units="px"
     inkscape:current-layer="layer1"
     showgrid="true"
     fit-margin-top="0"
     fit-margin-left="0"
     fit-margin-right="0"
     fit-margin-bottom="0"
     inkscape:window-width="1102"
     inkscape:window-height="748"
     inkscape:window-x="262"
     inkscape:window-y="0"
     inkscape:window-maximized="0" />
  <metadata
     id="metadata11930">
    <rdf:RDF>
      <cc:Work
         rdf:about="">
        <dc:format>image/svg+xml</dc:format>
        <dc:type
           rdf:resource="http://purl.org/dc/dcmitype/StillImage" />
        <dc:title></dc:title>
      </cc:Work>
    </rdf:RDF>
  </metadata>
  <g
     inkscape:label="Capa 1"
     inkscape:groupmode="layer"
     id="layer1"
     transform="translate(-387.42856,-548.36218)">
    <rect
       style="fill:none;stroke:none"
       id="rect4323"
       width="48"
       height="48"
       x="387.42856"
       y="548.36218" />
    <g
       id="g859"
       transform="translate(57.18052,1.99378)">
      <path
         sodipodi:nodetypes="cccccccccsccccccc"
         inkscape:connector-curvature="0"
         id="rect975"
         d="m 333.69252,550.59337 0,39.38106 29.50187,0 -2.34364,-2.30026 -6.83916,-6.67145 0,-1.05599 6.79054,-6.97768 3.85466,-3.78499 1.57076,0 0.0617,7.24677 1.67941,0 0,-16.55131 -0.34033,-0.29171 -10.01543,0 -0.0972,-8.70273 -0.34033,-0.29171 z"
         style="fill:#4d4d4d;fill-opacity:1;stroke:none" />
      <path
         sodipodi:nodetypes="cccc"
         inkscape:connector-curvature="0"
         id="path977"
         d="m 367.96863,558.30226 -8.90158,0 -0.0802,-7.70881 z"
         inkscape:transform-center-y="-0.63645977"
         inkscape:transform-center-x="-0.32798422"
         style="fill:#4d4d4d;fill-opacity:1;stroke:none" />
      <path
         id="path5583-3-6"
         transform="translate(387.42856,548.36218)"
         d="m -22.21875,22.0625 -10,10 10,9.71875 0,-6.90625 9.59375,0 0,-4.78125 0,-1.15625 0,-4.78125 -5.9375,0 0,4.78125 -3.65625,0 0,-6.875 z"
         style="fill:#5fbcd3;fill-opacity:1;stroke:none"
         inkscape:connector-curvature="0" />
    </g>
  </g>
</svg>
