<?xml version="1.0" encoding="UTF-8" standalone="no"?>
<!-- Created with Inkscape (http://www.inkscape.org/) -->

<svg
   xmlns:dc="http://purl.org/dc/elements/1.1/"
   xmlns:cc="http://creativecommons.org/ns#"
   xmlns:rdf="http://www.w3.org/1999/02/22-rdf-syntax-ns#"
   xmlns:svg="http://www.w3.org/2000/svg"
   xmlns="http://www.w3.org/2000/svg"
   xmlns:xlink="http://www.w3.org/1999/xlink"
   xmlns:sodipodi="http://sodipodi.sourceforge.net/DTD/sodipodi-0.dtd"
   xmlns:inkscape="http://www.inkscape.org/namespaces/inkscape"
   width="48"
   height="48"
   id="svg7175"
   version="1.1"
   inkscape:version="0.48+devel r11556"
   sodipodi:docname="document-page-setup.svg">
  <defs
     id="defs7177">
    <linearGradient
       inkscape:collect="always"
       xlink:href="#linearGradient3806"
       id="linearGradient3804"
       x1="250.53169"
       y1="561.87891"
       x2="261.56393"
       y2="585.62891"
       gradientUnits="userSpaceOnUse"
       gradientTransform="matrix(1.2609032,0,0,1.2609032,-66.803688,-148.73912)" />
    <linearGradient
       id="linearGradient3806">
      <stop
         id="stop3808"
         offset="0"
         style="stop-color:#5fbcd3;stop-opacity:1;" />
      <stop
         id="stop3810"
         offset="1"
         style="stop-color:#00f0ff;stop-opacity:1;" />
    </linearGradient>
    <linearGradient
       y2="585.62891"
       x2="261.56393"
       y1="561.87891"
       x1="250.53169"
       gradientTransform="matrix(1.2609032,0,0,1.2609032,290.64799,-116.15179)"
       gradientUnits="userSpaceOnUse"
       id="linearGradient3927"
       xlink:href="#linearGradient3806"
       inkscape:collect="always" />
    <linearGradient
       id="linearGradient3806-7">
      <stop
         style="stop-color:#00d0ff;stop-opacity:1;"
         offset="0"
         id="stop3808-07" />
      <stop
         style="stop-color:#00f0ff;stop-opacity:1;"
         offset="1"
         id="stop3810-8" />
    </linearGradient>
  </defs>
  <sodipodi:namedview
     id="base"
     pagecolor="#ffffff"
     bordercolor="#666666"
     borderopacity="1.0"
     inkscape:pageopacity="0.0"
     inkscape:pageshadow="2"
     inkscape:zoom="5.6568542"
     inkscape:cx="48.829136"
     inkscape:cy="8.4928861"
     inkscape:document-units="px"
     inkscape:current-layer="layer1"
     showgrid="false"
     fit-margin-top="0"
     fit-margin-left="0"
     fit-margin-right="0"
     fit-margin-bottom="0"
     inkscape:window-width="1366"
     inkscape:window-height="746"
     inkscape:window-x="0"
     inkscape:window-y="0"
     inkscape:window-maximized="1" />
  <metadata
     id="metadata7180">
    <rdf:RDF>
      <cc:Work
         rdf:about="">
        <dc:format>image/svg+xml</dc:format>
        <dc:type
           rdf:resource="http://purl.org/dc/dcmitype/StillImage" />
        <dc:title />
      </cc:Work>
    </rdf:RDF>
  </metadata>
  <g
     inkscape:label="Capa 1"
     inkscape:groupmode="layer"
     id="layer1"
     transform="translate(-553.14288,-594.07648)">
    <rect
       style="opacity:0.35648151;fill:none;stroke:none"
       id="rect4543"
       width="48"
       height="48"
       x="553.14288"
       y="594.07648" />
    <g
       id="g882"
       transform="translate(-55.040765,-4.296875)">
      <path
         id="rect855"
         transform="translate(553.14288,594.07648)"
         d="m 58.375,8.59375 0,39.375 C 63.21503,47.94795 75.875,48 75.875,48 L 79.59375,35.15625 83,38.65625 89.625,32.0625 86.09375,28.5 92.625,26.625 l 0,-8.75 -0.3125,-0.28125 -10.03125,0 -0.09375,-8.6875 -0.34375,-0.3125 -23.46875,0 z m 25.28125,0 0.09375,7.71875 8.875,0 -8.96875,-7.71875 z M 92.625,36.71875 86.84375,42.5 86.78125,42.5625 90.375,46.1875 83.71875,48 c 2.169489,-0.0093 3.695403,-0.02655 4.84375,-0.03125 2.084144,-0.0085 2.919211,-8e-5 4.0625,0 l 0,-11.25 z"
         style="fill:#4d4d4d;fill-opacity:1;stroke:none"
         inkscape:connector-curvature="0" />
      <path
         sodipodi:nodetypes="ccccccccccc"
         inkscape:connector-curvature="0"
         id="path7127"
         d="m 644.95686,626.02466 -8.8429,8.84291 -2.67814,-2.67806 -2.82955,9.88697 c 3.00794,-0.80602 7.18061,-1.66513 10.18855,-2.47103 l -2.96601,-2.96601 8.91484,-8.9149 2.95409,2.99725 3.15167,-10.36428 -10.69422,2.86549 z"
         style="fill:#5fbcd3;fill-opacity:1;stroke:none" />
    </g>
  </g>
</svg>
