<?xml version="1.0" encoding="UTF-8" standalone="no"?>
<!-- Created with Inkscape (http://www.inkscape.org/) -->

<svg
   xmlns:dc="http://purl.org/dc/elements/1.1/"
   xmlns:cc="http://creativecommons.org/ns#"
   xmlns:rdf="http://www.w3.org/1999/02/22-rdf-syntax-ns#"
   xmlns:svg="http://www.w3.org/2000/svg"
   xmlns="http://www.w3.org/2000/svg"
   xmlns:xlink="http://www.w3.org/1999/xlink"
   xmlns:sodipodi="http://sodipodi.sourceforge.net/DTD/sodipodi-0.dtd"
   xmlns:inkscape="http://www.inkscape.org/namespaces/inkscape"
   width="48"
   height="48"
   id="svg2"
   version="1.1"
   inkscape:version="0.48+devel r11521"
   sodipodi:docname="gnome-dev-mouse-ball.svg">
  <defs
     id="defs4">
    <linearGradient
       inkscape:collect="always"
       id="linearGradient938">
      <stop
         style="stop-color:#000000;stop-opacity:1;"
         offset="0"
         id="stop940" />
      <stop
         style="stop-color:#7e7e7e;stop-opacity:1"
         offset="1"
         id="stop942" />
    </linearGradient>
    <linearGradient
       id="linearGradient3795">
      <stop
         style="stop-color:#68b89c;stop-opacity:1;"
         offset="0"
         id="stop3797" />
      <stop
         style="stop-color:#309784;stop-opacity:1;"
         offset="1"
         id="stop3799" />
    </linearGradient>
    <linearGradient
       id="linearGradient3698">
      <stop
         id="stop3700"
         offset="0"
         style="stop-color:#96d0e1;stop-opacity:1" />
      <stop
         style="stop-color:#89b7e1;stop-opacity:1"
         offset="0.67819428"
         id="stop3706" />
      <stop
         id="stop3702"
         offset="1"
         style="stop-color:#699dd3;stop-opacity:1" />
    </linearGradient>
    <linearGradient
       id="linearGradient3708">
      <stop
         id="stop3710"
         offset="0"
         style="stop-color:#658db6;stop-opacity:1" />
      <stop
         style="stop-color:#527fab;stop-opacity:1;"
         offset="0.76777935"
         id="stop3716" />
      <stop
         id="stop3712"
         offset="1"
         style="stop-color:#4071a0;stop-opacity:1" />
    </linearGradient>
    <linearGradient
       id="linearGradient3750">
      <stop
         style="stop-color:#d0e2f1;stop-opacity:1"
         offset="0"
         id="stop3752" />
      <stop
         id="stop3756"
         offset="0.85580856"
         style="stop-color:#cadef0;stop-opacity:1" />
      <stop
         style="stop-color:#95bee3;stop-opacity:1"
         offset="1"
         id="stop3754" />
    </linearGradient>
    <linearGradient
       id="linearGradient3803">
      <stop
         id="stop3805"
         offset="0"
         style="stop-color:#b0b0b0;stop-opacity:1" />
      <stop
         id="stop3807"
         offset="1"
         style="stop-color:#fbfbfb;stop-opacity:1" />
    </linearGradient>
    <linearGradient
       inkscape:collect="always"
       xlink:href="#linearGradient3795"
       id="linearGradient3859"
       x1="26.192217"
       y1="1024.0002"
       x2="28.641211"
       y2="1024.0002"
       gradientUnits="userSpaceOnUse" />
    <linearGradient
       inkscape:collect="always"
       xlink:href="#linearGradient3795"
       id="linearGradient3867"
       gradientUnits="userSpaceOnUse"
       x1="26.192217"
       y1="1024.0002"
       x2="28.641211"
       y2="1024.0002" />
    <linearGradient
       inkscape:collect="always"
       xlink:href="#linearGradient3795"
       id="linearGradient3869"
       gradientUnits="userSpaceOnUse"
       x1="26.192217"
       y1="1024.0002"
       x2="28.641211"
       y2="1024.0002" />
    <linearGradient
       inkscape:collect="always"
       xlink:href="#linearGradient3795"
       id="linearGradient3871"
       gradientUnits="userSpaceOnUse"
       x1="26.192217"
       y1="1024.0002"
       x2="28.641211"
       y2="1024.0002" />
    <linearGradient
       inkscape:collect="always"
       xlink:href="#linearGradient3795"
       id="linearGradient3877"
       gradientUnits="userSpaceOnUse"
       x1="29.718235"
       y1="1027.8575"
       x2="22.811094"
       y2="1015.5485" />
    <linearGradient
       inkscape:collect="always"
       xlink:href="#linearGradient3795"
       id="linearGradient3879"
       gradientUnits="userSpaceOnUse"
       x1="17.196316"
       y1="1006.2238"
       x2="31.448042"
       y2="1030.9086" />
    <linearGradient
       inkscape:collect="always"
       xlink:href="#linearGradient3795"
       id="linearGradient3895"
       x1="21.973417"
       y1="34.43922"
       x2="42.475323"
       y2="24.798252"
       gradientUnits="userSpaceOnUse" />
    <linearGradient
       id="linearGradient3895-8">
      <stop
         style="stop-color:#e0880b;stop-opacity:1;"
         offset="0"
         id="stop3897" />
      <stop
         style="stop-color:#f7ce50;stop-opacity:1;"
         offset="1"
         id="stop3899" />
    </linearGradient>
    <linearGradient
       y2="1007.5135"
       x2="24.113745"
       y1="1049.2139"
       x1="24.113745"
       gradientTransform="matrix(0.96799712,0,0,1.0252613,604.84439,-419.13965)"
       gradientUnits="userSpaceOnUse"
       id="linearGradient3857"
       xlink:href="#linearGradient3895-8"
       inkscape:collect="always" />
    <linearGradient
       gradientUnits="userSpaceOnUse"
       y2="24.798252"
       x2="42.475323"
       y1="34.43922"
       x1="21.973417"
       id="linearGradient3895-0"
       xlink:href="#linearGradient3795-8"
       inkscape:collect="always" />
    <linearGradient
       y2="1030.9086"
       x2="31.448042"
       y1="1006.2238"
       x1="17.196316"
       gradientUnits="userSpaceOnUse"
       id="linearGradient3879-3"
       xlink:href="#linearGradient3795-8"
       inkscape:collect="always" />
    <linearGradient
       y2="1015.5485"
       x2="22.811094"
       y1="1027.8575"
       x1="29.718235"
       gradientUnits="userSpaceOnUse"
       id="linearGradient3877-9"
       xlink:href="#linearGradient3795-8"
       inkscape:collect="always" />
    <linearGradient
       y2="1024.0002"
       x2="28.641211"
       y1="1024.0002"
       x1="26.192217"
       gradientUnits="userSpaceOnUse"
       id="linearGradient3871-8"
       xlink:href="#linearGradient3795-8"
       inkscape:collect="always" />
    <linearGradient
       y2="1024.0002"
       x2="28.641211"
       y1="1024.0002"
       x1="26.192217"
       gradientUnits="userSpaceOnUse"
       id="linearGradient3869-1"
       xlink:href="#linearGradient3795-8"
       inkscape:collect="always" />
    <linearGradient
       y2="1024.0002"
       x2="28.641211"
       y1="1024.0002"
       x1="26.192217"
       gradientUnits="userSpaceOnUse"
       id="linearGradient3867-7"
       xlink:href="#linearGradient3795-8"
       inkscape:collect="always" />
    <linearGradient
       gradientUnits="userSpaceOnUse"
       y2="1024.0002"
       x2="28.641211"
       y1="1024.0002"
       x1="26.192217"
       id="linearGradient3859-3"
       xlink:href="#linearGradient3795-8"
       inkscape:collect="always" />
    <linearGradient
       gradientTransform="translate(0,-2056.7244)"
       gradientUnits="userSpaceOnUse"
       y2="1004.8474"
       x2="23.204165"
       y1="1053.158"
       x1="23.204165"
       id="linearGradient3801-4"
       xlink:href="#linearGradient3795-8"
       inkscape:collect="always" />
    <linearGradient
       id="linearGradient3803-6">
      <stop
         style="stop-color:#d7def0;stop-opacity:1;"
         offset="0"
         id="stop3805-4" />
      <stop
         id="stop3811-0"
         offset="0.5"
         style="stop-color:#ffffff;stop-opacity:1" />
      <stop
         style="stop-color:#d5def0;stop-opacity:1"
         offset="1"
         id="stop3807-5" />
    </linearGradient>
    <linearGradient
       id="linearGradient3750-8">
      <stop
         id="stop3752-0"
         offset="0"
         style="stop-color:#d0e2f1;stop-opacity:1" />
      <stop
         style="stop-color:#cadef0;stop-opacity:1"
         offset="0.85580856"
         id="stop3756-3" />
      <stop
         id="stop3754-3"
         offset="1"
         style="stop-color:#95bee3;stop-opacity:1" />
    </linearGradient>
    <linearGradient
       id="linearGradient3708-1">
      <stop
         style="stop-color:#69acef;stop-opacity:1"
         offset="0"
         id="stop3710-0" />
      <stop
         style="stop-color:#2b4c6b;stop-opacity:1"
         offset="1"
         id="stop3712-7" />
    </linearGradient>
    <linearGradient
       id="linearGradient3698-2">
      <stop
         style="stop-color:#96d0e1;stop-opacity:1"
         offset="0"
         id="stop3700-6" />
      <stop
         id="stop3706-1"
         offset="0.67819428"
         style="stop-color:#89b7e1;stop-opacity:1" />
      <stop
         style="stop-color:#699dd3;stop-opacity:1"
         offset="1"
         id="stop3702-6" />
    </linearGradient>
    <linearGradient
       id="linearGradient3795-8">
      <stop
         id="stop3797-7"
         offset="0"
         style="stop-color:#68b8d8;stop-opacity:1;" />
      <stop
         id="stop3799-1"
         offset="1"
         style="stop-color:#3097bd;stop-opacity:1;" />
    </linearGradient>
    <linearGradient
       inkscape:collect="always"
       xlink:href="#linearGradient938"
       id="linearGradient944"
       x1="25"
       y1="1050.3623"
       x2="25"
       y2="1005.3623"
       gradientUnits="userSpaceOnUse" />
    <linearGradient
       inkscape:collect="always"
       xlink:href="#linearGradient3708-1"
       id="linearGradient999"
       x1="-108.58841"
       y1="996.99609"
       x2="-33.20919"
       y2="1196.3567"
       gradientUnits="userSpaceOnUse" />
    <linearGradient
       inkscape:collect="always"
       xlink:href="#linearGradient3708-1"
       id="linearGradient1001"
       gradientUnits="userSpaceOnUse"
       x1="-108.58841"
       y1="996.99609"
       x2="-22.514076"
       y2="1215.2305" />
    <linearGradient
       inkscape:collect="always"
       xlink:href="#linearGradient3708-1"
       id="linearGradient1003"
       gradientUnits="userSpaceOnUse"
       x1="-108.58841"
       y1="996.99609"
       x2="-33.20919"
       y2="1196.3567" />
    <linearGradient
       inkscape:collect="always"
       xlink:href="#linearGradient3708-1"
       id="linearGradient1005"
       gradientUnits="userSpaceOnUse"
       x1="-108.58841"
       y1="996.99609"
       x2="-33.20919"
       y2="1196.3567" />
    <linearGradient
       inkscape:collect="always"
       xlink:href="#linearGradient3708-1"
       id="linearGradient1007"
       gradientUnits="userSpaceOnUse"
       x1="-108.58841"
       y1="996.99609"
       x2="-33.20919"
       y2="1196.3567" />
    <linearGradient
       inkscape:collect="always"
       xlink:href="#linearGradient3708-1"
       id="linearGradient1015"
       x1="17.020226"
       y1="1025.5227"
       x2="22.992077"
       y2="1043.225"
       gradientUnits="userSpaceOnUse"
       gradientTransform="translate(49.267785,-1.1730428)" />
  </defs>
  <sodipodi:namedview
     id="base"
     pagecolor="#ffffff"
     bordercolor="#666666"
     borderopacity="1.0"
     inkscape:pageopacity="0.0"
     inkscape:pageshadow="2"
     inkscape:zoom="9.3773242"
     inkscape:cx="46.452915"
     inkscape:cy="22.850415"
     inkscape:document-units="px"
     inkscape:current-layer="layer1"
     showgrid="false"
     inkscape:window-width="1920"
     inkscape:window-height="1035"
     inkscape:window-x="0"
     inkscape:window-y="26"
     inkscape:window-maximized="1">
    <inkscape:grid
       type="xygrid"
       id="grid3850" />
  </sodipodi:namedview>
  <metadata
     id="metadata7">
    <rdf:RDF>
      <cc:Work
         rdf:about="">
        <dc:format>image/svg+xml</dc:format>
        <dc:type
           rdf:resource="http://purl.org/dc/dcmitype/StillImage" />
        <dc:title />
      </cc:Work>
    </rdf:RDF>
  </metadata>
  <g
     inkscape:label="Capa 1"
     inkscape:groupmode="layer"
     id="layer1"
     transform="translate(0,-1004.3622)">
    <g
       id="layer1-4"
       inkscape:label="Capa 1"
       transform="translate(0,-7.9891968e-5)"
       style="fill:url(#linearGradient944);fill-opacity:1">
      <rect
         style="fill:url(#linearGradient944);fill-opacity:1;stroke:#7d7d7d;stroke-width:0.39848712;stroke-miterlimit:4;stroke-opacity:1;stroke-dasharray:none"
         id="rect2992"
         width="44.601513"
         height="44.601513"
         x="1.6992435"
         y="1006.0615"
         ry="5.6755357" />
    </g>
    <path
       style="fill:url(#linearGradient1015);fill-opacity:1;stroke:none"
       d="m 71.47013,1032.688 -5.608681,4.1918 0,-21.9006 14.892652,15.534 -5.677389,0.7928 3.080693,6.3453 -3.691185,1.2942 z"
       id="path957"
       inkscape:connector-curvature="0"
       sodipodi:nodetypes="cccccccc" />
    <g
       id="g987"
       transform="matrix(0.0847529,0,0,0.0847529,29.935888,939.5593)"
       style="fill:url(#linearGradient999);fill-opacity:1">
      <path
         inkscape:connector-curvature="0"
         id="path983"
         d="m -55.911789,1191.881 c 0,-1.8482 -0.28617,-5.4482 -0.63592,-8 l -0.63593,-4.6396 16.13593,0 16.13592,0 0,-15.5 0,-15.5 -8,0 -8,0 0,-15.5 0,-15.5 -7.5,0 -7.5,0 0,-15.5 0,-15.5 31,0 30.9999997,0 0,-8 0,-8 -8,0 -8,0 0,-7.5 0,-7.5 8,0 8,0 0,7.5 0,7.5 7.5000003,0 7.5,0 0,15.5 0,15.5 -29.2500003,0.1524 c -16.0874997,0.084 -29.9249997,0.1962 -30.7499997,0.25 -1.16873,0.076 -1.5645,1.8092 -1.79206,7.8476 l -0.29207,7.75 8.04207,0 8.04206,0 0,15.5 0,15.5 7.5,0 7.4999997,0 0,15.5 0,15.5 -7.4999997,0 -7.5,0 0,8 0,8 -15.5,0 -15.5,0 0,-3.3604 z"
         style="fill:url(#linearGradient1001);fill-opacity:1" />
      <path
         inkscape:connector-curvature="0"
         id="path981"
         d="m -71.911789,1163.7835 0,-15.5421 -8,0 -8,0 0,-15.5 0,-15.5 -7.5,0 -7.500001,0 0,8 0,8 -7.38337,0 c -8.43782,0 -8.57803,0.159 -8.60298,9.75 l -0.0137,5.25 -7.45794,0 -7.45793,0 -0.29207,7.75 -0.29206,7.75 -15.25,0.2761 -15.25,0.276 0,-132.526 0,-132.52598 7.5,0 7.5,0 0,8 0,8 8,0 8,0 0,7.5 0,7.5 7.5,0 7.5,0 0,8 0,8 8,0 8,0 0,7.5 0,7.5 7.500001,0 7.5,0 0,8 0,8 -7.5,0 -7.500001,0 0,-8 0,-8 -8,0 -8,0 0,-7.5 0,-7.5 -7.5,0 -7.5,0 0,-8 0,-8 -8,0 -8,0 0,108.99988 0,109 8,0 8,0 0,-8 0,-8 7.5,0 7.5,0 0,-7.5 0,-7.5 8,0 8,0 0,-8 0,-8 7.500001,0 7.5,0 0,8 0,8 8,0 8,0 0,15.458 0,15.4579 7.75,0.2921 7.75,0.292 0,15 0,15 -7.75,0.2921 -7.75,0.2921 0,-15.5421 z"
         style="fill:url(#linearGradient1003);fill-opacity:1" />
      <path
         inkscape:connector-curvature="0"
         id="path979"
         d="m -24.911789,1047.3122 0,-8.0708 -8,0 -8,0 0,-7.5 0,-7.5 8,0 8,0 0,7.5 0,7.5 7.5,0 7.4999997,0 0,7.3931 c 0,5.0081 -0.4032297,7.5379 -1.2499997,7.8422 -0.6875,0.2471 -4.0625,0.5521 -7.5,0.6777 l -6.25,0.2285 0,-8.0707 z"
         style="fill:url(#linearGradient1005);fill-opacity:1" />
      <path
         inkscape:connector-curvature="0"
         id="path967"
         d="m -55.911789,1015.7415 0,-7.5 -8,0 -8,0 0,-8 0,-7.99998 -7.75,0 -7.75,0 0.329,-7.5024 0.32901,-7.5023 7.42099,0 7.421,0 0,7.5 0,7.5 7.5,0 7.5,0 0,3.3604 c 0,1.8483 0.28617,5.44828 0.63592,7.99998 l 0.63593,4.6396 7.36407,0 7.36408,0 0,7.5 0,7.5 -7.5,0 -7.5,0 0,-7.5 z"
         style="fill:url(#linearGradient1007);fill-opacity:1" />
    </g>
  </g>
</svg>
