<?xml version="1.0" encoding="UTF-8" standalone="no"?>
<!-- Created with Inkscape (http://www.inkscape.org/) -->

<svg
   xmlns:dc="http://purl.org/dc/elements/1.1/"
   xmlns:cc="http://creativecommons.org/ns#"
   xmlns:rdf="http://www.w3.org/1999/02/22-rdf-syntax-ns#"
   xmlns:svg="http://www.w3.org/2000/svg"
   xmlns="http://www.w3.org/2000/svg"
   xmlns:sodipodi="http://sodipodi.sourceforge.net/DTD/sodipodi-0.dtd"
   xmlns:inkscape="http://www.inkscape.org/namespaces/inkscape"
   width="16"
   height="16"
   id="svg2"
   version="1.1"
   inkscape:version="0.48.3.1 r9886"
   sodipodi:docname="folder-music.svg">
  <defs
     id="defs4" />
  <sodipodi:namedview
     id="base"
     pagecolor="#ffffff"
     bordercolor="#666666"
     borderopacity="1.0"
     inkscape:pageopacity="0.0"
     inkscape:pageshadow="2"
     inkscape:zoom="32"
     inkscape:cx="6.276371"
     inkscape:cy="10.215528"
     inkscape:document-units="px"
     inkscape:current-layer="layer1"
     showgrid="false"
     inkscape:window-width="1280"
     inkscape:window-height="654"
     inkscape:window-x="0"
     inkscape:window-y="18"
     inkscape:window-maximized="1" />
  <metadata
     id="metadata7">
    <rdf:RDF>
      <cc:Work
         rdf:about="">
        <dc:format>image/svg+xml</dc:format>
        <dc:type
           rdf:resource="http://purl.org/dc/dcmitype/StillImage" />
        <dc:title />
      </cc:Work>
    </rdf:RDF>
  </metadata>
  <g
     inkscape:label="Capa 1"
     inkscape:groupmode="layer"
     id="layer1"
     transform="translate(0,-1036.3622)">
    <rect
       style="fill:none;stroke:none"
       id="rect3001"
       width="16"
       height="16"
       x="0"
       y="1036.3622" />
    <g
       id="g2985"
       transform="translate(4.1e-6,-1.7382813e-5)">
      <path
         sodipodi:nodetypes="csscccccssc"
         inkscape:connector-curvature="0"
         d="m 11.660576,1044.7491 c -1.173138,0 -2.1241564,0.9511 -2.1241564,2.1242 0,1.1731 0.9510184,2.1242 2.1241564,2.1242 1.074586,0 1.962805,-0.798 2.104452,-1.8337 l 0,-8.5547 -7.3051155,1.3882 0,8.4253 m 0.00366,-0.1409 c -0.1416478,1.0357 -1.0298667,1.8336 -2.1044522,1.8336 -1.1731384,0 -2.1241565,-0.951 -2.1241565,-2.1241 0,-1.1732 0.9510181,-2.1242 2.1241565,-2.1242"
         style="fill:none;stroke:#4d4d4d;stroke-width:1.20000005;stroke-linecap:butt;stroke-miterlimit:4;stroke-opacity:1;stroke-dasharray:none"
         id="path3823" />
      <path
         sodipodi:nodetypes="ccccc"
         inkscape:connector-curvature="0"
         id="path3847"
         d="m 6.7123089,1041.7461 5.6608901,-1.0637 0,1.2272 -5.6248335,1.0357 z"
         style="fill:#4d4d4d;stroke:none" />
    </g>
  </g>
</svg>
