<?xml version="1.0" encoding="UTF-8" standalone="no"?>
<!-- Created with Inkscape (http://www.inkscape.org/) -->

<svg
   xmlns:dc="http://purl.org/dc/elements/1.1/"
   xmlns:cc="http://creativecommons.org/ns#"
   xmlns:rdf="http://www.w3.org/1999/02/22-rdf-syntax-ns#"
   xmlns:svg="http://www.w3.org/2000/svg"
   xmlns="http://www.w3.org/2000/svg"
   xmlns:xlink="http://www.w3.org/1999/xlink"
   xmlns:sodipodi="http://sodipodi.sourceforge.net/DTD/sodipodi-0.dtd"
   xmlns:inkscape="http://www.inkscape.org/namespaces/inkscape"
   width="48"
   height="48"
   id="svg2"
   version="1.1"
   inkscape:version="0.48+devel r11772"
   sodipodi:docname="adobe-air.svg">
  <defs
     id="defs4">
    <linearGradient
       id="linearGradient3795">
      <stop
         style="stop-color:#9f1e25;stop-opacity:1;"
         offset="0"
         id="stop3797" />
      <stop
         style="stop-color:#e16459;stop-opacity:1;"
         offset="1"
         id="stop3799" />
    </linearGradient>
    <linearGradient
       inkscape:collect="always"
       id="linearGradient3914">
      <stop
         style="stop-color:#59b3e1;stop-opacity:1;"
         offset="0"
         id="stop3916" />
      <stop
         style="stop-color:#59b3e1;stop-opacity:0;"
         offset="1"
         id="stop3918" />
    </linearGradient>
    <linearGradient
       id="linearGradient3698">
      <stop
         id="stop3700"
         offset="0"
         style="stop-color:#96d0e1;stop-opacity:1" />
      <stop
         style="stop-color:#89b7e1;stop-opacity:1"
         offset="0.67819428"
         id="stop3706" />
      <stop
         id="stop3702"
         offset="1"
         style="stop-color:#699dd3;stop-opacity:1" />
    </linearGradient>
    <linearGradient
       id="linearGradient3708">
      <stop
         id="stop3710"
         offset="0"
         style="stop-color:#658db6;stop-opacity:1" />
      <stop
         style="stop-color:#527fab;stop-opacity:1;"
         offset="0.76777935"
         id="stop3716" />
      <stop
         id="stop3712"
         offset="1"
         style="stop-color:#4071a0;stop-opacity:1" />
    </linearGradient>
    <linearGradient
       id="linearGradient3750">
      <stop
         style="stop-color:#d0e2f1;stop-opacity:1"
         offset="0"
         id="stop3752" />
      <stop
         id="stop3756"
         offset="0.85580856"
         style="stop-color:#cadef0;stop-opacity:1" />
      <stop
         style="stop-color:#95bee3;stop-opacity:1"
         offset="1"
         id="stop3754" />
    </linearGradient>
    <linearGradient
       id="linearGradient3803">
      <stop
         id="stop3805"
         offset="0"
         style="stop-color:#d7def0;stop-opacity:1;" />
      <stop
         style="stop-color:#ffffff;stop-opacity:1"
         offset="0.5"
         id="stop3811" />
      <stop
         id="stop3807"
         offset="1"
         style="stop-color:#d5def0;stop-opacity:1" />
    </linearGradient>
    <linearGradient
       inkscape:collect="always"
       xlink:href="#linearGradient3914"
       id="linearGradient3920"
       x1="6.8000002"
       y1="25.0625"
       x2="45.325001"
       y2="25.0625"
       gradientUnits="userSpaceOnUse" />
    <linearGradient
       inkscape:collect="always"
       xlink:href="#linearGradient3795"
       id="linearGradient3801"
       x1="23.204165"
       y1="1053.158"
       x2="23.204165"
       y2="1004.8474"
       gradientUnits="userSpaceOnUse" />
    <linearGradient
       x1="-73.494293"
       y1="72.699486"
       x2="-50.243786"
       y2="159.47563"
       id="linearGradient4018"
       xlink:href="#linearGradient3694"
       gradientUnits="userSpaceOnUse"
       gradientTransform="matrix(0.59136097,-0.15844727,-0.15844727,-0.59136097,103.35407,108.29989)" />
    <linearGradient
       id="linearGradient3694">
      <stop
         id="stop3696"
         style="stop-color:#e6e6e6;stop-opacity:1"
         offset="0" />
      <stop
         id="stop3698"
         style="stop-color:#f5f5f5;stop-opacity:1"
         offset="1" />
    </linearGradient>
    <linearGradient
       x1="-73.494293"
       y1="72.699486"
       x2="-50.243786"
       y2="159.47563"
       id="linearGradient4071"
       xlink:href="#linearGradient3694"
       gradientUnits="userSpaceOnUse"
       gradientTransform="matrix(0.59136097,-0.15844727,-0.15844727,-0.59136097,103.35407,109.29989)" />
    <linearGradient
       id="linearGradient3053">
      <stop
         id="stop3055"
         style="stop-color:#e6e6e6;stop-opacity:1"
         offset="0" />
      <stop
         id="stop3057"
         style="stop-color:#f5f5f5;stop-opacity:1"
         offset="1" />
    </linearGradient>
    <linearGradient
       x1="58"
       y1="19"
       x2="58"
       y2="120"
       id="linearGradient4091"
       xlink:href="#linearGradient4085"
       gradientUnits="userSpaceOnUse" />
    <linearGradient
       id="linearGradient4085">
      <stop
         id="stop4087"
         style="stop-color:#782121;stop-opacity:1"
         offset="0" />
      <stop
         id="stop4089"
         style="stop-color:#782121;stop-opacity:0"
         offset="1" />
    </linearGradient>
    <linearGradient
       y2="120"
       x2="58"
       y1="19"
       x1="58"
       gradientUnits="userSpaceOnUse"
       id="linearGradient3069"
       xlink:href="#linearGradient4085"
       inkscape:collect="always" />
    <linearGradient
       inkscape:collect="always"
       xlink:href="#linearGradient4085"
       id="linearGradient3054"
       gradientUnits="userSpaceOnUse"
       x1="58"
       y1="19"
       x2="58"
       y2="120"
       gradientTransform="translate(15.190789,1001.2136)" />
    <linearGradient
       inkscape:collect="always"
       xlink:href="#linearGradient3694"
       id="linearGradient3057"
       gradientUnits="userSpaceOnUse"
       gradientTransform="matrix(0.59136097,-0.15844727,-0.15844727,-0.59136097,118.54486,1110.5135)"
       x1="-73.494293"
       y1="72.699486"
       x2="-50.243786"
       y2="159.47563" />
    <linearGradient
       inkscape:collect="always"
       xlink:href="#linearGradient3694"
       id="linearGradient3062"
       gradientUnits="userSpaceOnUse"
       gradientTransform="matrix(0.59136097,-0.15844727,-0.15844727,-0.59136097,118.54486,1109.5135)"
       x1="-73.494293"
       y1="72.699486"
       x2="-50.243786"
       y2="159.47563" />
    <linearGradient
       inkscape:collect="always"
       xlink:href="#linearGradient3694"
       id="linearGradient3070"
       gradientUnits="userSpaceOnUse"
       gradientTransform="matrix(0.59136097,-0.15844727,-0.15844727,-0.59136097,118.54486,1109.5135)"
       x1="-73.494293"
       y1="72.699486"
       x2="-50.243786"
       y2="159.47563" />
    <linearGradient
       inkscape:collect="always"
       xlink:href="#linearGradient3694"
       id="linearGradient3072"
       gradientUnits="userSpaceOnUse"
       gradientTransform="matrix(0.59136097,-0.15844727,-0.15844727,-0.59136097,118.54486,1110.5135)"
       x1="-73.494293"
       y1="72.699486"
       x2="-50.243786"
       y2="159.47563" />
    <linearGradient
       inkscape:collect="always"
       xlink:href="#linearGradient4085"
       id="linearGradient3074"
       gradientUnits="userSpaceOnUse"
       gradientTransform="translate(15.190789,1001.2136)"
       x1="58"
       y1="19"
       x2="58"
       y2="120" />
    <linearGradient
       y2="1049.5842"
       x2="24.113745"
       y1="1007.2183"
       x1="24.113745"
       gradientTransform="matrix(0.96799712,0,0,1.0252613,0.76812014,-25.977808)"
       gradientUnits="userSpaceOnUse"
       id="linearGradient3030"
       xlink:href="#linearGradient3795-8"
       inkscape:collect="always" />
    <linearGradient
       id="linearGradient3795-8">
      <stop
         style="stop-color:#68b8d8;stop-opacity:1;"
         offset="0"
         id="stop3797-9" />
      <stop
         style="stop-color:#3097bd;stop-opacity:1;"
         offset="1"
         id="stop3799-7" />
    </linearGradient>
    <linearGradient
       y2="1065.6766"
       x2="24.113745"
       y1="1007.2183"
       x1="24.113745"
       gradientTransform="matrix(0.96799712,0,0,1.0252613,-47.23188,-2084.2025)"
       gradientUnits="userSpaceOnUse"
       id="linearGradient3151"
       xlink:href="#linearGradient3795"
       inkscape:collect="always" />
    <linearGradient
       inkscape:collect="always"
       xlink:href="#linearGradient4085"
       id="linearGradient3050"
       gradientUnits="userSpaceOnUse"
       gradientTransform="matrix(0.76329868,0,0,0.76329868,-2.7390695,989.34525)"
       x1="58"
       y1="19"
       x2="58"
       y2="120" />
    <linearGradient
       inkscape:collect="always"
       xlink:href="#linearGradient3694"
       id="linearGradient3055"
       gradientUnits="userSpaceOnUse"
       gradientTransform="matrix(0.45138505,-0.12094259,-0.12094259,-0.45138505,75.532238,1070.2546)"
       x1="-73.494293"
       y1="72.699486"
       x2="-50.243786"
       y2="159.47563" />
    <linearGradient
       inkscape:collect="always"
       xlink:href="#linearGradient3795-0"
       id="linearGradient3802"
       gradientUnits="userSpaceOnUse"
       gradientTransform="matrix(0.96799712,0,0,1.0252613,-46.743178,-2082.484)"
       x1="24.113745"
       y1="1007.7662"
       x2="24.113745"
       y2="1065.7059" />
    <linearGradient
       id="linearGradient3795-0">
      <stop
         style="stop-color:#9f1e25;stop-opacity:1;"
         offset="0"
         id="stop3797-95" />
      <stop
         style="stop-color:#e16459;stop-opacity:1;"
         offset="1"
         id="stop3799-9" />
    </linearGradient>
    <linearGradient
       inkscape:collect="always"
       xlink:href="#linearGradient868"
       id="linearGradient3056"
       gradientUnits="userSpaceOnUse"
       gradientTransform="matrix(0.96799712,0,0,1.0252613,-47.231884,-2082.7024)"
       x1="24.113745"
       y1="1007.7662"
       x2="24.113745"
       y2="1065.7059" />
    <linearGradient
       id="linearGradient3795-46">
      <stop
         id="stop3797-0"
         offset="0"
         style="stop-color:#9f1e25;stop-opacity:1;" />
      <stop
         id="stop3799-48"
         offset="1"
         style="stop-color:#e16459;stop-opacity:1;" />
    </linearGradient>
    <linearGradient
       id="linearGradient3914-8"
       inkscape:collect="always">
      <stop
         id="stop3916-2"
         offset="0"
         style="stop-color:#59b3e1;stop-opacity:1;" />
      <stop
         id="stop3918-8"
         offset="1"
         style="stop-color:#59b3e1;stop-opacity:0;" />
    </linearGradient>
    <linearGradient
       id="linearGradient3698-2">
      <stop
         style="stop-color:#96d0e1;stop-opacity:1"
         offset="0"
         id="stop3700-7" />
      <stop
         id="stop3706-1"
         offset="0.67819428"
         style="stop-color:#89b7e1;stop-opacity:1" />
      <stop
         style="stop-color:#699dd3;stop-opacity:1"
         offset="1"
         id="stop3702-4" />
    </linearGradient>
    <linearGradient
       id="linearGradient3708-3">
      <stop
         style="stop-color:#658db6;stop-opacity:1"
         offset="0"
         id="stop3710-1" />
      <stop
         id="stop3716-36"
         offset="0.76777935"
         style="stop-color:#527fab;stop-opacity:1;" />
      <stop
         style="stop-color:#4071a0;stop-opacity:1"
         offset="1"
         id="stop3712-8" />
    </linearGradient>
    <linearGradient
       id="linearGradient3750-3">
      <stop
         id="stop3752-2"
         offset="0"
         style="stop-color:#d0e2f1;stop-opacity:1" />
      <stop
         style="stop-color:#cadef0;stop-opacity:1"
         offset="0.85580856"
         id="stop3756-5" />
      <stop
         id="stop3754-52"
         offset="1"
         style="stop-color:#95bee3;stop-opacity:1" />
    </linearGradient>
    <linearGradient
       id="linearGradient3803-7">
      <stop
         style="stop-color:#d7def0;stop-opacity:1;"
         offset="0"
         id="stop3805-3" />
      <stop
         id="stop3811-9"
         offset="0.5"
         style="stop-color:#ffffff;stop-opacity:1" />
      <stop
         style="stop-color:#d5def0;stop-opacity:1"
         offset="1"
         id="stop3807-8" />
    </linearGradient>
    <linearGradient
       gradientUnits="userSpaceOnUse"
       y2="25.0625"
       x2="45.325001"
       y1="25.0625"
       x1="6.8000002"
       id="linearGradient3920-89"
       xlink:href="#linearGradient3914-8"
       inkscape:collect="always" />
    <linearGradient
       gradientTransform="matrix(0.59136097,-0.15844727,-0.15844727,-0.59136097,103.35407,108.29989)"
       gradientUnits="userSpaceOnUse"
       xlink:href="#linearGradient3694-8"
       id="linearGradient4018-7"
       y2="159.47563"
       x2="-50.243786"
       y1="72.699486"
       x1="-73.494293" />
    <linearGradient
       id="linearGradient3694-8">
      <stop
         offset="0"
         style="stop-color:#e6e6e6;stop-opacity:1"
         id="stop3696-5" />
      <stop
         offset="1"
         style="stop-color:#f5f5f5;stop-opacity:1"
         id="stop3698-5" />
    </linearGradient>
    <linearGradient
       gradientTransform="matrix(0.59136097,-0.15844727,-0.15844727,-0.59136097,103.35407,109.29989)"
       gradientUnits="userSpaceOnUse"
       xlink:href="#linearGradient3694-8"
       id="linearGradient4071-9"
       y2="159.47563"
       x2="-50.243786"
       y1="72.699486"
       x1="-73.494293" />
    <linearGradient
       id="linearGradient3053-0">
      <stop
         offset="0"
         style="stop-color:#e6e6e6;stop-opacity:1"
         id="stop3055-3" />
      <stop
         offset="1"
         style="stop-color:#f5f5f5;stop-opacity:1"
         id="stop3057-9" />
    </linearGradient>
    <linearGradient
       gradientUnits="userSpaceOnUse"
       xlink:href="#linearGradient4085-3"
       id="linearGradient4091-4"
       y2="120"
       x2="58"
       y1="19"
       x1="58" />
    <linearGradient
       id="linearGradient4085-3">
      <stop
         offset="0"
         style="stop-color:#782121;stop-opacity:1"
         id="stop4087-1" />
      <stop
         offset="1"
         style="stop-color:#782121;stop-opacity:0"
         id="stop4089-4" />
    </linearGradient>
    <linearGradient
       inkscape:collect="always"
       xlink:href="#linearGradient4085-3"
       id="linearGradient3069-5"
       gradientUnits="userSpaceOnUse"
       x1="58"
       y1="19"
       x2="58"
       y2="120" />
    <linearGradient
       gradientTransform="translate(15.190789,1001.2136)"
       y2="120"
       x2="58"
       y1="19"
       x1="58"
       gradientUnits="userSpaceOnUse"
       id="linearGradient3054-5"
       xlink:href="#linearGradient4085-3"
       inkscape:collect="always" />
    <linearGradient
       y2="159.47563"
       x2="-50.243786"
       y1="72.699486"
       x1="-73.494293"
       gradientTransform="matrix(0.59136097,-0.15844727,-0.15844727,-0.59136097,118.54486,1110.5135)"
       gradientUnits="userSpaceOnUse"
       id="linearGradient3057-7"
       xlink:href="#linearGradient3694-8"
       inkscape:collect="always" />
    <linearGradient
       y2="159.47563"
       x2="-50.243786"
       y1="72.699486"
       x1="-73.494293"
       gradientTransform="matrix(0.59136097,-0.15844727,-0.15844727,-0.59136097,118.54486,1109.5135)"
       gradientUnits="userSpaceOnUse"
       id="linearGradient3062-8"
       xlink:href="#linearGradient3694-8"
       inkscape:collect="always" />
    <linearGradient
       y2="159.47563"
       x2="-50.243786"
       y1="72.699486"
       x1="-73.494293"
       gradientTransform="matrix(0.3528249,-0.09453471,-0.09453471,-0.3528249,57.026019,1064.3388)"
       gradientUnits="userSpaceOnUse"
       id="linearGradient3070-0"
       xlink:href="#linearGradient3694-8"
       inkscape:collect="always" />
    <linearGradient
       id="linearGradient868">
      <stop
         id="stop870"
         offset="0"
         style="stop-color:#aa0000;stop-opacity:1" />
      <stop
         id="stop872"
         offset="1"
         style="stop-color:#ff5555;stop-opacity:1" />
    </linearGradient>
    <linearGradient
       id="linearGradient3795-3">
      <stop
         style="stop-color:#9f1e25;stop-opacity:1;"
         offset="0"
         id="stop3797-5" />
      <stop
         style="stop-color:#e16459;stop-opacity:1;"
         offset="1"
         id="stop3799-4" />
    </linearGradient>
    <linearGradient
       inkscape:collect="always"
       id="linearGradient3914-5">
      <stop
         style="stop-color:#59b3e1;stop-opacity:1;"
         offset="0"
         id="stop3916-5" />
      <stop
         style="stop-color:#59b3e1;stop-opacity:0;"
         offset="1"
         id="stop3918-1" />
    </linearGradient>
    <linearGradient
       id="linearGradient3698-8">
      <stop
         id="stop3700-9"
         offset="0"
         style="stop-color:#96d0e1;stop-opacity:1" />
      <stop
         style="stop-color:#89b7e1;stop-opacity:1"
         offset="0.67819428"
         id="stop3706-4" />
      <stop
         id="stop3702-0"
         offset="1"
         style="stop-color:#699dd3;stop-opacity:1" />
    </linearGradient>
    <linearGradient
       id="linearGradient3708-4">
      <stop
         id="stop3710-9"
         offset="0"
         style="stop-color:#658db6;stop-opacity:1" />
      <stop
         style="stop-color:#527fab;stop-opacity:1;"
         offset="0.76777935"
         id="stop3716-3" />
      <stop
         id="stop3712-3"
         offset="1"
         style="stop-color:#4071a0;stop-opacity:1" />
    </linearGradient>
    <linearGradient
       id="linearGradient3750-1">
      <stop
         style="stop-color:#d0e2f1;stop-opacity:1"
         offset="0"
         id="stop3752-8" />
      <stop
         id="stop3756-2"
         offset="0.85580856"
         style="stop-color:#cadef0;stop-opacity:1" />
      <stop
         style="stop-color:#95bee3;stop-opacity:1"
         offset="1"
         id="stop3754-5" />
    </linearGradient>
    <linearGradient
       id="linearGradient3803-4">
      <stop
         id="stop3805-8"
         offset="0"
         style="stop-color:#d7def0;stop-opacity:1;" />
      <stop
         style="stop-color:#ffffff;stop-opacity:1"
         offset="0.5"
         id="stop3811-1" />
      <stop
         id="stop3807-3"
         offset="1"
         style="stop-color:#d5def0;stop-opacity:1" />
    </linearGradient>
    <linearGradient
       inkscape:collect="always"
       xlink:href="#linearGradient3914-5"
       id="linearGradient3920-8"
       x1="6.8000002"
       y1="25.0625"
       x2="45.325001"
       y2="25.0625"
       gradientUnits="userSpaceOnUse" />
    <linearGradient
       inkscape:collect="always"
       xlink:href="#linearGradient3795-3"
       id="linearGradient3801-2"
       x1="23.204165"
       y1="1053.158"
       x2="23.204165"
       y2="1004.8474"
       gradientUnits="userSpaceOnUse" />
    <linearGradient
       x1="62.336792"
       y1="79.015236"
       x2="62.336792"
       y2="12.797539"
       id="linearGradient2936"
       xlink:href="#linearGradient3694-0"
       gradientUnits="userSpaceOnUse"
       gradientTransform="matrix(0.87485882,0,0,0.90698611,2.762671,6.33428)" />
    <linearGradient
       id="linearGradient3694-0">
      <stop
         id="stop3696-3"
         style="stop-color:#e6e6e6;stop-opacity:1"
         offset="0" />
      <stop
         id="stop3698-7"
         style="stop-color:#f5f5f5;stop-opacity:1"
         offset="1" />
    </linearGradient>
    <linearGradient
       x1="55"
       y1="18"
       x2="55"
       y2="112"
       id="linearGradient3831"
       xlink:href="#linearGradient3825"
       gradientUnits="userSpaceOnUse" />
    <linearGradient
       id="linearGradient3825">
      <stop
         id="stop3827"
         style="stop-color:#501616;stop-opacity:1"
         offset="0" />
      <stop
         id="stop3829"
         style="stop-color:#501616;stop-opacity:0"
         offset="1" />
    </linearGradient>
    <linearGradient
       y2="1049.5842"
       x2="24.113745"
       y1="1007.2183"
       x1="24.113745"
       gradientTransform="matrix(0.96799712,0,0,1.0252613,0.76812014,-25.977808)"
       gradientUnits="userSpaceOnUse"
       id="linearGradient3030-3"
       xlink:href="#linearGradient3795-2"
       inkscape:collect="always" />
    <linearGradient
       id="linearGradient3795-2">
      <stop
         style="stop-color:#68b8d8;stop-opacity:1;"
         offset="0"
         id="stop3797-2" />
      <stop
         style="stop-color:#3097bd;stop-opacity:1;"
         offset="1"
         id="stop3799-2" />
    </linearGradient>
    <linearGradient
       y2="1071.0229"
       x2="24.113745"
       y1="1007.2183"
       x1="24.113745"
       gradientTransform="matrix(0.96799712,0,0,1.0252613,-2.3568828,-2079.2025)"
       gradientUnits="userSpaceOnUse"
       id="linearGradient3168"
       xlink:href="#linearGradient3795-3"
       inkscape:collect="always" />
    <linearGradient
       inkscape:collect="always"
       xlink:href="#linearGradient3825"
       id="linearGradient3042"
       gradientUnits="userSpaceOnUse"
       x1="55"
       y1="18"
       x2="55"
       y2="112"
       gradientTransform="matrix(0.76331952,0,0,0.76331952,-12.639337,991.72665)" />
    <linearGradient
       inkscape:collect="always"
       xlink:href="#linearGradient3795-4"
       id="linearGradient3802-7"
       gradientUnits="userSpaceOnUse"
       gradientTransform="matrix(0.96799712,0,0,1.0252613,-46.743178,-2082.484)"
       x1="24.113745"
       y1="1007.7662"
       x2="24.113745"
       y2="1065.7059" />
    <linearGradient
       id="linearGradient3795-4">
      <stop
         style="stop-color:#9f1e25;stop-opacity:1;"
         offset="0"
         id="stop3797-6" />
      <stop
         style="stop-color:#e16459;stop-opacity:1;"
         offset="1"
         id="stop3799-1" />
    </linearGradient>
    <linearGradient
       inkscape:collect="always"
       xlink:href="#linearGradient3795-4"
       id="linearGradient3836"
       gradientUnits="userSpaceOnUse"
       gradientTransform="matrix(0.96799712,0,0,1.0252613,-60.708534,-2064.442)"
       x1="24.113745"
       y1="1007.7662"
       x2="24.113745"
       y2="1065.7059" />
  </defs>
  <sodipodi:namedview
     id="base"
     pagecolor="#ffffff"
     bordercolor="#666666"
     borderopacity="1.0"
     inkscape:pageopacity="0.0"
     inkscape:pageshadow="2"
     inkscape:zoom="5.6568545"
     inkscape:cx="-11.047187"
     inkscape:cy="22.483392"
     inkscape:document-units="px"
     inkscape:current-layer="layer1"
     showgrid="false"
     inkscape:window-width="1366"
     inkscape:window-height="712"
     inkscape:window-x="0"
     inkscape:window-y="0"
     inkscape:window-maximized="1" />
  <metadata
     id="metadata7">
    <rdf:RDF>
      <cc:Work
         rdf:about="">
        <dc:format>image/svg+xml</dc:format>
        <dc:type
           rdf:resource="http://purl.org/dc/dcmitype/StillImage" />
        <dc:title />
      </cc:Work>
    </rdf:RDF>
  </metadata>
  <g
     inkscape:label="Capa 1"
     inkscape:groupmode="layer"
     id="layer1"
     transform="translate(0,-1004.3622)">
    <rect
       ry="5.6755357"
       y="-1050.663"
       x="-46.300758"
       height="44.601513"
       width="44.601513"
       id="rect2992-3"
       style="fill:url(#linearGradient3056);fill-opacity:1.0;stroke:#7d7d7d;stroke-width:0.39848712;stroke-miterlimit:4;stroke-opacity:1;stroke-dasharray:none"
       transform="scale(-1,-1)" />
    <path
       style="fill:url(#linearGradient3070-0);fill-opacity:1"
       id="path3860-1"
       inkscape:connector-curvature="0"
       d="m 40.38568,1035.2694 c -0.104469,-0.1414 -0.269945,-0.3401 -0.456237,-0.531 -1.938186,-1.989 -3.38579,-4.3374 -4.165665,-6.9388 -0.0358,-0.1206 -0.0716,-0.2418 -0.10374,-0.3629 -0.0336,-0.1221 -0.06283,-0.2465 -0.09279,-0.3705 -0.624262,-2.641 -0.547922,-5.3998 0.139174,-8.0901 0,0 0.104835,-0.4443 0.131867,-0.6274 0.577509,-3.3993 -1.515186,-6.7409 -4.910472,-7.6511 -3.461768,-0.9275 -7.009744,1.0139 -8.14175,4.3619 -0.04677,0.1248 -0.142093,0.4405 -0.143191,0.4451 -0.744077,2.6376 -2.036804,5.0319 -3.863208,6.992 -2.074796,2.1777 -4.712491,3.7261 -7.669806,4.5185 -3.602401,0.9649 -5.742582,4.6745 -4.777144,8.2783 0.966898,3.6031 4.670481,5.7435 8.275438,4.777 2.68993,-0.687 5.448897,-0.7646 8.090974,-0.1409 0.123101,0.029 0.246933,0.062 0.369667,0.095 0.123098,0.032 0.245103,0.068 0.367107,0.1033 2.60007,0.7807 4.951016,2.2271 6.937048,4.1662 0.24401,0.2446 0.454776,0.4164 0.651665,0.5558 2.669837,2.0345 6.468756,1.8785 8.902993,-0.5558 C 42.398379,1041.8245 42.541569,1037.9228 40.38568,1035.2694 z m -16.37007,1.2213 c -3.526786,-0.945 -5.620579,-4.5716 -4.675595,-8.0985 0.945713,-3.527 4.571489,-5.6209 8.09828,-4.6759 3.528245,0.9456 5.621308,4.5713 4.675962,8.0982 C 31.168906,1035.3417 27.543861,1037.4359 24.01561,1036.4907 Z" />
  </g>
</svg>
