<?xml version="1.0" encoding="UTF-8" standalone="no"?>
<!-- Created with Inkscape (http://www.inkscape.org/) -->

<svg
   xmlns:dc="http://purl.org/dc/elements/1.1/"
   xmlns:cc="http://creativecommons.org/ns#"
   xmlns:rdf="http://www.w3.org/1999/02/22-rdf-syntax-ns#"
   xmlns:svg="http://www.w3.org/2000/svg"
   xmlns="http://www.w3.org/2000/svg"
   xmlns:xlink="http://www.w3.org/1999/xlink"
   xmlns:sodipodi="http://sodipodi.sourceforge.net/DTD/sodipodi-0.dtd"
   xmlns:inkscape="http://www.inkscape.org/namespaces/inkscape"
   width="48"
   height="48"
   id="svg2"
   version="1.1"
   inkscape:version="0.48+devel r11521"
   sodipodi:docname="parole.svg">
  <defs
     id="defs4">
    <linearGradient
       inkscape:collect="always"
       id="linearGradient995">
      <stop
         style="stop-color:#000000;stop-opacity:1"
         offset="0"
         id="stop997" />
      <stop
         style="stop-color:#a9a9a9;stop-opacity:1"
         offset="1"
         id="stop999" />
    </linearGradient>
    <inkscape:perspective
       sodipodi:type="inkscape:persp3d"
       inkscape:vp_x="0 : 24 : 1"
       inkscape:vp_y="0 : 1000 : 0"
       inkscape:vp_z="48 : 24 : 1"
       inkscape:persp3d-origin="24 : 16 : 1"
       id="perspective3014" />
    <linearGradient
       id="linearGradient3795">
      <stop
         style="stop-color:#3da652;stop-opacity:1"
         offset="0"
         id="stop3797" />
      <stop
         style="stop-color:#31be9b;stop-opacity:1"
         offset="1"
         id="stop3799" />
    </linearGradient>
    <linearGradient
       inkscape:collect="always"
       id="linearGradient3914">
      <stop
         style="stop-color:#59b3e1;stop-opacity:1;"
         offset="0"
         id="stop3916" />
      <stop
         style="stop-color:#59b3e1;stop-opacity:0;"
         offset="1"
         id="stop3918" />
    </linearGradient>
    <linearGradient
       id="linearGradient3698">
      <stop
         id="stop3700"
         offset="0"
         style="stop-color:#96d0e1;stop-opacity:1" />
      <stop
         style="stop-color:#89b7e1;stop-opacity:1"
         offset="0.67819428"
         id="stop3706" />
      <stop
         id="stop3702"
         offset="1"
         style="stop-color:#699dd3;stop-opacity:1" />
    </linearGradient>
    <linearGradient
       id="linearGradient3708">
      <stop
         id="stop3710"
         offset="0"
         style="stop-color:#658db6;stop-opacity:1" />
      <stop
         style="stop-color:#527fab;stop-opacity:1;"
         offset="0.76777935"
         id="stop3716" />
      <stop
         id="stop3712"
         offset="1"
         style="stop-color:#4071a0;stop-opacity:1" />
    </linearGradient>
    <linearGradient
       id="linearGradient3750">
      <stop
         style="stop-color:#d0e2f1;stop-opacity:1"
         offset="0"
         id="stop3752" />
      <stop
         id="stop3756"
         offset="0.85580856"
         style="stop-color:#cadef0;stop-opacity:1" />
      <stop
         style="stop-color:#95bee3;stop-opacity:1"
         offset="1"
         id="stop3754" />
    </linearGradient>
    <linearGradient
       id="linearGradient3803">
      <stop
         id="stop3805"
         offset="0"
         style="stop-color:#d7def0;stop-opacity:1;" />
      <stop
         style="stop-color:#ffffff;stop-opacity:1"
         offset="0.5"
         id="stop3811" />
      <stop
         id="stop3807"
         offset="1"
         style="stop-color:#d5def0;stop-opacity:1" />
    </linearGradient>
    <linearGradient
       inkscape:collect="always"
       xlink:href="#linearGradient3914"
       id="linearGradient3920"
       x1="6.8000002"
       y1="25.0625"
       x2="45.325001"
       y2="25.0625"
       gradientUnits="userSpaceOnUse" />
    <linearGradient
       id="linearGradient3795-0">
      <stop
         id="stop3797-0"
         offset="0"
         style="stop-color:#981424;stop-opacity:1;" />
      <stop
         id="stop3799-8"
         offset="1"
         style="stop-color:#e31532;stop-opacity:1;" />
    </linearGradient>
    <linearGradient
       inkscape:collect="always"
       xlink:href="#linearGradient3795-0"
       id="linearGradient832"
       gradientUnits="userSpaceOnUse"
       gradientTransform="matrix(0.96799712,0,0,1.0252613,0.76812141,-2082.7028)"
       x1="24.113745"
       y1="1007.2183"
       x2="24.113745"
       y2="1049.5842" />
    <linearGradient
       gradientUnits="userSpaceOnUse"
       y2="1015.0085"
       x2="22.973623"
       y1="1040.866"
       x1="22.973623"
       id="linearGradient3818"
       xlink:href="#linearGradient3804"
       inkscape:collect="always" />
    <linearGradient
       gradientUnits="userSpaceOnUse"
       y2="963.05054"
       x2="24.428679"
       y1="1050.2997"
       x1="24.428679"
       id="linearGradient3810"
       xlink:href="#linearGradient3804"
       inkscape:collect="always" />
    <linearGradient
       gradientUnits="userSpaceOnUse"
       y2="24.798252"
       x2="42.475323"
       y1="34.43922"
       x1="21.973417"
       id="linearGradient3895"
       xlink:href="#linearGradient3795-6"
       inkscape:collect="always" />
    <linearGradient
       y2="1030.9086"
       x2="31.448042"
       y1="1006.2238"
       x1="17.196316"
       gradientUnits="userSpaceOnUse"
       id="linearGradient3879"
       xlink:href="#linearGradient3795-6"
       inkscape:collect="always" />
    <linearGradient
       y2="1015.5485"
       x2="22.811094"
       y1="1027.8575"
       x1="29.718235"
       gradientUnits="userSpaceOnUse"
       id="linearGradient3877"
       xlink:href="#linearGradient3795-6"
       inkscape:collect="always" />
    <linearGradient
       y2="1024.0002"
       x2="28.641211"
       y1="1024.0002"
       x1="26.192217"
       gradientUnits="userSpaceOnUse"
       id="linearGradient3871"
       xlink:href="#linearGradient3795-6"
       inkscape:collect="always" />
    <linearGradient
       y2="1024.0002"
       x2="28.641211"
       y1="1024.0002"
       x1="26.192217"
       gradientUnits="userSpaceOnUse"
       id="linearGradient3869"
       xlink:href="#linearGradient3795-6"
       inkscape:collect="always" />
    <linearGradient
       y2="1024.0002"
       x2="28.641211"
       y1="1024.0002"
       x1="26.192217"
       gradientUnits="userSpaceOnUse"
       id="linearGradient3867"
       xlink:href="#linearGradient3795-6"
       inkscape:collect="always" />
    <linearGradient
       gradientUnits="userSpaceOnUse"
       y2="1024.0002"
       x2="28.641211"
       y1="1024.0002"
       x1="26.192217"
       id="linearGradient3859"
       xlink:href="#linearGradient3795-6"
       inkscape:collect="always" />
    <linearGradient
       id="linearGradient3803-5">
      <stop
         style="stop-color:#d7def0;stop-opacity:1;"
         offset="0"
         id="stop3805-5" />
      <stop
         id="stop3811-5"
         offset="0.5"
         style="stop-color:#ffffff;stop-opacity:1" />
      <stop
         style="stop-color:#d5def0;stop-opacity:1"
         offset="1"
         id="stop3807-5" />
    </linearGradient>
    <linearGradient
       id="linearGradient3750-4">
      <stop
         id="stop3752-7"
         offset="0"
         style="stop-color:#d0e2f1;stop-opacity:1" />
      <stop
         style="stop-color:#cadef0;stop-opacity:1"
         offset="0.85580856"
         id="stop3756-3" />
      <stop
         id="stop3754-5"
         offset="1"
         style="stop-color:#95bee3;stop-opacity:1" />
    </linearGradient>
    <linearGradient
       id="linearGradient3708-1">
      <stop
         style="stop-color:#658db6;stop-opacity:1"
         offset="0"
         id="stop3710-8" />
      <stop
         id="stop3716-9"
         offset="0.76777935"
         style="stop-color:#527fab;stop-opacity:1;" />
      <stop
         style="stop-color:#4071a0;stop-opacity:1"
         offset="1"
         id="stop3712-7" />
    </linearGradient>
    <linearGradient
       id="linearGradient3698-5">
      <stop
         style="stop-color:#96d0e1;stop-opacity:1"
         offset="0"
         id="stop3700-1" />
      <stop
         id="stop3706-8"
         offset="0.67819428"
         style="stop-color:#89b7e1;stop-opacity:1" />
      <stop
         style="stop-color:#699dd3;stop-opacity:1"
         offset="1"
         id="stop3702-7" />
    </linearGradient>
    <linearGradient
       id="linearGradient3795-6">
      <stop
         id="stop3797-4"
         offset="0"
         style="stop-color:#ff356d;stop-opacity:1;" />
      <stop
         id="stop3799-1"
         offset="1"
         style="stop-color:#a5322f;stop-opacity:1;" />
    </linearGradient>
    <linearGradient
       id="linearGradient3804">
      <stop
         id="stop3806"
         offset="0"
         style="stop-color:#999999;stop-opacity:1;" />
      <stop
         id="stop3808"
         offset="1"
         style="stop-color:#ffffff;stop-opacity:1;" />
    </linearGradient>
    <linearGradient
       inkscape:collect="always"
       xlink:href="#linearGradient995"
       id="linearGradient1001"
       x1="24.522545"
       y1="45.754608"
       x2="24.522545"
       y2="1.7121923"
       gradientUnits="userSpaceOnUse" />
  </defs>
  <sodipodi:namedview
     id="base"
     pagecolor="#ffffff"
     bordercolor="#666666"
     borderopacity="1.0"
     inkscape:pageopacity="0.0"
     inkscape:pageshadow="2"
     inkscape:zoom="9.3773243"
     inkscape:cx="28.51293"
     inkscape:cy="35.103646"
     inkscape:document-units="px"
     inkscape:current-layer="layer1"
     showgrid="false"
     inkscape:window-width="1920"
     inkscape:window-height="1035"
     inkscape:window-x="0"
     inkscape:window-y="26"
     inkscape:window-maximized="1" />
  <metadata
     id="metadata7">
    <rdf:RDF>
      <cc:Work
         rdf:about="">
        <dc:format>image/svg+xml</dc:format>
        <dc:type
           rdf:resource="http://purl.org/dc/dcmitype/StillImage" />
        <dc:title></dc:title>
      </cc:Work>
    </rdf:RDF>
  </metadata>
  <g
     inkscape:label="Capa 1"
     inkscape:groupmode="layer"
     id="layer1"
     transform="translate(0,-1004.3622)">
    <path
       style="fill:url(#linearGradient1001);fill-opacity:1;stroke:#7d7d7d;stroke-width:0.39848712;stroke-miterlimit:4;stroke-opacity:1"
       d="M 7.375 1.6875 C 4.2307533 1.6875 1.6875 4.2308 1.6875 7.375 L 1.6875 40.625 C 1.6875 43.7693 4.2307533 46.3125 7.375 46.3125 L 40.625 46.3125 C 43.769247 46.3125 46.3125 43.7693 46.3125 40.625 L 46.3125 7.375 C 46.3125 4.2308 43.769247 1.6875 40.625 1.6875 L 7.375 1.6875 z M 5.96875 7.15625 L 10.0625 7.15625 C 10.449809 7.15625 10.75 7.45645 10.75 7.84375 L 10.75 11.9375 C 10.75 12.3248 10.449809 12.65625 10.0625 12.65625 L 5.96875 12.65625 C 5.5814406 12.65625 5.28125 12.3248 5.28125 11.9375 L 5.28125 7.84375 C 5.28125 7.45645 5.5814406 7.15625 5.96875 7.15625 z M 37.9375 7.15625 L 42.03125 7.15625 C 42.418559 7.15625 42.71875 7.45645 42.71875 7.84375 L 42.71875 11.9375 C 42.71875 12.3248 42.418559 12.65625 42.03125 12.65625 L 37.9375 12.65625 C 37.550191 12.65625 37.25 12.3248 37.25 11.9375 L 37.25 7.84375 C 37.25 7.45645 37.550191 7.15625 37.9375 7.15625 z M 5.96875 16.4375 L 10.0625 16.4375 C 10.449809 16.4375 10.75 16.7377 10.75 17.125 L 10.75 21.21875 C 10.75 21.60605 10.449809 21.90625 10.0625 21.90625 L 5.96875 21.90625 C 5.5814406 21.90625 5.28125 21.60605 5.28125 21.21875 L 5.28125 17.125 C 5.28125 16.7377 5.5814406 16.4375 5.96875 16.4375 z M 37.9375 16.4375 L 42.03125 16.4375 C 42.418559 16.4375 42.71875 16.7377 42.71875 17.125 L 42.71875 21.21875 C 42.71875 21.60605 42.418559 21.90625 42.03125 21.90625 L 37.9375 21.90625 C 37.550191 21.90625 37.25 21.60605 37.25 21.21875 L 37.25 17.125 C 37.25 16.7377 37.550191 16.4375 37.9375 16.4375 z M 5.96875 25.6875 L 10.0625 25.6875 C 10.449809 25.6875 10.75 26.01885 10.75 26.40625 L 10.75 30.5 C 10.75 30.8873 10.449809 31.1875 10.0625 31.1875 L 5.96875 31.1875 C 5.5814406 31.1875 5.28125 30.8873 5.28125 30.5 L 5.28125 26.40625 C 5.28125 26.01885 5.5814406 25.6875 5.96875 25.6875 z M 37.9375 25.6875 L 42.03125 25.6875 C 42.418559 25.6875 42.71875 26.01885 42.71875 26.40625 L 42.71875 30.5 C 42.71875 30.8873 42.418559 31.1875 42.03125 31.1875 L 37.9375 31.1875 C 37.550191 31.1875 37.25 30.8873 37.25 30.5 L 37.25 26.40625 C 37.25 26.01885 37.550191 25.6875 37.9375 25.6875 z M 5.96875 35.34375 L 10.0625 35.34375 C 10.449809 35.34375 10.75 35.6752 10.75 36.0625 L 10.75 40.15625 C 10.75 40.54355 10.449809 40.84375 10.0625 40.84375 L 5.96875 40.84375 C 5.5814406 40.84375 5.28125 40.54355 5.28125 40.15625 L 5.28125 36.0625 C 5.28125 35.6752 5.5814406 35.34375 5.96875 35.34375 z M 37.9375 35.34375 L 42.03125 35.34375 C 42.418559 35.34375 42.71875 35.6752 42.71875 36.0625 L 42.71875 40.15625 C 42.71875 40.54355 42.418559 40.84375 42.03125 40.84375 L 37.9375 40.84375 C 37.550191 40.84375 37.25 40.54355 37.25 40.15625 L 37.25 36.0625 C 37.25 35.6752 37.550191 35.34375 37.9375 35.34375 z "
       transform="translate(0,1004.3622)"
       id="rect2992" />
    <rect
       style="fill:#ff0000;fill-opacity:1;stroke:none"
       id="rect420"
       width="22.074528"
       height="34.551434"
       x="12.962736"
       y="1011.0865"
       ry="0" />
    <path
       sodipodi:type="star"
       style="fill:#ffffff;fill-opacity:1;stroke:none"
       id="path970"
       sodipodi:sides="3"
       sodipodi:cx="-6.3341064"
       sodipodi:cy="18.74246"
       sodipodi:r1="9.6531496"
       sodipodi:r2="4.8265748"
       sodipodi:arg1="0"
       sodipodi:arg2="1.0471976"
       inkscape:flatsided="true"
       inkscape:rounded="0"
       inkscape:randomized="0"
       d="m 3.3190432,18.74246 -14.4797242,8.359873 0,-16.719746 z"
       transform="translate(27.920819,1009.6197)"
       inkscape:transform-center-x="-2.4132875" />
  </g>
</svg>
