<?xml version="1.0" encoding="UTF-8" standalone="no"?>
<!-- Created with Inkscape (http://www.inkscape.org/) -->

<svg
   xmlns:dc="http://purl.org/dc/elements/1.1/"
   xmlns:cc="http://creativecommons.org/ns#"
   xmlns:rdf="http://www.w3.org/1999/02/22-rdf-syntax-ns#"
   xmlns:svg="http://www.w3.org/2000/svg"
   xmlns="http://www.w3.org/2000/svg"
   xmlns:xlink="http://www.w3.org/1999/xlink"
   xmlns:sodipodi="http://sodipodi.sourceforge.net/DTD/sodipodi-0.dtd"
   xmlns:inkscape="http://www.inkscape.org/namespaces/inkscape"
   width="48"
   height="48"
   id="svg2"
   version="1.1"
   inkscape:version="0.48.3.1 r9886"
   sodipodi:docname="avant-window-navigator.svg">
  <defs
     id="defs4">
    <linearGradient
       id="linearGradient5223">
      <stop
         style="stop-color:#e4e4e4;stop-opacity:0.53723407;"
         offset="0"
         id="stop5225" />
      <stop
         style="stop-color:#ffffff;stop-opacity:0;"
         offset="1"
         id="stop5227" />
    </linearGradient>
    <linearGradient
       id="linearGradient3795">
      <stop
         style="stop-color:#3c84ce;stop-opacity:1;"
         offset="0"
         id="stop3797" />
      <stop
         style="stop-color:#74acc6;stop-opacity:1;"
         offset="1"
         id="stop3799" />
    </linearGradient>
    <linearGradient
       inkscape:collect="always"
       id="linearGradient3914">
      <stop
         style="stop-color:#59b3e1;stop-opacity:1;"
         offset="0"
         id="stop3916" />
      <stop
         style="stop-color:#59b3e1;stop-opacity:0;"
         offset="1"
         id="stop3918" />
    </linearGradient>
    <linearGradient
       id="linearGradient3698">
      <stop
         id="stop3700"
         offset="0"
         style="stop-color:#96d0e1;stop-opacity:1" />
      <stop
         style="stop-color:#89b7e1;stop-opacity:1"
         offset="0.67819428"
         id="stop3706" />
      <stop
         id="stop3702"
         offset="1"
         style="stop-color:#699dd3;stop-opacity:1" />
    </linearGradient>
    <linearGradient
       id="linearGradient3708">
      <stop
         id="stop3710"
         offset="0"
         style="stop-color:#d9d9d9;stop-opacity:1;" />
      <stop
         id="stop3712"
         offset="1"
         style="stop-color:#ececec;stop-opacity:1;" />
    </linearGradient>
    <linearGradient
       id="linearGradient3750">
      <stop
         style="stop-color:#d0e2f1;stop-opacity:1"
         offset="0"
         id="stop3752" />
      <stop
         id="stop3756"
         offset="0.85580856"
         style="stop-color:#cadef0;stop-opacity:1" />
      <stop
         style="stop-color:#95bee3;stop-opacity:1"
         offset="1"
         id="stop3754" />
    </linearGradient>
    <linearGradient
       id="linearGradient3803">
      <stop
         id="stop3805"
         offset="0"
         style="stop-color:#d7def0;stop-opacity:1;" />
      <stop
         style="stop-color:#ffffff;stop-opacity:1"
         offset="0.5"
         id="stop3811" />
      <stop
         id="stop3807"
         offset="1"
         style="stop-color:#d5def0;stop-opacity:1" />
    </linearGradient>
    <linearGradient
       inkscape:collect="always"
       xlink:href="#linearGradient3914"
       id="linearGradient3920"
       x1="6.8000002"
       y1="25.0625"
       x2="45.325001"
       y2="25.0625"
       gradientUnits="userSpaceOnUse" />
    <linearGradient
       inkscape:collect="always"
       xlink:href="#linearGradient3795"
       id="linearGradient3801"
       x1="23.204165"
       y1="1053.158"
       x2="23.204165"
       y2="1004.8474"
       gradientUnits="userSpaceOnUse"
       gradientTransform="translate(0,2.4148533e-6)" />
    <linearGradient
       inkscape:collect="always"
       xlink:href="#linearGradient5223"
       id="linearGradient5229"
       x1="26.162949"
       y1="38.750648"
       x2="26.162949"
       y2="23.693205"
       gradientUnits="userSpaceOnUse" />
    <linearGradient
       inkscape:collect="always"
       xlink:href="#linearGradient3708"
       id="linearGradient5237"
       x1="12.456904"
       y1="1035.9834"
       x2="12.456904"
       y2="1023.6043"
       gradientUnits="userSpaceOnUse" />
    <linearGradient
       inkscape:collect="always"
       xlink:href="#linearGradient3708"
       id="linearGradient5245"
       x1="36.056015"
       y1="1040.9681"
       x2="36.056015"
       y2="1029.2114"
       gradientUnits="userSpaceOnUse" />
    <linearGradient
       inkscape:collect="always"
       xlink:href="#linearGradient3708"
       id="linearGradient5247"
       x1="23.858713"
       y1="1041.0565"
       x2="23.858713"
       y2="1029.51"
       gradientUnits="userSpaceOnUse" />
    <linearGradient
       inkscape:collect="always"
       xlink:href="#linearGradient5223"
       id="linearGradient5431"
       gradientUnits="userSpaceOnUse"
       x1="26.162949"
       y1="38.750648"
       x2="26.162949"
       y2="23.693205" />
    <linearGradient
       inkscape:collect="always"
       xlink:href="#linearGradient3708"
       id="linearGradient5433"
       gradientUnits="userSpaceOnUse"
       x1="12.456904"
       y1="1035.9834"
       x2="12.456904"
       y2="1023.6043" />
    <linearGradient
       inkscape:collect="always"
       xlink:href="#linearGradient3708"
       id="linearGradient5435"
       gradientUnits="userSpaceOnUse"
       x1="23.858713"
       y1="1041.0565"
       x2="23.858713"
       y2="1029.51" />
    <linearGradient
       inkscape:collect="always"
       xlink:href="#linearGradient3708"
       id="linearGradient5437"
       gradientUnits="userSpaceOnUse"
       x1="36.056015"
       y1="1040.9681"
       x2="36.056015"
       y2="1029.2114" />
    <linearGradient
       y2="1049.5842"
       x2="24.113745"
       y1="1007.2183"
       x1="24.113745"
       gradientTransform="matrix(0.96799712,0,0,1.0252613,0.76812014,-25.977808)"
       gradientUnits="userSpaceOnUse"
       id="linearGradient3030"
       xlink:href="#linearGradient3795-6"
       inkscape:collect="always" />
    <linearGradient
       id="linearGradient3795-6">
      <stop
         style="stop-color:#68b8d8;stop-opacity:1;"
         offset="0"
         id="stop3797-2" />
      <stop
         style="stop-color:#3097bd;stop-opacity:1;"
         offset="1"
         id="stop3799-9" />
    </linearGradient>
    <linearGradient
       y2="1049.5842"
       x2="24.113745"
       y1="1007.2183"
       x1="24.113745"
       gradientTransform="matrix(0.96799712,0,0,1.0252613,-47.231878,-2082.7024)"
       gradientUnits="userSpaceOnUse"
       id="linearGradient3066"
       xlink:href="#linearGradient3795"
       inkscape:collect="always" />
  </defs>
  <sodipodi:namedview
     id="base"
     pagecolor="#ffffff"
     bordercolor="#666666"
     borderopacity="1.0"
     inkscape:pageopacity="0.0"
     inkscape:pageshadow="2"
     inkscape:zoom="8"
     inkscape:cx="13.892711"
     inkscape:cy="20.680242"
     inkscape:document-units="px"
     inkscape:current-layer="layer1"
     showgrid="false"
     inkscape:window-width="1776"
     inkscape:window-height="955"
     inkscape:window-x="0"
     inkscape:window-y="26"
     inkscape:window-maximized="1" />
  <metadata
     id="metadata7">
    <rdf:RDF>
      <cc:Work
         rdf:about="">
        <dc:format>image/svg+xml</dc:format>
        <dc:type
           rdf:resource="http://purl.org/dc/dcmitype/StillImage" />
        <dc:title />
      </cc:Work>
    </rdf:RDF>
  </metadata>
  <g
     inkscape:label="Capa 1"
     inkscape:groupmode="layer"
     id="layer1"
     transform="translate(0,-1004.3622)">
    <rect
       ry="5.6755357"
       y="-1050.663"
       x="-46.300758"
       height="44.601513"
       width="44.601513"
       id="rect2992"
       style="fill:url(#linearGradient3066);fill-opacity:1;stroke:#7d7d7d;stroke-width:0.39848712;stroke-miterlimit:4;stroke-opacity:1;stroke-dasharray:none"
       transform="scale(-1,-1)" />
    <g
       id="g5376"
       transform="matrix(0.70788988,0,0,0.70788988,6.8247504,296.25779)">
      <rect
         ry="1.9445436"
         transform="translate(0,1004.3622)"
         y="25.637749"
         x="4.5078058"
         height="12.551146"
         width="39.50959"
         id="rect5221"
         style="fill:url(#linearGradient5431);fill-opacity:1;stroke:none" />
      <rect
         ry="1.9445436"
         y="1025.8622"
         x="7.0000501"
         height="9.8125"
         width="10.8125"
         id="rect3011"
         style="fill:url(#linearGradient5433);fill-opacity:1;stroke:none" />
      <rect
         style="fill:url(#linearGradient5435);fill-opacity:1;stroke:none"
         id="rect3013"
         width="10.8125"
         height="9.8125"
         x="18.8438"
         y="1031.1122"
         ry="1.9445436" />
      <rect
         ry="1.9445436"
         y="1031.1122"
         x="30.687548"
         height="9.8125"
         width="10.8125"
         id="rect3015"
         style="fill:url(#linearGradient5437);fill-opacity:1;stroke:none" />
      <path
         inkscape:transform-center-y="-0.41742753"
         transform="matrix(-1.2551074,0,0,-0.68307096,25.898704,1051.275)"
         d="m 10.75,18.819701 -2.1171732,-3.667051 4.2343462,-10e-7 z"
         inkscape:randomized="0"
         inkscape:rounded="0"
         inkscape:flatsided="true"
         sodipodi:arg2="2.6179939"
         sodipodi:arg1="1.5707963"
         sodipodi:r2="1.2223505"
         sodipodi:r1="2.444701"
         sodipodi:cy="16.375"
         sodipodi:cx="10.75"
         sodipodi:sides="3"
         id="path3017"
         style="fill:#ffffff;fill-opacity:1;stroke:#ffffff;stroke-width:0.40000001;stroke-linecap:butt;stroke-linejoin:miter;stroke-miterlimit:4;stroke-opacity:1;stroke-dasharray:none"
         sodipodi:type="star" />
      <g
         id="g3306"
         transform="matrix(0.17151473,0,0,0.17151473,8.2899469,854.38918)">
        <path
           inkscape:connector-curvature="0"
           id="path4518"
           d="m 23.086983,1009.3436 c -9.381022,0.5096 -16.8466778,8.8463 -16.8466778,19.0261 0,10.5083 7.9540778,19.0262 17.7596978,19.0262 9.805619,0 17.759697,-8.5179 17.759697,-19.0262 0,-10.5081 -7.954078,-19.0261 -17.759697,-19.0261 -0.306422,0 -0.610406,-0.016 -0.91302,0 z"
           style="fill:none;stroke:#4d4d4d;stroke-width:4;stroke-miterlimit:4;stroke-dasharray:none" />
        <g
           id="g3267">
          <g
             transform="matrix(1.7685444,0,0,0.89575871,-288.36914,106.95623)"
             id="g4578">
            <path
               inkscape:connector-curvature="0"
               id="rect4522"
               d="m 175.19921,1002.2507 2.85157,0 c 0.16224,0 0.29285,0.4977 0.29285,1.1161 l 0,3.4039 c 0,0.6182 -0.13061,1.116 -0.29285,1.116 l -2.85157,0 c -0.16224,0 -0.29285,-0.4978 -0.29285,-1.116 l 0,-3.4039 c 0,-0.6184 0.13061,-1.1161 0.29285,-1.1161 z"
               style="fill:#4d4d4d;fill-opacity:1;stroke:none" />
            <path
               inkscape:connector-curvature="0"
               id="rect4524"
               d="m 175.19921,1049.3769 2.85157,0 c 0.16224,0 0.29285,0.4978 0.29285,1.116 l 0,3.4039 c 0,0.6183 -0.13061,1.1161 -0.29285,1.1161 l -2.85157,0 c -0.16224,0 -0.29285,-0.4978 -0.29285,-1.1161 l 0,-3.4039 c 0,-0.6182 0.13061,-1.116 0.29285,-1.116 z"
               style="fill:#4d4d4d;fill-opacity:1;stroke:none" />
          </g>
          <path
             transform="matrix(1.5093951,0,0,1.5093951,-244.861,991.76336)"
             d="m 180.875,24.25 c 0,1.518783 -1.23122,2.75 -2.75,2.75 -1.51878,0 -2.75,-1.231217 -2.75,-2.75 0,-1.518783 1.23122,-2.75 2.75,-2.75 1.51878,0 2.75,1.231217 2.75,2.75 z"
             sodipodi:ry="2.75"
             sodipodi:rx="2.75"
             sodipodi:cy="24.25"
             sodipodi:cx="178.125"
             id="path4548"
             style="fill:#4d4d4d;stroke:none"
             sodipodi:type="arc" />
          <g
             transform="matrix(1,0,0,2.0555375,0,-1085.4791)"
             id="g4648">
            <path
               style="fill:#4d4d4d;fill-opacity:1;stroke:none"
               d="m 46.371442,1027.0891 0,2.5542 c 0,0.1454 -0.445819,0.2624 -0.999756,0.2624 l -3.049073,0 c -0.553758,0 -0.999667,-0.117 -0.999667,-0.2624 l 0,-2.5542 c 0,-0.1454 0.445909,-0.2624 0.999667,-0.2624 l 3.049073,0 c 0.553937,0 0.999756,0.117 0.999756,0.2624 z"
               id="path4596"
               inkscape:connector-curvature="0" />
            <path
               style="fill:#4d4d4d;fill-opacity:1;stroke:none"
               d="m 6.6770503,1027.0891 0,2.5542 c 0,0.1454 -0.4459087,0.2624 -0.9996667,0.2624 l -3.0490731,0 c -0.5538476,0 -0.9997563,-0.117 -0.9997563,-0.2624 l 0,-2.5542 c 0,-0.1454 0.4459176,-0.2624 0.9997563,-0.2624 l 3.0490731,0 c 0.553758,0 0.9996667,0.117 0.9996667,0.2624 z"
               id="path4598"
               inkscape:connector-curvature="0" />
          </g>
          <g
             id="g4652"
             transform="matrix(1.2505497,1.2505497,-0.63339706,0.63339706,454.65402,155.95143)">
            <path
               style="fill:#4d4d4d;fill-opacity:1;stroke:none"
               d="m 175.19921,1002.2507 2.85157,0 c 0.16224,0 0.29285,0.4977 0.29285,1.1161 l 0,3.4039 c 0,0.6182 -0.13061,1.116 -0.29285,1.116 l -2.85157,0 c -0.16224,0 -0.29285,-0.4978 -0.29285,-1.116 l 0,-3.4039 c 0,-0.6184 0.13061,-1.1161 0.29285,-1.1161 z"
               id="path4654"
               inkscape:connector-curvature="0" />
            <path
               style="fill:#4d4d4d;fill-opacity:1;stroke:none"
               d="m 175.19921,1049.3769 2.85157,0 c 0.16224,0 0.29285,0.4978 0.29285,1.116 l 0,3.4039 c 0,0.6183 -0.13061,1.1161 -0.29285,1.1161 l -2.85157,0 c -0.16224,0 -0.29285,-0.4978 -0.29285,-1.1161 l 0,-3.4039 c 0,-0.6182 0.13061,-1.116 0.29285,-1.116 z"
               id="path4656"
               inkscape:connector-curvature="0" />
          </g>
          <g
             transform="matrix(-1.2505497,1.2505497,-0.63339706,-0.63339706,896.41069,1459.0161)"
             id="g4658">
            <path
               inkscape:connector-curvature="0"
               id="path4660"
               d="m 175.19921,1002.2507 2.85157,0 c 0.16224,0 0.29285,0.4977 0.29285,1.1161 l 0,3.4039 c 0,0.6182 -0.13061,1.116 -0.29285,1.116 l -2.85157,0 c -0.16224,0 -0.29285,-0.4978 -0.29285,-1.116 l 0,-3.4039 c 0,-0.6184 0.13061,-1.1161 0.29285,-1.1161 z"
               style="fill:#4d4d4d;fill-opacity:1;stroke:none" />
            <path
               inkscape:connector-curvature="0"
               id="path4662"
               d="m 175.19921,1049.3769 2.85157,0 c 0.16224,0 0.29285,0.4978 0.29285,1.116 l 0,3.4039 c 0,0.6183 -0.13061,1.1161 -0.29285,1.1161 l -2.85157,0 c -0.16224,0 -0.29285,-0.4978 -0.29285,-1.1161 l 0,-3.4039 c 0,-0.6182 0.13061,-1.116 0.29285,-1.116 z"
               style="fill:#4d4d4d;fill-opacity:1;stroke:none" />
          </g>
        </g>
      </g>
      <g
         transform="matrix(0.17151473,0,0,0.17151473,20.133696,859.63918)"
         id="g5312">
        <path
           style="fill:none;stroke:#4d4d4d;stroke-width:4;stroke-miterlimit:4;stroke-dasharray:none"
           d="m 23.086983,1009.3436 c -9.381022,0.5096 -16.8466778,8.8463 -16.8466778,19.0261 0,10.5083 7.9540778,19.0262 17.7596978,19.0262 9.805619,0 17.759697,-8.5179 17.759697,-19.0262 0,-10.5081 -7.954078,-19.0261 -17.759697,-19.0261 -0.306422,0 -0.610406,-0.016 -0.91302,0 z"
           id="path5314"
           inkscape:connector-curvature="0" />
        <g
           id="g5316">
          <g
             id="g5318"
             transform="matrix(1.7685444,0,0,0.89575871,-288.36914,106.95623)">
            <path
               style="fill:#4d4d4d;fill-opacity:1;stroke:none"
               d="m 175.19921,1002.2507 2.85157,0 c 0.16224,0 0.29285,0.4977 0.29285,1.1161 l 0,3.4039 c 0,0.6182 -0.13061,1.116 -0.29285,1.116 l -2.85157,0 c -0.16224,0 -0.29285,-0.4978 -0.29285,-1.116 l 0,-3.4039 c 0,-0.6184 0.13061,-1.1161 0.29285,-1.1161 z"
               id="path5320"
               inkscape:connector-curvature="0" />
            <path
               style="fill:#4d4d4d;fill-opacity:1;stroke:none"
               d="m 175.19921,1049.3769 2.85157,0 c 0.16224,0 0.29285,0.4978 0.29285,1.116 l 0,3.4039 c 0,0.6183 -0.13061,1.1161 -0.29285,1.1161 l -2.85157,0 c -0.16224,0 -0.29285,-0.4978 -0.29285,-1.1161 l 0,-3.4039 c 0,-0.6182 0.13061,-1.116 0.29285,-1.116 z"
               id="path5322"
               inkscape:connector-curvature="0" />
          </g>
          <path
             sodipodi:type="arc"
             style="fill:#4d4d4d;stroke:none"
             id="path5324"
             sodipodi:cx="178.125"
             sodipodi:cy="24.25"
             sodipodi:rx="2.75"
             sodipodi:ry="2.75"
             d="m 180.875,24.25 c 0,1.518783 -1.23122,2.75 -2.75,2.75 -1.51878,0 -2.75,-1.231217 -2.75,-2.75 0,-1.518783 1.23122,-2.75 2.75,-2.75 1.51878,0 2.75,1.231217 2.75,2.75 z"
             transform="matrix(1.5093951,0,0,1.5093951,-244.861,991.76336)" />
          <g
             id="g5326"
             transform="matrix(1,0,0,2.0555375,0,-1085.4791)">
            <path
               inkscape:connector-curvature="0"
               id="path5328"
               d="m 46.371442,1027.0891 0,2.5542 c 0,0.1454 -0.445819,0.2624 -0.999756,0.2624 l -3.049073,0 c -0.553758,0 -0.999667,-0.117 -0.999667,-0.2624 l 0,-2.5542 c 0,-0.1454 0.445909,-0.2624 0.999667,-0.2624 l 3.049073,0 c 0.553937,0 0.999756,0.117 0.999756,0.2624 z"
               style="fill:#4d4d4d;fill-opacity:1;stroke:none" />
            <path
               inkscape:connector-curvature="0"
               id="path5330"
               d="m 6.6770503,1027.0891 0,2.5542 c 0,0.1454 -0.4459087,0.2624 -0.9996667,0.2624 l -3.0490731,0 c -0.5538476,0 -0.9997563,-0.117 -0.9997563,-0.2624 l 0,-2.5542 c 0,-0.1454 0.4459176,-0.2624 0.9997563,-0.2624 l 3.0490731,0 c 0.553758,0 0.9996667,0.117 0.9996667,0.2624 z"
               style="fill:#4d4d4d;fill-opacity:1;stroke:none" />
          </g>
          <g
             transform="matrix(1.2505497,1.2505497,-0.63339706,0.63339706,454.65402,155.95143)"
             id="g5332">
            <path
               inkscape:connector-curvature="0"
               id="path5334"
               d="m 175.19921,1002.2507 2.85157,0 c 0.16224,0 0.29285,0.4977 0.29285,1.1161 l 0,3.4039 c 0,0.6182 -0.13061,1.116 -0.29285,1.116 l -2.85157,0 c -0.16224,0 -0.29285,-0.4978 -0.29285,-1.116 l 0,-3.4039 c 0,-0.6184 0.13061,-1.1161 0.29285,-1.1161 z"
               style="fill:#4d4d4d;fill-opacity:1;stroke:none" />
            <path
               inkscape:connector-curvature="0"
               id="path5336"
               d="m 175.19921,1049.3769 2.85157,0 c 0.16224,0 0.29285,0.4978 0.29285,1.116 l 0,3.4039 c 0,0.6183 -0.13061,1.1161 -0.29285,1.1161 l -2.85157,0 c -0.16224,0 -0.29285,-0.4978 -0.29285,-1.1161 l 0,-3.4039 c 0,-0.6182 0.13061,-1.116 0.29285,-1.116 z"
               style="fill:#4d4d4d;fill-opacity:1;stroke:none" />
          </g>
          <g
             id="g5338"
             transform="matrix(-1.2505497,1.2505497,-0.63339706,-0.63339706,896.41069,1459.0161)">
            <path
               style="fill:#4d4d4d;fill-opacity:1;stroke:none"
               d="m 175.19921,1002.2507 2.85157,0 c 0.16224,0 0.29285,0.4977 0.29285,1.1161 l 0,3.4039 c 0,0.6182 -0.13061,1.116 -0.29285,1.116 l -2.85157,0 c -0.16224,0 -0.29285,-0.4978 -0.29285,-1.116 l 0,-3.4039 c 0,-0.6184 0.13061,-1.1161 0.29285,-1.1161 z"
               id="path5340"
               inkscape:connector-curvature="0" />
            <path
               style="fill:#4d4d4d;fill-opacity:1;stroke:none"
               d="m 175.19921,1049.3769 2.85157,0 c 0.16224,0 0.29285,0.4978 0.29285,1.116 l 0,3.4039 c 0,0.6183 -0.13061,1.1161 -0.29285,1.1161 l -2.85157,0 c -0.16224,0 -0.29285,-0.4978 -0.29285,-1.1161 l 0,-3.4039 c 0,-0.6182 0.13061,-1.116 0.29285,-1.116 z"
               id="path5342"
               inkscape:connector-curvature="0" />
          </g>
        </g>
      </g>
      <g
         id="g5344"
         transform="matrix(0.17151473,0,0,0.17151473,31.977444,859.63918)">
        <path
           inkscape:connector-curvature="0"
           id="path5346"
           d="m 23.086983,1009.3436 c -9.381022,0.5096 -16.8466778,8.8463 -16.8466778,19.0261 0,10.5083 7.9540778,19.0262 17.7596978,19.0262 9.805619,0 17.759697,-8.5179 17.759697,-19.0262 0,-10.5081 -7.954078,-19.0261 -17.759697,-19.0261 -0.306422,0 -0.610406,-0.016 -0.91302,0 z"
           style="fill:none;stroke:#4d4d4d;stroke-width:4;stroke-miterlimit:4;stroke-dasharray:none" />
        <g
           id="g5348">
          <g
             transform="matrix(1.7685444,0,0,0.89575871,-288.36914,106.95623)"
             id="g5350">
            <path
               inkscape:connector-curvature="0"
               id="path5352"
               d="m 175.19921,1002.2507 2.85157,0 c 0.16224,0 0.29285,0.4977 0.29285,1.1161 l 0,3.4039 c 0,0.6182 -0.13061,1.116 -0.29285,1.116 l -2.85157,0 c -0.16224,0 -0.29285,-0.4978 -0.29285,-1.116 l 0,-3.4039 c 0,-0.6184 0.13061,-1.1161 0.29285,-1.1161 z"
               style="fill:#4d4d4d;fill-opacity:1;stroke:none" />
            <path
               inkscape:connector-curvature="0"
               id="path5354"
               d="m 175.19921,1049.3769 2.85157,0 c 0.16224,0 0.29285,0.4978 0.29285,1.116 l 0,3.4039 c 0,0.6183 -0.13061,1.1161 -0.29285,1.1161 l -2.85157,0 c -0.16224,0 -0.29285,-0.4978 -0.29285,-1.1161 l 0,-3.4039 c 0,-0.6182 0.13061,-1.116 0.29285,-1.116 z"
               style="fill:#4d4d4d;fill-opacity:1;stroke:none" />
          </g>
          <path
             transform="matrix(1.5093951,0,0,1.5093951,-244.861,991.76336)"
             d="m 180.875,24.25 c 0,1.518783 -1.23122,2.75 -2.75,2.75 -1.51878,0 -2.75,-1.231217 -2.75,-2.75 0,-1.518783 1.23122,-2.75 2.75,-2.75 1.51878,0 2.75,1.231217 2.75,2.75 z"
             sodipodi:ry="2.75"
             sodipodi:rx="2.75"
             sodipodi:cy="24.25"
             sodipodi:cx="178.125"
             id="path5356"
             style="fill:#4d4d4d;stroke:none"
             sodipodi:type="arc" />
          <g
             transform="matrix(1,0,0,2.0555375,0,-1085.4791)"
             id="g5358">
            <path
               style="fill:#4d4d4d;fill-opacity:1;stroke:none"
               d="m 46.371442,1027.0891 0,2.5542 c 0,0.1454 -0.445819,0.2624 -0.999756,0.2624 l -3.049073,0 c -0.553758,0 -0.999667,-0.117 -0.999667,-0.2624 l 0,-2.5542 c 0,-0.1454 0.445909,-0.2624 0.999667,-0.2624 l 3.049073,0 c 0.553937,0 0.999756,0.117 0.999756,0.2624 z"
               id="path5360"
               inkscape:connector-curvature="0" />
            <path
               style="fill:#4d4d4d;fill-opacity:1;stroke:none"
               d="m 6.6770503,1027.0891 0,2.5542 c 0,0.1454 -0.4459087,0.2624 -0.9996667,0.2624 l -3.0490731,0 c -0.5538476,0 -0.9997563,-0.117 -0.9997563,-0.2624 l 0,-2.5542 c 0,-0.1454 0.4459176,-0.2624 0.9997563,-0.2624 l 3.0490731,0 c 0.553758,0 0.9996667,0.117 0.9996667,0.2624 z"
               id="path5362"
               inkscape:connector-curvature="0" />
          </g>
          <g
             id="g5364"
             transform="matrix(1.2505497,1.2505497,-0.63339706,0.63339706,454.65402,155.95143)">
            <path
               style="fill:#4d4d4d;fill-opacity:1;stroke:none"
               d="m 175.19921,1002.2507 2.85157,0 c 0.16224,0 0.29285,0.4977 0.29285,1.1161 l 0,3.4039 c 0,0.6182 -0.13061,1.116 -0.29285,1.116 l -2.85157,0 c -0.16224,0 -0.29285,-0.4978 -0.29285,-1.116 l 0,-3.4039 c 0,-0.6184 0.13061,-1.1161 0.29285,-1.1161 z"
               id="path5366"
               inkscape:connector-curvature="0" />
            <path
               style="fill:#4d4d4d;fill-opacity:1;stroke:none"
               d="m 175.19921,1049.3769 2.85157,0 c 0.16224,0 0.29285,0.4978 0.29285,1.116 l 0,3.4039 c 0,0.6183 -0.13061,1.1161 -0.29285,1.1161 l -2.85157,0 c -0.16224,0 -0.29285,-0.4978 -0.29285,-1.1161 l 0,-3.4039 c 0,-0.6182 0.13061,-1.116 0.29285,-1.116 z"
               id="path5368"
               inkscape:connector-curvature="0" />
          </g>
          <g
             transform="matrix(-1.2505497,1.2505497,-0.63339706,-0.63339706,896.41069,1459.0161)"
             id="g5370">
            <path
               inkscape:connector-curvature="0"
               id="path5372"
               d="m 175.19921,1002.2507 2.85157,0 c 0.16224,0 0.29285,0.4977 0.29285,1.1161 l 0,3.4039 c 0,0.6182 -0.13061,1.116 -0.29285,1.116 l -2.85157,0 c -0.16224,0 -0.29285,-0.4978 -0.29285,-1.116 l 0,-3.4039 c 0,-0.6184 0.13061,-1.1161 0.29285,-1.1161 z"
               style="fill:#4d4d4d;fill-opacity:1;stroke:none" />
            <path
               inkscape:connector-curvature="0"
               id="path5374"
               d="m 175.19921,1049.3769 2.85157,0 c 0.16224,0 0.29285,0.4978 0.29285,1.116 l 0,3.4039 c 0,0.6183 -0.13061,1.1161 -0.29285,1.1161 l -2.85157,0 c -0.16224,0 -0.29285,-0.4978 -0.29285,-1.1161 l 0,-3.4039 c 0,-0.6182 0.13061,-1.116 0.29285,-1.116 z"
               style="fill:#4d4d4d;fill-opacity:1;stroke:none" />
          </g>
        </g>
      </g>
    </g>
  </g>
</svg>
