<?xml version="1.0" encoding="UTF-8" standalone="no"?>
<!-- Created with Inkscape (http://www.inkscape.org/) -->

<svg
   xmlns:dc="http://purl.org/dc/elements/1.1/"
   xmlns:cc="http://creativecommons.org/ns#"
   xmlns:rdf="http://www.w3.org/1999/02/22-rdf-syntax-ns#"
   xmlns:svg="http://www.w3.org/2000/svg"
   xmlns="http://www.w3.org/2000/svg"
   xmlns:xlink="http://www.w3.org/1999/xlink"
   xmlns:sodipodi="http://sodipodi.sourceforge.net/DTD/sodipodi-0.dtd"
   xmlns:inkscape="http://www.inkscape.org/namespaces/inkscape"
   width="48"
   height="48"
   id="svg944"
   version="1.1"
   inkscape:version="0.48+devel r11556"
   sodipodi:docname="bluefish.svg">
  <defs
     id="defs946">
    <linearGradient
       id="linearGradient1528">
      <stop
         id="stop1530"
         offset="0"
         style="stop-color:#a999e5;stop-opacity:1" />
      <stop
         id="stop1532"
         offset="1"
         style="stop-color:#4f1d73;stop-opacity:1" />
    </linearGradient>
    <linearGradient
       y2="1049.5842"
       x2="24.113745"
       y1="1007.2183"
       x1="24.113745"
       gradientTransform="matrix(0.96799712,0,0,1.0252613,0.76812014,-25.977808)"
       gradientUnits="userSpaceOnUse"
       id="linearGradient3030"
       xlink:href="#linearGradient3795"
       inkscape:collect="always" />
    <linearGradient
       id="linearGradient3795">
      <stop
         style="stop-color:#68b8d8;stop-opacity:1;"
         offset="0"
         id="stop3797" />
      <stop
         style="stop-color:#3097bd;stop-opacity:1;"
         offset="1"
         id="stop3799" />
    </linearGradient>
    <linearGradient
       y2="1049.5842"
       x2="24.113745"
       y1="1007.2183"
       x1="24.113745"
       gradientTransform="matrix(0.96799712,0,0,1.0252613,1641.3245,-665.99295)"
       gradientUnits="userSpaceOnUse"
       id="linearGradient1507"
       xlink:href="#linearGradient1528"
       inkscape:collect="always" />
    <linearGradient
       x1="-128"
       y1="64"
       x2="-67.417709"
       y2="38.740906"
       id="linearGradient4357"
       xlink:href="#linearGradient4335"
       gradientUnits="userSpaceOnUse"
       gradientTransform="matrix(0.706098,0,0,0.706098,130.63254,20.2435)" />
    <linearGradient
       id="linearGradient4335">
      <stop
         id="stop4337"
         style="stop-color:#000000;stop-opacity:1"
         offset="0" />
      <stop
         id="stop4339"
         style="stop-color:#19007b;stop-opacity:0.84705883"
         offset="1" />
    </linearGradient>
  </defs>
  <sodipodi:namedview
     id="base"
     pagecolor="#ffffff"
     bordercolor="#666666"
     borderopacity="1.0"
     inkscape:pageopacity="0.0"
     inkscape:pageshadow="2"
     inkscape:zoom="1.979899"
     inkscape:cx="43.553446"
     inkscape:cy="14.281112"
     inkscape:document-units="px"
     inkscape:current-layer="layer1"
     showgrid="false"
     width="0px"
     height="0px"
     fit-margin-top="0"
     fit-margin-left="0"
     fit-margin-right="0"
     fit-margin-bottom="0"
     inkscape:window-width="1016"
     inkscape:window-height="672"
     inkscape:window-x="306"
     inkscape:window-y="14"
     inkscape:window-maximized="0" />
  <metadata
     id="metadata949">
    <rdf:RDF>
      <cc:Work
         rdf:about="">
        <dc:format>image/svg+xml</dc:format>
        <dc:type
           rdf:resource="http://purl.org/dc/dcmitype/StillImage" />
        <dc:title></dc:title>
      </cc:Work>
    </rdf:RDF>
  </metadata>
  <g
     inkscape:label="Capa 1"
     inkscape:groupmode="layer"
     id="layer1"
     transform="translate(-1640.5564,-364.34714)">
    <rect
       ry="5.6755357"
       y="366.04639"
       x="1642.2556"
       height="44.601513"
       width="44.601513"
       id="rect2992"
       style="fill:url(#linearGradient1507);fill-opacity:1;stroke:#7d7d7d;stroke-width:0.39848712;stroke-miterlimit:4;stroke-opacity:1;stroke-dasharray:none" />
    <rect
       style="fill:none;stroke:none"
       id="rect1526"
       width="48"
       height="48"
       x="1640.5564"
       y="364.34714"
       ry="0" />
    <g
       id="g1630"
       transform="matrix(0.42698504,0,0,0.42698504,950.36894,210.5558)">
      <path
         style="fill:#ffffff;fill-opacity:1"
         id="path4333"
         inkscape:connector-curvature="0"
         d="m 1690.1806,385.50243 c -0.4955,0.036 -0.9348,0.28173 -1.324,0.75023 -0.4394,0.52905 -0.6603,1.24228 -0.5957,1.87557 0.095,0.93576 0.3721,1.70709 1.5004,3.94974 0.6202,1.23261 0.8233,1.7263 1.0371,2.71406 0.3019,1.39498 0.4214,2.61704 0.4192,4.23659 0,1.49144 -0.094,2.57737 -0.3309,3.99387 -0.2084,1.24366 -0.565,2.73904 -0.6399,2.71406 -0.1144,-0.0381 -0.2503,-1.19842 -0.3531,-2.89059 -0.1211,-1.99241 -0.2232,-2.78936 -0.3972,-3.57462 -0.4629,-2.08926 -1.4925,-2.97228 -3.1995,-2.71406 -0.4789,0.0725 -1.252,0.30744 -1.3239,0.39718 -0.031,0.0384 0.1415,0.64504 0.6178,2.00796 0.3743,1.07084 0.684,1.96648 0.6841,1.9859 0,0.0674 -0.2726,0.15884 -0.331,0.11033 -0.03,-0.025 -0.3003,-0.40923 -0.5958,-0.83849 -0.6236,-0.90586 -0.9409,-1.34637 -1.3681,-1.85351 -1.1489,-1.36423 -2.3931,-2.01679 -3.6849,-1.94177 -0.4714,0.0274 -1.1807,0.18255 -1.3019,0.28686 -0.084,0.0724 -0.063,0.19489 1.5446,6.04596 l 1.6549,5.97977 -0.3751,3.66288 c -0.2031,2.01999 -0.3997,3.71845 -0.4192,3.77321 -0.035,0.0974 -0.042,0.11033 -0.7061,0.11033 -0.3737,0 -1.1313,-0.0271 -1.677,-0.0662 -1.2058,-0.0864 -2.7091,-0.0962 -3.2216,-0.0221 -0.5209,0.0754 -1.2784,0.26487 -1.9859,0.50751 -2.2095,0.75779 -4.1434,2.09722 -5.7591,4.01593 -1.4893,1.7685 -2.7519,4.02043 -3.9939,7.12718 -0.3727,0.93244 -1.1781,3.16769 -1.368,3.77321 -0.47,1.49805 -0.73,3.08818 -0.7723,4.81029 -0.038,1.53379 0.079,2.7959 0.3972,4.08213 0.3733,1.50881 0.9295,2.67731 1.699,3.66288 0.1842,0.23595 0.3827,0.44434 0.5958,0.66197 0.01,0.008 0.015,0.0145 0.022,0.0221 0.01,0.007 0.015,0.0153 0.022,0.0221 0,0.004 0,0.0176 0,0.0221 0.9905,0.99318 2.0686,1.57358 3.4422,1.85351 0.9818,0.20007 2.692,0.2327 2.692,0.0441 0,-0.0315 -0.2971,-0.91888 -0.662,-1.96384 -0.3649,-1.04496 -0.6618,-1.91525 -0.6619,-1.94177 -3e-4,-0.0464 0.1831,-0.15446 0.2648,-0.15446 0.022,0 0.2524,0.31838 0.5075,0.7061 1.0268,1.56085 1.8162,2.45479 2.714,3.06712 0.5331,0.36357 1.2319,0.64297 1.7873,0.72816 0.3431,0.0526 1.1625,0.0489 1.5005,-0.0221 0.4173,-0.0876 0.8314,-0.22506 0.8826,-0.28685 0.01,-0.008 -0.029,-0.0506 -0.044,-0.0883 0.01,0.0278 -0.032,0.0441 -0.066,0.0662 -0.044,0.0283 -0.105,0.0662 -0.2648,0.11032 -0.091,0.0251 -0.1683,0.0418 -0.2647,0.0662 0.014,-0.004 0.031,-0.0186 0.044,-0.0221 0.2366,-0.062 0.449,-0.13408 0.4854,-0.15446 0.038,-0.0215 -0.2101,-0.46505 -0.7061,-1.25774 0.233,0.37182 0.5566,0.8423 0.6179,0.94882 -0.012,0 0,0.0396 0.022,0.0883 0.026,0.0486 0.054,0.0883 0.066,0.0883 0.01,0 -0.01,-0.0335 -0.022,-0.0662 0,0.01 0.088,0.12978 0.088,0.13239 -0.071,-0.17779 -0.3803,-0.7027 -1.2136,-2.00796 -1.3611,-2.13176 -1.4185,-2.22229 -1.3902,-2.25069 0.01,-0.01 0.2414,0.14588 0.5076,0.35305 1.737,1.35215 3.508,2.30579 5.1192,2.75819 2.0177,0.56656 3.9189,0.29166 5.3619,-0.79436 0.4566,-0.34366 0.9286,-0.80996 0.9047,-0.88262 -0.011,-0.0334 -1.6873,-0.74506 -3.7291,-1.58872 -2.0418,-0.84365 -3.7195,-1.56002 -3.7291,-1.58872 -0.027,-0.0822 1.5835,0.0123 3.3319,0.19859 0.5598,0.0597 1.4703,0.16074 2.0301,0.22065 1.8,0.19267 2.2033,0.22132 3.4422,0.22066 1.3153,-7.1e-4 1.8913,-0.0543 2.8906,-0.26479 1.5566,-0.32789 3.2247,-1.11296 4.5896,-2.14036 0.5557,-0.4183 0.827,-0.67536 0.7944,-0.72816 -0.018,-0.029 -2.206,-0.0213 -6.4432,0 -4.3621,0.022 -6.3472,0.008 -6.4211,-0.0221 -0.012,-0.002 -0.037,0.003 -0.044,0 -0.028,-0.0455 0.4372,-1.31761 0.5075,-1.39013 0.02,-0.0208 0.1834,0.0316 0.3531,0.13239 2.9382,1.74558 9.2673,1.2959 13.8571,-0.99295 1.3171,-0.65678 2.1844,-1.2765 3.0451,-2.14036 1.0295,-1.03333 1.637,-2.16227 1.7211,-3.24363 0.025,-0.31894 0.014,-0.33099 -0.066,-0.33099 -0.098,0 -1.7017,0.43958 -2.5596,0.7061 -0.3164,0.0983 -1.1279,0.35808 -1.8094,0.5737 -4.451,1.40844 -6.2978,1.78629 -8.7159,1.83145 -1.3821,0.0258 -2.6214,-0.0573 -2.5816,-0.17653 0.045,-0.13481 1.9246,-0.78051 3.1995,-1.10328 1.0883,-0.27553 1.6611,-0.39352 4.1924,-0.90468 3.7419,-0.75564 5.098,-1.10626 6.7521,-1.76525 3.4885,-1.38983 5.4672,-3.6544 6.0901,-6.95065 0.1621,-0.85756 0.2585,-2.36102 0.1544,-2.36102 -0.022,0 -1.8123,1.01092 -3.9938,2.22862 -2.1817,1.21771 -3.9896,2.20082 -4.016,2.1845 -0.06,-0.0373 -0.3165,-0.6102 -0.2868,-0.6399 0.012,-0.0121 0.2915,-0.16556 0.6399,-0.35305 1.673,-0.90055 2.9447,-1.84637 4.3248,-3.22158 2.5794,-2.57006 4.0889,-5.53808 4.4573,-8.71589 0.099,-0.85542 0.068,-2.41568 -0.066,-3.19951 -0.1584,-0.92841 -0.5281,-2.30167 -0.6399,-2.33895 -0.025,-0.008 -1.585,2.2419 -3.4422,4.98682 -3.911,5.78021 -4.1176,6.07675 -4.1484,6.04596 -0.07,-0.0703 0.8614,-1.71943 2.4272,-4.32485 0.6779,-1.12793 1.4069,-2.349 1.6108,-2.71406 0.5017,-0.89817 1.2086,-2.38765 1.4784,-3.08918 0.9478,-2.46452 1.0808,-4.55641 0.4193,-6.55347 -0.1922,-0.57993 -0.6546,-1.52486 -1.0151,-2.07417 -0.3574,-0.54463 -0.8931,-1.23215 -0.9488,-1.2136 -0.025,0.008 -1.0973,2.5409 -2.3831,5.62672 l -2.3389,5.60465 -3.2436,5.53846 c -3.244,5.54571 -3.3865,5.81485 -3.4202,5.78117 -0.027,-0.027 0.2695,-0.85805 0.5737,-1.61078 0.761,-1.883 1.5426,-3.38269 3.685,-7.06098 1.3682,-2.34919 1.9842,-3.44944 2.5375,-4.54551 1.7235,-3.41447 2.5533,-6.1704 2.7582,-9.17927 0.041,-0.61155 0.042,-0.90362 0,-1.30187 -0.2166,-2.07741 -0.948,-4.66455 -1.7211,-6.11216 -0.4492,-0.84106 -1.0307,-1.51293 -1.5446,-1.76525 -0.2326,-0.11418 -0.3098,-0.13239 -0.684,-0.13239 -0.3858,0 -0.4552,0.0162 -0.7503,0.15446 -0.72,0.33746 -0.9272,0.8668 -0.9267,2.22862 2e-4,0.73032 0.056,1.30129 0.2868,2.93472 l 0.1545,1.14741 -0.022,1.30187 c -0.025,1.29154 -0.043,1.70742 -0.1765,2.91265 -0.2931,2.65082 -1.0118,5.70018 -2.0742,8.93656 -0.4007,1.22089 -0.9933,2.92039 -1.0591,3.02298 -0.1538,0.2396 0.2256,-1.51148 0.9929,-4.65584 1.2586,-5.15685 1.5587,-6.99735 1.6108,-9.59852 0.036,-1.80008 -0.085,-3.04354 -0.4193,-4.50137 -0.2004,-0.87381 -0.2793,-1.10189 -0.5737,-1.69894 -0.8252,-1.67385 -2.2653,-3.44587 -3.4422,-4.21453 -0.6067,-0.39622 -1.1594,-0.56553 -1.6549,-0.52957 z" />
      <path
         id="path4323"
         transform="translate(1640.5564,364.34714)"
         d="m 33.71875,35.21875 c -0.4273,0.005 -0.89335,0.04905 -1.15625,0.09375 -1.6553,0.28098 -2.96865,0.88789 -3.65625,1.71875 -0.5384,0.65063 -0.67715,1.46364 -0.40625,2.25 0.036,0.10445 0.04925,0.20127 0.03125,0.21875 -0.017,0.0174 -1.63815,0.2005 -3.59375,0.40625 -1.5964,0.16794 -2.474,0.2789 -2.9375,0.34375 -0.063,0.009 -0.37855,0.0573 -0.40625,0.0625 -0.018,0.004 -0.2482,0.02945 -0.25,0.03125 0,0.004 -0.001,0.0445 0,0.0625 l 0,0.0625 c 0.018,0.14582 0.10345,0.44061 0.28125,1.0625 0.3147,1.10011 0.39235,1.34375 0.34375,1.34375 -0.011,0 -0.1969,-0.12223 -0.375,-0.25 -0.736,-0.52795 -1.409,-0.77904 -2.125,-0.8125 -0.7905,-0.0369 -1.28095,0.16869 -1.84375,0.71875 -0.012,0.0119 -0.01925,0.01915 -0.03125,0.03125 -0.2823,0.28266 -0.40875,0.40104 -0.59375,0.78125 -0.2696,0.55398 -0.4007,1.06564 -0.4375,1.71875 -0.043,0.76289 0.13395,1.71083 0.40625,2.34375 l 0.09375,0.21875 0.375,0 c 0.20997,0 0.268094,-0.01197 0.34375,-0.0625 0.016,-0.0107 0.0405,-0.005 0.0625,-0.03125 0.03,-0.0365 0.04325,-0.0625 0.03125,-0.0625 l 0.09375,-0.125 C 17.997833,47.30878 18.027017,47.304406 18.0625,47.25 18.4502,46.6559 19.1654,46.20607 20,46 c 0.568,-0.14022 1.6078,-0.1398 2.3125,0 2.5394,0.50375 4.43975,2.2153 4.34375,3.9375 -0.025,0.45922 -0.18665,0.77835 -0.59375,1.1875 -0.3394,0.34105 -0.8008,0.64676 -1.5625,1.0625 -0.2677,0.1461 -0.68885,0.37799 -0.96875,0.53125 -0.2798,0.15326 -0.70275,0.39651 -0.90625,0.53125 -0.4031,0.26698 -0.90625,0.70633 -0.90625,0.8125 0,0.0915 0.26995,0.1101 1.34375,0 0.4605,-0.0472 0.82185,-0.13084 1.21875,-0.1875 1.9254,-0.27486 3.21455,-0.65833 4.21875,-1.3125 0.9546,-0.62177 1.6681,-1.58616 1.9375,-2.625 0.044,-0.16861 0.0987,-0.28125 0.125,-0.28125 0.026,0 0.2003,0.07881 0.375,0.1875 1.1335,0.70542 2.06295,0.94647 2.84375,0.78125 0.6979,-0.14766 1.35955,-0.55999 2.59375,-1.625 0.3272,-0.28241 0.62785,-0.53125 0.65625,-0.53125 0.028,0 0.2743,0.57724 0.5625,1.25 0.2881,0.67276 0.55625,1.23626 0.59375,1.28125 0.066,0.0792 0.1381,0.08175 1.1875,-0.09375 0.5963,-0.0997 1.101,-0.19606 1.125,-0.21875 0.061,-0.0579 -0.1666,-0.85003 -0.375,-1.34375 -0.3357,-0.79556 -0.9291,-1.48735 -1.625,-1.9375 -0.417,-0.2698 -1.0541,-0.58342 -2.0625,-0.96875 -1.0978,-0.41951 -1.63705,-0.68335 -2.15625,-1.03125 -0.5144,-0.34465 -1.03195,-0.81589 -0.96875,-0.875 0.024,-0.0228 0.21155,-0.08869 0.40625,-0.15625 1.5508,-0.53813 2.6155,-1.54662 3.3125,-3.1875 0.2867,-0.67519 0.52145,-1.54452 0.90625,-3.25 0.1746,-0.77378 0.38405,-1.64329 0.46875,-1.9375 0.085,-0.29422 0.1379,-0.56014 0.125,-0.59375 0,-0.004 -0.0485,0.02805 -0.0625,0.03125 -0.1542,0.0335 -1.0251,0.44999 -3.1875,1.53125 -1.7796,0.88989 -3.25765,1.60158 -3.28125,1.59375 -0.024,-0.008 0.5365,-0.53209 1.25,-1.15625 0.7134,-0.62416 1.35145,-1.16713 1.40625,-1.21875 0.035,-0.0332 0.0475,-0.08137 0.0625,-0.125 0.022,-0.0654 0.03125,-0.1445 0.03125,-0.34375 0,-0.3678 -0.0056,-0.38772 -0.125,-0.4375 -0.097,-0.0403 -0.47905,-0.0677 -0.90625,-0.0625 z m -8,6.84375 c 0.111835,-0.01528 0.232762,-0.0045 0.34375,0 1.0349,0.0421 1.71875,0.9375 1.71875,0.9375 -2.2901,1.41225 -3.59375,-0.3125 -3.59375,-0.3125 0,0 0.748408,-0.518067 1.53125,-0.625 z"
         style="fill:#ffffff"
         inkscape:connector-curvature="0" />
      <path
         style="fill:#ffffff"
         id="path4223"
         inkscape:connector-curvature="0"
         d="m 1666.5925,413.19471 c -0.3511,0.0273 -1.0885,0.14815 -1.8756,0.30892 -3.5835,0.73195 -6.4507,1.99595 -8.1201,3.59669 -0.3374,0.32345 -0.7944,0.8612 -0.7944,0.92675 0,0.0148 0.014,0.0214 0.044,0.0221 0.13,0.003 10.7666,-2.96919 10.9004,-3.04505 -0.013,0 -2.394,0.65517 -5.2957,1.45633 -2.9017,0.80117 -5.3348,1.46054 -5.4061,1.47839 0,-0.003 -0.013,0.004 -0.022,0 -0.024,-0.01 -0.048,-0.006 -0.066,0 0.01,0.008 0.011,0.0234 0.044,0.0221 l -0.088,0.0221 0.044,-0.0441 0.066,-0.11033 c 0.01,0 0.044,-0.0218 0.066,-0.0441 l -0.1324,0.15446 0.1545,-0.0441 c 0.084,-0.0167 2.5,-0.68174 5.384,-1.47839 l 5.2516,-1.43426 c -4e-4,4.9e-4 3e-4,0.0221 0,0.0221 5e-4,-2.9e-4 0.044,2e-4 0.044,0 0.083,-0.0831 0.083,-1.7409 0,-1.80938 -0.016,-0.0134 -0.082,-0.009 -0.1986,0 z" />
      <path
         style="fill:#ffffff;fill-opacity:0.87843137"
         id="path4209"
         inkscape:connector-curvature="0"
         d="m 1647.0424,413.94494 c -0.5268,0.0328 -1.2058,0.19437 -1.6329,0.39718 -1.2187,0.57875 -1.9347,1.62915 -2.2727,3.28777 -0.1978,0.97056 -0.2312,1.50248 -0.2427,4.08213 -0.01,1.34575 -0.027,2.45421 -0.044,2.47134 -0.018,0.0172 -0.081,-0.0251 -0.1544,-0.11033 -0.2751,-0.31907 -0.6286,-0.88794 -1.1254,-1.87557 -0.1829,-0.36379 -0.3306,-0.60529 -0.4854,-0.88262 -0.083,-0.1494 -0.1992,-0.41949 -0.2427,-0.48544 -0.2696,-0.4084 -0.7662,-0.92187 -1.1033,-1.14741 -0.2883,-0.1929 -0.7232,-0.35305 -1.015,-0.35305 -0.8429,0 -1.5858,0.77209 -1.8094,1.87557 -0.2149,1.06052 0.2032,1.93993 1.0812,2.27275 0.1437,0.0545 0.3666,0.0798 0.7944,0.0883 0.3259,0.006 0.6228,0.0245 0.6399,0.0441 0.017,0.0196 0.088,0.20248 0.1544,0.39718 0.1954,0.56954 0.6692,1.50455 1.3902,2.71407 0.7618,1.27801 1.2482,2.20859 1.4563,2.78026 0.2231,0.61293 1.2698,4.65517 1.4122,5.45019 0.1238,0.69182 0.1561,1.32337 0.088,1.65492 -0.03,0.14602 -0.1665,0.56292 -0.3089,0.90469 -0.395,0.94819 -0.4248,1.30352 -0.1544,2.0521 0.5379,1.48916 1.4839,2.50085 2.8464,3.06711 0.3447,0.14325 0.4026,0.15156 0.4855,-0.0441 0.1855,-0.43841 0.4254,-1.39185 0.5075,-2.0521 0.1343,-1.08089 0.036,-1.84986 -0.5296,-4.34691 -0.2615,-1.15531 -0.467,-2.55961 -0.3751,-2.55961 0.021,3e-5 0.1927,0.1157 0.3751,0.26479 0.1824,0.14908 0.7861,0.63229 1.346,1.05914 1.4612,1.11402 1.6421,1.2649 3.3098,2.91266 0.6302,0.62268 1.0857,1.04259 1.4784,1.39013 0.781,0.69117 1.2479,0.98959 1.8977,1.2136 0.3501,0.1207 0.4947,0.15402 0.7943,0.15446 0.7314,7.1e-4 1.0647,-0.30484 1.1033,-1.01501 0.027,-0.5013 -0.1258,-1.07824 -0.5296,-1.89764 -0.3948,-0.80122 -0.7114,-1.2214 -1.3239,-1.80938 -0.7128,-0.68424 -1.3742,-1.16838 -3.5084,-2.53754 -1.8171,-1.16567 -2.6271,-1.76378 -3.3319,-2.47134 -0.929,-0.93252 -1.3235,-1.70619 -1.3681,-2.71406 -0.037,-0.8297 0.1697,-1.359 0.7061,-1.89764 0.5499,-0.55227 1.1568,-0.85963 2.9347,-1.47839 1.8785,-0.65377 2.579,-1.06453 2.8906,-1.69905 0.1085,-0.22086 0.1104,-0.29164 0.1103,-0.66197 -10e-5,-0.35587 2e-4,-0.44926 -0.088,-0.61784 -0.4093,-0.78024 -1.641,-1.25025 -3.6408,-1.36806 l -0.5075,-0.0221 -1.6991,1.69905 c -0.9337,0.93249 -1.7071,1.66895 -1.7211,1.65491 -0.014,-0.014 0.3925,-2.19138 0.9047,-4.85442 0.5121,-2.66303 0.9488,-4.87556 0.9488,-4.92062 0,-0.076 -0.041,-0.0911 -0.4413,-0.0662 z" />
    </g>
  </g>
</svg>
