<?xml version="1.0" encoding="UTF-8" standalone="no"?>
<!-- Created with Inkscape (http://www.inkscape.org/) -->

<svg
   xmlns:dc="http://purl.org/dc/elements/1.1/"
   xmlns:cc="http://creativecommons.org/ns#"
   xmlns:rdf="http://www.w3.org/1999/02/22-rdf-syntax-ns#"
   xmlns:svg="http://www.w3.org/2000/svg"
   xmlns="http://www.w3.org/2000/svg"
   xmlns:xlink="http://www.w3.org/1999/xlink"
   xmlns:sodipodi="http://sodipodi.sourceforge.net/DTD/sodipodi-0.dtd"
   xmlns:inkscape="http://www.inkscape.org/namespaces/inkscape"
   width="48"
   height="48"
   id="svg2"
   version="1.1"
   inkscape:version="0.48+devel r11556"
   sodipodi:docname="bug-buddy.svg">
  <defs
     id="defs4">
    <linearGradient
       y2="1049.5842"
       x2="24.113745"
       y1="1007.2183"
       x1="24.113745"
       gradientTransform="matrix(0.96799712,0,0,1.0252613,0.76812014,-25.977808)"
       gradientUnits="userSpaceOnUse"
       id="linearGradient3030"
       xlink:href="#linearGradient3795"
       inkscape:collect="always" />
    <linearGradient
       id="linearGradient3795">
      <stop
         style="stop-color:#ffffff;stop-opacity:1;"
         offset="0"
         id="stop3797" />
      <stop
         style="stop-color:#c8c8c8;stop-opacity:1;"
         offset="1"
         id="stop3799" />
    </linearGradient>
    <linearGradient
       y2="1049.5842"
       x2="24.113745"
       y1="1007.2183"
       x1="24.113745"
       gradientTransform="matrix(0.96799712,0,0,1.0252613,0.76812013,-25.978077)"
       gradientUnits="userSpaceOnUse"
       id="linearGradient3032"
       xlink:href="#linearGradient3795"
       inkscape:collect="always" />
  </defs>
  <sodipodi:namedview
     id="base"
     pagecolor="#ffffff"
     bordercolor="#666666"
     borderopacity="1.0"
     inkscape:pageopacity="0.0"
     inkscape:pageshadow="2"
     inkscape:zoom="17.509732"
     inkscape:cx="19.863254"
     inkscape:cy="30.27552"
     inkscape:document-units="px"
     inkscape:current-layer="layer1"
     showgrid="false"
     inkscape:window-width="1366"
     inkscape:window-height="750"
     inkscape:window-x="0"
     inkscape:window-y="0"
     inkscape:window-maximized="1" />
  <metadata
     id="metadata7">
    <rdf:RDF>
      <cc:Work
         rdf:about="">
        <dc:format>image/svg+xml</dc:format>
        <dc:type
           rdf:resource="http://purl.org/dc/dcmitype/StillImage" />
        <dc:title />
      </cc:Work>
    </rdf:RDF>
  </metadata>
  <g
     inkscape:label="Capa 1"
     inkscape:groupmode="layer"
     id="layer1"
     transform="translate(0,-1004.3622)">
    <path
       style="fill:url(#linearGradient3032);fill-opacity:1;stroke:#7d7d7d;stroke-width:0.39848712;stroke-miterlimit:4;stroke-opacity:1"
       d="m 7.3747792,1006.0615 33.2504418,0 c 3.144247,0 5.675535,2.5313 5.675535,5.6756 l 0,33.2504 c 0,3.1442 -2.531288,5.6755 -5.675535,5.6755 l -33.2504418,0 c -3.1442467,0 -5.6755357,-2.5313 -5.6755357,-5.6755 l 0,-33.2504 c 0,-3.1443 2.531289,-5.6756 5.6755357,-5.6756 z"
       id="rect2992" />
    <path
       transform="matrix(0.54498346,0.54498346,-0.54498346,0.54498346,33.987787,1015.6822)"
       style="fill:#ff7700;fill-opacity:1;stroke:none"
       inkscape:transform-center-y="-4.7397419"
       d="M 30.57948,18.778572 15.515641,33.842411 0.45180221,48.90625 -5.0619455,28.328664 -10.575693,7.7510771 10.001893,13.264825 z"
       id="path2985" />
    <g
       transform="scale(1.2007095,0.83284093)"
       style="font-size:33.31363678px;font-style:normal;font-variant:normal;font-weight:normal;font-stretch:normal;line-height:125%;letter-spacing:0px;word-spacing:0px;fill:#ffffff;fill-opacity:1;stroke:none;font-family:Decker;-inkscape-font-specification:Decker"
       id="text2989">
      <path
         d="m 21.248262,1243.5491 -2.309832,0 0,-17.5189 2.309832,0 0,17.5189 z m 0,6.165 -2.309832,0 0,-4.3269 2.309832,0 0,4.3269 z"
         style=""
         id="path20" />
    </g>
    <path
       style="fill:none;stroke:none"
       d="m 0.75172919,1004.3622 46.49654181,0 c 0.416458,0 0.751729,0.3353 0.751729,0.7517 l 0,46.4966 c 0,0.4164 -0.335271,0.7517 -0.751729,0.7517 l -46.49654181,0 C 0.33527122,1052.3622 0,1052.0269 0,1051.6105 l 0,-46.4966 c 0,-0.4164 0.33527122,-0.7517 0.75172919,-0.7517 z"
       id="rect2993" />
  </g>
</svg>
