<?xml version="1.0" encoding="UTF-8" standalone="no"?>
<!-- Created with Inkscape (http://www.inkscape.org/) -->

<svg
   xmlns:dc="http://purl.org/dc/elements/1.1/"
   xmlns:cc="http://creativecommons.org/ns#"
   xmlns:rdf="http://www.w3.org/1999/02/22-rdf-syntax-ns#"
   xmlns:svg="http://www.w3.org/2000/svg"
   xmlns="http://www.w3.org/2000/svg"
   xmlns:xlink="http://www.w3.org/1999/xlink"
   xmlns:sodipodi="http://sodipodi.sourceforge.net/DTD/sodipodi-0.dtd"
   xmlns:inkscape="http://www.inkscape.org/namespaces/inkscape"
   width="48"
   height="48"
   id="svg2"
   version="1.1"
   inkscape:version="0.48.3.1 r9886"
   sodipodi:docname="cheese.svg">
  <defs
     id="defs4">
    <linearGradient
       id="linearGradient3795">
      <stop
         style="stop-color:#ea9641;stop-opacity:1;"
         offset="0"
         id="stop3797" />
      <stop
         style="stop-color:#f3c947;stop-opacity:1;"
         offset="1"
         id="stop3799" />
    </linearGradient>
    <linearGradient
       id="linearGradient3698">
      <stop
         id="stop3700"
         offset="0"
         style="stop-color:#96d0e1;stop-opacity:1" />
      <stop
         style="stop-color:#89b7e1;stop-opacity:1"
         offset="0.67819428"
         id="stop3706" />
      <stop
         id="stop3702"
         offset="1"
         style="stop-color:#699dd3;stop-opacity:1" />
    </linearGradient>
    <linearGradient
       id="linearGradient3708">
      <stop
         id="stop3710"
         offset="0"
         style="stop-color:#658db6;stop-opacity:1" />
      <stop
         style="stop-color:#527fab;stop-opacity:1;"
         offset="0.76777935"
         id="stop3716" />
      <stop
         id="stop3712"
         offset="1"
         style="stop-color:#4071a0;stop-opacity:1" />
    </linearGradient>
    <linearGradient
       id="linearGradient3750">
      <stop
         style="stop-color:#d0e2f1;stop-opacity:1"
         offset="0"
         id="stop3752" />
      <stop
         id="stop3756"
         offset="0.85580856"
         style="stop-color:#cadef0;stop-opacity:1" />
      <stop
         style="stop-color:#95bee3;stop-opacity:1"
         offset="1"
         id="stop3754" />
    </linearGradient>
    <linearGradient
       id="linearGradient3803">
      <stop
         id="stop3805"
         offset="0"
         style="stop-color:#d7def0;stop-opacity:1;" />
      <stop
         style="stop-color:#ffffff;stop-opacity:1"
         offset="0.5"
         id="stop3811" />
      <stop
         id="stop3807"
         offset="1"
         style="stop-color:#d5def0;stop-opacity:1" />
    </linearGradient>
    <linearGradient
       inkscape:collect="always"
       xlink:href="#linearGradient3795"
       id="linearGradient3801"
       x1="23.204165"
       y1="1053.158"
       x2="23.204165"
       y2="1004.8474"
       gradientUnits="userSpaceOnUse" />
    <linearGradient
       inkscape:collect="always"
       xlink:href="#linearGradient3795"
       id="linearGradient3796"
       x1="31.9375"
       y1="1032.8384"
       x2="38.787598"
       y2="1020.9307"
       gradientUnits="userSpaceOnUse" />
    <linearGradient
       inkscape:collect="always"
       xlink:href="#linearGradient3795"
       id="linearGradient3832"
       gradientUnits="userSpaceOnUse"
       x1="21.424297"
       y1="4.1364279"
       x2="30.480757"
       y2="11.095446" />
    <linearGradient
       inkscape:collect="always"
       xlink:href="#linearGradient3795"
       id="linearGradient3834"
       gradientUnits="userSpaceOnUse"
       gradientTransform="matrix(1,0,0,0.7051282,0,1008.7244)"
       x1="24.6875"
       y1="14.6875"
       x2="29.625"
       y2="14.6875" />
    <linearGradient
       inkscape:collect="always"
       xlink:href="#linearGradient3795"
       id="linearGradient4082"
       gradientUnits="userSpaceOnUse"
       x1="21.424297"
       y1="4.1364279"
       x2="30.480757"
       y2="11.095446" />
    <linearGradient
       inkscape:collect="always"
       xlink:href="#linearGradient3795"
       id="linearGradient4084"
       gradientUnits="userSpaceOnUse"
       gradientTransform="matrix(1,0,0,0.7051282,0,1008.7244)"
       x1="24.6875"
       y1="14.6875"
       x2="29.625"
       y2="14.6875" />
    <linearGradient
       inkscape:collect="always"
       xlink:href="#linearGradient3795"
       id="linearGradient4090"
       gradientUnits="userSpaceOnUse"
       x1="21.424297"
       y1="4.1364279"
       x2="30.480757"
       y2="11.095446" />
    <linearGradient
       inkscape:collect="always"
       xlink:href="#linearGradient3795"
       id="linearGradient4092"
       gradientUnits="userSpaceOnUse"
       gradientTransform="matrix(1,0,0,0.7051282,0,1008.7244)"
       x1="24.6875"
       y1="14.6875"
       x2="29.625"
       y2="14.6875" />
    <linearGradient
       inkscape:collect="always"
       xlink:href="#linearGradient3795"
       id="linearGradient4095"
       gradientUnits="userSpaceOnUse"
       gradientTransform="matrix(1,0,0,0.7051282,-513.45427,887.43594)"
       x1="24.6875"
       y1="14.6875"
       x2="29.625"
       y2="14.6875" />
    <linearGradient
       inkscape:collect="always"
       xlink:href="#linearGradient3795"
       id="linearGradient4102"
       gradientUnits="userSpaceOnUse"
       gradientTransform="matrix(1,0,0,0.7051282,-513.45427,887.43594)"
       x1="24.6875"
       y1="14.6875"
       x2="29.625"
       y2="14.6875" />
    <linearGradient
       inkscape:collect="always"
       xlink:href="#linearGradient3795"
       id="linearGradient4104"
       gradientUnits="userSpaceOnUse"
       x1="21.424297"
       y1="4.1364279"
       x2="30.480757"
       y2="11.095446" />
    <linearGradient
       y2="1049.5842"
       x2="24.113745"
       y1="1007.2183"
       x1="24.113745"
       gradientTransform="matrix(0.96799712,0,0,1.0252613,0.76812014,-25.977808)"
       gradientUnits="userSpaceOnUse"
       id="linearGradient3030"
       xlink:href="#linearGradient3795-2"
       inkscape:collect="always" />
    <linearGradient
       id="linearGradient3795-2">
      <stop
         style="stop-color:#68b8d8;stop-opacity:1;"
         offset="0"
         id="stop3797-0" />
      <stop
         style="stop-color:#3097bd;stop-opacity:1;"
         offset="1"
         id="stop3799-0" />
    </linearGradient>
    <linearGradient
       y2="1049.5842"
       x2="24.113745"
       y1="1007.2183"
       x1="24.113745"
       gradientTransform="matrix(0.96799712,0,0,1.0252613,0.76811894,-2082.7024)"
       gradientUnits="userSpaceOnUse"
       id="linearGradient3202"
       xlink:href="#linearGradient3795"
       inkscape:collect="always" />
  </defs>
  <sodipodi:namedview
     id="base"
     pagecolor="#ffffff"
     bordercolor="#666666"
     borderopacity="1.0"
     inkscape:pageopacity="0.0"
     inkscape:pageshadow="2"
     inkscape:zoom="8.0000004"
     inkscape:cx="58.973048"
     inkscape:cy="9.4295105"
     inkscape:document-units="px"
     inkscape:current-layer="layer1"
     showgrid="false"
     inkscape:window-width="1776"
     inkscape:window-height="955"
     inkscape:window-x="0"
     inkscape:window-y="26"
     inkscape:window-maximized="1" />
  <metadata
     id="metadata7">
    <rdf:RDF>
      <cc:Work
         rdf:about="">
        <dc:format>image/svg+xml</dc:format>
        <dc:type
           rdf:resource="http://purl.org/dc/dcmitype/StillImage" />
        <dc:title />
      </cc:Work>
    </rdf:RDF>
  </metadata>
  <g
     inkscape:label="Capa 1"
     inkscape:groupmode="layer"
     id="layer1"
     transform="translate(0,-1004.3622)">
    <rect
       ry="5.6755357"
       y="-1050.663"
       x="1.6992435"
       height="44.601513"
       width="44.601513"
       id="rect2992"
       style="fill:url(#linearGradient3202);fill-opacity:1;stroke:#7d7d7d;stroke-width:0.39848712;stroke-miterlimit:4;stroke-opacity:1;stroke-dasharray:none"
       transform="scale(1,-1)" />
    <g
       id="g3801"
       transform="translate(-0.859375,0.421875)">
      <path
         id="path3019"
         transform="translate(0,1004.3622)"
         d="m 23.09375,16.84375 -1.9375,0.46875 c 0.07499,0.214602 0.15625,0.447312 0.15625,0.6875 0,1.147165 -0.946585,2.0625 -2.09375,2.0625 -1.036666,0 -1.875329,-0.757123 -2.03125,-1.75 l -6.28125,1.53125 27.90625,3.8125 -4.75,-2.0625 c -0.379799,0.415394 -0.924044,0.6875 -1.53125,0.6875 -1.147165,0 -2.09375,-0.946585 -2.09375,-2.09375 0,-0.05553 0.02697,-0.101814 0.03125,-0.15625 l -2.90625,-1.25 c 0.0015,0.03252 0,0.06085 0,0.09375 0,1.147165 -0.915335,2.09375 -2.0625,2.09375 -1.147165,0 -2.0625,-0.946585 -2.0625,-2.09375 0,-0.629542 0.276414,-1.181582 0.71875,-1.5625 l -1.0625,-0.46875 z"
         style="fill:#ffffff;stroke:none"
         inkscape:connector-curvature="0" />
      <path
         id="path3021"
         transform="translate(0,1004.3622)"
         d="m 10.96875,20.5 0,9.8125 2.25,0 c -1.69e-4,-0.01093 0,-0.02028 0,-0.03125 0,-1.147165 0.915335,-2.09375 2.0625,-2.09375 1.147165,0 2.09375,0.946585 2.09375,2.09375 0,0.01077 1.64e-4,0.02051 0,0.03125 l 3.71875,0 c -0.02376,-0.125713 -0.0625,-0.24238 -0.0625,-0.375 0,-1.147165 0.946585,-2.09375 2.09375,-2.09375 1.147165,0 2.0625,0.946585 2.0625,2.09375 0,0.13243 -0.0076,0.249456 -0.03125,0.375 l 5.46875,0 C 30.53667,30.081872 30.5,29.824197 30.5,29.5625 30.5,28.415335 31.415335,27.5 32.5625,27.5 c 1.147165,0 2.09375,0.915335 2.09375,2.0625 0,0.264298 -0.06624,0.517477 -0.15625,0.75 l 4.3125,0 0,-6.1875 L 10.96875,20.5 z m 7.3125,1.90625 c 1.147165,0 2.09375,0.946585 2.09375,2.09375 0,1.147165 -0.946585,2.0625 -2.09375,2.0625 -1.147165,0 -2.0625,-0.915335 -2.0625,-2.0625 0,-1.147165 0.915335,-2.09375 2.0625,-2.09375 z m 9.59375,0.4375 c 1.147165,0 2.09375,0.946585 2.09375,2.09375 0,1.147165 -0.946585,2.0625 -2.09375,2.0625 -1.147165,0 -2.0625,-0.915335 -2.0625,-2.0625 0,-1.147165 0.915335,-2.09375 2.0625,-2.09375 z"
         style="fill:#ffffff;stroke:none"
         inkscape:connector-curvature="0" />
    </g>
  </g>
</svg>
