<?xml version="1.0" encoding="UTF-8" standalone="no"?>
<!-- Created with Inkscape (http://www.inkscape.org/) -->

<svg
   xmlns:dc="http://purl.org/dc/elements/1.1/"
   xmlns:cc="http://creativecommons.org/ns#"
   xmlns:rdf="http://www.w3.org/1999/02/22-rdf-syntax-ns#"
   xmlns:svg="http://www.w3.org/2000/svg"
   xmlns="http://www.w3.org/2000/svg"
   xmlns:xlink="http://www.w3.org/1999/xlink"
   xmlns:sodipodi="http://sodipodi.sourceforge.net/DTD/sodipodi-0.dtd"
   xmlns:inkscape="http://www.inkscape.org/namespaces/inkscape"
   width="48"
   height="48"
   id="svg2"
   version="1.1"
   inkscape:version="0.48.3.1 r9886"
   sodipodi:docname="desura.svg">
  <defs
     id="defs4">
    <linearGradient
       id="linearGradient3795">
      <stop
         style="stop-color:#2497ea;stop-opacity:1;"
         offset="0"
         id="stop3797" />
      <stop
         style="stop-color:#116dad;stop-opacity:1;"
         offset="1"
         id="stop3799" />
    </linearGradient>
    <linearGradient
       id="linearGradient3698">
      <stop
         id="stop3700"
         offset="0"
         style="stop-color:#96d0e1;stop-opacity:1" />
      <stop
         style="stop-color:#89b7e1;stop-opacity:1"
         offset="0.67819428"
         id="stop3706" />
      <stop
         id="stop3702"
         offset="1"
         style="stop-color:#699dd3;stop-opacity:1" />
    </linearGradient>
    <linearGradient
       id="linearGradient3708">
      <stop
         id="stop3710"
         offset="0"
         style="stop-color:#658db6;stop-opacity:1" />
      <stop
         style="stop-color:#527fab;stop-opacity:1;"
         offset="0.76777935"
         id="stop3716" />
      <stop
         id="stop3712"
         offset="1"
         style="stop-color:#4071a0;stop-opacity:1" />
    </linearGradient>
    <linearGradient
       id="linearGradient3750">
      <stop
         style="stop-color:#d0e2f1;stop-opacity:1"
         offset="0"
         id="stop3752" />
      <stop
         id="stop3756"
         offset="0.85580856"
         style="stop-color:#cadef0;stop-opacity:1" />
      <stop
         style="stop-color:#95bee3;stop-opacity:1"
         offset="1"
         id="stop3754" />
    </linearGradient>
    <linearGradient
       id="linearGradient3803">
      <stop
         id="stop3805"
         offset="0"
         style="stop-color:#d7def0;stop-opacity:1;" />
      <stop
         style="stop-color:#ffffff;stop-opacity:1"
         offset="0.5"
         id="stop3811" />
      <stop
         id="stop3807"
         offset="1"
         style="stop-color:#d5def0;stop-opacity:1" />
    </linearGradient>
    <linearGradient
       inkscape:collect="always"
       xlink:href="#linearGradient3795"
       id="linearGradient3801"
       x1="23.204165"
       y1="1053.158"
       x2="23.204165"
       y2="1004.8474"
       gradientUnits="userSpaceOnUse"
       gradientTransform="translate(0,-2056.7244)" />
    <linearGradient
       inkscape:collect="always"
       xlink:href="#linearGradient3795"
       id="linearGradient3859"
       x1="26.192217"
       y1="1024.0002"
       x2="28.641211"
       y2="1024.0002"
       gradientUnits="userSpaceOnUse" />
    <linearGradient
       inkscape:collect="always"
       xlink:href="#linearGradient3795"
       id="linearGradient3867"
       gradientUnits="userSpaceOnUse"
       x1="26.192217"
       y1="1024.0002"
       x2="28.641211"
       y2="1024.0002" />
    <linearGradient
       inkscape:collect="always"
       xlink:href="#linearGradient3795"
       id="linearGradient3869"
       gradientUnits="userSpaceOnUse"
       x1="26.192217"
       y1="1024.0002"
       x2="28.641211"
       y2="1024.0002" />
    <linearGradient
       inkscape:collect="always"
       xlink:href="#linearGradient3795"
       id="linearGradient3871"
       gradientUnits="userSpaceOnUse"
       x1="26.192217"
       y1="1024.0002"
       x2="28.641211"
       y2="1024.0002" />
    <linearGradient
       inkscape:collect="always"
       xlink:href="#linearGradient3795"
       id="linearGradient3877"
       gradientUnits="userSpaceOnUse"
       x1="29.718235"
       y1="1027.8575"
       x2="22.811094"
       y2="1015.5485" />
    <linearGradient
       inkscape:collect="always"
       xlink:href="#linearGradient3795"
       id="linearGradient3879"
       gradientUnits="userSpaceOnUse"
       x1="17.196316"
       y1="1006.2238"
       x2="31.448042"
       y2="1030.9086" />
    <linearGradient
       inkscape:collect="always"
       xlink:href="#linearGradient3795"
       id="linearGradient3895"
       x1="21.973417"
       y1="34.43922"
       x2="42.475323"
       y2="24.798252"
       gradientUnits="userSpaceOnUse" />
    <linearGradient
       id="linearGradient3013">
      <stop
         style="stop-color:#60b5cc;stop-opacity:1;"
         offset="0"
         id="stop3015" />
      <stop
         style="stop-color:#ffffff;stop-opacity:1;"
         offset="1"
         id="stop3017" />
    </linearGradient>
    <linearGradient
       id="linearGradient3013-3">
      <stop
         style="stop-color:#414141;stop-opacity:0;"
         offset="0"
         id="stop3015-0" />
      <stop
         style="stop-color:#ffffff;stop-opacity:1;"
         offset="1"
         id="stop3017-7" />
    </linearGradient>
    <linearGradient
       inkscape:collect="always"
       xlink:href="#linearGradient3013-3"
       id="linearGradient6002"
       gradientUnits="userSpaceOnUse"
       gradientTransform="matrix(-1.001916,0,0,1,-560.92501,142.24199)"
       x1="136.74812"
       y1="89.953423"
       x2="175.71454"
       y2="165.946" />
    <linearGradient
       id="linearGradient3021">
      <stop
         style="stop-color:#60b5cc;stop-opacity:1;"
         offset="0"
         id="stop3023" />
      <stop
         style="stop-color:#ffffff;stop-opacity:1;"
         offset="1"
         id="stop3025" />
    </linearGradient>
    <linearGradient
       inkscape:collect="always"
       xlink:href="#linearGradient3013-3"
       id="linearGradient6004"
       gradientUnits="userSpaceOnUse"
       gradientTransform="matrix(1.001916,0,0,1,-927.00055,142.24199)"
       x1="136.74812"
       y1="89.953423"
       x2="175.71454"
       y2="165.946" />
    <linearGradient
       id="linearGradient3028">
      <stop
         style="stop-color:#60b5cc;stop-opacity:1;"
         offset="0"
         id="stop3030" />
      <stop
         style="stop-color:#ffffff;stop-opacity:1;"
         offset="1"
         id="stop3032" />
    </linearGradient>
    <linearGradient
       x1="116.29638"
       y1="32.374962"
       x2="116.29638"
       y2="226.17993"
       id="linearGradient2928"
       xlink:href="#linearGradient3202"
       gradientUnits="userSpaceOnUse"
       gradientTransform="matrix(0.32811093,0,0,0.34059034,6.3606404,3.973393)" />
    <linearGradient
       id="linearGradient3202">
      <stop
         id="stop3204"
         style="stop-color:#ffffff;stop-opacity:1"
         offset="0" />
      <stop
         id="stop3206"
         style="stop-color:#ced3d6;stop-opacity:1"
         offset="1" />
    </linearGradient>
    <linearGradient
       inkscape:collect="always"
       xlink:href="#linearGradient3899-9"
       id="linearGradient3075"
       gradientUnits="userSpaceOnUse"
       gradientTransform="matrix(0.0658217,0,0,0.0658217,13.852962,977.04244)"
       x1="251.56421"
       y1="625.38135"
       x2="251.56421"
       y2="989.64728" />
    <linearGradient
       id="linearGradient3899-9">
      <stop
         id="stop3901-3"
         style="stop-color:#fafafa;stop-opacity:1"
         offset="0" />
      <stop
         id="stop3903-0"
         style="stop-color:#e1e1e1;stop-opacity:1"
         offset="1" />
    </linearGradient>
    <linearGradient
       inkscape:collect="always"
       xlink:href="#linearGradient3795-4"
       id="linearGradient3150"
       gradientUnits="userSpaceOnUse"
       gradientTransform="matrix(0.96799712,0,0,1.0252613,0.76814895,-25.978139)"
       x1="24.113745"
       y1="1049.2139"
       x2="24.113745"
       y2="1007.5135" />
    <linearGradient
       id="linearGradient3795-4">
      <stop
         style="stop-color:#000000;stop-opacity:1;"
         offset="0"
         id="stop3797-4" />
      <stop
         style="stop-color:#6d6d6d;stop-opacity:1;"
         offset="1"
         id="stop3799-9" />
    </linearGradient>
    <linearGradient
       y2="1007.5135"
       x2="24.113745"
       y1="1049.2139"
       x1="24.113745"
       gradientTransform="matrix(0.96799712,0,0,1.0252613,0.76814892,-2082.7029)"
       gradientUnits="userSpaceOnUse"
       id="linearGradient3154"
       xlink:href="#linearGradient3795"
       inkscape:collect="always" />
  </defs>
  <sodipodi:namedview
     id="base"
     pagecolor="#ffffff"
     bordercolor="#666666"
     borderopacity="1.0"
     inkscape:pageopacity="0.0"
     inkscape:pageshadow="2"
     inkscape:zoom="5.6568545"
     inkscape:cx="14.038789"
     inkscape:cy="3.6117196"
     inkscape:document-units="px"
     inkscape:current-layer="layer1"
     showgrid="false"
     inkscape:window-width="888"
     inkscape:window-height="955"
     inkscape:window-x="0"
     inkscape:window-y="26"
     inkscape:window-maximized="0">
    <inkscape:grid
       type="xygrid"
       id="grid3850" />
  </sodipodi:namedview>
  <metadata
     id="metadata7">
    <rdf:RDF>
      <cc:Work
         rdf:about="">
        <dc:format>image/svg+xml</dc:format>
        <dc:type
           rdf:resource="http://purl.org/dc/dcmitype/StillImage" />
        <dc:title />
      </cc:Work>
    </rdf:RDF>
  </metadata>
  <g
     inkscape:label="Capa 1"
     inkscape:groupmode="layer"
     id="layer1"
     transform="translate(0,-1004.3622)">
    <rect
       style="fill:url(#linearGradient3154);fill-opacity:1;stroke:#7d7d7d;stroke-width:0.39848712;stroke-miterlimit:4;stroke-opacity:1;stroke-dasharray:none"
       id="rect2992"
       width="44.601513"
       height="44.601513"
       x="1.6992435"
       y="-1050.6631"
       ry="5.6755357"
       transform="scale(1,-1)" />
    <path
       style="fill:#ffffff;fill-opacity:1;display:inline"
       id="path3033"
       inkscape:connector-curvature="0"
       d="m 24.014802,1018.0334 c -0.02366,-0.01 -1.124625,0.9145 -2.449641,2.066 -1.919139,1.6678 -2.445291,2.0959 -2.567695,2.0955 -0.0845,-2e-4 -1.445403,-0.1279 -3.039915,-0.2952 -1.594511,-0.1672 -2.909081,-0.2931 -2.921859,-0.2803 -0.02513,0.025 -2.227428,7.3079 -2.257801,7.467 -0.01304,0.069 0.868568,0.8501 3.025158,2.6857 l 3.039914,2.5824 1.092009,0 c 0.598406,0 1.197516,-0.024 1.342874,-0.044 l 0.265624,-0.029 -3.20224,-2.6562 c -1.762395,-1.4576 -3.200493,-2.6851 -3.202241,-2.7301 -0.0019,-0.045 0.297778,-0.9889 0.66406,-2.1102 0.366282,-1.1212 0.730911,-2.2832 0.826385,-2.5824 0.172279,-0.5399 0.176803,-0.5481 0.354164,-0.546 0.0983,0 1.265643,0.1316 2.582452,0.2951 l 2.390613,0.2952 1.874122,-1.6085 c 1.03079,-0.8905 1.941134,-1.6821 2.021691,-1.7561 l 0.147568,-0.1328 1.475687,1.269 c 0.80938,0.7004 1.714814,1.4921 2.021691,1.7562 l 0.560761,0.4722 2.552938,-0.31 c 1.405949,-0.1736 2.558657,-0.3119 2.567694,-0.2951 0.02881,0.053 1.711798,5.2331 1.711798,5.2683 0,0.019 -1.448369,1.2334 -3.216997,2.7004 l -3.216998,2.671 0.280381,0.029 c 0.149859,0.02 0.752652,0.042 1.342874,0.044 l 1.077252,0.014 3.025158,-2.5825 c 1.665311,-1.4154 3.031443,-2.5919 3.039914,-2.6267 0.01271,-0.052 -2.203084,-7.5155 -2.243044,-7.5555 -0.0069,-0.01 -1.327154,0.1264 -2.936616,0.2952 -1.609462,0.1687 -2.98697,0.3037 -3.069428,0.2951 -0.105607,-0.011 -0.863549,-0.6266 -2.538181,-2.0807 -1.307614,-1.1354 -2.396474,-2.0724 -2.420126,-2.0807 z m -0.02952,4.5009 -1.357631,1.3724 -1.342875,1.3871 0,1.1954 c -0.0042,1.8776 0.211965,3.4714 0.649302,4.8254 0.402067,1.245 0.870967,2.0804 1.578985,2.7891 0.237597,0.2378 0.444958,0.4279 0.472219,0.4279 0.10965,0 0.678071,-0.5601 0.973954,-0.9591 0.440095,-0.5937 0.809531,-1.3227 1.092008,-2.1841 0.458422,-1.398 0.637822,-2.6169 0.678816,-4.6336 l 0.02952,-1.461 -1.387145,-1.3871 -1.387146,-1.3724 z m 8.322874,2.8038 c -0.01388,-0.014 -0.802655,0.068 -1.756067,0.1771 -0.953412,0.1089 -1.768185,0.2066 -1.800338,0.2066 -0.03773,0 -0.05903,0.2567 -0.05903,0.7231 0,2.4575 -0.884302,5.4199 -2.198773,7.3784 -0.304515,0.4537 -0.334096,0.5394 -0.206596,0.4575 0.851341,-0.5471 6.916546,-5.6778 6.891457,-5.829 -0.02753,-0.166 -0.844688,-3.0877 -0.870655,-3.1137 z m -16.616233,0.029 c -0.02285,0.024 -0.223785,0.7492 -0.457463,1.6084 l -0.427949,1.5496 0.147569,0.1475 c 1.42438,1.2472 5.333273,4.5208 6.256912,5.2387 0.320462,0.249 0.595941,0.437 0.605031,0.428 0.0091,-0.01 -0.138908,-0.2562 -0.339408,-0.5608 -1.287493,-1.9563 -2.059653,-4.5236 -2.184016,-7.2604 -0.02017,-0.4438 -0.05568,-0.7969 -0.07378,-0.7969 -0.01809,0 -0.807543,-0.098 -1.756067,-0.2066 -0.948525,-0.1087 -1.747955,-0.172 -1.770824,-0.1475 z m 5.120633,10.0642 -3.216997,0.014 3.202241,1.6379 c 1.755103,0.8959 3.200502,1.6144 3.216997,1.6085 0.01648,-0.01 1.464287,-0.7332 3.216997,-1.6232 l 3.187483,-1.6232 -3.20224,-0.014 c -1.761531,-0.01 -4.641704,-0.01 -6.404481,0 z" />
  </g>
</svg>
