<?xml version="1.0" encoding="UTF-8" standalone="no"?>
<!-- Created with Inkscape (http://www.inkscape.org/) -->

<svg
   xmlns:dc="http://purl.org/dc/elements/1.1/"
   xmlns:cc="http://creativecommons.org/ns#"
   xmlns:rdf="http://www.w3.org/1999/02/22-rdf-syntax-ns#"
   xmlns:svg="http://www.w3.org/2000/svg"
   xmlns="http://www.w3.org/2000/svg"
   xmlns:xlink="http://www.w3.org/1999/xlink"
   xmlns:sodipodi="http://sodipodi.sourceforge.net/DTD/sodipodi-0.dtd"
   xmlns:inkscape="http://www.inkscape.org/namespaces/inkscape"
   width="48"
   height="48"
   id="svg2"
   version="1.1"
   inkscape:version="0.48+devel r11752"
   sodipodi:docname="alacarte.svg">
  <defs
     id="defs4">
    <linearGradient
       id="linearGradient3795">
      <stop
         style="stop-color:#68b8d8;stop-opacity:1;"
         offset="0"
         id="stop3797" />
      <stop
         style="stop-color:#3097bd;stop-opacity:1;"
         offset="1"
         id="stop3799" />
    </linearGradient>
    <linearGradient
       id="linearGradient3698">
      <stop
         style="stop-color:#030303;stop-opacity:1;"
         offset="0"
         id="stop3706" />
      <stop
         id="stop3702"
         offset="1"
         style="stop-color:#b3b3b3;stop-opacity:1;" />
    </linearGradient>
    <linearGradient
       id="linearGradient3708">
      <stop
         id="stop3710"
         offset="0"
         style="stop-color:#658db6;stop-opacity:1" />
      <stop
         style="stop-color:#527fab;stop-opacity:1;"
         offset="0.76777935"
         id="stop3716" />
      <stop
         id="stop3712"
         offset="1"
         style="stop-color:#4071a0;stop-opacity:1" />
    </linearGradient>
    <linearGradient
       id="linearGradient3750">
      <stop
         style="stop-color:#d0e2f1;stop-opacity:1"
         offset="0"
         id="stop3752" />
      <stop
         id="stop3756"
         offset="0.85580856"
         style="stop-color:#cadef0;stop-opacity:1" />
      <stop
         style="stop-color:#95bee3;stop-opacity:1"
         offset="1"
         id="stop3754" />
    </linearGradient>
    <linearGradient
       id="linearGradient3803">
      <stop
         id="stop3805"
         offset="0"
         style="stop-color:#d7def0;stop-opacity:1;" />
      <stop
         style="stop-color:#ffffff;stop-opacity:1"
         offset="0.5"
         id="stop3811" />
      <stop
         id="stop3807"
         offset="1"
         style="stop-color:#d5def0;stop-opacity:1" />
    </linearGradient>
    <linearGradient
       inkscape:collect="always"
       xlink:href="#linearGradient3795"
       id="linearGradient3801"
       x1="23.204165"
       y1="1053.158"
       x2="23.204165"
       y2="1004.8474"
       gradientUnits="userSpaceOnUse"
       gradientTransform="translate(0,-2056.7244)" />
    <linearGradient
       inkscape:collect="always"
       xlink:href="#linearGradient3795"
       id="linearGradient3859"
       x1="26.192217"
       y1="1024.0002"
       x2="28.641211"
       y2="1024.0002"
       gradientUnits="userSpaceOnUse" />
    <linearGradient
       inkscape:collect="always"
       xlink:href="#linearGradient3795"
       id="linearGradient3867"
       gradientUnits="userSpaceOnUse"
       x1="26.192217"
       y1="1024.0002"
       x2="28.641211"
       y2="1024.0002" />
    <linearGradient
       inkscape:collect="always"
       xlink:href="#linearGradient3795"
       id="linearGradient3869"
       gradientUnits="userSpaceOnUse"
       x1="26.192217"
       y1="1024.0002"
       x2="28.641211"
       y2="1024.0002" />
    <linearGradient
       inkscape:collect="always"
       xlink:href="#linearGradient3795"
       id="linearGradient3871"
       gradientUnits="userSpaceOnUse"
       x1="26.192217"
       y1="1024.0002"
       x2="28.641211"
       y2="1024.0002" />
    <linearGradient
       inkscape:collect="always"
       xlink:href="#linearGradient3795"
       id="linearGradient3877"
       gradientUnits="userSpaceOnUse"
       x1="29.718235"
       y1="1027.8575"
       x2="22.811094"
       y2="1015.5485" />
    <linearGradient
       inkscape:collect="always"
       xlink:href="#linearGradient3795"
       id="linearGradient3879"
       gradientUnits="userSpaceOnUse"
       x1="17.196316"
       y1="1006.2238"
       x2="31.448042"
       y2="1030.9086" />
    <linearGradient
       inkscape:collect="always"
       xlink:href="#linearGradient3795"
       id="linearGradient3895"
       x1="21.973417"
       y1="34.43922"
       x2="42.475323"
       y2="24.798252"
       gradientUnits="userSpaceOnUse" />
    <linearGradient
       inkscape:collect="always"
       xlink:href="#linearGradient3698"
       id="linearGradient3828"
       x1="29.543879"
       y1="1025.3817"
       x2="31.992247"
       y2="1025.3817"
       gradientUnits="userSpaceOnUse" />
    <linearGradient
       y2="1049.5842"
       x2="24.113745"
       y1="1007.2183"
       x1="24.113745"
       gradientTransform="matrix(0.96799712,0,0,1.0252613,0.76812014,-25.977808)"
       gradientUnits="userSpaceOnUse"
       id="linearGradient3030"
       xlink:href="#linearGradient3795-4"
       inkscape:collect="always" />
    <linearGradient
       id="linearGradient3795-4">
      <stop
         style="stop-color:#68b8d8;stop-opacity:1;"
         offset="0"
         id="stop3797-8" />
      <stop
         style="stop-color:#3097bd;stop-opacity:1;"
         offset="1"
         id="stop3799-9" />
    </linearGradient>
    <linearGradient
       y2="1049.5842"
       x2="24.113745"
       y1="1007.2183"
       x1="24.113745"
       gradientTransform="matrix(0.96799712,0,0,1.0252613,0.76811992,-25.977976)"
       gradientUnits="userSpaceOnUse"
       id="linearGradient3202"
       xlink:href="#linearGradient3795-4"
       inkscape:collect="always" />
    <linearGradient
       inkscape:collect="always"
       xlink:href="#linearGradient1000"
       id="linearGradient998"
       x1="81.95549"
       y1="1026.1257"
       x2="81.95549"
       y2="1029.7507"
       gradientUnits="userSpaceOnUse"
       gradientTransform="matrix(1.2039947,0,0,1,-76.49692,-9.8749997)" />
    <linearGradient
       id="linearGradient1000">
      <stop
         id="stop1002"
         offset="0"
         style="stop-color:#8bc9e1;stop-opacity:1" />
      <stop
         id="stop1004"
         offset="1"
         style="stop-color:#3085bd;stop-opacity:1" />
    </linearGradient>
    <linearGradient
       inkscape:collect="always"
       xlink:href="#linearGradient1000"
       id="linearGradient1008"
       gradientUnits="userSpaceOnUse"
       gradientTransform="matrix(0.67342231,0,0,0.76732374,-18.516139,233.11591)"
       x1="81.95549"
       y1="1026.1257"
       x2="81.95549"
       y2="1029.7507" />
    <linearGradient
       id="linearGradient1093">
      <stop
         id="stop1095"
         offset="0"
         style="stop-color:#8bc9e1;stop-opacity:1" />
      <stop
         id="stop1097"
         offset="1"
         style="stop-color:#3085bd;stop-opacity:1" />
    </linearGradient>
    <radialGradient
       inkscape:collect="always"
       xlink:href="#linearGradient1026"
       id="radialGradient1024"
       cx="20.064156"
       cy="1039.6888"
       fx="20.064156"
       fy="1039.6888"
       r="12.993087"
       gradientTransform="matrix(1,0,0,0.01621693,0,1022.8283)"
       gradientUnits="userSpaceOnUse" />
    <linearGradient
       id="linearGradient1026">
      <stop
         id="stop1028"
         offset="0"
         style="stop-color:#030303;stop-opacity:1;" />
      <stop
         style="stop-color:#b3b3b3;stop-opacity:0"
         offset="1"
         id="stop1030" />
    </linearGradient>
    <radialGradient
       inkscape:collect="always"
       xlink:href="#linearGradient1026"
       id="radialGradient1036"
       gradientUnits="userSpaceOnUse"
       gradientTransform="matrix(1,0,0,0.01621693,0,-1029.6232)"
       cx="20.064156"
       cy="1039.6888"
       fx="20.064156"
       fy="1039.6888"
       r="12.993087" />
    <linearGradient
       id="linearGradient1104">
      <stop
         id="stop1106"
         offset="0"
         style="stop-color:#030303;stop-opacity:1;" />
      <stop
         style="stop-color:#b3b3b3;stop-opacity:0"
         offset="1"
         id="stop1108" />
    </linearGradient>
  </defs>
  <sodipodi:namedview
     id="base"
     pagecolor="#ffffff"
     bordercolor="#666666"
     borderopacity="1.0"
     inkscape:pageopacity="0.0"
     inkscape:pageshadow="2"
     inkscape:zoom="4.0000002"
     inkscape:cx="-23.444066"
     inkscape:cy="56.327109"
     inkscape:document-units="px"
     inkscape:current-layer="layer1"
     showgrid="false"
     inkscape:window-width="1366"
     inkscape:window-height="711"
     inkscape:window-x="0"
     inkscape:window-y="0"
     inkscape:window-maximized="1">
    <inkscape:grid
       type="xygrid"
       id="grid3850" />
  </sodipodi:namedview>
  <metadata
     id="metadata7">
    <rdf:RDF>
      <cc:Work
         rdf:about="">
        <dc:format>image/svg+xml</dc:format>
        <dc:type
           rdf:resource="http://purl.org/dc/dcmitype/StillImage" />
        <dc:title />
      </cc:Work>
    </rdf:RDF>
  </metadata>
  <g
     inkscape:label="Capa 1"
     inkscape:groupmode="layer"
     id="layer1"
     transform="translate(0,-1004.3622)">
    <rect
       ry="5.6755357"
       y="1006.0615"
       x="1.6992435"
       height="44.601513"
       width="44.601513"
       id="rect2992"
       style="fill:url(#linearGradient3202);fill-opacity:1;stroke:#7d7d7d;stroke-width:0.39848712;stroke-miterlimit:4;stroke-opacity:1;stroke-dasharray:none" />
    <g
       id="g1055"
       transform="matrix(0.83280235,0,0,0.83280235,3.1683667,173.74107)">
      <rect
         ry="0"
         y="1010.2894"
         x="7.0710678"
         height="31.819805"
         width="25.986174"
         id="rect943"
         style="fill:#ffffff;fill-opacity:1;fill-rule:nonzero;stroke:none" />
      <rect
         ry="0"
         y="1016.2214"
         x="7.1271234"
         height="4.5585232"
         width="25.874062"
         id="rect881"
         style="fill:url(#linearGradient998);fill-opacity:1;fill-rule:nonzero;stroke:none" />
      <rect
         style="opacity:0.15199998;fill:#000000;fill-opacity:1;fill-rule:nonzero;stroke:none"
         id="rect945"
         width="15.202795"
         height="18.615669"
         x="27.753939"
         y="1013.9476"
         ry="0" />
      <rect
         ry="0"
         y="1014.111"
         x="28.162271"
         height="17.952122"
         width="14.660897"
         id="rect949"
         style="fill:#ffffff;fill-opacity:1;fill-rule:nonzero;stroke:none" />
      <rect
         style="fill:url(#linearGradient1008);fill-opacity:1;fill-rule:nonzero;stroke:none"
         id="rect1006"
         width="14.471966"
         height="3.4978631"
         x="28.256737"
         y="1020.464"
         ry="0" />
      <path
         inkscape:transform-center-y="0.19424091"
         transform="matrix(0.94139,0,0,0.54821441,2.9233271,1021.6431)"
         d="M 18.207998,36.423885 16.980864,34.298426 19.435133,34.298426 Z"
         inkscape:randomized="0"
         inkscape:rounded="0"
         inkscape:flatsided="true"
         sodipodi:arg2="2.6179939"
         sodipodi:arg1="1.5707963"
         sodipodi:r2="0.7084865"
         sodipodi:r1="1.416973"
         sodipodi:cy="35.006912"
         sodipodi:cx="18.207998"
         sodipodi:sides="3"
         id="path1010"
         style="fill:#4d4d4d;fill-opacity:1;fill-rule:nonzero;stroke:none"
         sodipodi:type="star" />
      <rect
         style="opacity:0.228;fill:url(#radialGradient1024);fill-opacity:1;fill-rule:nonzero;stroke:none"
         id="rect1012"
         width="25.986174"
         height="0.42141587"
         x="7.0710678"
         y="1039.4781"
         ry="0" />
      <path
         sodipodi:type="star"
         style="fill:#4d4d4d;fill-opacity:1;fill-rule:nonzero;stroke:none"
         id="path1032"
         sodipodi:sides="3"
         sodipodi:cx="18.207998"
         sodipodi:cy="35.006912"
         sodipodi:r1="1.416973"
         sodipodi:r2="0.7084865"
         sodipodi:arg1="1.5707963"
         sodipodi:arg2="2.6179939"
         inkscape:flatsided="true"
         inkscape:rounded="0"
         inkscape:randomized="0"
         d="M 18.207998,36.423885 16.980864,34.298426 19.435133,34.298426 Z"
         transform="matrix(0.94139,0,0,-0.54821441,2.9233271,1030.8084)"
         inkscape:transform-center-y="-0.19428907" />
      <rect
         transform="scale(1,-1)"
         ry="0"
         y="-1012.9734"
         x="7.0710678"
         height="0.42141587"
         width="25.986174"
         id="rect1034"
         style="opacity:0.228;fill:url(#radialGradient1036);fill-opacity:1;fill-rule:nonzero;stroke:none" />
      <g
         transform="matrix(-0.42437978,0.73504734,-0.73504734,-0.42437978,637.48599,895.30995)"
         id="g906">
        <rect
           y="-518.4903"
           x="552.13666"
           height="3.1899769"
           width="6.1649737"
           id="rect4290"
           style="fill:#ffd5d5;fill-opacity:1;stroke:none"
           transform="matrix(0,1,-1,0,0,0)" />
        <rect
           style="fill:#cccccc;fill-opacity:1;stroke:none"
           id="rect4284"
           width="6.1649737"
           height="3.1899769"
           x="552.13666"
           y="-514.75507"
           transform="matrix(0,1,-1,0,0,0)" />
        <path
           style="fill:#ffb400;fill-opacity:1;stroke:none"
           d="m 511.08392,552.14767 -14.98182,0 1.5026,1.45841 -1.5026,1.59099 0,0.0442 1.5026,1.45841 -1.5026,1.59099 14.98182,0 L 511.08392,552.14767 Z"
           id="rect4274"
           inkscape:connector-curvature="0" />
        <path
           style="fill:#ffccaa;fill-opacity:1;stroke:none"
           d="m 496.97335,553.60608 -1.5026,-1.45841 -3.22617,1.85615 0,2.43068 3.22617,1.85616 1.5026,-1.59099 -1.5247,-1.48051 L 496.97335,553.60608 Z"
           id="path4255"
           inkscape:connector-curvature="0" />
        <path
           sodipodi:type="star"
           style="fill:#4d4d4d;fill-opacity:1;stroke:none"
           id="path4253"
           sodipodi:sides="3"
           sodipodi:cx="6.8942909"
           sodipodi:cy="30.145554"
           sodipodi:r1="4.5500689"
           sodipodi:r2="2.2750342"
           sodipodi:arg1="-0.52359878"
           sodipodi:arg2="0.52359878"
           inkscape:flatsided="true"
           inkscape:rounded="0"
           inkscape:randomized="0"
           d="M 10.834766,27.870519 6.8942909,34.695622 2.9538157,27.870519 Z"
           transform="matrix(0,0.31284416,-0.31284416,0,500.58484,553.06233)"
           inkscape:transform-center-y="0.34864236"
           inkscape:transform-center-x="0.96501985" />
      </g>
    </g>
  </g>
</svg>
