<?xml version="1.0" encoding="UTF-8" standalone="no"?>
<!-- Created with Inkscape (http://www.inkscape.org/) -->

<svg
   xmlns:dc="http://purl.org/dc/elements/1.1/"
   xmlns:cc="http://creativecommons.org/ns#"
   xmlns:rdf="http://www.w3.org/1999/02/22-rdf-syntax-ns#"
   xmlns:svg="http://www.w3.org/2000/svg"
   xmlns="http://www.w3.org/2000/svg"
   xmlns:xlink="http://www.w3.org/1999/xlink"
   xmlns:sodipodi="http://sodipodi.sourceforge.net/DTD/sodipodi-0.dtd"
   xmlns:inkscape="http://www.inkscape.org/namespaces/inkscape"
   width="48"
   height="48"
   id="svg2"
   version="1.1"
   inkscape:version="0.48+devel r11521"
   sodipodi:docname="easytag.svg">
  <defs
     id="defs4">
    <linearGradient
       inkscape:collect="always"
       id="linearGradient850">
      <stop
         style="stop-color:#909090;stop-opacity:1"
         offset="0"
         id="stop852" />
      <stop
         style="stop-color:#dedede;stop-opacity:1"
         offset="1"
         id="stop854" />
    </linearGradient>
    <linearGradient
       id="linearGradient3795">
      <stop
         style="stop-color:#b5b5b5;stop-opacity:1"
         offset="0"
         id="stop3797" />
      <stop
         style="stop-color:#e5e5e5;stop-opacity:1"
         offset="1"
         id="stop3799" />
    </linearGradient>
    <linearGradient
       inkscape:collect="always"
       id="linearGradient3914">
      <stop
         style="stop-color:#59b3e1;stop-opacity:1;"
         offset="0"
         id="stop3916" />
      <stop
         style="stop-color:#59b3e1;stop-opacity:0;"
         offset="1"
         id="stop3918" />
    </linearGradient>
    <linearGradient
       id="linearGradient3698">
      <stop
         id="stop3700"
         offset="0"
         style="stop-color:#96d0e1;stop-opacity:1" />
      <stop
         style="stop-color:#89b7e1;stop-opacity:1"
         offset="0.67819428"
         id="stop3706" />
      <stop
         id="stop3702"
         offset="1"
         style="stop-color:#699dd3;stop-opacity:1" />
    </linearGradient>
    <linearGradient
       id="linearGradient3708">
      <stop
         id="stop3710"
         offset="0"
         style="stop-color:#658db6;stop-opacity:1" />
      <stop
         style="stop-color:#527fab;stop-opacity:1;"
         offset="0.76777935"
         id="stop3716" />
      <stop
         id="stop3712"
         offset="1"
         style="stop-color:#4071a0;stop-opacity:1" />
    </linearGradient>
    <linearGradient
       id="linearGradient3750">
      <stop
         style="stop-color:#d0e2f1;stop-opacity:1"
         offset="0"
         id="stop3752" />
      <stop
         id="stop3756"
         offset="0.85580856"
         style="stop-color:#cadef0;stop-opacity:1" />
      <stop
         style="stop-color:#95bee3;stop-opacity:1"
         offset="1"
         id="stop3754" />
    </linearGradient>
    <linearGradient
       id="linearGradient3803">
      <stop
         id="stop3805"
         offset="0"
         style="stop-color:#d7def0;stop-opacity:1;" />
      <stop
         style="stop-color:#ffffff;stop-opacity:1"
         offset="0.5"
         id="stop3811" />
      <stop
         id="stop3807"
         offset="1"
         style="stop-color:#d5def0;stop-opacity:1" />
    </linearGradient>
    <linearGradient
       inkscape:collect="always"
       xlink:href="#linearGradient3914"
       id="linearGradient3920"
       x1="6.8000002"
       y1="25.0625"
       x2="45.325001"
       y2="25.0625"
       gradientUnits="userSpaceOnUse" />
    <linearGradient
       inkscape:collect="always"
       xlink:href="#linearGradient850"
       id="linearGradient856"
       x1="-84.975601"
       y1="1049.457"
       x2="-84.975601"
       y2="1015.0739"
       gradientUnits="userSpaceOnUse"
       gradientTransform="matrix(0.65729773,-0.37949102,0.37949102,0.65729773,-310.3308,322.01962)" />
    <linearGradient
       y2="1007.5135"
       x2="24.113745"
       y1="1049.2139"
       x1="24.113745"
       gradientTransform="matrix(0.96799712,0,0,1.0252613,0.76814969,-2082.7028)"
       gradientUnits="userSpaceOnUse"
       id="linearGradient3205"
       xlink:href="#linearGradient3795-4"
       inkscape:collect="always" />
    <linearGradient
       id="linearGradient3795-4">
      <stop
         style="stop-color:#90d5ee;stop-opacity:1;"
         offset="0"
         id="stop3797-1" />
      <stop
         style="stop-color:#3094bd;stop-opacity:1;"
         offset="1"
         id="stop3799-1" />
    </linearGradient>
    <linearGradient
       y2="1007.5135"
       x2="24.113745"
       y1="1049.2139"
       x1="24.113745"
       gradientTransform="matrix(0.96799712,0,0,1.0252613,0.76814971,-25.978265)"
       gradientUnits="userSpaceOnUse"
       id="linearGradient74"
       xlink:href="#linearGradient3795"
       inkscape:collect="always" />
  </defs>
  <sodipodi:namedview
     id="base"
     pagecolor="#ffffff"
     bordercolor="#666666"
     borderopacity="1.0"
     inkscape:pageopacity="0.0"
     inkscape:pageshadow="2"
     inkscape:zoom="6.492308"
     inkscape:cx="53.639261"
     inkscape:cy="36.281774"
     inkscape:document-units="px"
     inkscape:current-layer="layer1"
     showgrid="false"
     inkscape:window-width="1920"
     inkscape:window-height="1035"
     inkscape:window-x="0"
     inkscape:window-y="26"
     inkscape:window-maximized="1" />
  <metadata
     id="metadata7">
    <rdf:RDF>
      <cc:Work
         rdf:about="">
        <dc:format>image/svg+xml</dc:format>
        <dc:type
           rdf:resource="http://purl.org/dc/dcmitype/StillImage" />
        <dc:title />
      </cc:Work>
    </rdf:RDF>
  </metadata>
  <g
     inkscape:label="Capa 1"
     inkscape:groupmode="layer"
     id="layer1"
     transform="translate(0,-1004.3622)">
    <rect
       style="fill:url(#linearGradient74);fill-opacity:1;stroke:#7d7d7d;stroke-width:0.39848712;stroke-miterlimit:4;stroke-opacity:1;stroke-dasharray:none"
       id="rect2992"
       width="44.601513"
       height="44.601513"
       x="1.6992435"
       y="1006.0615"
       ry="5.6755357" />
    <path
       inkscape:connector-curvature="0"
       style="fill:#000000;fill-opacity:1;stroke:none"
       d="m 9.9412801,1027.0256 c -1.3518116,0.7804 -1.8135629,2.5037 -1.0330937,3.8555 l 5.2298606,9.0584 c 0.780469,1.3518 2.503747,1.8136 3.855558,1.0331 l 6.511356,-3.7593 11.153521,-6.4395 1.86919,-1.0792 c 0.970723,-0.5604 1.449003,-1.6096 1.37088,-2.6538 0.865788,-2.1123 0.778336,-4.5814 -0.456499,-6.7202 l -0.40321,-0.6984 c -1.23573,-2.1404 -3.327561,-3.4504 -5.591638,-3.7555 -0.86522,-0.5897 -2.001135,-0.6796 -2.971858,-0.1191 l -1.86919,1.0792 -11.153521,6.4394 -6.5113559,3.7594 z m 22.8101269,-6.2678 c 0.994676,-0.5743 2.256351,-0.2189 2.830628,0.7758 0.574277,0.9947 0.23939,2.2445 -0.755287,2.8188 -0.994677,0.5742 -2.265033,0.2512 -2.83931,-0.7435 -0.574277,-0.9946 -0.230708,-2.2769 0.763969,-2.8511 z"
       id="rect41" />
    <path
       inkscape:connector-curvature="0"
       style="fill:url(#linearGradient856);fill-opacity:1;stroke:none"
       d="m 11.795039,1027.1056 c -1.182879,0.6829 -1.573945,2.2072 -0.891013,3.3901 l 4.565751,7.9081 c 0.682932,1.1829 2.198545,1.6063 3.381423,0.9234 l 5.710274,-3.2968 9.756763,-5.6331 1.643244,-0.9487 c 0.849415,-0.4904 1.246553,-1.4098 1.178186,-2.3235 0.757602,-1.8483 0.695407,-4.0135 -0.385117,-5.885 l -0.355773,-0.6162 c -1.081322,-1.873 -2.922886,-3.0091 -4.904039,-3.2761 -0.757064,-0.516 -1.740003,-0.6113 -2.589418,-0.1208 l -1.643244,0.9487 -9.756763,5.6331 -5.710274,3.2968 z m 20.956368,-6.3478 c 0.994676,-0.5743 2.256351,-0.2189 2.830628,0.7758 0.574277,0.9947 0.23939,2.2445 -0.755287,2.8188 -0.994677,0.5742 -2.265033,0.2512 -2.83931,-0.7435 -0.574277,-0.9946 -0.230708,-2.2769 0.763969,-2.8511 z"
       id="path48" />
    <g
       transform="matrix(0.8660254,-0.5,0.5,0.8660254,0,0)"
       style="font-size:5.17069149px;font-style:normal;font-variant:normal;font-weight:bold;font-stretch:normal;line-height:125%;letter-spacing:0px;word-spacing:0px;fill:#000000;fill-opacity:1;stroke:none;font-family:'2Toon';-inkscape-font-specification:'2Toon Bold'"
       id="text865">
      <path
         d="m -502.63935,901.57029 q 0,0.15512 0.0207,0.5481 0.031,0.38263 0.0931,0.78594 0.0724,0.40331 0.1758,0.71356 0.11375,0.31024 0.26888,0.31024 0.43433,0 0.91004,-0.10342 0.48604,-0.10341 0.92038,-0.12409 l 0,-0.20683 q 0,0 -0.0724,-0.0103 -0.0724,-0.0207 -0.1758,-0.0414 -0.0931,-0.0207 -0.19649,-0.031 -0.10341,-0.0207 -0.1758,-0.031 -0.062,-0.0103 -0.20683,-0.0207 -0.14478,-0.0207 -0.31024,-0.031 -0.16546,-0.0207 -0.31024,-0.031 -0.14478,-0.0207 -0.20683,-0.0207 -0.0724,-0.0827 -0.0931,-0.14478 -0.0207,-0.0724 -0.0207,-0.16546 0,-0.062 0.0103,-0.16546 0.0207,-0.10342 0.10342,-0.10342 l 0.93072,0 q 0.0103,0 0.0414,-0.062 0.0414,-0.062 0.062,-0.0931 0,0 0,-0.0207 0.0103,-0.031 0.0103,-0.0414 0,-0.0207 -0.0103,-0.031 0,-0.0207 0,-0.0207 l -1.13756,-0.20683 q -0.0103,0 -0.0517,-0.16546 -0.031,-0.16547 -0.0517,-0.25854 l 0,-0.0517 0,-0.0517 q 0.0207,-0.062 0.0517,-0.16546 0.0414,-0.10342 0.0517,-0.10342 l 1.37541,0 q 0,-0.19648 -0.16546,-0.27921 -0.16547,-0.0827 -0.38263,-0.11376 -0.21717,-0.031 -0.424,-0.0103 -0.20683,0.0207 -0.27922,0.0207 -0.0517,0 -0.14478,0 -0.0827,0 -0.1758,0.0103 -0.0827,0 -0.14478,0.0103 -0.062,0 -0.0724,0 l -0.20683,0.20683 q 0,0.0103 -0.0103,0.13444 0,0.11375 0,0.16546 z"
         style=""
         id="path855" />
      <path
         d="m -499.00952,901.7461 q 0.1758,0.0827 0.24819,0.32058 0.0827,0.22751 0.0827,0.40331 l -0.32058,0.0414 q -0.0827,0.0827 -0.0724,0.25853 0.0207,0.16546 0.23785,0.20683 0.24819,0 0.35161,0.15512 0.11375,0.14478 0.18614,0.33092 0.0827,0.17581 0.1758,0.33093 0.0931,0.14478 0.29991,0.14478 0,-0.1241 -0.0517,-0.39297 -0.0414,-0.26888 -0.1241,-0.58946 -0.0827,-0.33093 -0.19648,-0.67219 -0.11376,-0.34127 -0.2482,-0.62049 -0.13444,-0.28955 -0.27922,-0.46536 -0.14477,-0.18614 -0.28955,-0.18614 -0.13444,0 -0.26888,0.1758 -0.1241,0.1758 -0.23785,0.45502 -0.11376,0.26888 -0.21717,0.5998 -0.0931,0.32058 -0.16546,0.63083 -0.062,0.31024 -0.10342,0.55843 -0.0414,0.23785 -0.0414,0.34127 l 0,0.0414 q 0.031,0.031 0.10341,0.0724 0.0827,0.0414 0.10342,0.031 0.14477,-0.031 0.20682,-0.11376 0.062,-0.0931 0.0827,-0.19649 0.0207,-0.10341 0.031,-0.21716 0.0207,-0.11376 0.10341,-0.52742 0.0827,-0.41365 0.10342,-0.53775 0.031,-0.13444 0.0517,-0.24819 0.031,-0.11376 0.0827,-0.20683 0.062,-0.0931 0.16547,-0.12409 z"
         style=""
         id="path857" />
      <path
         d="m -497.14323,903.65925 q 0,0.0931 0.0724,0.15512 0.0724,0.0517 0.16546,0.0827 0.10342,0.0207 0.19649,0.0207 0.10341,0.0103 0.16546,0.0103 0.14478,0 0.28956,-0.0827 0.15512,-0.0827 0.27922,-0.20683 0.1241,-0.13444 0.19649,-0.28956 0.0827,-0.15512 0.0827,-0.31024 0,-0.39297 -0.21717,-0.56878 -0.20683,-0.1758 -0.33093,-0.12409 -0.11375,0.0414 -0.16546,0.1758 -0.0517,0.13444 0.0517,0.22751 0.10341,0.0827 0.12409,0.31024 0,0.18615 -0.0517,0.32058 -0.0517,0.13444 -0.22751,0.13444 -0.13444,0 -0.2482,-0.0517 -0.10341,-0.062 -0.23785,-0.062 l -0.0414,0 q -0.0207,0.0207 -0.0517,0.0931 -0.031,0.0724 -0.0517,0.11375 l 0,0.0517 z m 0.2482,-1.39609 q 0,-0.031 -0.13444,-0.0724 -0.13444,-0.0517 -0.21717,-0.21716 0.031,-0.0517 0.0931,-0.15513 0.0724,-0.10341 0.14478,-0.20682 0.0827,-0.10342 0.16546,-0.17581 0.0931,-0.0827 0.15512,-0.0827 l 0.062,0 q 0.0103,0 0.0724,0.0414 0.0724,0.031 0.14478,0.0724 0.0827,0.0414 0.15512,0.0724 0.0724,0.031 0.0931,0.031 0.0104,0 0.031,0 0.0207,-0.0103 0.0207,-0.0103 0.031,-0.0207 0.10341,-0.0931 0.0827,-0.0827 0.10342,-0.11376 l -0.31024,-0.31024 q -0.0207,-0.0103 -0.16547,-0.031 -0.13443,-0.0207 -0.20682,-0.0207 -0.20683,0 -0.40332,0.0827 -0.19648,0.0724 -0.3516,0.20682 -0.14478,0.13444 -0.23786,0.33093 -0.0931,0.18614 -0.0931,0.40331 0,0.22751 0.10342,0.34127 0.10341,0.11375 0.28955,0.1758 0.19649,0.0517 0.25854,0.031 0.062,-0.031 0.1241,-0.2999 z"
         style=""
         id="path859" />
      <path
         d="m -495.49935,901.59097 q 0,0.0104 0,0.031 0.0103,0.0207 0.0103,0.0207 0.0103,0.031 0.0414,0.11376 0.0414,0.0724 0.062,0.0931 0.031,0.031 0.16547,0.1758 0.14478,0.13444 0.2999,0.28956 0.16546,0.15512 0.2999,0.28956 0.13443,0.13444 0.16546,0.1758 0.0207,0.031 0.0621,0.16547 0.0517,0.13443 0.0931,0.2999 0.0517,0.15512 0.0931,0.2999 0.0414,0.13443 0.062,0.16546 0.062,0.13444 0.1241,0.1758 0.0724,0.0414 0.18614,0.0414 0.0414,0 0.1241,-0.0103 0.0827,-0.0207 0.0827,-0.10342 0,-0.26887 -0.11376,-0.54809 -0.10341,-0.28956 -0.10341,-0.58946 -0.19649,-0.28956 -0.424,-0.45502 -0.13443,-0.0517 -0.2999,-0.15512 -0.15512,-0.11376 -0.2999,-0.25854 -0.14478,-0.14478 -0.25853,-0.27921 -0.10342,-0.14478 -0.15512,-0.19649 -0.19649,-0.031 -0.20683,0.031 -0.0103,0.062 0,0.17581 0,0 -0.0103,0.0207 0,0.0103 0,0.031 z m 1.58223,0.32059 0.28956,0.24819 q 0.0207,-0.0414 0.16546,-0.16546 0.15512,-0.13444 0.28956,-0.2999 0.13444,-0.17581 0.21717,-0.36195 0.0827,-0.19649 0.0414,-0.36195 -0.10341,-0.0207 -0.28955,0.1241 -0.17581,0.13444 -0.36195,0.35161 -0.17581,0.21716 -0.25854,0.2999 -0.0724,0.0827 -0.0931,0.16546 z"
         style=""
         id="path861" />
      <path
         d="m -492.70168,901.42551 1.03413,0.0414 q 0.0827,0.0931 0.1241,0.26887 0.0414,0.17581 0.0827,0.44468 0.0414,0.25854 0.0827,0.57912 0.0517,0.32058 0.13444,0.57912 0.0931,0.25853 0.23785,0.45502 0.15512,0.18614 0.34127,0.1241 0.0517,-0.22751 0,-0.47571 -0.0517,-0.24819 -0.1241,-0.49638 -0.062,-0.2482 -0.11375,-0.49639 -0.0517,-0.25854 -0.0517,-0.53775 0,-0.0414 0,-0.19649 0.0103,-0.16546 0.0103,-0.21717 0.0414,0 0.14478,-0.0103 0.10341,-0.0103 0.21717,-0.0207 0.1241,-0.0207 0.21717,-0.0414 0.10341,-0.031 0.14478,-0.0414 0.0207,-0.0103 0.0517,-0.0517 0.0414,-0.0414 0.0517,-0.0724 -0.0414,-0.062 -0.14478,-0.14478 -0.10341,-0.0827 -0.16546,-0.0827 l -1.86145,0 q -0.23785,0 -0.35161,0.14478 -0.10341,0.14478 -0.062,0.24819 z"
         style=""
         id="path863" />
      <path
         d="m -488.88022,901.7461 q 0.1758,0.0827 0.24819,0.32058 0.0827,0.22751 0.0827,0.40331 l -0.32058,0.0414 q -0.0827,0.0827 -0.0724,0.25853 0.0207,0.16546 0.23785,0.20683 0.2482,0 0.35161,0.15512 0.11376,0.14478 0.18614,0.33092 0.0827,0.17581 0.17581,0.33093 0.0931,0.14478 0.2999,0.14478 0,-0.1241 -0.0517,-0.39297 -0.0414,-0.26888 -0.1241,-0.58946 -0.0827,-0.33093 -0.19648,-0.67219 -0.11376,-0.34127 -0.24819,-0.62049 -0.13444,-0.28955 -0.27922,-0.46536 -0.14478,-0.18614 -0.28956,-0.18614 -0.13444,0 -0.26888,0.1758 -0.12409,0.1758 -0.23785,0.45502 -0.11375,0.26888 -0.21717,0.5998 -0.0931,0.32058 -0.16546,0.63083 -0.062,0.31024 -0.10341,0.55843 -0.0414,0.23785 -0.0414,0.34127 l 0,0.0414 q 0.031,0.031 0.10341,0.0724 0.0827,0.0414 0.10342,0.031 0.14478,-0.031 0.20683,-0.11376 0.062,-0.0931 0.0827,-0.19649 0.0207,-0.10341 0.031,-0.21716 0.0207,-0.11376 0.10342,-0.52742 0.0827,-0.41365 0.10341,-0.53775 0.031,-0.13444 0.0517,-0.24819 0.031,-0.11376 0.0827,-0.20683 0.062,-0.0931 0.16546,-0.12409 z"
         style=""
         id="path865" />
      <path
         d="m -487.54133,902.43897 q 0.25853,0.13444 0.51706,-0.0931 0,-0.19649 0.0724,-0.38264 0.0724,-0.19648 0.20683,-0.3516 0.14478,-0.15512 0.33093,-0.23785 0.19648,-0.0931 0.43433,-0.0931 l 0,-0.27921 q -0.34126,0 -0.63082,0.10341 -0.27922,0.0931 -0.49639,0.2999 -0.20682,0.20683 -0.32058,0.4757 -0.11375,0.25854 -0.11375,0.55844 z m 0.11375,0.63082 q 0.031,0.11376 0.16546,0.33093 0.14478,0.21717 0.35161,0.37229 0.21717,0.15512 0.50673,0.15512 0.24819,0 0.4757,-0.0827 0.22751,-0.0931 0.40332,-0.21717 0.1758,-0.1241 0.27921,-0.32059 0.10342,-0.19648 0.10342,-0.42399 0,-0.1241 -0.0207,-0.26888 -0.0207,-0.14478 -0.0724,-0.26887 -0.0517,-0.1241 -0.15512,-0.19649 -0.10341,-0.0827 -0.26887,-0.0827 -0.1241,0 -0.27922,0.031 -0.14478,0.0207 -0.27922,0.0724 -0.13444,0.0517 -0.22751,0.14478 -0.0827,0.0931 -0.031,0.21717 0.0827,0.0517 0.23785,0 0.15512,-0.0517 0.44468,-0.0103 0.0827,0.0414 0.1241,0.0931 0.0414,0.0517 0.062,0.1241 0.031,0.0724 0.0414,0.14478 0.0103,0.0724 0.0103,0.11375 0,0.10342 -0.0827,0.19649 -0.0724,0.0931 -0.18615,0.1758 -0.11375,0.0724 -0.23785,0.11376 -0.12409,0.031 -0.22751,0.031 -0.24819,0 -0.39297,-0.12409 -0.14478,-0.1241 -0.22751,-0.2999 -0.0724,-0.18615 -0.51707,-0.0207 z"
         style=""
         id="path867" />
    </g>
    <text
       xml:space="preserve"
       style="font-size:40px;font-style:italic;font-variant:normal;font-weight:bold;font-stretch:normal;line-height:125%;letter-spacing:0px;word-spacing:0px;fill:#000000;fill-opacity:1;stroke:none;font-family:URW Chancery L;-inkscape-font-specification:URW Chancery L Bold Italic"
       x="15.644737"
       y="23.251265"
       id="text3025"
       sodipodi:linespacing="125%"
       transform="translate(0,1004.3622)"><tspan
         sodipodi:role="line"
         id="tspan3027"
         x="15.644737"
         y="23.251265" /></text>
  </g>
</svg>
