<?xml version="1.0" encoding="UTF-8" standalone="no"?>
<!-- Created with Inkscape (http://www.inkscape.org/) -->

<svg
   xmlns:dc="http://purl.org/dc/elements/1.1/"
   xmlns:cc="http://creativecommons.org/ns#"
   xmlns:rdf="http://www.w3.org/1999/02/22-rdf-syntax-ns#"
   xmlns:svg="http://www.w3.org/2000/svg"
   xmlns="http://www.w3.org/2000/svg"
   xmlns:xlink="http://www.w3.org/1999/xlink"
   xmlns:sodipodi="http://sodipodi.sourceforge.net/DTD/sodipodi-0.dtd"
   xmlns:inkscape="http://www.inkscape.org/namespaces/inkscape"
   width="48"
   height="48"
   id="svg2"
   version="1.1"
   inkscape:version="0.48+devel r11521"
   sodipodi:docname="workspace-switcher.svg">
  <defs
     id="defs4">
    <linearGradient
       id="linearGradient3795">
      <stop
         style="stop-color:#68b8d8;stop-opacity:1;"
         offset="0"
         id="stop3797" />
      <stop
         style="stop-color:#3097bd;stop-opacity:1;"
         offset="1"
         id="stop3799" />
    </linearGradient>
    <linearGradient
       id="linearGradient3698">
      <stop
         id="stop3700"
         offset="0"
         style="stop-color:#96d0e1;stop-opacity:1" />
      <stop
         style="stop-color:#89b7e1;stop-opacity:1"
         offset="0.67819428"
         id="stop3706" />
      <stop
         id="stop3702"
         offset="1"
         style="stop-color:#699dd3;stop-opacity:1" />
    </linearGradient>
    <linearGradient
       id="linearGradient3708">
      <stop
         id="stop3710"
         offset="0"
         style="stop-color:#658db6;stop-opacity:1" />
      <stop
         style="stop-color:#527fab;stop-opacity:1;"
         offset="0.76777935"
         id="stop3716" />
      <stop
         id="stop3712"
         offset="1"
         style="stop-color:#4071a0;stop-opacity:1" />
    </linearGradient>
    <linearGradient
       id="linearGradient3750">
      <stop
         style="stop-color:#d0e2f1;stop-opacity:1"
         offset="0"
         id="stop3752" />
      <stop
         id="stop3756"
         offset="0.85580856"
         style="stop-color:#cadef0;stop-opacity:1" />
      <stop
         style="stop-color:#95bee3;stop-opacity:1"
         offset="1"
         id="stop3754" />
    </linearGradient>
    <linearGradient
       id="linearGradient3803">
      <stop
         id="stop3805"
         offset="0"
         style="stop-color:#d7def0;stop-opacity:1;" />
      <stop
         style="stop-color:#ffffff;stop-opacity:1"
         offset="0.5"
         id="stop3811" />
      <stop
         id="stop3807"
         offset="1"
         style="stop-color:#d5def0;stop-opacity:1" />
    </linearGradient>
    <linearGradient
       inkscape:collect="always"
       xlink:href="#linearGradient3795"
       id="linearGradient3859"
       x1="26.192217"
       y1="1024.0002"
       x2="28.641211"
       y2="1024.0002"
       gradientUnits="userSpaceOnUse" />
    <linearGradient
       inkscape:collect="always"
       xlink:href="#linearGradient3795"
       id="linearGradient3867"
       gradientUnits="userSpaceOnUse"
       x1="26.192217"
       y1="1024.0002"
       x2="28.641211"
       y2="1024.0002" />
    <linearGradient
       inkscape:collect="always"
       xlink:href="#linearGradient3795"
       id="linearGradient3869"
       gradientUnits="userSpaceOnUse"
       x1="26.192217"
       y1="1024.0002"
       x2="28.641211"
       y2="1024.0002" />
    <linearGradient
       inkscape:collect="always"
       xlink:href="#linearGradient3795"
       id="linearGradient3871"
       gradientUnits="userSpaceOnUse"
       x1="26.192217"
       y1="1024.0002"
       x2="28.641211"
       y2="1024.0002" />
    <linearGradient
       inkscape:collect="always"
       xlink:href="#linearGradient3795"
       id="linearGradient3877"
       gradientUnits="userSpaceOnUse"
       x1="29.718235"
       y1="1027.8575"
       x2="22.811094"
       y2="1015.5485" />
    <linearGradient
       inkscape:collect="always"
       xlink:href="#linearGradient3795"
       id="linearGradient3879"
       gradientUnits="userSpaceOnUse"
       x1="17.196316"
       y1="1006.2238"
       x2="31.448042"
       y2="1030.9086" />
    <linearGradient
       inkscape:collect="always"
       xlink:href="#linearGradient3795"
       id="linearGradient3895"
       x1="21.973417"
       y1="34.43922"
       x2="42.475323"
       y2="24.798252"
       gradientUnits="userSpaceOnUse" />
    <linearGradient
       inkscape:collect="always"
       xlink:href="#linearGradient3795"
       id="linearGradient3151"
       gradientUnits="userSpaceOnUse"
       gradientTransform="matrix(0.96799712,0,0,1.0252613,0.76812247,-25.977885)"
       x1="24.113745"
       y1="1007.2183"
       x2="24.113745"
       y2="1049.5842" />
    <linearGradient
       id="linearGradient3795-4">
      <stop
         id="stop3797-0"
         offset="0"
         style="stop-color:#68b8d8;stop-opacity:1;" />
      <stop
         id="stop3799-0"
         offset="1"
         style="stop-color:#3097bd;stop-opacity:1;" />
    </linearGradient>
    <linearGradient
       inkscape:collect="always"
       xlink:href="#linearGradient3795-4"
       id="linearGradient3030"
       gradientUnits="userSpaceOnUse"
       gradientTransform="matrix(0.96799712,0,0,1.0252613,0.76812014,-25.977808)"
       x1="24.113745"
       y1="1007.2183"
       x2="24.113745"
       y2="1049.5842" />
    <linearGradient
       gradientUnits="userSpaceOnUse"
       y2="1004.8474"
       x2="23.204165"
       y1="1053.158"
       x1="23.204165"
       id="linearGradient3801-0"
       xlink:href="#linearGradient3795-0"
       inkscape:collect="always" />
    <linearGradient
       gradientUnits="userSpaceOnUse"
       y2="25.0625"
       x2="45.325001"
       y1="25.0625"
       x1="6.8000002"
       id="linearGradient3920"
       xlink:href="#linearGradient3914"
       inkscape:collect="always" />
    <linearGradient
       id="linearGradient3803-6">
      <stop
         style="stop-color:#d7def0;stop-opacity:1;"
         offset="0"
         id="stop3805-8" />
      <stop
         id="stop3811-0"
         offset="0.5"
         style="stop-color:#ffffff;stop-opacity:1" />
      <stop
         style="stop-color:#d5def0;stop-opacity:1"
         offset="1"
         id="stop3807-0" />
    </linearGradient>
    <linearGradient
       id="linearGradient3750-0">
      <stop
         id="stop3752-5"
         offset="0"
         style="stop-color:#d0e2f1;stop-opacity:1" />
      <stop
         style="stop-color:#cadef0;stop-opacity:1"
         offset="0.85580856"
         id="stop3756-3" />
      <stop
         id="stop3754-6"
         offset="1"
         style="stop-color:#95bee3;stop-opacity:1" />
    </linearGradient>
    <linearGradient
       id="linearGradient3708-7">
      <stop
         style="stop-color:#658db6;stop-opacity:1"
         offset="0"
         id="stop3710-2" />
      <stop
         id="stop3716-6"
         offset="0.76777935"
         style="stop-color:#527fab;stop-opacity:1;" />
      <stop
         style="stop-color:#4071a0;stop-opacity:1"
         offset="1"
         id="stop3712-3" />
    </linearGradient>
    <linearGradient
       id="linearGradient3698-2">
      <stop
         style="stop-color:#96d0e1;stop-opacity:1"
         offset="0"
         id="stop3700-1" />
      <stop
         id="stop3706-1"
         offset="0.67819428"
         style="stop-color:#89b7e1;stop-opacity:1" />
      <stop
         style="stop-color:#699dd3;stop-opacity:1"
         offset="1"
         id="stop3702-7" />
    </linearGradient>
    <linearGradient
       id="linearGradient3914"
       inkscape:collect="always">
      <stop
         id="stop3916"
         offset="0"
         style="stop-color:#59b3e1;stop-opacity:1;" />
      <stop
         id="stop3918"
         offset="1"
         style="stop-color:#59b3e1;stop-opacity:0;" />
    </linearGradient>
    <linearGradient
       id="linearGradient3795-0">
      <stop
         id="stop3797-4"
         offset="0"
         style="stop-color:#52a2cc;stop-opacity:1;" />
      <stop
         id="stop3799-5"
         offset="1"
         style="stop-color:#59b3e1;stop-opacity:1;" />
    </linearGradient>
  </defs>
  <sodipodi:namedview
     id="base"
     pagecolor="#ffffff"
     bordercolor="#666666"
     borderopacity="1.0"
     inkscape:pageopacity="0.0"
     inkscape:pageshadow="2"
     inkscape:zoom="5.8153846"
     inkscape:cx="27.211916"
     inkscape:cy="34.367108"
     inkscape:document-units="px"
     inkscape:current-layer="layer1"
     showgrid="false"
     inkscape:window-width="960"
     inkscape:window-height="1035"
     inkscape:window-x="0"
     inkscape:window-y="26"
     inkscape:window-maximized="0">
    <inkscape:grid
       type="xygrid"
       id="grid3850" />
  </sodipodi:namedview>
  <metadata
     id="metadata7">
    <rdf:RDF>
      <cc:Work
         rdf:about="">
        <dc:format>image/svg+xml</dc:format>
        <dc:type
           rdf:resource="http://purl.org/dc/dcmitype/StillImage" />
        <dc:title />
      </cc:Work>
    </rdf:RDF>
  </metadata>
  <g
     inkscape:label="Capa 1"
     inkscape:groupmode="layer"
     id="layer1"
     transform="translate(0,-1004.3622)">
    <rect
       ry="5.6755357"
       y="1006.0615"
       x="1.6992435"
       height="44.601513"
       width="44.601513"
       id="rect2992"
       style="fill:url(#linearGradient3151);fill-opacity:1;stroke:#7d7d7d;stroke-width:0.39848712;stroke-miterlimit:4;stroke-opacity:1;stroke-dasharray:none" />
    <g
       id="g3022"
       transform="matrix(0.7740375,0,0,0.7740375,2.6884502,231.13783)">
      <rect
         ry="0"
         y="1013.5597"
         x="11.667261"
         height="15.556349"
         width="15.556349"
         id="rect3013"
         style="fill:#4d4d4d;fill-rule:evenodd;stroke:none" />
      <rect
         style="fill:#ffffff;fill-rule:evenodd;stroke:none"
         id="rect3015"
         width="15.556349"
         height="15.556349"
         x="28.019104"
         y="1013.5597"
         ry="0" />
      <rect
         ry="0"
         y="1030.7954"
         x="28.019104"
         height="15.556349"
         width="15.556349"
         id="rect3017"
         style="fill:#ffffff;fill-rule:evenodd;stroke:none" />
      <rect
         style="fill:#ffffff;fill-rule:evenodd;stroke:none"
         id="rect3019"
         width="15.556349"
         height="15.556349"
         x="11.490483"
         y="1030.7954"
         ry="0" />
    </g>
    <g
       id="g3023"
       transform="matrix(0.58203834,0,0,0.70440369,9.2730356,299.88854)">
      <path
         inkscape:transform-center-y="0.28214193"
         inkscape:transform-center-x="-1.9844775"
         transform="matrix(-0.70710678,0.70710678,-0.70710678,-0.70710678,42.084775,1027.0432)"
         d="m 19.884065,18.113274 -2.541645,2.541646 -2.541646,2.541645 -0.930307,-3.471952 -0.930306,-3.471952 3.471952,0.930306 z"
         inkscape:randomized="0"
         inkscape:rounded="0"
         inkscape:flatsided="false"
         sodipodi:arg2="0.78539816"
         sodipodi:arg1="-0.26179939"
         sodipodi:r2="2.0752449"
         sodipodi:r1="4.1504893"
         sodipodi:cy="19.1875"
         sodipodi:cx="15.875"
         sodipodi:sides="3"
         id="path3017"
         style="fill:#ffffff;fill-opacity:1;stroke:none"
         sodipodi:type="star" />
      <rect
         ry="0"
         y="1023.0638"
         x="7.6516643"
         height="3.274163"
         width="8.1608362"
         id="rect3020"
         style="fill:#ffffff;fill-rule:evenodd;stroke:none" />
    </g>
  </g>
</svg>
