<?xml version="1.0" encoding="UTF-8" standalone="no"?>
<!-- Created with Inkscape (http://www.inkscape.org/) -->

<svg
   xmlns:dc="http://purl.org/dc/elements/1.1/"
   xmlns:cc="http://creativecommons.org/ns#"
   xmlns:rdf="http://www.w3.org/1999/02/22-rdf-syntax-ns#"
   xmlns:svg="http://www.w3.org/2000/svg"
   xmlns="http://www.w3.org/2000/svg"
   xmlns:xlink="http://www.w3.org/1999/xlink"
   xmlns:sodipodi="http://sodipodi.sourceforge.net/DTD/sodipodi-0.dtd"
   xmlns:inkscape="http://www.inkscape.org/namespaces/inkscape"
   width="48"
   height="48"
   id="svg2"
   version="1.1"
   inkscape:version="0.48+devel r11521"
   sodipodi:docname="gnome-nettool.svg">
  <defs
     id="defs4">
    <linearGradient
       inkscape:collect="always"
       id="linearGradient3788">
      <stop
         style="stop-color:#ffffff;stop-opacity:1;"
         offset="0"
         id="stop3790" />
      <stop
         style="stop-color:#ffffff;stop-opacity:0;"
         offset="1"
         id="stop3792" />
    </linearGradient>
    <linearGradient
       id="linearGradient3795">
      <stop
         style="stop-color:#2a6d20;stop-opacity:1;"
         offset="0"
         id="stop3797" />
      <stop
         id="stop3800"
         offset="1"
         style="stop-color:#76c45a;stop-opacity:1;" />
    </linearGradient>
    <linearGradient
       inkscape:collect="always"
       id="linearGradient3914">
      <stop
         style="stop-color:#59b3e1;stop-opacity:1;"
         offset="0"
         id="stop3916" />
      <stop
         style="stop-color:#59b3e1;stop-opacity:0;"
         offset="1"
         id="stop3918" />
    </linearGradient>
    <linearGradient
       id="linearGradient3698">
      <stop
         id="stop3700"
         offset="0"
         style="stop-color:#96d0e1;stop-opacity:1" />
      <stop
         style="stop-color:#89b7e1;stop-opacity:1"
         offset="0.67819428"
         id="stop3706" />
      <stop
         id="stop3702"
         offset="1"
         style="stop-color:#699dd3;stop-opacity:1" />
    </linearGradient>
    <linearGradient
       id="linearGradient3708">
      <stop
         id="stop3710"
         offset="0"
         style="stop-color:#658db6;stop-opacity:1" />
      <stop
         style="stop-color:#527fab;stop-opacity:1;"
         offset="0.76777935"
         id="stop3716" />
      <stop
         id="stop3712"
         offset="1"
         style="stop-color:#4071a0;stop-opacity:1" />
    </linearGradient>
    <linearGradient
       id="linearGradient3750">
      <stop
         style="stop-color:#d0e2f1;stop-opacity:1"
         offset="0"
         id="stop3752" />
      <stop
         id="stop3756"
         offset="0.85580856"
         style="stop-color:#cadef0;stop-opacity:1" />
      <stop
         style="stop-color:#95bee3;stop-opacity:1"
         offset="1"
         id="stop3754" />
    </linearGradient>
    <linearGradient
       id="linearGradient3803">
      <stop
         id="stop3805"
         offset="0"
         style="stop-color:#d7def0;stop-opacity:1;" />
      <stop
         style="stop-color:#ffffff;stop-opacity:1"
         offset="0.5"
         id="stop3811" />
      <stop
         id="stop3807"
         offset="1"
         style="stop-color:#d5def0;stop-opacity:1" />
    </linearGradient>
    <linearGradient
       inkscape:collect="always"
       xlink:href="#linearGradient3914"
       id="linearGradient3920"
       x1="6.8000002"
       y1="25.0625"
       x2="45.325001"
       y2="25.0625"
       gradientUnits="userSpaceOnUse" />
    <linearGradient
       inkscape:collect="always"
       xlink:href="#linearGradient3788"
       id="linearGradient3794"
       x1="26.162951"
       y1="14.235653"
       x2="29.875259"
       y2="26.433245"
       gradientUnits="userSpaceOnUse" />
    <filter
       inkscape:collect="always"
       id="filter3900"
       x="-0.14400003"
       width="1.2880001"
       y="-0.14400003"
       height="1.2880001">
      <feGaussianBlur
         inkscape:collect="always"
         stdDeviation="0.055684672"
         id="feGaussianBlur3902" />
    </filter>
    <filter
       inkscape:collect="always"
       id="filter3998"
       x="-0.132"
       width="1.264"
       y="-0.132"
       height="1.264">
      <feGaussianBlur
         inkscape:collect="always"
         stdDeviation="0.05104427"
         id="feGaussianBlur4000" />
    </filter>
    <linearGradient
       inkscape:collect="always"
       xlink:href="#linearGradient3795"
       id="linearGradient3151"
       gradientUnits="userSpaceOnUse"
       gradientTransform="matrix(0.96799712,0,0,1.0252613,0.76812199,-2082.7023)"
       x1="24.113745"
       y1="1007.2183"
       x2="24.113745"
       y2="1049.5842" />
    <linearGradient
       id="linearGradient3795-4">
      <stop
         id="stop3797-0"
         offset="0"
         style="stop-color:#68b8d8;stop-opacity:1;" />
      <stop
         id="stop3799-0"
         offset="1"
         style="stop-color:#3097bd;stop-opacity:1;" />
    </linearGradient>
    <linearGradient
       inkscape:collect="always"
       xlink:href="#linearGradient3795-4"
       id="linearGradient3030"
       gradientUnits="userSpaceOnUse"
       gradientTransform="matrix(0.96799712,0,0,1.0252613,0.76812014,-25.977808)"
       x1="24.113745"
       y1="1007.2183"
       x2="24.113745"
       y2="1049.5842" />
    <linearGradient
       gradientUnits="userSpaceOnUse"
       y2="1004.8474"
       x2="23.204165"
       y1="1053.158"
       x1="23.204165"
       id="linearGradient3801-7"
       xlink:href="#linearGradient3795-43"
       inkscape:collect="always" />
    <linearGradient
       gradientUnits="userSpaceOnUse"
       y2="25.0625"
       x2="45.325001"
       y1="25.0625"
       x1="6.8000002"
       id="linearGradient3920-9"
       xlink:href="#linearGradient3914-0"
       inkscape:collect="always" />
    <linearGradient
       id="linearGradient3803-2">
      <stop
         style="stop-color:#d7def0;stop-opacity:1;"
         offset="0"
         id="stop3805-8" />
      <stop
         id="stop3811-0"
         offset="0.5"
         style="stop-color:#ffffff;stop-opacity:1" />
      <stop
         style="stop-color:#d5def0;stop-opacity:1"
         offset="1"
         id="stop3807-2" />
    </linearGradient>
    <linearGradient
       id="linearGradient3750-1">
      <stop
         id="stop3752-3"
         offset="0"
         style="stop-color:#d0e2f1;stop-opacity:1" />
      <stop
         style="stop-color:#cadef0;stop-opacity:1"
         offset="0.85580856"
         id="stop3756-9" />
      <stop
         id="stop3754-4"
         offset="1"
         style="stop-color:#95bee3;stop-opacity:1" />
    </linearGradient>
    <linearGradient
       id="linearGradient3708-2">
      <stop
         style="stop-color:#658db6;stop-opacity:1"
         offset="0"
         id="stop3710-9" />
      <stop
         id="stop3716-3"
         offset="0.76777935"
         style="stop-color:#527fab;stop-opacity:1;" />
      <stop
         style="stop-color:#4071a0;stop-opacity:1"
         offset="1"
         id="stop3712-5" />
    </linearGradient>
    <linearGradient
       id="linearGradient3698-8">
      <stop
         style="stop-color:#96d0e1;stop-opacity:1"
         offset="0"
         id="stop3700-2" />
      <stop
         id="stop3706-0"
         offset="0.67819428"
         style="stop-color:#89b7e1;stop-opacity:1" />
      <stop
         style="stop-color:#699dd3;stop-opacity:1"
         offset="1"
         id="stop3702-9" />
    </linearGradient>
    <linearGradient
       id="linearGradient3914-0"
       inkscape:collect="always">
      <stop
         id="stop3916-1"
         offset="0"
         style="stop-color:#59b3e1;stop-opacity:1;" />
      <stop
         id="stop3918-3"
         offset="1"
         style="stop-color:#59b3e1;stop-opacity:0;" />
    </linearGradient>
    <linearGradient
       id="linearGradient3795-43">
      <stop
         id="stop3797-8"
         offset="0"
         style="stop-color:#52a2cc;stop-opacity:1;" />
      <stop
         id="stop3799"
         offset="1"
         style="stop-color:#59b3e1;stop-opacity:1;" />
    </linearGradient>
  </defs>
  <sodipodi:namedview
     id="base"
     pagecolor="#ffffff"
     bordercolor="#666666"
     borderopacity="1.0"
     inkscape:pageopacity="0.0"
     inkscape:pageshadow="2"
     inkscape:zoom="6.4923078"
     inkscape:cx="30.381024"
     inkscape:cy="19.0918"
     inkscape:document-units="px"
     inkscape:current-layer="layer1"
     showgrid="false"
     inkscape:window-width="1920"
     inkscape:window-height="1035"
     inkscape:window-x="0"
     inkscape:window-y="26"
     inkscape:window-maximized="1" />
  <metadata
     id="metadata7">
    <rdf:RDF>
      <cc:Work
         rdf:about="">
        <dc:format>image/svg+xml</dc:format>
        <dc:type
           rdf:resource="http://purl.org/dc/dcmitype/StillImage" />
        <dc:title />
      </cc:Work>
    </rdf:RDF>
  </metadata>
  <g
     inkscape:label="Capa 1"
     inkscape:groupmode="layer"
     id="layer1"
     transform="translate(0,-1004.3622)">
    <rect
       ry="5.6755357"
       y="-1050.663"
       x="1.6992435"
       height="44.601513"
       width="44.601513"
       id="rect2992"
       style="fill:url(#linearGradient3151);fill-opacity:1.0;stroke:#7d7d7d;stroke-width:0.39848712;stroke-miterlimit:4;stroke-opacity:1;stroke-dasharray:none"
       transform="scale(1,-1)" />
    <g
       id="g982">
      <g
         transform="matrix(0,1,-1,0,1052.075,1004.4285)"
         id="g3836">
        <path
           style="fill:#ffffff;stroke:#ffffff;stroke-width:0.2;stroke-linecap:butt;stroke-linejoin:miter;stroke-miterlimit:4;stroke-opacity:1;stroke-dasharray:none"
           d="m 22.929825,1030.0416 2.007766,0"
           id="path3820"
           inkscape:connector-curvature="0"
           sodipodi:nodetypes="cc" />
        <path
           sodipodi:nodetypes="cc"
           inkscape:connector-curvature="0"
           id="path3822"
           d="m 22.929825,1031.1317 2.007766,0"
           style="fill:#ffffff;stroke:#ffffff;stroke-width:0.2;stroke-linecap:butt;stroke-linejoin:miter;stroke-miterlimit:4;stroke-opacity:1;stroke-dasharray:none" />
        <path
           sodipodi:nodetypes="cc"
           inkscape:connector-curvature="0"
           id="path3824"
           d="m 22.929825,1032.2219 2.007766,0"
           style="fill:#ffffff;stroke:#ffffff;stroke-width:0.2;stroke-linecap:butt;stroke-linejoin:miter;stroke-miterlimit:4;stroke-opacity:1;stroke-dasharray:none" />
        <path
           style="fill:#ffffff;stroke:#ffffff;stroke-width:0.2;stroke-linecap:butt;stroke-linejoin:miter;stroke-miterlimit:4;stroke-opacity:1;stroke-dasharray:none"
           d="m 22.929825,1033.312 2.007766,0"
           id="path3826"
           inkscape:connector-curvature="0"
           sodipodi:nodetypes="cc" />
        <path
           sodipodi:nodetypes="cc"
           inkscape:connector-curvature="0"
           id="path3828"
           d="m 22.929825,1022.8379 2.007766,0"
           style="fill:#ffffff;stroke:#ffffff;stroke-width:0.2;stroke-linecap:butt;stroke-linejoin:miter;stroke-miterlimit:4;stroke-opacity:1;stroke-dasharray:none" />
        <path
           style="fill:#ffffff;stroke:#ffffff;stroke-width:0.2;stroke-linecap:butt;stroke-linejoin:miter;stroke-miterlimit:4;stroke-opacity:1;stroke-dasharray:none"
           d="m 22.929825,1023.928 2.007766,0"
           id="path3830"
           inkscape:connector-curvature="0"
           sodipodi:nodetypes="cc" />
        <path
           style="fill:#ffffff;stroke:#ffffff;stroke-width:0.2;stroke-linecap:butt;stroke-linejoin:miter;stroke-miterlimit:4;stroke-opacity:1;stroke-dasharray:none"
           d="m 22.929825,1025.0182 2.007766,0"
           id="path3832"
           inkscape:connector-curvature="0"
           sodipodi:nodetypes="cc" />
        <path
           sodipodi:nodetypes="cc"
           inkscape:connector-curvature="0"
           id="path3834"
           d="m 22.929825,1026.1083 2.007766,0"
           style="fill:#ffffff;stroke:#ffffff;stroke-width:0.2;stroke-linecap:butt;stroke-linejoin:miter;stroke-miterlimit:4;stroke-opacity:1;stroke-dasharray:none" />
      </g>
      <g
         transform="translate(0,1.6880786e-5)"
         id="g962">
        <path
           sodipodi:type="arc"
           style="fill:none;stroke:#ffffff;stroke-width:0.78988874;stroke-linecap:round;stroke-linejoin:miter;stroke-miterlimit:4;stroke-opacity:1;stroke-dasharray:none"
           id="path3012"
           sodipodi:cx="23.953241"
           sodipodi:cy="27.317127"
           sodipodi:rx="9.1039991"
           sodipodi:ry="9.1039991"
           d="m 33.05724,27.317127 c 0,5.028 -4.075999,9.103999 -9.103999,9.103999 -5.028,0 -9.103999,-4.075999 -9.103999,-9.103999 0,-5.028 4.075999,-9.103999 9.103999,-9.103999 5.028,0 9.103999,4.075999 9.103999,9.103999 z"
           transform="matrix(1.2660011,0,0,1.2660011,-6.3248299,993.77867)" />
        <path
           style="fill:none;stroke:#ffffff;stroke-width:0.5;stroke-linecap:square;stroke-linejoin:miter;stroke-miterlimit:4;stroke-opacity:1;stroke-dasharray:none"
           d="m 24.015281,1028.3206 5.023743,-8.7014"
           id="path3784"
           inkscape:connector-curvature="0" />
        <path
           style="fill:url(#linearGradient3794);fill-opacity:1;stroke:none"
           d="m 24.206763,24.243143 6.738788,5.093746 c 5.636173,-5.497432 2.08465,-10.930172 -1.508251,-14.14796 z"
           id="path3786"
           inkscape:connector-curvature="0"
           transform="translate(0,1004.3622)"
           sodipodi:nodetypes="cccc" />
        <path
           style="fill:#ffffff;stroke:#ffffff;stroke-width:0.40000001;stroke-linecap:butt;stroke-linejoin:miter;stroke-miterlimit:4;stroke-opacity:1;stroke-dasharray:none"
           d="m 12.5,1028.3622 22.999999,0"
           id="path3796"
           inkscape:connector-curvature="0"
           sodipodi:nodetypes="cc" />
        <path
           inkscape:connector-curvature="0"
           id="path3798"
           d="m 24,1040.2372 0,-23.75"
           style="fill:#ffffff;stroke:#ffffff;stroke-width:0.40000001;stroke-linecap:butt;stroke-linejoin:miter;stroke-miterlimit:4;stroke-opacity:1;stroke-dasharray:none" />
        <path
           transform="matrix(0.93567107,0,0,0.93567107,1.587645,1002.8023)"
           d="m 33.05724,27.317127 c 0,5.028 -4.075999,9.103999 -9.103999,9.103999 -5.028,0 -9.103999,-4.075999 -9.103999,-9.103999 0,-5.028 4.075999,-9.103999 9.103999,-9.103999 5.028,0 9.103999,4.075999 9.103999,9.103999 z"
           sodipodi:ry="9.1039991"
           sodipodi:rx="9.1039991"
           sodipodi:cy="27.317127"
           sodipodi:cx="23.953241"
           id="path3802"
           style="fill:none;stroke:#ffffff;stroke-width:0.53437585;stroke-linecap:round;stroke-linejoin:miter;stroke-miterlimit:4;stroke-opacity:1;stroke-dasharray:none"
           sodipodi:type="arc" />
        <path
           sodipodi:nodetypes="cc"
           inkscape:connector-curvature="0"
           id="path3804"
           d="m 22.929825,1030.0416 2.007766,0"
           style="fill:#ffffff;stroke:#ffffff;stroke-width:0.2;stroke-linecap:butt;stroke-linejoin:miter;stroke-miterlimit:4;stroke-opacity:1;stroke-dasharray:none" />
        <path
           style="fill:#ffffff;stroke:#ffffff;stroke-width:0.2;stroke-linecap:butt;stroke-linejoin:miter;stroke-miterlimit:4;stroke-opacity:1;stroke-dasharray:none"
           d="m 22.929825,1031.1317 2.007766,0"
           id="path3806"
           inkscape:connector-curvature="0"
           sodipodi:nodetypes="cc" />
        <path
           style="fill:#ffffff;stroke:#ffffff;stroke-width:0.2;stroke-linecap:butt;stroke-linejoin:miter;stroke-miterlimit:4;stroke-opacity:1;stroke-dasharray:none"
           d="m 22.929825,1032.2219 2.007766,0"
           id="path3808"
           inkscape:connector-curvature="0"
           sodipodi:nodetypes="cc" />
        <path
           sodipodi:nodetypes="cc"
           inkscape:connector-curvature="0"
           id="path3810"
           d="m 22.929825,1033.312 2.007766,0"
           style="fill:#ffffff;stroke:#ffffff;stroke-width:0.2;stroke-linecap:butt;stroke-linejoin:miter;stroke-miterlimit:4;stroke-opacity:1;stroke-dasharray:none" />
        <path
           style="fill:#ffffff;stroke:#ffffff;stroke-width:0.2;stroke-linecap:butt;stroke-linejoin:miter;stroke-miterlimit:4;stroke-opacity:1;stroke-dasharray:none"
           d="m 22.929825,1022.8379 2.007766,0"
           id="path3812"
           inkscape:connector-curvature="0"
           sodipodi:nodetypes="cc" />
        <path
           sodipodi:nodetypes="cc"
           inkscape:connector-curvature="0"
           id="path3814"
           d="m 22.929825,1023.928 2.007766,0"
           style="fill:#ffffff;stroke:#ffffff;stroke-width:0.2;stroke-linecap:butt;stroke-linejoin:miter;stroke-miterlimit:4;stroke-opacity:1;stroke-dasharray:none" />
        <path
           sodipodi:nodetypes="cc"
           inkscape:connector-curvature="0"
           id="path3816"
           d="m 22.929825,1025.0182 2.007766,0"
           style="fill:#ffffff;stroke:#ffffff;stroke-width:0.2;stroke-linecap:butt;stroke-linejoin:miter;stroke-miterlimit:4;stroke-opacity:1;stroke-dasharray:none" />
        <path
           style="fill:#ffffff;stroke:#ffffff;stroke-width:0.2;stroke-linecap:butt;stroke-linejoin:miter;stroke-miterlimit:4;stroke-opacity:1;stroke-dasharray:none"
           d="m 22.929825,1026.1083 2.007766,0"
           id="path3818"
           inkscape:connector-curvature="0"
           sodipodi:nodetypes="cc" />
        <path
           sodipodi:type="arc"
           style="fill:#ffffff;fill-opacity:1;stroke:#ffffff;stroke-width:0.2;stroke-linecap:square;stroke-miterlimit:4;stroke-opacity:1;stroke-dasharray:none"
           id="path3846"
           sodipodi:cx="20.130445"
           sodipodi:cy="19.649437"
           sodipodi:rx="0.46403882"
           sodipodi:ry="0.46403882"
           d="m 20.594484,19.649437 c 0,0.256282 -0.207757,0.464039 -0.464039,0.464039 -0.256281,0 -0.464038,-0.207757 -0.464038,-0.464039 0,-0.256282 0.207757,-0.464039 0.464038,-0.464039 0.256282,0 0.464039,0.207757 0.464039,0.464039 z"
           transform="translate(1.5698454,1002.3932)" />
        <path
           transform="translate(7.8223688,1011.7868)"
           d="m 20.594484,19.649437 c 0,0.256282 -0.207757,0.464039 -0.464039,0.464039 -0.256281,0 -0.464038,-0.207757 -0.464038,-0.464039 0,-0.256282 0.207757,-0.464039 0.464038,-0.464039 0.256282,0 0.464039,0.207757 0.464039,0.464039 z"
           sodipodi:ry="0.46403882"
           sodipodi:rx="0.46403882"
           sodipodi:cy="19.649437"
           sodipodi:cx="20.130445"
           id="path3852"
           style="opacity:0.5;fill:#ffffff;fill-opacity:1;stroke:#ffffff;stroke-width:0.2;stroke-linecap:square;stroke-miterlimit:4;stroke-opacity:1;stroke-dasharray:none;filter:url(#filter3998)"
           sodipodi:type="arc" />
        <path
           transform="translate(-0.58536607,1011.2802)"
           d="m 20.594484,19.649437 c 0,0.256282 -0.207757,0.464039 -0.464039,0.464039 -0.256281,0 -0.464038,-0.207757 -0.464038,-0.464039 0,-0.256282 0.207757,-0.464039 0.464038,-0.464039 0.256282,0 0.464039,0.207757 0.464039,0.464039 z"
           sodipodi:ry="0.46403882"
           sodipodi:rx="0.46403882"
           sodipodi:cy="19.649437"
           sodipodi:cx="20.130445"
           id="path3854"
           style="fill:#ffffff;fill-opacity:1;stroke:#ffffff;stroke-width:0.2;stroke-linecap:square;stroke-miterlimit:4;stroke-opacity:1;stroke-dasharray:none"
           sodipodi:type="arc" />
        <path
           transform="matrix(1.4938469,0,0,1.1468464,-8.3754198,999.50556)"
           d="m 20.594484,19.649437 c 0,0.256282 -0.207757,0.464039 -0.464039,0.464039 -0.256281,0 -0.464038,-0.207757 -0.464038,-0.464039 0,-0.256282 0.207757,-0.464039 0.464038,-0.464039 0.256282,0 0.464039,0.207757 0.464039,0.464039 z"
           sodipodi:ry="0.46403882"
           sodipodi:rx="0.46403882"
           sodipodi:cy="19.649437"
           sodipodi:cx="20.130445"
           id="path3904"
           style="opacity:0.67000002;fill:#ffffff;fill-opacity:1;stroke:none;filter:url(#filter3900)"
           sodipodi:type="arc" />
      </g>
    </g>
  </g>
</svg>
