<?xml version="1.0" encoding="UTF-8" standalone="no"?>
<!-- Created with Inkscape (http://www.inkscape.org/) -->

<svg
   xmlns:dc="http://purl.org/dc/elements/1.1/"
   xmlns:cc="http://creativecommons.org/ns#"
   xmlns:rdf="http://www.w3.org/1999/02/22-rdf-syntax-ns#"
   xmlns:svg="http://www.w3.org/2000/svg"
   xmlns="http://www.w3.org/2000/svg"
   xmlns:xlink="http://www.w3.org/1999/xlink"
   xmlns:sodipodi="http://sodipodi.sourceforge.net/DTD/sodipodi-0.dtd"
   xmlns:inkscape="http://www.inkscape.org/namespaces/inkscape"
   width="48"
   height="48"
   id="svg6393"
   version="1.1"
   inkscape:version="0.48+devel r11521"
   sodipodi:docname="evolution-tasks.svg">
  <defs
     id="defs6395">
    <linearGradient
       gradientTransform="translate(401.71429,708.3622)"
       inkscape:collect="always"
       xlink:href="#linearGradient3952-2"
       id="linearGradient7166"
       x1="24.6875"
       y1="5.0624995"
       x2="24.6875"
       y2="0.56076348"
       gradientUnits="userSpaceOnUse" />
    <linearGradient
       id="linearGradient3952-2">
      <stop
         id="stop3954-7"
         offset="0"
         style="stop-color:#646464;stop-opacity:1;" />
      <stop
         id="stop3956-0"
         offset="1"
         style="stop-color:#f0f0f0;stop-opacity:1;" />
    </linearGradient>
    <linearGradient
       inkscape:collect="always"
       xlink:href="#linearGradient3795"
       id="linearGradient914"
       x1="24.304193"
       y1="1050.2826"
       x2="24.304193"
       y2="1009.5356"
       gradientUnits="userSpaceOnUse" />
    <linearGradient
       id="linearGradient3795">
      <stop
         style="stop-color:#e5c96d;stop-opacity:1;"
         offset="0"
         id="stop3797" />
      <stop
         style="stop-color:#ebdf7b;stop-opacity:1;"
         offset="1"
         id="stop3799" />
    </linearGradient>
  </defs>
  <sodipodi:namedview
     id="base"
     pagecolor="#ffffff"
     bordercolor="#666666"
     borderopacity="1.0"
     inkscape:pageopacity="0.0"
     inkscape:pageshadow="2"
     inkscape:zoom="11.2"
     inkscape:cx="31.612508"
     inkscape:cy="23.652813"
     inkscape:document-units="px"
     inkscape:current-layer="layer1"
     showgrid="false"
     fit-margin-top="0"
     fit-margin-left="0"
     fit-margin-right="0"
     fit-margin-bottom="0"
     inkscape:window-width="1920"
     inkscape:window-height="1035"
     inkscape:window-x="0"
     inkscape:window-y="26"
     inkscape:window-maximized="1" />
  <metadata
     id="metadata6398">
    <rdf:RDF>
      <cc:Work
         rdf:about="">
        <dc:format>image/svg+xml</dc:format>
        <dc:type
           rdf:resource="http://purl.org/dc/dcmitype/StillImage" />
        <dc:title />
      </cc:Work>
    </rdf:RDF>
  </metadata>
  <g
     inkscape:label="Capa 1"
     inkscape:groupmode="layer"
     id="layer1"
     transform="translate(-401.71429,-708.36218)">
    <rect
       style="fill:#d45500;fill-opacity:1;stroke:#7d7d7d;stroke-width:0.39848712;stroke-miterlimit:4;stroke-opacity:1;stroke-dasharray:none"
       id="rect3184"
       width="44.601513"
       height="44.601513"
       x="403.41354"
       y="710.0614"
       ry="5.6755357" />
    <rect
       style="opacity:0.35648151;fill:none;stroke:none"
       id="rect4543"
       width="48"
       height="48"
       x="401.71429"
       y="708.36218" />
    <g
       id="g10125"
       transform="matrix(1.2814902,0,0,0.90110485,403.08117,-194.29998)">
      <rect
         style="fill:#999999;fill-rule:evenodd;stroke:none"
         id="rect6355"
         width="32.863087"
         height="46.760765"
         x="1.2300277"
         y="1004.9818"
         ry="4.4183249" />
    </g>
    <rect
       style="fill:#f9f9f9;fill-opacity:1;fill-rule:evenodd;stroke:none"
       id="rect6353"
       width="40.706001"
       height="40.961403"
       x="405.3613"
       y="711.88147"
       ry="4.0881591" />
    <rect
       style="fill:url(#linearGradient7166);fill-opacity:1;stroke:none"
       id="rect6390"
       width="13.25"
       height="4.375"
       x="419.33929"
       y="709.23718"
       ry="0.7534287" />
    <g
       id="g6393"
       transform="translate(405.27679,-296.00002)">
      <path
         inkscape:connector-curvature="0"
         id="path7168"
         d="m 17,1018.6122 15.875,0"
         style="fill:none;stroke:#808080;stroke-width:1px;stroke-linecap:butt;stroke-linejoin:miter;stroke-opacity:1"
         sodipodi:nodetypes="cc" />
      <path
         inkscape:connector-curvature="0"
         id="path7170"
         d="m 16.6875,1023.3622 16.25,0"
         style="fill:none;stroke:#808080;stroke-width:1px;stroke-linecap:butt;stroke-linejoin:miter;stroke-opacity:1"
         sodipodi:nodetypes="cc" />
      <path
         inkscape:connector-curvature="0"
         id="path7172"
         d="m 17,1028.1122 15.875,0"
         style="fill:none;stroke:#808080;stroke-width:1px;stroke-linecap:butt;stroke-linejoin:miter;stroke-opacity:1"
         sodipodi:nodetypes="cc" />
      <path
         inkscape:connector-curvature="0"
         id="path7174"
         d="m 16.9375,1032.8622 15.8125,0"
         style="fill:none;stroke:#808080;stroke-width:1px;stroke-linecap:butt;stroke-linejoin:miter;stroke-opacity:1"
         sodipodi:nodetypes="cc" />
    </g>
    <path
       style="fill:none;stroke:#808080;stroke-width:1px;stroke-linecap:butt;stroke-linejoin:miter;stroke-opacity:1"
       d="m 412.58929,741.6122 c 0.5,0 26.375,0 26.375,0"
       id="path7176"
       inkscape:connector-curvature="0" />
    <path
       style="fill:none;stroke:#808080;stroke-width:1px;stroke-linecap:butt;stroke-linejoin:miter;stroke-opacity:1"
       d="m 413.27679,746.3622 25,0"
       id="path7178"
       inkscape:connector-curvature="0" />
    <rect
       style="fill:none;stroke:#808080;stroke-width:0.89999998;stroke-linecap:round;stroke-linejoin:round;stroke-miterlimit:4;stroke-opacity:1;stroke-dasharray:none"
       id="rect6399"
       width="6.5"
       height="6.8125"
       x="413.52679"
       y="722.54968"
       ry="0.67891824" />
    <rect
       ry="0.67891824"
       y="731.23718"
       x="413.52679"
       height="6.8125"
       width="6.5"
       id="rect7169"
       style="fill:none;stroke:#808080;stroke-width:0.89999998;stroke-linecap:round;stroke-linejoin:round;stroke-miterlimit:4;stroke-opacity:1;stroke-dasharray:none" />
    <path
       style="fill:none;stroke:#d40000;stroke-width:1px;stroke-linecap:butt;stroke-linejoin:miter;stroke-opacity:1"
       d="m 415.46429,725.6747 2.03125,2.03125 c 0.40625,-1.96875 3.78125,-7.59375 5.46875,-8.03125"
       id="path7171"
       inkscape:connector-curvature="0" />
  </g>
</svg>
