<?xml version="1.0" encoding="UTF-8" standalone="no"?>
<!-- Created with Inkscape (http://www.inkscape.org/) -->

<svg
   xmlns:dc="http://purl.org/dc/elements/1.1/"
   xmlns:cc="http://creativecommons.org/ns#"
   xmlns:rdf="http://www.w3.org/1999/02/22-rdf-syntax-ns#"
   xmlns:svg="http://www.w3.org/2000/svg"
   xmlns="http://www.w3.org/2000/svg"
   xmlns:xlink="http://www.w3.org/1999/xlink"
   xmlns:sodipodi="http://sodipodi.sourceforge.net/DTD/sodipodi-0.dtd"
   xmlns:inkscape="http://www.inkscape.org/namespaces/inkscape"
   width="48"
   height="48"
   id="svg2"
   version="1.1"
   inkscape:version="0.48+devel r11701"
   sodipodi:docname="kazam.svg">
  <defs
     id="defs4">
    <linearGradient
       id="linearGradient3795">
      <stop
         style="stop-color:#f13939;stop-opacity:1;"
         offset="0"
         id="stop3797" />
      <stop
         style="stop-color:#9d4221;stop-opacity:1;"
         offset="1"
         id="stop3799" />
    </linearGradient>
    <linearGradient
       id="linearGradient3698">
      <stop
         id="stop3700"
         offset="0"
         style="stop-color:#96d0e1;stop-opacity:1" />
      <stop
         style="stop-color:#89b7e1;stop-opacity:1"
         offset="0.67819428"
         id="stop3706" />
      <stop
         id="stop3702"
         offset="1"
         style="stop-color:#699dd3;stop-opacity:1" />
    </linearGradient>
    <linearGradient
       id="linearGradient3708">
      <stop
         id="stop3710"
         offset="0"
         style="stop-color:#ff0ed0;stop-opacity:1;" />
      <stop
         id="stop3712"
         offset="1"
         style="stop-color:#8040a0;stop-opacity:1;" />
    </linearGradient>
    <linearGradient
       id="linearGradient3750">
      <stop
         style="stop-color:#d0e2f1;stop-opacity:1"
         offset="0"
         id="stop3752" />
      <stop
         id="stop3756"
         offset="0.85580856"
         style="stop-color:#cadef0;stop-opacity:1" />
      <stop
         style="stop-color:#95bee3;stop-opacity:1"
         offset="1"
         id="stop3754" />
    </linearGradient>
    <linearGradient
       id="linearGradient3803">
      <stop
         id="stop3805"
         offset="0"
         style="stop-color:#d7def0;stop-opacity:1;" />
      <stop
         style="stop-color:#ffffff;stop-opacity:1"
         offset="0.5"
         id="stop3811" />
      <stop
         id="stop3807"
         offset="1"
         style="stop-color:#d5def0;stop-opacity:1" />
    </linearGradient>
    <linearGradient
       inkscape:collect="always"
       xlink:href="#linearGradient3795"
       id="linearGradient3859"
       x1="26.192217"
       y1="1024.0002"
       x2="28.641211"
       y2="1024.0002"
       gradientUnits="userSpaceOnUse" />
    <linearGradient
       inkscape:collect="always"
       xlink:href="#linearGradient3795"
       id="linearGradient3867"
       gradientUnits="userSpaceOnUse"
       x1="26.192217"
       y1="1024.0002"
       x2="28.641211"
       y2="1024.0002" />
    <linearGradient
       inkscape:collect="always"
       xlink:href="#linearGradient3795"
       id="linearGradient3869"
       gradientUnits="userSpaceOnUse"
       x1="26.192217"
       y1="1024.0002"
       x2="28.641211"
       y2="1024.0002" />
    <linearGradient
       inkscape:collect="always"
       xlink:href="#linearGradient3795"
       id="linearGradient3871"
       gradientUnits="userSpaceOnUse"
       x1="26.192217"
       y1="1024.0002"
       x2="28.641211"
       y2="1024.0002" />
    <linearGradient
       inkscape:collect="always"
       xlink:href="#linearGradient3795"
       id="linearGradient3877"
       gradientUnits="userSpaceOnUse"
       x1="29.718235"
       y1="1027.8575"
       x2="22.811094"
       y2="1015.5485" />
    <linearGradient
       inkscape:collect="always"
       xlink:href="#linearGradient3795"
       id="linearGradient3879"
       gradientUnits="userSpaceOnUse"
       x1="17.196316"
       y1="1006.2238"
       x2="31.448042"
       y2="1030.9086" />
    <linearGradient
       inkscape:collect="always"
       xlink:href="#linearGradient3795"
       id="linearGradient3895"
       x1="21.973417"
       y1="34.43922"
       x2="42.475323"
       y2="24.798252"
       gradientUnits="userSpaceOnUse" />
    <linearGradient
       id="linearGradient6028-5"
       spreadMethod="pad"
       gradientTransform="matrix(8.9236298,-8.7622833,-8.7622833,-8.9236298,358.05371,253.4624)"
       gradientUnits="userSpaceOnUse"
       y2="0"
       x2="1"
       y1="0"
       x1="0">
      <stop
         id="stop6030-6"
         offset="0"
         style="stop-opacity:1;stop-color:#b3b3b3" />
      <stop
         id="stop6032-3"
         offset="0.181824"
         style="stop-opacity:1;stop-color:#f2f2f2" />
      <stop
         id="stop6034-9"
         offset="0.181824"
         style="stop-opacity:1;stop-color:#f2f2f2" />
      <stop
         id="stop6036-5"
         offset="0.569702"
         style="stop-opacity:1;stop-color:#cccccc" />
      <stop
         id="stop6038-3"
         offset="1"
         style="stop-opacity:1;stop-color:#4d4d4d" />
    </linearGradient>
    <linearGradient
       id="linearGradient6140-0"
       spreadMethod="pad"
       gradientTransform="matrix(0,13.048828,13.048828,0,314.271,211.46484)"
       gradientUnits="userSpaceOnUse"
       y2="0"
       x2="1"
       y1="0"
       x1="0">
      <stop
         id="stop6142-2"
         offset="0"
         style="stop-opacity:1;stop-color:#ffffff" />
      <stop
         id="stop6144-1"
         offset="1"
         style="stop-opacity:1;stop-color:#cccccc" />
    </linearGradient>
    <linearGradient
       id="linearGradient6160-1"
       spreadMethod="pad"
       gradientTransform="matrix(0,15.197266,15.197266,0,295.90918,213.51855)"
       gradientUnits="userSpaceOnUse"
       y2="0"
       x2="1"
       y1="0"
       x1="0">
      <stop
         id="stop6162-3"
         offset="0"
         style="stop-opacity:1;stop-color:#ffffff" />
      <stop
         id="stop6164-1"
         offset="1"
         style="stop-opacity:1;stop-color:#cccccc" />
    </linearGradient>
    <linearGradient
       id="linearGradient6120-8"
       spreadMethod="pad"
       gradientTransform="matrix(0,13.029297,13.029297,0,304.70117,224.2373)"
       gradientUnits="userSpaceOnUse"
       y2="0"
       x2="1"
       y1="0"
       x1="0">
      <stop
         id="stop6122-5"
         offset="0"
         style="stop-opacity:1;stop-color:#ffffff" />
      <stop
         id="stop6124-6"
         offset="1"
         style="stop-opacity:1;stop-color:#cccccc" />
    </linearGradient>
    <linearGradient
       id="linearGradient6100-6"
       spreadMethod="pad"
       gradientTransform="matrix(0,13.028809,13.028809,0,291.67236,228.46191)"
       gradientUnits="userSpaceOnUse"
       y2="0"
       x2="1"
       y1="0"
       x1="0">
      <stop
         id="stop6102-1"
         offset="0"
         style="stop-opacity:1;stop-color:#ffffff" />
      <stop
         id="stop6104-8"
         offset="1"
         style="stop-opacity:1;stop-color:#cccccc" />
    </linearGradient>
    <linearGradient
       id="linearGradient6080-3"
       spreadMethod="pad"
       gradientTransform="matrix(0,20.888184,20.888184,0,312.28076,232.03711)"
       gradientUnits="userSpaceOnUse"
       y2="0"
       x2="1"
       y1="0"
       x1="0">
      <stop
         id="stop6082-5"
         offset="0"
         style="stop-opacity:1;stop-color:#ffffff" />
      <stop
         id="stop6084-6"
         offset="1"
         style="stop-opacity:1;stop-color:#cccccc" />
    </linearGradient>
    <linearGradient
       id="linearGradient6200-4"
       spreadMethod="pad"
       gradientTransform="matrix(0,23.672363,23.672363,0,285.15771,236.4248)"
       gradientUnits="userSpaceOnUse"
       y2="0"
       x2="1"
       y1="0"
       x1="0">
      <stop
         id="stop6202-8"
         offset="0"
         style="stop-opacity:1;stop-color:#ffffff" />
      <stop
         id="stop6204-3"
         offset="1"
         style="stop-opacity:1;stop-color:#cccccc" />
    </linearGradient>
    <linearGradient
       id="linearGradient6180-4"
       spreadMethod="pad"
       gradientTransform="matrix(0,22.686035,22.686035,0,300.93701,254.41797)"
       gradientUnits="userSpaceOnUse"
       y2="0"
       x2="1"
       y1="0"
       x1="0">
      <stop
         id="stop6182-1"
         offset="0"
         style="stop-opacity:1;stop-color:#ffffff" />
      <stop
         id="stop6184-4"
         offset="1"
         style="stop-opacity:1;stop-color:#cccccc" />
    </linearGradient>
    <linearGradient
       inkscape:collect="always"
       xlink:href="#linearGradient6200-4"
       id="linearGradient3739"
       gradientUnits="userSpaceOnUse"
       x1="249.13963"
       y1="281.12488"
       x2="248.55756"
       y2="223.0885" />
    <linearGradient
       id="linearGradient3793"
       spreadMethod="pad"
       gradientTransform="matrix(0,23.672363,23.672363,0,285.15771,236.4248)"
       gradientUnits="userSpaceOnUse"
       y2="0"
       x2="1"
       y1="0"
       x1="0">
      <stop
         id="stop3795"
         offset="0"
         style="stop-opacity:1;stop-color:#ffffff" />
      <stop
         id="stop3797-3"
         offset="1"
         style="stop-opacity:1;stop-color:#cccccc" />
    </linearGradient>
    <clipPath
       id="clipPath5860-7"
       clipPathUnits="userSpaceOnUse">
      <path
         inkscape:connector-curvature="0"
         id="path5862-1"
         d="M 0,480 640,480 640,0 0,0 0,480 z" />
    </clipPath>
    <linearGradient
       inkscape:collect="always"
       xlink:href="#linearGradient6200-4"
       id="linearGradient3737"
       gradientUnits="userSpaceOnUse"
       x1="249.13963"
       y1="281.12488"
       x2="248.55756"
       y2="223.0885" />
    <linearGradient
       id="linearGradient3802"
       spreadMethod="pad"
       gradientTransform="matrix(0,23.672363,23.672363,0,285.15771,236.4248)"
       gradientUnits="userSpaceOnUse"
       y2="0"
       x2="1"
       y1="0"
       x1="0">
      <stop
         id="stop3804"
         offset="0"
         style="stop-opacity:1;stop-color:#ffffff" />
      <stop
         id="stop3806"
         offset="1"
         style="stop-opacity:1;stop-color:#cccccc" />
    </linearGradient>
    <linearGradient
       inkscape:collect="always"
       xlink:href="#linearGradient6200-4"
       id="linearGradient3661"
       gradientUnits="userSpaceOnUse"
       x1="249.13963"
       y1="281.12488"
       x2="248.55756"
       y2="223.0885" />
    <linearGradient
       id="linearGradient3809"
       spreadMethod="pad"
       gradientTransform="matrix(0,23.672363,23.672363,0,285.15771,236.4248)"
       gradientUnits="userSpaceOnUse"
       y2="0"
       x2="1"
       y1="0"
       x1="0">
      <stop
         id="stop3811-9"
         offset="0"
         style="stop-opacity:1;stop-color:#ffffff" />
      <stop
         id="stop3813"
         offset="1"
         style="stop-opacity:1;stop-color:#cccccc" />
    </linearGradient>
    <linearGradient
       inkscape:collect="always"
       xlink:href="#linearGradient6200-4"
       id="linearGradient3735"
       gradientUnits="userSpaceOnUse"
       x1="249.13963"
       y1="281.12488"
       x2="248.55756"
       y2="223.0885" />
    <linearGradient
       id="linearGradient3816"
       spreadMethod="pad"
       gradientTransform="matrix(0,23.672363,23.672363,0,285.15771,236.4248)"
       gradientUnits="userSpaceOnUse"
       y2="0"
       x2="1"
       y1="0"
       x1="0">
      <stop
         id="stop3818"
         offset="0"
         style="stop-opacity:1;stop-color:#ffffff" />
      <stop
         id="stop3820"
         offset="1"
         style="stop-opacity:1;stop-color:#cccccc" />
    </linearGradient>
    <linearGradient
       inkscape:collect="always"
       xlink:href="#linearGradient6200-4"
       id="linearGradient3733"
       gradientUnits="userSpaceOnUse"
       x1="249.13963"
       y1="281.12488"
       x2="248.55756"
       y2="223.0885" />
    <linearGradient
       id="linearGradient3823"
       spreadMethod="pad"
       gradientTransform="matrix(0,23.672363,23.672363,0,285.15771,236.4248)"
       gradientUnits="userSpaceOnUse"
       y2="0"
       x2="1"
       y1="0"
       x1="0">
      <stop
         id="stop3825"
         offset="0"
         style="stop-opacity:1;stop-color:#ffffff" />
      <stop
         id="stop3827"
         offset="1"
         style="stop-opacity:1;stop-color:#cccccc" />
    </linearGradient>
    <clipPath
       id="clipPath5868-3"
       clipPathUnits="userSpaceOnUse">
      <path
         inkscape:connector-curvature="0"
         id="path5870-4"
         d="m 239.976,283.323 19.927,0 0,-62.869 -19.927,0 0,62.869 z" />
    </clipPath>
    <linearGradient
       inkscape:collect="always"
       xlink:href="#linearGradient6200-4"
       id="linearGradient3671"
       gradientUnits="userSpaceOnUse"
       x1="249.13963"
       y1="281.12488"
       x2="248.55756"
       y2="223.0885" />
    <linearGradient
       id="linearGradient3832"
       spreadMethod="pad"
       gradientTransform="matrix(0,23.672363,23.672363,0,285.15771,236.4248)"
       gradientUnits="userSpaceOnUse"
       y2="0"
       x2="1"
       y1="0"
       x1="0">
      <stop
         id="stop3834"
         offset="0"
         style="stop-opacity:1;stop-color:#ffffff" />
      <stop
         id="stop3836"
         offset="1"
         style="stop-opacity:1;stop-color:#cccccc" />
    </linearGradient>
    <linearGradient
       inkscape:collect="always"
       xlink:href="#linearGradient6200-4"
       id="linearGradient3669"
       gradientUnits="userSpaceOnUse"
       x1="249.13963"
       y1="281.12488"
       x2="248.55756"
       y2="223.0885" />
    <linearGradient
       id="linearGradient3839"
       spreadMethod="pad"
       gradientTransform="matrix(0,23.672363,23.672363,0,285.15771,236.4248)"
       gradientUnits="userSpaceOnUse"
       y2="0"
       x2="1"
       y1="0"
       x1="0">
      <stop
         id="stop3841"
         offset="0"
         style="stop-opacity:1;stop-color:#ffffff" />
      <stop
         id="stop3843"
         offset="1"
         style="stop-opacity:1;stop-color:#cccccc" />
    </linearGradient>
    <linearGradient
       inkscape:collect="always"
       xlink:href="#linearGradient6200-4"
       id="linearGradient3667"
       gradientUnits="userSpaceOnUse"
       x1="249.13963"
       y1="281.12488"
       x2="248.55756"
       y2="223.0885" />
    <linearGradient
       id="linearGradient3846"
       spreadMethod="pad"
       gradientTransform="matrix(0,23.672363,23.672363,0,285.15771,236.4248)"
       gradientUnits="userSpaceOnUse"
       y2="0"
       x2="1"
       y1="0"
       x1="0">
      <stop
         id="stop3848"
         offset="0"
         style="stop-opacity:1;stop-color:#ffffff" />
      <stop
         id="stop3850"
         offset="1"
         style="stop-opacity:1;stop-color:#cccccc" />
    </linearGradient>
    <linearGradient
       inkscape:collect="always"
       xlink:href="#linearGradient6200-4"
       id="linearGradient3665"
       gradientUnits="userSpaceOnUse"
       x1="249.13963"
       y1="281.12488"
       x2="248.55756"
       y2="223.0885" />
    <linearGradient
       id="linearGradient3853"
       spreadMethod="pad"
       gradientTransform="matrix(0,23.672363,23.672363,0,285.15771,236.4248)"
       gradientUnits="userSpaceOnUse"
       y2="0"
       x2="1"
       y1="0"
       x1="0">
      <stop
         id="stop3855"
         offset="0"
         style="stop-opacity:1;stop-color:#ffffff" />
      <stop
         id="stop3857"
         offset="1"
         style="stop-opacity:1;stop-color:#cccccc" />
    </linearGradient>
    <linearGradient
       id="linearGradient3860"
       spreadMethod="pad"
       gradientTransform="matrix(0,23.672363,23.672363,0,285.15771,236.4248)"
       gradientUnits="userSpaceOnUse"
       y2="0"
       x2="1"
       y1="0"
       x1="0">
      <stop
         id="stop3862"
         offset="0"
         style="stop-opacity:1;stop-color:#ffffff" />
      <stop
         id="stop3864"
         offset="1"
         style="stop-opacity:1;stop-color:#cccccc" />
    </linearGradient>
    <linearGradient
       inkscape:collect="always"
       xlink:href="#linearGradient6200-4"
       id="linearGradient3681"
       gradientUnits="userSpaceOnUse"
       x1="249.13963"
       y1="281.12488"
       x2="248.55756"
       y2="223.0885" />
    <linearGradient
       id="linearGradient3867-4"
       spreadMethod="pad"
       gradientTransform="matrix(0,23.672363,23.672363,0,285.15771,236.4248)"
       gradientUnits="userSpaceOnUse"
       y2="0"
       x2="1"
       y1="0"
       x1="0">
      <stop
         id="stop3869"
         offset="0"
         style="stop-opacity:1;stop-color:#ffffff" />
      <stop
         id="stop3871"
         offset="1"
         style="stop-opacity:1;stop-color:#cccccc" />
    </linearGradient>
    <linearGradient
       inkscape:collect="always"
       xlink:href="#linearGradient6200-4"
       id="linearGradient3679"
       gradientUnits="userSpaceOnUse"
       x1="249.13963"
       y1="281.12488"
       x2="248.55756"
       y2="223.0885" />
    <linearGradient
       id="linearGradient3874"
       spreadMethod="pad"
       gradientTransform="matrix(0,23.672363,23.672363,0,285.15771,236.4248)"
       gradientUnits="userSpaceOnUse"
       y2="0"
       x2="1"
       y1="0"
       x1="0">
      <stop
         id="stop3876"
         offset="0"
         style="stop-opacity:1;stop-color:#ffffff" />
      <stop
         id="stop3878"
         offset="1"
         style="stop-opacity:1;stop-color:#cccccc" />
    </linearGradient>
    <linearGradient
       inkscape:collect="always"
       xlink:href="#linearGradient6200-4"
       id="linearGradient3677"
       gradientUnits="userSpaceOnUse"
       x1="249.13963"
       y1="281.12488"
       x2="248.55756"
       y2="223.0885" />
    <linearGradient
       id="linearGradient3881"
       spreadMethod="pad"
       gradientTransform="matrix(0,23.672363,23.672363,0,285.15771,236.4248)"
       gradientUnits="userSpaceOnUse"
       y2="0"
       x2="1"
       y1="0"
       x1="0">
      <stop
         id="stop3883"
         offset="0"
         style="stop-opacity:1;stop-color:#ffffff" />
      <stop
         id="stop3885"
         offset="1"
         style="stop-opacity:1;stop-color:#cccccc" />
    </linearGradient>
    <linearGradient
       inkscape:collect="always"
       xlink:href="#linearGradient6200-4"
       id="linearGradient3675"
       gradientUnits="userSpaceOnUse"
       x1="249.13963"
       y1="281.12488"
       x2="248.55756"
       y2="223.0885" />
    <linearGradient
       id="linearGradient3888"
       spreadMethod="pad"
       gradientTransform="matrix(0,23.672363,23.672363,0,285.15771,236.4248)"
       gradientUnits="userSpaceOnUse"
       y2="0"
       x2="1"
       y1="0"
       x1="0">
      <stop
         id="stop3890"
         offset="0"
         style="stop-opacity:1;stop-color:#ffffff" />
      <stop
         id="stop3892"
         offset="1"
         style="stop-opacity:1;stop-color:#cccccc" />
    </linearGradient>
    <linearGradient
       id="linearGradient3895-7"
       spreadMethod="pad"
       gradientTransform="matrix(0,23.672363,23.672363,0,285.15771,236.4248)"
       gradientUnits="userSpaceOnUse"
       y2="0"
       x2="1"
       y1="0"
       x1="0">
      <stop
         id="stop3897"
         offset="0"
         style="stop-opacity:1;stop-color:#ffffff" />
      <stop
         id="stop3899"
         offset="1"
         style="stop-opacity:1;stop-color:#cccccc" />
    </linearGradient>
    <linearGradient
       inkscape:collect="always"
       xlink:href="#linearGradient6200-4"
       id="linearGradient3691"
       gradientUnits="userSpaceOnUse"
       x1="249.13963"
       y1="281.12488"
       x2="248.55756"
       y2="223.0885" />
    <linearGradient
       id="linearGradient3902-1"
       spreadMethod="pad"
       gradientTransform="matrix(0,23.672363,23.672363,0,285.15771,236.4248)"
       gradientUnits="userSpaceOnUse"
       y2="0"
       x2="1"
       y1="0"
       x1="0">
      <stop
         id="stop3904"
         offset="0"
         style="stop-opacity:1;stop-color:#ffffff" />
      <stop
         id="stop3906"
         offset="1"
         style="stop-opacity:1;stop-color:#cccccc" />
    </linearGradient>
    <linearGradient
       inkscape:collect="always"
       xlink:href="#linearGradient6200-4"
       id="linearGradient3689"
       gradientUnits="userSpaceOnUse"
       x1="249.13963"
       y1="281.12488"
       x2="248.55756"
       y2="223.0885" />
    <linearGradient
       id="linearGradient3909"
       spreadMethod="pad"
       gradientTransform="matrix(0,23.672363,23.672363,0,285.15771,236.4248)"
       gradientUnits="userSpaceOnUse"
       y2="0"
       x2="1"
       y1="0"
       x1="0">
      <stop
         id="stop3911"
         offset="0"
         style="stop-opacity:1;stop-color:#ffffff" />
      <stop
         id="stop3913"
         offset="1"
         style="stop-opacity:1;stop-color:#cccccc" />
    </linearGradient>
    <linearGradient
       inkscape:collect="always"
       xlink:href="#linearGradient6200-4"
       id="linearGradient3687"
       gradientUnits="userSpaceOnUse"
       x1="249.13963"
       y1="281.12488"
       x2="248.55756"
       y2="223.0885" />
    <linearGradient
       id="linearGradient3916"
       spreadMethod="pad"
       gradientTransform="matrix(0,23.672363,23.672363,0,285.15771,236.4248)"
       gradientUnits="userSpaceOnUse"
       y2="0"
       x2="1"
       y1="0"
       x1="0">
      <stop
         id="stop3918"
         offset="0"
         style="stop-opacity:1;stop-color:#ffffff" />
      <stop
         id="stop3920"
         offset="1"
         style="stop-opacity:1;stop-color:#cccccc" />
    </linearGradient>
    <linearGradient
       inkscape:collect="always"
       xlink:href="#linearGradient6200-4"
       id="linearGradient3685"
       gradientUnits="userSpaceOnUse"
       x1="249.13963"
       y1="281.12488"
       x2="248.55756"
       y2="223.0885" />
    <linearGradient
       id="linearGradient3923"
       spreadMethod="pad"
       gradientTransform="matrix(0,23.672363,23.672363,0,285.15771,236.4248)"
       gradientUnits="userSpaceOnUse"
       y2="0"
       x2="1"
       y1="0"
       x1="0">
      <stop
         id="stop3925"
         offset="0"
         style="stop-opacity:1;stop-color:#ffffff" />
      <stop
         id="stop3927"
         offset="1"
         style="stop-opacity:1;stop-color:#cccccc" />
    </linearGradient>
    <linearGradient
       id="linearGradient3930"
       spreadMethod="pad"
       gradientTransform="matrix(0,23.672363,23.672363,0,285.15771,236.4248)"
       gradientUnits="userSpaceOnUse"
       y2="0"
       x2="1"
       y1="0"
       x1="0">
      <stop
         id="stop3932"
         offset="0"
         style="stop-opacity:1;stop-color:#ffffff" />
      <stop
         id="stop3934"
         offset="1"
         style="stop-opacity:1;stop-color:#cccccc" />
    </linearGradient>
    <linearGradient
       inkscape:collect="always"
       xlink:href="#linearGradient6200-4"
       id="linearGradient3701"
       gradientUnits="userSpaceOnUse"
       x1="249.13963"
       y1="281.12488"
       x2="248.55756"
       y2="223.0885" />
    <linearGradient
       id="linearGradient3937"
       spreadMethod="pad"
       gradientTransform="matrix(0,23.672363,23.672363,0,285.15771,236.4248)"
       gradientUnits="userSpaceOnUse"
       y2="0"
       x2="1"
       y1="0"
       x1="0">
      <stop
         id="stop3939"
         offset="0"
         style="stop-opacity:1;stop-color:#ffffff" />
      <stop
         id="stop3941"
         offset="1"
         style="stop-opacity:1;stop-color:#cccccc" />
    </linearGradient>
    <linearGradient
       inkscape:collect="always"
       xlink:href="#linearGradient6200-4"
       id="linearGradient3699"
       gradientUnits="userSpaceOnUse"
       x1="249.13963"
       y1="281.12488"
       x2="248.55756"
       y2="223.0885" />
    <linearGradient
       id="linearGradient3944"
       spreadMethod="pad"
       gradientTransform="matrix(0,23.672363,23.672363,0,285.15771,236.4248)"
       gradientUnits="userSpaceOnUse"
       y2="0"
       x2="1"
       y1="0"
       x1="0">
      <stop
         id="stop3946"
         offset="0"
         style="stop-opacity:1;stop-color:#ffffff" />
      <stop
         id="stop3948"
         offset="1"
         style="stop-opacity:1;stop-color:#cccccc" />
    </linearGradient>
    <linearGradient
       inkscape:collect="always"
       xlink:href="#linearGradient6200-4"
       id="linearGradient3697"
       gradientUnits="userSpaceOnUse"
       x1="249.13963"
       y1="281.12488"
       x2="248.55756"
       y2="223.0885" />
    <linearGradient
       id="linearGradient3951"
       spreadMethod="pad"
       gradientTransform="matrix(0,23.672363,23.672363,0,285.15771,236.4248)"
       gradientUnits="userSpaceOnUse"
       y2="0"
       x2="1"
       y1="0"
       x1="0">
      <stop
         id="stop3953"
         offset="0"
         style="stop-opacity:1;stop-color:#ffffff" />
      <stop
         id="stop3955"
         offset="1"
         style="stop-opacity:1;stop-color:#cccccc" />
    </linearGradient>
    <linearGradient
       inkscape:collect="always"
       xlink:href="#linearGradient6200-4"
       id="linearGradient3695"
       gradientUnits="userSpaceOnUse"
       x1="249.13963"
       y1="281.12488"
       x2="248.55756"
       y2="223.0885" />
    <linearGradient
       id="linearGradient3958"
       spreadMethod="pad"
       gradientTransform="matrix(0,23.672363,23.672363,0,285.15771,236.4248)"
       gradientUnits="userSpaceOnUse"
       y2="0"
       x2="1"
       y1="0"
       x1="0">
      <stop
         id="stop3960"
         offset="0"
         style="stop-opacity:1;stop-color:#ffffff" />
      <stop
         id="stop3962"
         offset="1"
         style="stop-opacity:1;stop-color:#cccccc" />
    </linearGradient>
    <linearGradient
       id="linearGradient3965"
       spreadMethod="pad"
       gradientTransform="matrix(0,23.672363,23.672363,0,285.15771,236.4248)"
       gradientUnits="userSpaceOnUse"
       y2="0"
       x2="1"
       y1="0"
       x1="0">
      <stop
         id="stop3967"
         offset="0"
         style="stop-opacity:1;stop-color:#ffffff" />
      <stop
         id="stop3969"
         offset="1"
         style="stop-opacity:1;stop-color:#cccccc" />
    </linearGradient>
    <linearGradient
       inkscape:collect="always"
       xlink:href="#linearGradient6200-4"
       id="linearGradient3711"
       gradientUnits="userSpaceOnUse"
       x1="249.13963"
       y1="281.12488"
       x2="248.55756"
       y2="223.0885" />
    <linearGradient
       id="linearGradient3972"
       spreadMethod="pad"
       gradientTransform="matrix(0,23.672363,23.672363,0,285.15771,236.4248)"
       gradientUnits="userSpaceOnUse"
       y2="0"
       x2="1"
       y1="0"
       x1="0">
      <stop
         id="stop3974"
         offset="0"
         style="stop-opacity:1;stop-color:#ffffff" />
      <stop
         id="stop3976"
         offset="1"
         style="stop-opacity:1;stop-color:#cccccc" />
    </linearGradient>
    <linearGradient
       inkscape:collect="always"
       xlink:href="#linearGradient6200-4"
       id="linearGradient3709"
       gradientUnits="userSpaceOnUse"
       x1="249.13963"
       y1="281.12488"
       x2="248.55756"
       y2="223.0885" />
    <linearGradient
       id="linearGradient3979"
       spreadMethod="pad"
       gradientTransform="matrix(0,23.672363,23.672363,0,285.15771,236.4248)"
       gradientUnits="userSpaceOnUse"
       y2="0"
       x2="1"
       y1="0"
       x1="0">
      <stop
         id="stop3981"
         offset="0"
         style="stop-opacity:1;stop-color:#ffffff" />
      <stop
         id="stop3983"
         offset="1"
         style="stop-opacity:1;stop-color:#cccccc" />
    </linearGradient>
    <linearGradient
       inkscape:collect="always"
       xlink:href="#linearGradient6200-4"
       id="linearGradient3707"
       gradientUnits="userSpaceOnUse"
       x1="249.13963"
       y1="281.12488"
       x2="248.55756"
       y2="223.0885" />
    <linearGradient
       id="linearGradient3986"
       spreadMethod="pad"
       gradientTransform="matrix(0,23.672363,23.672363,0,285.15771,236.4248)"
       gradientUnits="userSpaceOnUse"
       y2="0"
       x2="1"
       y1="0"
       x1="0">
      <stop
         id="stop3988"
         offset="0"
         style="stop-opacity:1;stop-color:#ffffff" />
      <stop
         id="stop3990"
         offset="1"
         style="stop-opacity:1;stop-color:#cccccc" />
    </linearGradient>
    <linearGradient
       inkscape:collect="always"
       xlink:href="#linearGradient6200-4"
       id="linearGradient3705"
       gradientUnits="userSpaceOnUse"
       x1="249.13963"
       y1="281.12488"
       x2="248.55756"
       y2="223.0885" />
    <linearGradient
       id="linearGradient3993"
       spreadMethod="pad"
       gradientTransform="matrix(0,23.672363,23.672363,0,285.15771,236.4248)"
       gradientUnits="userSpaceOnUse"
       y2="0"
       x2="1"
       y1="0"
       x1="0">
      <stop
         id="stop3995"
         offset="0"
         style="stop-opacity:1;stop-color:#ffffff" />
      <stop
         id="stop3997"
         offset="1"
         style="stop-opacity:1;stop-color:#cccccc" />
    </linearGradient>
    <linearGradient
       id="linearGradient4000"
       spreadMethod="pad"
       gradientTransform="matrix(0,23.672363,23.672363,0,285.15771,236.4248)"
       gradientUnits="userSpaceOnUse"
       y2="0"
       x2="1"
       y1="0"
       x1="0">
      <stop
         id="stop4002"
         offset="0"
         style="stop-opacity:1;stop-color:#ffffff" />
      <stop
         id="stop4004"
         offset="1"
         style="stop-opacity:1;stop-color:#cccccc" />
    </linearGradient>
    <linearGradient
       inkscape:collect="always"
       xlink:href="#linearGradient6200-4"
       id="linearGradient3721"
       gradientUnits="userSpaceOnUse"
       x1="249.13963"
       y1="281.12488"
       x2="248.55756"
       y2="223.0885" />
    <linearGradient
       id="linearGradient4007"
       spreadMethod="pad"
       gradientTransform="matrix(0,23.672363,23.672363,0,285.15771,236.4248)"
       gradientUnits="userSpaceOnUse"
       y2="0"
       x2="1"
       y1="0"
       x1="0">
      <stop
         id="stop4009"
         offset="0"
         style="stop-opacity:1;stop-color:#ffffff" />
      <stop
         id="stop4011"
         offset="1"
         style="stop-opacity:1;stop-color:#cccccc" />
    </linearGradient>
    <linearGradient
       inkscape:collect="always"
       xlink:href="#linearGradient6200-4"
       id="linearGradient3719"
       gradientUnits="userSpaceOnUse"
       x1="249.13963"
       y1="281.12488"
       x2="248.55756"
       y2="223.0885" />
    <linearGradient
       id="linearGradient4014"
       spreadMethod="pad"
       gradientTransform="matrix(0,23.672363,23.672363,0,285.15771,236.4248)"
       gradientUnits="userSpaceOnUse"
       y2="0"
       x2="1"
       y1="0"
       x1="0">
      <stop
         id="stop4016"
         offset="0"
         style="stop-opacity:1;stop-color:#ffffff" />
      <stop
         id="stop4018"
         offset="1"
         style="stop-opacity:1;stop-color:#cccccc" />
    </linearGradient>
    <linearGradient
       inkscape:collect="always"
       xlink:href="#linearGradient6200-4"
       id="linearGradient3717"
       gradientUnits="userSpaceOnUse"
       x1="249.13963"
       y1="281.12488"
       x2="248.55756"
       y2="223.0885" />
    <linearGradient
       id="linearGradient4021"
       spreadMethod="pad"
       gradientTransform="matrix(0,23.672363,23.672363,0,285.15771,236.4248)"
       gradientUnits="userSpaceOnUse"
       y2="0"
       x2="1"
       y1="0"
       x1="0">
      <stop
         id="stop4023"
         offset="0"
         style="stop-opacity:1;stop-color:#ffffff" />
      <stop
         id="stop4025"
         offset="1"
         style="stop-opacity:1;stop-color:#cccccc" />
    </linearGradient>
    <linearGradient
       inkscape:collect="always"
       xlink:href="#linearGradient6200-4"
       id="linearGradient3715"
       gradientUnits="userSpaceOnUse"
       x1="249.13963"
       y1="281.12488"
       x2="248.55756"
       y2="223.0885" />
    <linearGradient
       id="linearGradient4028"
       spreadMethod="pad"
       gradientTransform="matrix(0,23.672363,23.672363,0,285.15771,236.4248)"
       gradientUnits="userSpaceOnUse"
       y2="0"
       x2="1"
       y1="0"
       x1="0">
      <stop
         id="stop4030"
         offset="0"
         style="stop-opacity:1;stop-color:#ffffff" />
      <stop
         id="stop4032"
         offset="1"
         style="stop-opacity:1;stop-color:#cccccc" />
    </linearGradient>
    <linearGradient
       id="linearGradient4035"
       spreadMethod="pad"
       gradientTransform="matrix(0,23.672363,23.672363,0,285.15771,236.4248)"
       gradientUnits="userSpaceOnUse"
       y2="0"
       x2="1"
       y1="0"
       x1="0">
      <stop
         id="stop4037"
         offset="0"
         style="stop-opacity:1;stop-color:#ffffff" />
      <stop
         id="stop4039"
         offset="1"
         style="stop-opacity:1;stop-color:#cccccc" />
    </linearGradient>
    <linearGradient
       inkscape:collect="always"
       xlink:href="#linearGradient6200-4"
       id="linearGradient3731"
       gradientUnits="userSpaceOnUse"
       x1="249.13963"
       y1="281.12488"
       x2="248.55756"
       y2="223.0885" />
    <linearGradient
       id="linearGradient4042"
       spreadMethod="pad"
       gradientTransform="matrix(0,23.672363,23.672363,0,285.15771,236.4248)"
       gradientUnits="userSpaceOnUse"
       y2="0"
       x2="1"
       y1="0"
       x1="0">
      <stop
         id="stop4044"
         offset="0"
         style="stop-opacity:1;stop-color:#ffffff" />
      <stop
         id="stop4046"
         offset="1"
         style="stop-opacity:1;stop-color:#cccccc" />
    </linearGradient>
    <linearGradient
       inkscape:collect="always"
       xlink:href="#linearGradient6200-4"
       id="linearGradient3729"
       gradientUnits="userSpaceOnUse"
       x1="249.13963"
       y1="281.12488"
       x2="248.55756"
       y2="223.0885" />
    <linearGradient
       id="linearGradient4049"
       spreadMethod="pad"
       gradientTransform="matrix(0,23.672363,23.672363,0,285.15771,236.4248)"
       gradientUnits="userSpaceOnUse"
       y2="0"
       x2="1"
       y1="0"
       x1="0">
      <stop
         id="stop4051"
         offset="0"
         style="stop-opacity:1;stop-color:#ffffff" />
      <stop
         id="stop4053"
         offset="1"
         style="stop-opacity:1;stop-color:#cccccc" />
    </linearGradient>
    <linearGradient
       inkscape:collect="always"
       xlink:href="#linearGradient6200-4"
       id="linearGradient3727"
       gradientUnits="userSpaceOnUse"
       x1="249.13963"
       y1="281.12488"
       x2="248.55756"
       y2="223.0885" />
    <linearGradient
       id="linearGradient4056"
       spreadMethod="pad"
       gradientTransform="matrix(0,23.672363,23.672363,0,285.15771,236.4248)"
       gradientUnits="userSpaceOnUse"
       y2="0"
       x2="1"
       y1="0"
       x1="0">
      <stop
         id="stop4058"
         offset="0"
         style="stop-opacity:1;stop-color:#ffffff" />
      <stop
         id="stop4060"
         offset="1"
         style="stop-opacity:1;stop-color:#cccccc" />
    </linearGradient>
    <linearGradient
       inkscape:collect="always"
       xlink:href="#linearGradient6200-4"
       id="linearGradient3725"
       gradientUnits="userSpaceOnUse"
       x1="249.13963"
       y1="281.12488"
       x2="248.55756"
       y2="223.0885" />
    <linearGradient
       id="linearGradient4063"
       spreadMethod="pad"
       gradientTransform="matrix(0,23.672363,23.672363,0,285.15771,236.4248)"
       gradientUnits="userSpaceOnUse"
       y2="0"
       x2="1"
       y1="0"
       x1="0">
      <stop
         id="stop4065"
         offset="0"
         style="stop-opacity:1;stop-color:#ffffff" />
      <stop
         id="stop4067"
         offset="1"
         style="stop-opacity:1;stop-color:#cccccc" />
    </linearGradient>
    <linearGradient
       id="linearGradient4070"
       spreadMethod="pad"
       gradientTransform="matrix(0,23.672363,23.672363,0,285.15771,236.4248)"
       gradientUnits="userSpaceOnUse"
       y2="0"
       x2="1"
       y1="0"
       x1="0">
      <stop
         id="stop4072"
         offset="0"
         style="stop-opacity:1;stop-color:#ffffff" />
      <stop
         id="stop4074"
         offset="1"
         style="stop-opacity:1;stop-color:#cccccc" />
    </linearGradient>
    <linearGradient
       y2="223.0885"
       x2="248.55756"
       y1="281.12488"
       x1="249.13963"
       gradientUnits="userSpaceOnUse"
       id="linearGradient4156"
       xlink:href="#linearGradient6200-4"
       inkscape:collect="always" />
    <linearGradient
       inkscape:collect="always"
       xlink:href="#linearGradient4010"
       id="linearGradient4016"
       x1="25.011299"
       y1="1050.813"
       x2="25.011299"
       y2="1006.2652"
       gradientUnits="userSpaceOnUse" />
    <linearGradient
       inkscape:collect="always"
       id="linearGradient4010">
      <stop
         style="stop-color:#bdbdbd;stop-opacity:1"
         offset="0"
         id="stop4012" />
      <stop
         style="stop-color:#fcfcfc;stop-opacity:1"
         offset="1"
         id="stop4014" />
    </linearGradient>
    <linearGradient
       gradientTransform="translate(-3.1896973e-7,-2056.7245)"
       y2="1006.2652"
       x2="25.011299"
       y1="1050.813"
       x1="25.011299"
       gradientUnits="userSpaceOnUse"
       id="linearGradient878"
       xlink:href="#linearGradient3708"
       inkscape:collect="always" />
  </defs>
  <sodipodi:namedview
     id="base"
     pagecolor="#ffffff"
     bordercolor="#666666"
     borderopacity="1.0"
     inkscape:pageopacity="0.0"
     inkscape:pageshadow="2"
     inkscape:zoom="11.313709"
     inkscape:cx="8.3971997"
     inkscape:cy="29.306321"
     inkscape:document-units="px"
     inkscape:current-layer="layer1"
     showgrid="false"
     inkscape:window-width="1366"
     inkscape:window-height="746"
     inkscape:window-x="0"
     inkscape:window-y="0"
     inkscape:window-maximized="1">
    <inkscape:grid
       type="xygrid"
       id="grid3850" />
  </sodipodi:namedview>
  <metadata
     id="metadata7">
    <rdf:RDF>
      <cc:Work
         rdf:about="">
        <dc:format>image/svg+xml</dc:format>
        <dc:type
           rdf:resource="http://purl.org/dc/dcmitype/StillImage" />
        <dc:title />
      </cc:Work>
    </rdf:RDF>
  </metadata>
  <g
     inkscape:label="Capa 1"
     inkscape:groupmode="layer"
     id="layer1"
     transform="translate(0,-1004.3622)">
    <rect
       ry="5.6755357"
       y="-1050.663"
       x="1.6992435"
       height="44.601513"
       width="44.601513"
       id="rect2992"
       style="fill:url(#linearGradient878);fill-opacity:1;stroke:#7d7d7d;stroke-width:0.39848712;stroke-miterlimit:4;stroke-opacity:1;stroke-dasharray:none"
       transform="scale(1,-1)" />
    <g
       id="g6016"
       transform="matrix(0.25332669,-0.03210369,-0.03208278,-0.25316164,-51.34769,1102.0762)"
       inkscape:transform-center-x="-1.5909902"
       inkscape:transform-center-y="1.9445436"
       style="fill:#ffffff">
      <g
         id="g6018"
         style="fill:#ffffff">
        <g
           id="g6024"
           style="fill:#ffffff">
          <g
             id="g6026"
             style="fill:#ffffff">
            <path
               inkscape:connector-curvature="0"
               d="m 396.854,292.978 -77.603,-79.031 c -2.066,-2.103 -2.035,-5.513 0.069,-7.579 l 0,0 1.274,-1.252 c 2.104,-2.064 5.516,-2.034 7.578,0.07 l 0,0 77.604,79.029 c 2.064,2.105 2.036,5.514 -0.067,7.58 l 0,0 -1.276,1.251 c -1.04,1.02 -2.398,1.529 -3.756,1.529 l 0,0 c -1.39,-10e-4 -2.779,-0.533 -3.823,-1.597"
               style="fill:#ffffff;stroke:none"
               id="path6040-6" />
          </g>
        </g>
      </g>
    </g>
    <g
       id="g6068"
       transform="matrix(0.36925958,0,0,-0.3537334,-95.532044,1116.8997)"
       style="fill:#ffffff">
      <g
         id="g6070"
         style="fill:#ffffff">
        <g
           id="g6076"
           style="fill:#ffffff">
          <g
             id="g6078"
             style="fill:#ffffff">
            <path
               inkscape:connector-curvature="0"
               d="m 301.836,242.482 c 9.218,-0.676 9.767,-1.226 10.444,-10.445 l 0,0 c 0.678,9.219 1.227,9.769 10.446,10.445 l 0,0 c -9.219,0.676 -9.768,1.224 -10.446,10.444 l 0,0 c -0.677,-9.22 -1.226,-9.768 -10.444,-10.444"
               style="fill:#ffffff;stroke:none"
               id="path6086-1" />
          </g>
        </g>
      </g>
    </g>
    <g
       id="g6088"
       transform="matrix(0.36925958,0,0,-0.3537334,-95.532044,1116.8997)"
       style="fill:#ffffff">
      <g
         id="g6090"
         style="fill:#ffffff">
        <g
           id="g6096"
           style="fill:#ffffff">
          <g
             id="g6098"
             style="fill:#ffffff">
            <path
               inkscape:connector-curvature="0"
               d="m 285.158,234.977 c 5.75,-0.424 6.092,-0.766 6.514,-6.515 l 0,0 c 0.423,5.749 0.766,6.091 6.514,6.515 l 0,0 c -5.748,0.421 -6.091,0.765 -6.514,6.515 l 0,0 c -0.422,-5.75 -0.764,-6.094 -6.514,-6.515"
               style="fill:#ffffff;stroke:none"
               id="path6106-1" />
          </g>
        </g>
      </g>
    </g>
    <g
       id="g6108"
       transform="matrix(0.36925958,0,0,-0.3537334,-95.532044,1116.8997)"
       style="fill:#ffffff">
      <g
         id="g6110"
         style="fill:#ffffff">
        <g
           id="g6116"
           style="fill:#ffffff">
          <g
             id="g6118"
             style="fill:#ffffff">
            <path
               inkscape:connector-curvature="0"
               d="m 298.186,230.752 c 5.75,-0.423 6.093,-0.765 6.515,-6.514 l 0,0 c 0.423,5.749 0.766,6.091 6.514,6.514 l 0,0 c -5.748,0.422 -6.091,0.764 -6.514,6.515 l 0,0 c -0.422,-5.751 -0.765,-6.093 -6.515,-6.515"
               style="fill:#ffffff;stroke:none"
               id="path6126-3" />
          </g>
        </g>
      </g>
    </g>
    <g
       id="g6128"
       transform="matrix(0.36925958,0,0,-0.3537334,-95.532044,1116.8997)"
       style="fill:#ffffff">
      <g
         id="g6130"
         style="fill:#ffffff">
        <g
           id="g6136"
           style="fill:#ffffff">
          <g
             id="g6138"
             style="fill:#ffffff">
            <path
               inkscape:connector-curvature="0"
               d="m 307.747,217.988 c 5.759,-0.424 6.101,-0.765 6.525,-6.523 l 0,0 c 0.423,5.758 0.766,6.099 6.524,6.523 l 0,0 c -5.758,0.424 -6.101,0.766 -6.524,6.526 l 0,0 c -0.424,-5.76 -0.766,-6.102 -6.525,-6.526"
               style="fill:#ffffff;stroke:none"
               id="path6146-9" />
          </g>
        </g>
      </g>
    </g>
    <g
       id="g6148"
       transform="matrix(0.36925958,0,0,-0.3537334,-95.532044,1116.8997)"
       style="fill:#ffffff">
      <g
         id="g6150"
         style="fill:#ffffff">
        <g
           id="g6156"
           style="fill:#ffffff">
          <g
             id="g6158"
             style="fill:#ffffff">
            <path
               inkscape:connector-curvature="0"
               d="m 288.31,221.118 c 6.708,-0.494 7.107,-0.892 7.599,-7.599 l 0,0 c 0.492,6.707 0.892,7.105 7.599,7.599 l 0,0 c -6.707,0.493 -7.107,0.89 -7.599,7.598 l 0,0 c -0.492,-6.708 -0.891,-7.105 -7.599,-7.598"
               style="fill:#ffffff;stroke:none"
               id="path6166-7" />
          </g>
        </g>
      </g>
    </g>
    <g
       id="g6168"
       transform="matrix(0.36925958,0,0,-0.3537334,-95.532044,1116.8997)"
       style="fill:#ffffff">
      <g
         id="g6170"
         style="fill:#ffffff">
        <g
           id="g6176"
           style="fill:#ffffff">
          <g
             id="g6178"
             style="fill:#ffffff">
            <path
               inkscape:connector-curvature="0"
               d="m 289.594,265.76 c 10.012,-0.734 10.609,-1.33 11.344,-11.342 l 0,0 c 0.733,10.012 1.33,10.608 11.342,11.342 l 0,0 c -10.012,0.735 -10.609,1.331 -11.342,11.344 l 0,0 c -0.735,-10.013 -1.332,-10.609 -11.344,-11.344"
               style="fill:#ffffff;stroke:none"
               id="path6186-7" />
          </g>
        </g>
      </g>
    </g>
    <g
       id="g6188"
       transform="matrix(0.36925958,0,0,-0.3537334,-95.532044,1116.8997)"
       style="fill:#ffffff">
      <g
         id="g6190"
         style="fill:#ffffff">
        <g
           id="g6196"
           style="fill:#ffffff">
          <g
             id="g6198"
             style="fill:#ffffff">
            <path
               inkscape:connector-curvature="0"
               d="m 273.321,248.261 c 10.448,-0.767 11.07,-1.389 11.837,-11.836 l 0,0 c 0.767,10.447 1.388,11.069 11.836,11.836 l 0,0 c -10.448,0.766 -11.069,1.389 -11.836,11.836 l 0,0 c -0.767,-10.447 -1.389,-11.07 -11.837,-11.836"
               style="fill:#ffffff;stroke:none"
               id="path6206-7" />
          </g>
        </g>
      </g>
    </g>
  </g>
</svg>
