<?xml version="1.0" encoding="UTF-8" standalone="no"?>
<!-- Created with Inkscape (http://www.inkscape.org/) -->

<svg
   xmlns:dc="http://purl.org/dc/elements/1.1/"
   xmlns:cc="http://creativecommons.org/ns#"
   xmlns:rdf="http://www.w3.org/1999/02/22-rdf-syntax-ns#"
   xmlns:svg="http://www.w3.org/2000/svg"
   xmlns="http://www.w3.org/2000/svg"
   xmlns:xlink="http://www.w3.org/1999/xlink"
   xmlns:sodipodi="http://sodipodi.sourceforge.net/DTD/sodipodi-0.dtd"
   xmlns:inkscape="http://www.inkscape.org/namespaces/inkscape"
   width="48"
   height="48"
   id="svg2"
   version="1.1"
   inkscape:version="0.48+devel r11752"
   sodipodi:docname="kcolorchooser.svg">
  <defs
     id="defs4">
    <linearGradient
       id="linearGradient865">
      <stop
         style="stop-color:#71c837;stop-opacity:1"
         offset="0"
         id="stop867" />
      <stop
         style="stop-color:#447821;stop-opacity:1"
         offset="1"
         id="stop869" />
    </linearGradient>
    <linearGradient
       id="linearGradient860">
      <stop
         id="stop862"
         offset="0"
         style="stop-color:#000000;stop-opacity:1" />
      <stop
         id="stop864"
         offset="1"
         style="stop-color:#333333;stop-opacity:1" />
    </linearGradient>
    <linearGradient
       id="linearGradient3795">
      <stop
         style="stop-color:#8d3e8d;stop-opacity:1;"
         offset="0"
         id="stop3797" />
      <stop
         style="stop-color:#5f225f;stop-opacity:1;"
         offset="1"
         id="stop3799" />
    </linearGradient>
    <linearGradient
       id="linearGradient3698">
      <stop
         id="stop3700"
         offset="0"
         style="stop-color:#96d0e1;stop-opacity:1" />
      <stop
         style="stop-color:#89b7e1;stop-opacity:1"
         offset="0.67819428"
         id="stop3706" />
      <stop
         id="stop3702"
         offset="1"
         style="stop-color:#699dd3;stop-opacity:1" />
    </linearGradient>
    <linearGradient
       id="linearGradient3708">
      <stop
         id="stop3710"
         offset="0"
         style="stop-color:#658db6;stop-opacity:1" />
      <stop
         style="stop-color:#527fab;stop-opacity:1;"
         offset="0.76777935"
         id="stop3716" />
      <stop
         id="stop3712"
         offset="1"
         style="stop-color:#4071a0;stop-opacity:1" />
    </linearGradient>
    <linearGradient
       id="linearGradient3750">
      <stop
         style="stop-color:#d0e2f1;stop-opacity:1"
         offset="0"
         id="stop3752" />
      <stop
         id="stop3756"
         offset="0.85580856"
         style="stop-color:#cadef0;stop-opacity:1" />
      <stop
         style="stop-color:#95bee3;stop-opacity:1"
         offset="1"
         id="stop3754" />
    </linearGradient>
    <linearGradient
       id="linearGradient3803">
      <stop
         id="stop3805"
         offset="0"
         style="stop-color:#d7def0;stop-opacity:1;" />
      <stop
         style="stop-color:#ffffff;stop-opacity:1"
         offset="0.5"
         id="stop3811" />
      <stop
         id="stop3807"
         offset="1"
         style="stop-color:#d5def0;stop-opacity:1" />
    </linearGradient>
    <linearGradient
       inkscape:collect="always"
       xlink:href="#linearGradient3795"
       id="linearGradient3801"
       x1="23.204165"
       y1="1053.158"
       x2="23.204165"
       y2="1004.8474"
       gradientUnits="userSpaceOnUse"
       gradientTransform="translate(0,-2056.7244)" />
    <linearGradient
       inkscape:collect="always"
       xlink:href="#linearGradient3795"
       id="linearGradient3859"
       x1="26.192217"
       y1="1024.0002"
       x2="28.641211"
       y2="1024.0002"
       gradientUnits="userSpaceOnUse" />
    <linearGradient
       inkscape:collect="always"
       xlink:href="#linearGradient3795"
       id="linearGradient3867"
       gradientUnits="userSpaceOnUse"
       x1="26.192217"
       y1="1024.0002"
       x2="28.641211"
       y2="1024.0002" />
    <linearGradient
       inkscape:collect="always"
       xlink:href="#linearGradient3795"
       id="linearGradient3869"
       gradientUnits="userSpaceOnUse"
       x1="26.192217"
       y1="1024.0002"
       x2="28.641211"
       y2="1024.0002" />
    <linearGradient
       inkscape:collect="always"
       xlink:href="#linearGradient3795"
       id="linearGradient3871"
       gradientUnits="userSpaceOnUse"
       x1="26.192217"
       y1="1024.0002"
       x2="28.641211"
       y2="1024.0002" />
    <linearGradient
       inkscape:collect="always"
       xlink:href="#linearGradient3795"
       id="linearGradient3877"
       gradientUnits="userSpaceOnUse"
       x1="29.718235"
       y1="1027.8575"
       x2="22.811094"
       y2="1015.5485" />
    <linearGradient
       inkscape:collect="always"
       xlink:href="#linearGradient3795"
       id="linearGradient3879"
       gradientUnits="userSpaceOnUse"
       x1="17.196316"
       y1="1006.2238"
       x2="31.448042"
       y2="1030.9086" />
    <linearGradient
       inkscape:collect="always"
       xlink:href="#linearGradient3795"
       id="linearGradient3895"
       x1="21.973417"
       y1="34.43922"
       x2="42.475323"
       y2="24.798252"
       gradientUnits="userSpaceOnUse" />
    <linearGradient
       inkscape:collect="always"
       xlink:href="#linearGradient3895-8"
       id="linearGradient3857"
       gradientUnits="userSpaceOnUse"
       gradientTransform="matrix(0.96799712,0,0,1.0252613,604.84439,-419.13965)"
       x1="24.113745"
       y1="1049.2139"
       x2="24.113745"
       y2="1007.5135" />
    <linearGradient
       id="linearGradient3895-8">
      <stop
         id="stop3897"
         offset="0"
         style="stop-color:#e0880b;stop-opacity:1;" />
      <stop
         id="stop3899"
         offset="1"
         style="stop-color:#f7ce50;stop-opacity:1;" />
    </linearGradient>
    <linearGradient
       inkscape:collect="always"
       xlink:href="#linearGradient859"
       id="linearGradient3801-6"
       x1="23.204165"
       y1="1053.158"
       x2="23.204165"
       y2="1004.8474"
       gradientUnits="userSpaceOnUse"
       gradientTransform="translate(0,-2056.7244)" />
    <linearGradient
       id="linearGradient859">
      <stop
         id="stop861"
         offset="0"
         style="stop-color:#ba65be;stop-opacity:1" />
      <stop
         id="stop863"
         offset="1"
         style="stop-color:#ac43b2;stop-opacity:1" />
    </linearGradient>
    <linearGradient
       inkscape:collect="always"
       xlink:href="#linearGradient838"
       id="linearGradient3801-0"
       x1="23.204165"
       y1="1053.158"
       x2="23.204165"
       y2="1004.8474"
       gradientUnits="userSpaceOnUse"
       gradientTransform="translate(0,-2056.7244)" />
    <linearGradient
       id="linearGradient838">
      <stop
         id="stop840"
         offset="0"
         style="stop-color:#00e0ff;stop-opacity:1" />
      <stop
         id="stop842"
         offset="1"
         style="stop-color:#0089ff;stop-opacity:1" />
    </linearGradient>
    <linearGradient
       y2="1004.8474"
       x2="23.204165"
       y1="1053.158"
       x1="23.204165"
       gradientTransform="translate(17.374999,-1052.3622)"
       gradientUnits="userSpaceOnUse"
       id="linearGradient959"
       xlink:href="#linearGradient838-7"
       inkscape:collect="always" />
    <linearGradient
       id="linearGradient838-7">
      <stop
         id="stop840-9"
         offset="0"
         style="stop-color:#00e0ff;stop-opacity:1" />
      <stop
         id="stop842-3"
         offset="1"
         style="stop-color:#0089ff;stop-opacity:1" />
    </linearGradient>
    <linearGradient
       inkscape:collect="always"
       xlink:href="#linearGradient3795-0"
       id="linearGradient3801-61"
       x1="23.204165"
       y1="1053.158"
       x2="23.204165"
       y2="1004.8474"
       gradientUnits="userSpaceOnUse" />
    <linearGradient
       id="linearGradient3795-0">
      <stop
         style="stop-color:#cd5c24;stop-opacity:1;"
         offset="0"
         id="stop3797-7" />
      <stop
         style="stop-color:#ff6700;stop-opacity:1;"
         offset="1"
         id="stop3799-3" />
    </linearGradient>
    <linearGradient
       inkscape:collect="always"
       xlink:href="#linearGradient850"
       id="linearGradient3801-4"
       x1="23.204165"
       y1="1053.158"
       x2="23.204165"
       y2="1004.8474"
       gradientUnits="userSpaceOnUse"
       gradientTransform="translate(0,-2056.7244)" />
    <linearGradient
       id="linearGradient850">
      <stop
         id="stop852"
         offset="0"
         style="stop-color:#71c837;stop-opacity:1" />
      <stop
         id="stop854"
         offset="1"
         style="stop-color:#89a02c;stop-opacity:1" />
    </linearGradient>
    <linearGradient
       inkscape:collect="always"
       xlink:href="#linearGradient850-7"
       id="linearGradient3801-1"
       x1="23.204165"
       y1="1053.158"
       x2="23.204165"
       y2="1004.8474"
       gradientUnits="userSpaceOnUse"
       gradientTransform="translate(0,-2056.7244)" />
    <linearGradient
       id="linearGradient850-7">
      <stop
         id="stop852-6"
         offset="0"
         style="stop-color:#85c837;stop-opacity:1" />
      <stop
         id="stop854-2"
         offset="1"
         style="stop-color:#77a22c;stop-opacity:1" />
    </linearGradient>
    <linearGradient
       inkscape:collect="always"
       xlink:href="#linearGradient3708-6"
       id="linearGradient3801-5"
       x1="23.204165"
       y1="1053.158"
       x2="23.204165"
       y2="1004.8474"
       gradientUnits="userSpaceOnUse"
       gradientTransform="translate(0,-2056.7244)" />
    <linearGradient
       id="linearGradient3708-6">
      <stop
         id="stop3710-8"
         offset="0"
         style="stop-color:#658db6;stop-opacity:1" />
      <stop
         style="stop-color:#527fab;stop-opacity:1;"
         offset="0.76777935"
         id="stop3716-3" />
      <stop
         id="stop3712-6"
         offset="1"
         style="stop-color:#4071a0;stop-opacity:1" />
    </linearGradient>
    <linearGradient
       inkscape:collect="always"
       xlink:href="#linearGradient973"
       id="linearGradient3801-2"
       x1="23.204165"
       y1="1053.158"
       x2="23.204165"
       y2="1004.8474"
       gradientUnits="userSpaceOnUse"
       gradientTransform="translate(0,-2056.7244)" />
    <linearGradient
       id="linearGradient973">
      <stop
         id="stop975"
         offset="0"
         style="stop-color:#d868d3;stop-opacity:1;" />
      <stop
         id="stop977"
         offset="1"
         style="stop-color:#a02c89;stop-opacity:1" />
    </linearGradient>
    <linearGradient
       y2="1004.8474"
       x2="23.204165"
       y1="1053.158"
       x1="23.204165"
       gradientTransform="matrix(1,0,0,-1,-3.618164e-7,1052.3622)"
       gradientUnits="userSpaceOnUse"
       id="linearGradient1015"
       xlink:href="#linearGradient3708-6"
       inkscape:collect="always" />
  </defs>
  <sodipodi:namedview
     id="base"
     pagecolor="#ffffff"
     bordercolor="#666666"
     borderopacity="1.0"
     inkscape:pageopacity="0.0"
     inkscape:pageshadow="2"
     inkscape:zoom="5.6568546"
     inkscape:cx="2.2726143"
     inkscape:cy="42.37995"
     inkscape:document-units="px"
     inkscape:current-layer="layer1"
     showgrid="false"
     inkscape:window-width="1366"
     inkscape:window-height="711"
     inkscape:window-x="0"
     inkscape:window-y="0"
     inkscape:window-maximized="1">
    <inkscape:grid
       type="xygrid"
       id="grid3850" />
  </sodipodi:namedview>
  <metadata
     id="metadata7">
    <rdf:RDF>
      <cc:Work
         rdf:about="">
        <dc:format>image/svg+xml</dc:format>
        <dc:type
           rdf:resource="http://purl.org/dc/dcmitype/StillImage" />
        <dc:title></dc:title>
      </cc:Work>
    </rdf:RDF>
  </metadata>
  <g
     inkscape:label="Capa 1"
     inkscape:groupmode="layer"
     id="layer1"
     transform="translate(0,-1004.3622)">
    <path
       style="fill:url(#linearGradient1015);fill-opacity:1.0;stroke:none"
       d="M 7.375 1.6875 C 4.2307532 1.6875 1.6875 4.2307532 1.6875 7.375 L 1.6875 40.625 C 1.6875 43.769247 4.2307532 46.3125 7.375 46.3125 L 40.625 46.3125 C 43.769247 46.3125 46.3125 43.769247 46.3125 40.625 L 46.3125 7.375 C 46.3125 4.2307532 43.769247 1.6875 40.625 1.6875 L 7.375 1.6875 z "
       transform="translate(0,1004.3622)"
       id="rect2991" />
    <path
       style="fill:#ffffff;fill-opacity:1"
       d="m 32.157109,1014.4232 c -0.554196,0.037 -1.092029,0.3624 -1.391843,0.8815 l -2.319738,4.0132 -0.139185,-0.069 c -0.48858,-0.282 -1.109753,-0.1173 -1.391843,0.3712 l -1.020685,1.763 -0.835105,1.4615 -0.0232,0.047 c 0.254269,0.6188 0.651331,0.8378 1.090278,1.1368 l 0.34796,-0.58 c 0.146837,-0.2543 0.464759,-0.3325 0.719119,-0.1856 l 2.296541,1.3222 c 0.161857,0.094 0.246017,0.2446 0.255172,0.4176 0.0059,0.01 0.01729,0.02 0.0232,0.022 l -0.0232,0.022 c -0.0022,0.085 -0.0237,0.1757 -0.0696,0.2552 l -0.371158,0.6263 c 0.454639,0.1927 0.898227,0.3948 1.507829,0.3016 l 0.0464,-0.093 0.811908,-1.4149 0.0232,-0.023 0.997488,-1.7399 c 0.282088,-0.4885 0.117423,-1.133 -0.371158,-1.415 l -0.139185,-0.069 2.342937,-4.0132 c 0.4797,-0.8308 0.181312,-1.8863 -0.649527,-2.366 l -0.742317,-0.4408 C 32.819835,1014.4754 32.489627,1014.3999 32.157109,1014.4232 z m -5.265806,9.2325 c -0.101738,0.028 -0.197797,0.1092 -0.255171,0.2088 l -5.474583,9.4877 c -0.0048,0.01 0.0029,0.018 0,0.023 -0.005,0.01 -0.01966,-0.01 -0.0232,0 l -0.255171,0.464 c -0.355952,0.6165 -0.143765,1.389 0.463948,1.7398 l 0.255172,0.1624 c 0.607735,0.3509 1.383851,0.1293 1.739804,-0.4872 l 0.278366,-0.4408 c 0.0051,-0.01 -0.0037,-0.018 0,-0.022 0.0049,-0.01 0.02035,-0.02 0.0232,-0.023 l 5.474582,-9.4877 c 0.114677,-0.1986 0.03334,-0.4437 -0.162382,-0.5568 l -1.739803,-1.0206 C 27.118205,1023.6456 26.993041,1023.6278 26.891303,1023.6557 z m -7.53915,12.2947 -0.440751,0.6496 c -0.236436,0.3574 -0.65327,0.8609 -0.951092,1.1365 -0.834072,0.7726 -1.051193,1.0773 -1.252659,1.7862 -0.540885,2.0018 2.444373,2.8296 3.5492,0.9512 0.12819,-0.4509 0.02656,-1.2322 -0.208777,-1.6701 -0.364069,-0.6857 -0.514889,-1.5867 -0.672724,-2.4357 L 19.352153,1035.9504 z m -4.291517,3.3868 -0.301565,0.4408 c -0.165233,0.2501 -0.464294,0.6191 -0.672725,0.8118 -0.583234,0.5402 -0.717395,0.7336 -0.858303,1.2296 -0.378251,1.3996 1.686347,1.9863 2.458923,0.6728 0.08983,-0.3154 0.02539,-0.8537 -0.139185,-1.16 -0.254606,-0.4794 -0.35361,-1.1227 -0.463947,-1.7165 L 15.060636,1039.3372 Z"
       id="path1038"
       inkscape:connector-curvature="0" />
  </g>
</svg>
