<?xml version="1.0" encoding="UTF-8" standalone="no"?>
<!-- Created with Inkscape (http://www.inkscape.org/) -->

<svg
   xmlns:dc="http://purl.org/dc/elements/1.1/"
   xmlns:cc="http://creativecommons.org/ns#"
   xmlns:rdf="http://www.w3.org/1999/02/22-rdf-syntax-ns#"
   xmlns:svg="http://www.w3.org/2000/svg"
   xmlns="http://www.w3.org/2000/svg"
   xmlns:xlink="http://www.w3.org/1999/xlink"
   xmlns:sodipodi="http://sodipodi.sourceforge.net/DTD/sodipodi-0.dtd"
   xmlns:inkscape="http://www.inkscape.org/namespaces/inkscape"
   width="48"
   height="48"
   id="svg2"
   version="1.1"
   inkscape:version="0.48.3.1 r9886"
   sodipodi:docname="config-language.svg">
  <defs
     id="defs4">
    <linearGradient
       id="linearGradient3771">
      <stop
         id="stop3773"
         offset="0"
         style="stop-color:#dfb18e;stop-opacity:1;" />
      <stop
         id="stop3775"
         offset="1"
         style="stop-color:#c97c3b;stop-opacity:1;" />
    </linearGradient>
    <linearGradient
       id="linearGradient3755">
      <stop
         style="stop-color:#8ebedf;stop-opacity:1;"
         offset="0"
         id="stop3757" />
      <stop
         style="stop-color:#5aade5;stop-opacity:1;"
         offset="1"
         id="stop3759" />
    </linearGradient>
    <linearGradient
       inkscape:collect="always"
       xlink:href="#linearGradient3755"
       id="linearGradient3761"
       x1="1.4285715"
       y1="16.080357"
       x2="37.500004"
       y2="16.080357"
       gradientUnits="userSpaceOnUse"
       gradientTransform="matrix(0.91335293,0,0,0.91335293,3.3401952,1007.607)" />
    <linearGradient
       inkscape:collect="always"
       xlink:href="#linearGradient3771"
       id="linearGradient3769"
       gradientUnits="userSpaceOnUse"
       gradientTransform="matrix(0.91335293,0,0,0.91335293,9.9456947,1021.8781)"
       x1="1.4285715"
       y1="16.080357"
       x2="37.500004"
       y2="16.080357" />
    <linearGradient
       inkscape:collect="always"
       xlink:href="#linearGradient3755"
       id="linearGradient3785"
       gradientUnits="userSpaceOnUse"
       gradientTransform="matrix(0.91335293,0,0,0.91335293,3.3401952,1007.607)"
       x1="1.4285715"
       y1="16.080357"
       x2="37.500004"
       y2="16.080357" />
    <linearGradient
       inkscape:collect="always"
       xlink:href="#linearGradient3771"
       id="linearGradient3787"
       gradientUnits="userSpaceOnUse"
       gradientTransform="matrix(0.91335293,0,0,0.91335293,9.9456947,1021.8781)"
       x1="1.4285715"
       y1="16.080357"
       x2="37.500004"
       y2="16.080357" />
    <linearGradient
       inkscape:collect="always"
       xlink:href="#linearGradient3771"
       id="linearGradient3000"
       gradientUnits="userSpaceOnUse"
       gradientTransform="matrix(1.0138316,0,0,1.0138316,7.8691744,1019.98)"
       x1="1.4285715"
       y1="16.080357"
       x2="37.500004"
       y2="16.080357" />
    <radialGradient
       inkscape:collect="always"
       xlink:href="#linearGradient3755"
       id="radialGradient3783"
       cx="23.936596"
       cy="1028.3622"
       fx="23.936596"
       fy="1028.3622"
       r="22.13007"
       gradientTransform="matrix(1.0844973,0,0,1.0844973,-1.9591717,-86.893864)"
       gradientUnits="userSpaceOnUse" />
    <linearGradient
       y2="1049.5842"
       x2="24.113745"
       y1="1007.2183"
       x1="24.113745"
       gradientTransform="matrix(0.96799712,0,0,1.0252613,0.76812381,-2082.7024)"
       gradientUnits="userSpaceOnUse"
       id="linearGradient3151"
       xlink:href="#linearGradient3795"
       inkscape:collect="always" />
    <linearGradient
       id="linearGradient3795">
      <stop
         style="stop-color:#52a2cc;stop-opacity:1;"
         offset="0"
         id="stop3797" />
      <stop
         style="stop-color:#59b3e1;stop-opacity:1;"
         offset="1"
         id="stop3799" />
    </linearGradient>
    <linearGradient
       y2="1049.5842"
       x2="24.113745"
       y1="1007.2183"
       x1="24.113745"
       gradientTransform="matrix(0.96799712,0,0,1.0252613,0.7681216,-2082.7023)"
       gradientUnits="userSpaceOnUse"
       id="linearGradient3036"
       xlink:href="#linearGradient3795"
       inkscape:collect="always" />
  </defs>
  <sodipodi:namedview
     id="base"
     pagecolor="#ffffff"
     bordercolor="#666666"
     borderopacity="1.0"
     inkscape:pageopacity="0.0"
     inkscape:pageshadow="2"
     inkscape:zoom="5.6568542"
     inkscape:cx="1.7849164"
     inkscape:cy="28.564348"
     inkscape:document-units="px"
     inkscape:current-layer="layer1"
     showgrid="false"
     inkscape:window-width="888"
     inkscape:window-height="955"
     inkscape:window-x="0"
     inkscape:window-y="26"
     inkscape:window-maximized="0" />
  <metadata
     id="metadata7">
    <rdf:RDF>
      <cc:Work
         rdf:about="">
        <dc:format>image/svg+xml</dc:format>
        <dc:type
           rdf:resource="http://purl.org/dc/dcmitype/StillImage" />
        <dc:title />
      </cc:Work>
    </rdf:RDF>
  </metadata>
  <g
     inkscape:label="Capa 1"
     inkscape:groupmode="layer"
     id="layer1"
     transform="translate(0,-1004.3622)">
    <rect
       ry="5.6755357"
       y="-1050.663"
       x="1.6992435"
       height="44.601513"
       width="44.601513"
       id="rect2992"
       style="fill:url(#linearGradient3036);fill-opacity:1;stroke:#7d7d7d;stroke-width:0.39848712;stroke-miterlimit:4;stroke-opacity:1;stroke-dasharray:none"
       transform="scale(1,-1)" />
    <rect
       style="fill:none;stroke:none"
       id="rect3783"
       width="48"
       height="48"
       x="0"
       y="1004.3622" />
    <g
       id="g3785"
       transform="translate(-3.886523,1.3913666)">
      <g
         id="g3775">
        <path
           sodipodi:type="arc"
           style="fill:#ffffff;fill-opacity:1;stroke:none"
           id="path2999"
           sodipodi:cx="19.091883"
           sodipodi:cy="23.42804"
           sodipodi:rx="8.7504463"
           sodipodi:ry="6.2755728"
           d="m 27.842329,23.42804 c 0,3.465903 -3.917708,6.275572 -8.750446,6.275572 -4.832738,0 -8.750447,-2.809669 -8.750447,-6.275572 0,-3.465904 3.917709,-6.275573 8.750447,-6.275573 4.832738,0 8.750446,2.809669 8.750446,6.275573 z"
           transform="translate(0,1004.3622)" />
        <path
           style="fill:#ffffff;stroke:none"
           d="m 14.584078,1033.2261 -1.732978,3.0016 6.973627,-2.1337 z"
           id="path3001"
           inkscape:connector-curvature="0"
           sodipodi:nodetypes="cccc" />
      </g>
      <g
         id="g3779">
        <path
           transform="matrix(-1,0,0,1,55.773046,1000.5615)"
           d="m 27.842329,23.42804 c 0,3.465903 -3.917708,6.275572 -8.750446,6.275572 -4.832738,0 -8.750447,-2.809669 -8.750447,-6.275572 0,-3.465904 3.917709,-6.275573 8.750447,-6.275573 4.832738,0 8.750446,2.809669 8.750446,6.275573 z"
           sodipodi:ry="6.2755728"
           sodipodi:rx="8.7504463"
           sodipodi:cy="23.42804"
           sodipodi:cx="19.091883"
           id="path3771"
           style="fill:#ffffff;fill-opacity:1;stroke:none"
           sodipodi:type="arc" />
        <path
           sodipodi:nodetypes="cccc"
           inkscape:connector-curvature="0"
           id="path3773"
           d="m 41.188968,1029.2928 1.732978,3.0016 -6.973627,-2.1337 z"
           style="fill:#ffffff;stroke:none" />
      </g>
    </g>
  </g>
</svg>
