<?xml version="1.0" encoding="UTF-8" standalone="no"?>
<!-- Created with Inkscape (http://www.inkscape.org/) -->

<svg
   xmlns:dc="http://purl.org/dc/elements/1.1/"
   xmlns:cc="http://creativecommons.org/ns#"
   xmlns:rdf="http://www.w3.org/1999/02/22-rdf-syntax-ns#"
   xmlns:svg="http://www.w3.org/2000/svg"
   xmlns="http://www.w3.org/2000/svg"
   xmlns:xlink="http://www.w3.org/1999/xlink"
   xmlns:sodipodi="http://sodipodi.sourceforge.net/DTD/sodipodi-0.dtd"
   xmlns:inkscape="http://www.inkscape.org/namespaces/inkscape"
   width="48"
   height="48"
   id="svg2"
   version="1.1"
   inkscape:version="0.48+devel r11556"
   sodipodi:docname="gnome-aisleriot.svg">
  <defs
     id="defs4">
    <linearGradient
       id="linearGradient3856">
      <stop
         id="stop3858"
         offset="0"
         style="stop-color:#eeeeee;stop-opacity:1" />
      <stop
         id="stop3860"
         offset="1"
         style="stop-color:#ffffff;stop-opacity:1" />
    </linearGradient>
    <linearGradient
       id="linearGradient3828">
      <stop
         style="stop-color:#000000;stop-opacity:1;"
         offset="0"
         id="stop3830" />
      <stop
         style="stop-color:#ffffff;stop-opacity:1;"
         offset="1"
         id="stop3832" />
    </linearGradient>
    <linearGradient
       id="linearGradient3795">
      <stop
         style="stop-color:#52a2cc;stop-opacity:1;"
         offset="0"
         id="stop3797" />
      <stop
         style="stop-color:#59b3e1;stop-opacity:1;"
         offset="1"
         id="stop3799" />
    </linearGradient>
    <linearGradient
       inkscape:collect="always"
       id="linearGradient3914">
      <stop
         style="stop-color:#59b3e1;stop-opacity:1;"
         offset="0"
         id="stop3916" />
      <stop
         style="stop-color:#59b3e1;stop-opacity:0;"
         offset="1"
         id="stop3918" />
    </linearGradient>
    <linearGradient
       id="linearGradient3698">
      <stop
         id="stop3700"
         offset="0"
         style="stop-color:#96d0e1;stop-opacity:1" />
      <stop
         style="stop-color:#89b7e1;stop-opacity:1"
         offset="0.67819428"
         id="stop3706" />
      <stop
         id="stop3702"
         offset="1"
         style="stop-color:#699dd3;stop-opacity:1" />
    </linearGradient>
    <linearGradient
       id="linearGradient3708">
      <stop
         id="stop3710"
         offset="0"
         style="stop-color:#b5b5b5;stop-opacity:1;" />
      <stop
         id="stop3712"
         offset="1"
         style="stop-color:#ffffff;stop-opacity:1;" />
    </linearGradient>
    <linearGradient
       id="linearGradient3750">
      <stop
         style="stop-color:#d0e2f1;stop-opacity:1"
         offset="0"
         id="stop3752" />
      <stop
         id="stop3756"
         offset="0.85580856"
         style="stop-color:#cadef0;stop-opacity:1" />
      <stop
         style="stop-color:#95bee3;stop-opacity:1"
         offset="1"
         id="stop3754" />
    </linearGradient>
    <linearGradient
       id="linearGradient3803">
      <stop
         id="stop3805"
         offset="0"
         style="stop-color:#d7def0;stop-opacity:1;" />
      <stop
         style="stop-color:#ffffff;stop-opacity:1"
         offset="0.5"
         id="stop3811" />
      <stop
         id="stop3807"
         offset="1"
         style="stop-color:#d5def0;stop-opacity:1" />
    </linearGradient>
    <linearGradient
       inkscape:collect="always"
       xlink:href="#linearGradient3914"
       id="linearGradient3920"
       x1="6.8000002"
       y1="25.0625"
       x2="45.325001"
       y2="25.0625"
       gradientUnits="userSpaceOnUse" />
    <linearGradient
       inkscape:collect="always"
       xlink:href="#linearGradient3708"
       id="linearGradient3801"
       x1="23.204165"
       y1="1053.158"
       x2="23.204165"
       y2="1004.8474"
       gradientUnits="userSpaceOnUse"
       gradientTransform="translate(0,1.7382813e-5)" />
    <linearGradient
       inkscape:collect="always"
       xlink:href="#linearGradient3795"
       id="linearGradient3808"
       x1="14.772043"
       y1="1022.6282"
       x2="22.473551"
       y2="1022.6282"
       gradientUnits="userSpaceOnUse"
       gradientTransform="translate(-0.19126339,-0.01120898)" />
    <linearGradient
       inkscape:collect="always"
       xlink:href="#linearGradient3795"
       id="linearGradient3814"
       gradientUnits="userSpaceOnUse"
       x1="14.772043"
       y1="1022.6282"
       x2="22.473551"
       y2="1022.6282"
       gradientTransform="translate(-720.99931,-278.79005)" />
    <linearGradient
       inkscape:collect="always"
       xlink:href="#linearGradient3795"
       id="linearGradient3820"
       gradientUnits="userSpaceOnUse"
       x1="14.772043"
       y1="1022.6282"
       x2="22.473551"
       y2="1022.6282"
       gradientTransform="translate(3.1805569,11.087074)" />
    <linearGradient
       inkscape:collect="always"
       xlink:href="#linearGradient3795"
       id="linearGradient3826"
       gradientUnits="userSpaceOnUse"
       gradientTransform="translate(13.144228,14.539274)"
       x1="14.772043"
       y1="1022.6282"
       x2="22.473551"
       y2="1022.6282" />
    <linearGradient
       inkscape:collect="always"
       xlink:href="#linearGradient3708"
       id="linearGradient3874"
       gradientUnits="userSpaceOnUse"
       gradientTransform="translate(-0.19126339,-0.01120898)"
       x1="14.772043"
       y1="1022.6282"
       x2="22.473551"
       y2="1022.6282" />
    <linearGradient
       inkscape:collect="always"
       xlink:href="#linearGradient3708"
       id="linearGradient3876"
       gradientUnits="userSpaceOnUse"
       gradientTransform="translate(-720.99931,-278.79005)"
       x1="14.772043"
       y1="1022.6282"
       x2="22.473551"
       y2="1022.6282" />
    <linearGradient
       inkscape:collect="always"
       xlink:href="#linearGradient3708"
       id="linearGradient3878"
       gradientUnits="userSpaceOnUse"
       gradientTransform="translate(3.1805569,11.087074)"
       x1="14.772043"
       y1="1022.6282"
       x2="22.473551"
       y2="1022.6282" />
    <linearGradient
       inkscape:collect="always"
       xlink:href="#linearGradient3708"
       id="linearGradient3880"
       gradientUnits="userSpaceOnUse"
       gradientTransform="translate(13.144228,14.539274)"
       x1="14.772043"
       y1="1022.6282"
       x2="22.473551"
       y2="1022.6282" />
    <linearGradient
       inkscape:collect="always"
       xlink:href="#linearGradient3828"
       id="linearGradient3834"
       x1="24.492996"
       y1="1034.1074"
       x2="34.643936"
       y2="1034.1074"
       gradientUnits="userSpaceOnUse" />
    <linearGradient
       inkscape:collect="always"
       xlink:href="#linearGradient3828"
       id="linearGradient3838"
       gradientUnits="userSpaceOnUse"
       x1="24.492996"
       y1="1034.1074"
       x2="34.643936"
       y2="1034.1074" />
    <linearGradient
       inkscape:collect="always"
       xlink:href="#linearGradient3828"
       id="linearGradient3845"
       gradientUnits="userSpaceOnUse"
       x1="29.638937"
       y1="1041.6244"
       x2="29.638937"
       y2="1018.3306"
       gradientTransform="translate(21.664028,17.330677)" />
    <linearGradient
       inkscape:collect="always"
       xlink:href="#linearGradient3708"
       id="linearGradient3854"
       gradientUnits="userSpaceOnUse"
       gradientTransform="translate(3.1805569,11.087074)"
       x1="14.772043"
       y1="1022.6282"
       x2="22.473551"
       y2="1022.6282" />
    <linearGradient
       inkscape:collect="always"
       xlink:href="#linearGradient3708"
       id="linearGradient3860"
       gradientUnits="userSpaceOnUse"
       gradientTransform="translate(3.1805569,11.087074)"
       x1="14.772043"
       y1="1022.6282"
       x2="22.473551"
       y2="1022.6282" />
    <linearGradient
       inkscape:collect="always"
       xlink:href="#linearGradient3708"
       id="linearGradient3864"
       gradientUnits="userSpaceOnUse"
       gradientTransform="translate(22.594585,21.292751)"
       x1="14.772043"
       y1="1022.6282"
       x2="22.473551"
       y2="1022.6282" />
    <linearGradient
       inkscape:collect="always"
       xlink:href="#linearGradient3828"
       id="linearGradient3873"
       x1="33.07259"
       y1="1044.3131"
       x2="42.61853"
       y2="1044.3131"
       gradientUnits="userSpaceOnUse" />
    <linearGradient
       inkscape:collect="always"
       xlink:href="#linearGradient3828"
       id="linearGradient3877"
       gradientUnits="userSpaceOnUse"
       gradientTransform="translate(21.664028,28.114055)"
       x1="29.638937"
       y1="1041.6244"
       x2="29.638937"
       y2="1018.3306" />
    <linearGradient
       inkscape:collect="always"
       xlink:href="#linearGradient3828"
       id="linearGradient3892"
       gradientUnits="userSpaceOnUse"
       gradientTransform="translate(21.664028,28.114055)"
       x1="29.638937"
       y1="1041.6244"
       x2="29.638937"
       y2="1018.3306" />
    <linearGradient
       inkscape:collect="always"
       xlink:href="#linearGradient3828"
       id="linearGradient3899"
       gradientUnits="userSpaceOnUse"
       gradientTransform="translate(21.664028,17.330677)"
       x1="29.638937"
       y1="1041.6244"
       x2="29.638937"
       y2="1018.3306" />
    <linearGradient
       inkscape:collect="always"
       xlink:href="#linearGradient3828"
       id="linearGradient3909"
       gradientUnits="userSpaceOnUse"
       gradientTransform="translate(21.664028,17.330677)"
       x1="29.638937"
       y1="1041.6244"
       x2="29.638937"
       y2="1018.3306" />
    <linearGradient
       inkscape:collect="always"
       xlink:href="#linearGradient3828"
       id="linearGradient3915"
       gradientUnits="userSpaceOnUse"
       gradientTransform="translate(22.302216,18.515715)"
       x1="29.638937"
       y1="1041.6244"
       x2="29.638937"
       y2="1018.3306" />
    <linearGradient
       inkscape:collect="always"
       xlink:href="#linearGradient3828"
       id="linearGradient3922"
       gradientUnits="userSpaceOnUse"
       gradientTransform="translate(22.302216,18.515715)"
       x1="29.638937"
       y1="1041.6244"
       x2="29.638937"
       y2="1018.3306" />
    <linearGradient
       inkscape:collect="always"
       xlink:href="#linearGradient3828"
       id="linearGradient3932"
       gradientUnits="userSpaceOnUse"
       gradientTransform="translate(21.664028,17.330677)"
       x1="29.638937"
       y1="1041.6244"
       x2="29.638937"
       y2="1018.3306" />
    <linearGradient
       inkscape:collect="always"
       xlink:href="#linearGradient3828"
       id="linearGradient3937"
       gradientUnits="userSpaceOnUse"
       gradientTransform="translate(32.261074,7.5348397)"
       x1="29.638937"
       y1="1041.6244"
       x2="29.638937"
       y2="1018.3306" />
    <linearGradient
       inkscape:collect="always"
       xlink:href="#linearGradient3828"
       id="linearGradient3944"
       gradientUnits="userSpaceOnUse"
       gradientTransform="translate(32.261074,7.5348397)"
       x1="29.638937"
       y1="1041.6244"
       x2="29.638937"
       y2="1018.3306" />
    <linearGradient
       inkscape:collect="always"
       xlink:href="#linearGradient3828"
       id="linearGradient3949"
       gradientUnits="userSpaceOnUse"
       gradientTransform="translate(32.261074,7.5348397)"
       x1="29.638937"
       y1="1041.6244"
       x2="29.638937"
       y2="1018.3306" />
    <linearGradient
       inkscape:collect="always"
       xlink:href="#linearGradient3828"
       id="linearGradient3956"
       gradientUnits="userSpaceOnUse"
       gradientTransform="translate(32.261074,7.5348397)"
       x1="29.638937"
       y1="1041.6244"
       x2="29.638937"
       y2="1018.3306" />
    <linearGradient
       inkscape:collect="always"
       xlink:href="#linearGradient3828"
       id="linearGradient3976"
       gradientUnits="userSpaceOnUse"
       gradientTransform="translate(22.302216,18.515715)"
       x1="29.638937"
       y1="1041.6244"
       x2="29.638937"
       y2="1018.3306" />
    <linearGradient
       inkscape:collect="always"
       xlink:href="#linearGradient3828"
       id="linearGradient3978"
       gradientUnits="userSpaceOnUse"
       gradientTransform="translate(21.664028,28.114055)"
       x1="29.638937"
       y1="1041.6244"
       x2="29.638937"
       y2="1018.3306" />
    <linearGradient
       inkscape:collect="always"
       xlink:href="#linearGradient3828"
       id="linearGradient3980"
       gradientUnits="userSpaceOnUse"
       gradientTransform="translate(21.664028,17.330677)"
       x1="29.638937"
       y1="1041.6244"
       x2="29.638937"
       y2="1018.3306" />
    <linearGradient
       inkscape:collect="always"
       xlink:href="#linearGradient3828"
       id="linearGradient3982"
       gradientUnits="userSpaceOnUse"
       gradientTransform="translate(32.261074,7.5348397)"
       x1="29.638937"
       y1="1041.6244"
       x2="29.638937"
       y2="1018.3306" />
    <linearGradient
       inkscape:collect="always"
       xlink:href="#linearGradient3828"
       id="linearGradient3073"
       gradientUnits="userSpaceOnUse"
       gradientTransform="translate(32.261074,7.5348397)"
       x1="29.638937"
       y1="1041.6244"
       x2="29.638937"
       y2="1018.3306" />
    <linearGradient
       inkscape:collect="always"
       xlink:href="#linearGradient3828"
       id="linearGradient3080"
       gradientUnits="userSpaceOnUse"
       gradientTransform="translate(21.664028,17.330677)"
       x1="29.638937"
       y1="1041.6244"
       x2="29.638937"
       y2="1018.3306" />
    <linearGradient
       inkscape:collect="always"
       xlink:href="#linearGradient3828"
       id="linearGradient3087"
       gradientUnits="userSpaceOnUse"
       gradientTransform="translate(21.664028,28.114055)"
       x1="29.638937"
       y1="1041.6244"
       x2="29.638937"
       y2="1018.3306" />
    <linearGradient
       inkscape:collect="always"
       xlink:href="#linearGradient3828"
       id="linearGradient3094"
       gradientUnits="userSpaceOnUse"
       gradientTransform="translate(22.302216,18.515715)"
       x1="29.638937"
       y1="1041.6244"
       x2="29.638937"
       y2="1018.3306" />
    <linearGradient
       y2="1049.5842"
       x2="24.113745"
       y1="1007.2183"
       x1="24.113745"
       gradientTransform="matrix(0.96799712,0,0,1.0252613,0.76812014,-25.977808)"
       gradientUnits="userSpaceOnUse"
       id="linearGradient3030"
       xlink:href="#linearGradient3795-2"
       inkscape:collect="always" />
    <linearGradient
       id="linearGradient3795-2">
      <stop
         style="stop-color:#68b8d8;stop-opacity:1;"
         offset="0"
         id="stop3797-7" />
      <stop
         style="stop-color:#3097bd;stop-opacity:1;"
         offset="1"
         id="stop3799-8" />
    </linearGradient>
    <linearGradient
       y2="1049.5842"
       x2="24.113745"
       y1="1007.2183"
       x1="24.113745"
       gradientTransform="matrix(0.96799712,0,0,1.0252613,0.76811912,-2082.7025)"
       gradientUnits="userSpaceOnUse"
       id="linearGradient3066"
       xlink:href="#linearGradient3856"
       inkscape:collect="always" />
  </defs>
  <sodipodi:namedview
     id="base"
     pagecolor="#ffffff"
     bordercolor="#666666"
     borderopacity="1.0"
     inkscape:pageopacity="0.0"
     inkscape:pageshadow="2"
     inkscape:zoom="12.506951"
     inkscape:cx="13.46811"
     inkscape:cy="31.730481"
     inkscape:document-units="px"
     inkscape:current-layer="layer1"
     showgrid="false"
     inkscape:window-width="1366"
     inkscape:window-height="750"
     inkscape:window-x="0"
     inkscape:window-y="0"
     inkscape:window-maximized="1" />
  <metadata
     id="metadata7">
    <rdf:RDF>
      <cc:Work
         rdf:about="">
        <dc:format>image/svg+xml</dc:format>
        <dc:type
           rdf:resource="http://purl.org/dc/dcmitype/StillImage" />
        <dc:title />
      </cc:Work>
    </rdf:RDF>
  </metadata>
  <g
     inkscape:label="Capa 1"
     inkscape:groupmode="layer"
     id="layer1"
     transform="translate(0,-1004.3622)">
    <path
       transform="scale(1,-1)"
       style="fill:url(#linearGradient3066);fill-opacity:1;stroke:#7d7d7d;stroke-width:0.39848712;stroke-miterlimit:4;stroke-opacity:1"
       d="m 7.3747792,-1050.663 33.2504418,0 c 3.144247,0 5.675535,2.5313 5.675535,5.6756 l 0,33.2504 c 0,3.1443 -2.531288,5.6755 -5.675535,5.6755 l -33.2504418,0 c -3.1442467,0 -5.6755357,-2.5312 -5.6755357,-5.6755 l 0,-33.2504 c 0,-3.1443 2.531289,-5.6756 5.6755357,-5.6756 z"
       id="rect2992" />
    <g
       id="g953"
       transform="translate(-0.26614781,1.0966515)">
      <g
         transform="translate(0,-28.814601)"
         id="g913">
        <path
           transform="matrix(0.23386988,0,0,0.29602525,3.7743264,1042.6072)"
           style="fill:#ff0000;fill-opacity:1;stroke:none"
           inkscape:transform-center-y="0.53893776"
           d="M 17.324116,17.982374 10.04186,10.700118 17.324116,3.4178624 24.606371,10.700118 z"
           id="path915" />
        <g
           style="font-size:9.41568947px;font-style:normal;font-variant:normal;font-weight:normal;font-stretch:normal;line-height:125%;letter-spacing:0px;word-spacing:0px;fill:#ff0000;fill-opacity:1;stroke:none;font-family:Decker;-inkscape-font-specification:Decker"
           id="text917">
          <path
             d="m 5.5317605,1043.3467 -0.6942232,0 2.5975901,-6.694 0.7907708,0 2.5883948,6.694 -0.703418,0 -0.7999657,-2.1011 -2.979183,0 -0.7999658,2.1011 z m 3.5492736,-2.7034 -1.2689113,-3.3607 -1.2505213,3.3607 2.5194326,0 z"
             style=""
             id="path97" />
        </g>
        <path
           transform="matrix(0.68295722,0,0,0.8644661,12.434518,1046.8303)"
           style="fill:#ff0000;fill-opacity:1;stroke:none"
           inkscape:transform-center-y="1.5737826"
           d="M 17.324116,17.982374 10.04186,10.700118 17.324116,3.4178624 24.606371,10.700118 z"
           id="path971" />
      </g>
      <g
         id="g921"
         transform="translate(32.880465,-28.814601)">
        <path
           transform="matrix(0.23386988,0,0,0.29602525,3.7743264,1042.6072)"
           style="fill:#ff0000;fill-opacity:1;stroke:none"
           inkscape:transform-center-y="0.53893776"
           d="M 17.324116,17.982374 10.04186,10.700118 17.324116,3.4178624 24.606371,10.700118 z"
           id="path923" />
        <g
           style="font-size:9.41568947px;font-style:normal;font-variant:normal;font-weight:normal;font-stretch:normal;line-height:125%;letter-spacing:0px;word-spacing:0px;fill:#ff0000;fill-opacity:1;stroke:none;font-family:Decker;-inkscape-font-specification:Decker"
           id="text925">
          <path
             d="m 5.5317605,1043.3467 -0.6942232,0 2.5975901,-6.694 0.7907708,0 2.5883948,6.694 -0.703418,0 -0.7999657,-2.1011 -2.979183,0 -0.7999658,2.1011 z m 3.5492736,-2.7034 -1.2689113,-3.3607 -1.2505213,3.3607 2.5194326,0 z"
             style=""
             id="path102" />
        </g>
      </g>
      <g
         id="g937"
         transform="translate(0,-1.2374368)">
        <path
           transform="matrix(0.23386988,0,0,0.29602525,3.7743264,1042.6072)"
           style="fill:#ff0000;fill-opacity:1;stroke:none"
           inkscape:transform-center-y="0.53893776"
           d="M 17.324116,17.982374 10.04186,10.700118 17.324116,3.4178624 24.606371,10.700118 z"
           id="path939" />
        <g
           style="font-size:9.41568947px;font-style:normal;font-variant:normal;font-weight:normal;font-stretch:normal;line-height:125%;letter-spacing:0px;word-spacing:0px;fill:#ff0000;fill-opacity:1;stroke:none;font-family:Decker;-inkscape-font-specification:Decker"
           id="text941">
          <path
             d="m 5.5317605,1043.3467 -0.6942232,0 2.5975901,-6.694 0.7907708,0 2.5883948,6.694 -0.703418,0 -0.7999657,-2.1011 -2.979183,0 -0.7999658,2.1011 z m 3.5492736,-2.7034 -1.2689113,-3.3607 -1.2505213,3.3607 2.5194326,0 z"
             style=""
             id="path106" />
        </g>
      </g>
      <g
         transform="translate(32.880465,-1.2374368)"
         id="g945">
        <path
           transform="matrix(0.23386988,0,0,0.29602525,3.7743264,1042.6072)"
           style="fill:#ff0000;fill-opacity:1;stroke:none"
           inkscape:transform-center-y="0.53893776"
           d="M 17.324116,17.982374 10.04186,10.700118 17.324116,3.4178624 24.606371,10.700118 z"
           id="path947" />
        <g
           style="font-size:9.41568947px;font-style:normal;font-variant:normal;font-weight:normal;font-stretch:normal;line-height:125%;letter-spacing:0px;word-spacing:0px;fill:#ff0000;fill-opacity:1;stroke:none;font-family:Decker;-inkscape-font-specification:Decker"
           id="text949">
          <path
             d="m 5.5317605,1043.3467 -0.6942232,0 2.5975901,-6.694 0.7907708,0 2.5883948,6.694 -0.703418,0 -0.7999657,-2.1011 -2.979183,0 -0.7999658,2.1011 z m 3.5492736,-2.7034 -1.2689113,-3.3607 -1.2505213,3.3607 2.5194326,0 z"
             style=""
             id="path110" />
        </g>
      </g>
    </g>
  </g>
</svg>
