<?xml version="1.0" encoding="UTF-8" standalone="no"?>
<!-- Created with Inkscape (http://www.inkscape.org/) -->

<svg
   xmlns:dc="http://purl.org/dc/elements/1.1/"
   xmlns:cc="http://creativecommons.org/ns#"
   xmlns:rdf="http://www.w3.org/1999/02/22-rdf-syntax-ns#"
   xmlns:svg="http://www.w3.org/2000/svg"
   xmlns="http://www.w3.org/2000/svg"
   xmlns:xlink="http://www.w3.org/1999/xlink"
   xmlns:sodipodi="http://sodipodi.sourceforge.net/DTD/sodipodi-0.dtd"
   xmlns:inkscape="http://www.inkscape.org/namespaces/inkscape"
   width="48"
   height="48"
   id="svg2"
   version="1.1"
   inkscape:version="0.48+devel r11731"
   sodipodi:docname="stellearium.svg">
  <defs
     id="defs4">
    <linearGradient
       id="linearGradient865">
      <stop
         style="stop-color:#71c837;stop-opacity:1"
         offset="0"
         id="stop867" />
      <stop
         style="stop-color:#447821;stop-opacity:1"
         offset="1"
         id="stop869" />
    </linearGradient>
    <linearGradient
       id="linearGradient860">
      <stop
         id="stop862"
         offset="0"
         style="stop-color:#000000;stop-opacity:1" />
      <stop
         id="stop864"
         offset="1"
         style="stop-color:#333333;stop-opacity:1" />
    </linearGradient>
    <linearGradient
       id="linearGradient3795">
      <stop
         style="stop-color:#8d3e8d;stop-opacity:1;"
         offset="0"
         id="stop3797" />
      <stop
         style="stop-color:#5f225f;stop-opacity:1;"
         offset="1"
         id="stop3799" />
    </linearGradient>
    <linearGradient
       id="linearGradient3698">
      <stop
         id="stop3700"
         offset="0"
         style="stop-color:#96d0e1;stop-opacity:1" />
      <stop
         style="stop-color:#89b7e1;stop-opacity:1"
         offset="0.67819428"
         id="stop3706" />
      <stop
         id="stop3702"
         offset="1"
         style="stop-color:#699dd3;stop-opacity:1" />
    </linearGradient>
    <linearGradient
       id="linearGradient3708">
      <stop
         id="stop3710"
         offset="0"
         style="stop-color:#658db6;stop-opacity:1" />
      <stop
         style="stop-color:#527fab;stop-opacity:1;"
         offset="0.76777935"
         id="stop3716" />
      <stop
         id="stop3712"
         offset="1"
         style="stop-color:#4071a0;stop-opacity:1" />
    </linearGradient>
    <linearGradient
       id="linearGradient3750">
      <stop
         style="stop-color:#d0e2f1;stop-opacity:1"
         offset="0"
         id="stop3752" />
      <stop
         id="stop3756"
         offset="0.85580856"
         style="stop-color:#cadef0;stop-opacity:1" />
      <stop
         style="stop-color:#95bee3;stop-opacity:1"
         offset="1"
         id="stop3754" />
    </linearGradient>
    <linearGradient
       id="linearGradient3803">
      <stop
         id="stop3805"
         offset="0"
         style="stop-color:#d7def0;stop-opacity:1;" />
      <stop
         style="stop-color:#ffffff;stop-opacity:1"
         offset="0.5"
         id="stop3811" />
      <stop
         id="stop3807"
         offset="1"
         style="stop-color:#d5def0;stop-opacity:1" />
    </linearGradient>
    <linearGradient
       inkscape:collect="always"
       xlink:href="#linearGradient3795"
       id="linearGradient3801"
       x1="23.204165"
       y1="1053.158"
       x2="23.204165"
       y2="1004.8474"
       gradientUnits="userSpaceOnUse"
       gradientTransform="translate(0,-2056.7244)" />
    <linearGradient
       inkscape:collect="always"
       xlink:href="#linearGradient3795"
       id="linearGradient3859"
       x1="26.192217"
       y1="1024.0002"
       x2="28.641211"
       y2="1024.0002"
       gradientUnits="userSpaceOnUse" />
    <linearGradient
       inkscape:collect="always"
       xlink:href="#linearGradient3795"
       id="linearGradient3867"
       gradientUnits="userSpaceOnUse"
       x1="26.192217"
       y1="1024.0002"
       x2="28.641211"
       y2="1024.0002" />
    <linearGradient
       inkscape:collect="always"
       xlink:href="#linearGradient3795"
       id="linearGradient3869"
       gradientUnits="userSpaceOnUse"
       x1="26.192217"
       y1="1024.0002"
       x2="28.641211"
       y2="1024.0002" />
    <linearGradient
       inkscape:collect="always"
       xlink:href="#linearGradient3795"
       id="linearGradient3871"
       gradientUnits="userSpaceOnUse"
       x1="26.192217"
       y1="1024.0002"
       x2="28.641211"
       y2="1024.0002" />
    <linearGradient
       inkscape:collect="always"
       xlink:href="#linearGradient3795"
       id="linearGradient3877"
       gradientUnits="userSpaceOnUse"
       x1="29.718235"
       y1="1027.8575"
       x2="22.811094"
       y2="1015.5485" />
    <linearGradient
       inkscape:collect="always"
       xlink:href="#linearGradient3795"
       id="linearGradient3879"
       gradientUnits="userSpaceOnUse"
       x1="17.196316"
       y1="1006.2238"
       x2="31.448042"
       y2="1030.9086" />
    <linearGradient
       inkscape:collect="always"
       xlink:href="#linearGradient3795"
       id="linearGradient3895"
       x1="21.973417"
       y1="34.43922"
       x2="42.475323"
       y2="24.798252"
       gradientUnits="userSpaceOnUse" />
    <linearGradient
       inkscape:collect="always"
       xlink:href="#linearGradient3895-8"
       id="linearGradient3857"
       gradientUnits="userSpaceOnUse"
       gradientTransform="matrix(0.96799712,0,0,1.0252613,604.84439,-419.13965)"
       x1="24.113745"
       y1="1049.2139"
       x2="24.113745"
       y2="1007.5135" />
    <linearGradient
       id="linearGradient3895-8">
      <stop
         id="stop3897"
         offset="0"
         style="stop-color:#e0880b;stop-opacity:1;" />
      <stop
         id="stop3899"
         offset="1"
         style="stop-color:#f7ce50;stop-opacity:1;" />
    </linearGradient>
    <linearGradient
       inkscape:collect="always"
       xlink:href="#linearGradient859"
       id="linearGradient3801-6"
       x1="23.204165"
       y1="1053.158"
       x2="23.204165"
       y2="1004.8474"
       gradientUnits="userSpaceOnUse"
       gradientTransform="translate(0,-2056.7244)" />
    <linearGradient
       id="linearGradient859">
      <stop
         id="stop861"
         offset="0"
         style="stop-color:#ba65be;stop-opacity:1" />
      <stop
         id="stop863"
         offset="1"
         style="stop-color:#ac43b2;stop-opacity:1" />
    </linearGradient>
    <linearGradient
       inkscape:collect="always"
       xlink:href="#linearGradient838"
       id="linearGradient3801-0"
       x1="23.204165"
       y1="1053.158"
       x2="23.204165"
       y2="1004.8474"
       gradientUnits="userSpaceOnUse"
       gradientTransform="translate(0,-2056.7244)" />
    <linearGradient
       id="linearGradient838">
      <stop
         id="stop840"
         offset="0"
         style="stop-color:#00e0ff;stop-opacity:1" />
      <stop
         id="stop842"
         offset="1"
         style="stop-color:#0089ff;stop-opacity:1" />
    </linearGradient>
    <linearGradient
       y2="1004.8474"
       x2="23.204165"
       y1="1053.158"
       x1="23.204165"
       gradientTransform="translate(17.374999,-1052.3622)"
       gradientUnits="userSpaceOnUse"
       id="linearGradient959"
       xlink:href="#linearGradient838-7"
       inkscape:collect="always" />
    <linearGradient
       id="linearGradient838-7">
      <stop
         id="stop840-9"
         offset="0"
         style="stop-color:#00e0ff;stop-opacity:1" />
      <stop
         id="stop842-3"
         offset="1"
         style="stop-color:#0089ff;stop-opacity:1" />
    </linearGradient>
    <linearGradient
       inkscape:collect="always"
       xlink:href="#linearGradient3795-0"
       id="linearGradient3801-61"
       x1="23.204165"
       y1="1053.158"
       x2="23.204165"
       y2="1004.8474"
       gradientUnits="userSpaceOnUse" />
    <linearGradient
       id="linearGradient3795-0">
      <stop
         style="stop-color:#cd5c24;stop-opacity:1;"
         offset="0"
         id="stop3797-7" />
      <stop
         style="stop-color:#ff6700;stop-opacity:1;"
         offset="1"
         id="stop3799-3" />
    </linearGradient>
    <linearGradient
       inkscape:collect="always"
       xlink:href="#linearGradient850"
       id="linearGradient3801-4"
       x1="23.204165"
       y1="1053.158"
       x2="23.204165"
       y2="1004.8474"
       gradientUnits="userSpaceOnUse"
       gradientTransform="translate(0,-2056.7244)" />
    <linearGradient
       id="linearGradient850">
      <stop
         id="stop852"
         offset="0"
         style="stop-color:#71c837;stop-opacity:1" />
      <stop
         id="stop854"
         offset="1"
         style="stop-color:#89a02c;stop-opacity:1" />
    </linearGradient>
    <linearGradient
       inkscape:collect="always"
       xlink:href="#linearGradient850-7"
       id="linearGradient3801-1"
       x1="23.204165"
       y1="1053.158"
       x2="23.204165"
       y2="1004.8474"
       gradientUnits="userSpaceOnUse"
       gradientTransform="translate(0,-2056.7244)" />
    <linearGradient
       id="linearGradient850-7">
      <stop
         id="stop852-6"
         offset="0"
         style="stop-color:#85c837;stop-opacity:1" />
      <stop
         id="stop854-2"
         offset="1"
         style="stop-color:#77a22c;stop-opacity:1" />
    </linearGradient>
    <linearGradient
       inkscape:collect="always"
       xlink:href="#linearGradient3708-6"
       id="linearGradient3801-5"
       x1="23.204165"
       y1="1053.158"
       x2="23.204165"
       y2="1004.8474"
       gradientUnits="userSpaceOnUse"
       gradientTransform="translate(0,-2056.7244)" />
    <linearGradient
       id="linearGradient3708-6">
      <stop
         id="stop3710-8"
         offset="0"
         style="stop-color:#658db6;stop-opacity:1" />
      <stop
         style="stop-color:#527fab;stop-opacity:1;"
         offset="0.76777935"
         id="stop3716-3" />
      <stop
         id="stop3712-6"
         offset="1"
         style="stop-color:#4071a0;stop-opacity:1" />
    </linearGradient>
    <linearGradient
       inkscape:collect="always"
       xlink:href="#linearGradient845"
       id="linearGradient3801-7"
       x1="23.204165"
       y1="1053.158"
       x2="23.204165"
       y2="1004.8474"
       gradientUnits="userSpaceOnUse"
       gradientTransform="translate(0,-2056.7244)" />
    <linearGradient
       id="linearGradient845">
      <stop
         id="stop847"
         offset="0"
         style="stop-color:#1f4172;stop-opacity:1" />
      <stop
         id="stop849"
         offset="1"
         style="stop-color:#162c4e;stop-opacity:1" />
    </linearGradient>
    <linearGradient
       inkscape:collect="always"
       xlink:href="#linearGradient876"
       id="linearGradient873"
       gradientUnits="userSpaceOnUse"
       gradientTransform="matrix(0.95552462,0,0,-0.95552462,0.4473182,1005.1772)"
       x1="23.204165"
       y1="1053.158"
       x2="23.204165"
       y2="1004.8474" />
    <linearGradient
       id="linearGradient876">
      <stop
         style="stop-color:#ff6600;stop-opacity:1"
         offset="0"
         id="stop878" />
      <stop
         style="stop-color:#552200;stop-opacity:1"
         offset="1"
         id="stop880" />
    </linearGradient>
    <linearGradient
       y2="1004.8474"
       x2="23.204165"
       y1="1053.158"
       x1="23.204165"
       gradientTransform="matrix(1,0,0,-1,9.7314453e-7,1052.3622)"
       gradientUnits="userSpaceOnUse"
       id="linearGradient907"
       xlink:href="#linearGradient845"
       inkscape:collect="always" />
  </defs>
  <sodipodi:namedview
     id="base"
     pagecolor="#ffffff"
     bordercolor="#666666"
     borderopacity="1.0"
     inkscape:pageopacity="0.0"
     inkscape:pageshadow="2"
     inkscape:zoom="8.0000005"
     inkscape:cx="32.540486"
     inkscape:cy="22.817983"
     inkscape:document-units="px"
     inkscape:current-layer="layer1"
     showgrid="false"
     inkscape:window-width="1366"
     inkscape:window-height="711"
     inkscape:window-x="0"
     inkscape:window-y="0"
     inkscape:window-maximized="1">
    <inkscape:grid
       type="xygrid"
       id="grid3850" />
  </sodipodi:namedview>
  <metadata
     id="metadata7">
    <rdf:RDF>
      <cc:Work
         rdf:about="">
        <dc:format>image/svg+xml</dc:format>
        <dc:type
           rdf:resource="http://purl.org/dc/dcmitype/StillImage" />
        <dc:title></dc:title>
      </cc:Work>
    </rdf:RDF>
  </metadata>
  <g
     inkscape:label="Capa 1"
     inkscape:groupmode="layer"
     id="layer1"
     transform="translate(0,-1004.3622)">
    <path
       style="fill:url(#linearGradient907);fill-opacity:1;stroke:none"
       d="M 7.375 1.6875 C 4.2307532 1.6875 1.6875 4.2307532 1.6875 7.375 L 1.6875 40.625 C 1.6875 43.769247 4.2307532 46.3125 7.375 46.3125 L 40.625 46.3125 C 43.769247 46.3125 46.3125 43.769247 46.3125 40.625 L 46.3125 7.375 C 46.3125 4.2307532 43.769247 1.6875 40.625 1.6875 L 7.375 1.6875 z "
       transform="translate(0,1004.3622)"
       id="rect2991-8" />
    <path
       style="fill:#ffffff;fill-opacity:1;fill-rule:nonzero;stroke:none"
       d="m 10.025453,1006.8779 c 2.030512,1.6194 3.344336,4.0985 3.344336,6.8976 0,4.8814 -3.9571773,8.8386 -8.8386025,8.8386 -0.5289096,0 -1.0493772,-0.06 -1.5527275,-0.1493 1.5105058,1.2047 3.4119778,1.9409 5.4942666,1.9409 4.8814254,0 8.8386024,-3.9572 8.8386024,-8.8386 C 17.311328,1011.2146 14.167634,1007.6106 10.025453,1006.8779 Z"
       id="path848"
       inkscape:connector-curvature="0" />
    <path
       sodipodi:type="star"
       style="fill:#ffffff;fill-opacity:1;fill-rule:nonzero;stroke:none"
       id="path853"
       sodipodi:sides="5"
       sodipodi:cx="24.624998"
       sodipodi:cy="21.250002"
       sodipodi:r1="7.9451237"
       sodipodi:r2="3.9725618"
       sodipodi:arg1="1.0471976"
       sodipodi:arg2="1.6755161"
       inkscape:flatsided="false"
       inkscape:rounded="0"
       inkscape:randomized="0"
       d="m 28.59756,28.130681 -4.387808,-2.929879 -4.90108,1.953577 1.430574,-5.078435 -3.372479,-4.057515 5.27195,-0.208767 2.816773,-4.46126 1.827671,4.949411 5.113341,1.300305 L 28.254114,22.865788 Z"
       transform="matrix(0.16082951,0,0,0.16082951,19.646316,1011.9217)"
       inkscape:transform-center-x="0.33432129"
       inkscape:transform-center-y="-3.7130685e-05" />
    <path
       inkscape:transform-center-y="0.11601782"
       inkscape:transform-center-x="0.40707155"
       transform="matrix(0.15534937,-0.04162574,0.04162574,0.15534937,20.363534,1008.0178)"
       d="m 28.59756,28.130681 -4.387808,-2.929879 -4.90108,1.953577 1.430574,-5.078435 -3.372479,-4.057515 5.27195,-0.208767 2.816773,-4.46126 1.827671,4.949411 5.113341,1.300305 L 28.254114,22.865788 Z"
       inkscape:randomized="0"
       inkscape:rounded="0"
       inkscape:flatsided="false"
       sodipodi:arg2="1.6755161"
       sodipodi:arg1="1.0471976"
       sodipodi:r2="3.9725618"
       sodipodi:r1="7.9451237"
       sodipodi:cy="21.250002"
       sodipodi:cx="24.624998"
       sodipodi:sides="5"
       id="path855"
       style="fill:#ffffff;fill-opacity:1;fill-rule:nonzero;stroke:none"
       sodipodi:type="star" />
    <path
       inkscape:transform-center-y="-0.11747613"
       inkscape:transform-center-x="0.41558018"
       transform="matrix(0.12346078,0.10307069,-0.10307069,0.12346078,19.563102,1011.8385)"
       d="m 28.59756,28.130681 -4.387808,-2.929879 -4.90108,1.953577 1.430574,-5.078435 -3.372479,-4.057515 5.27195,-0.208767 2.816773,-4.46126 1.827671,4.949411 5.113341,1.300305 L 28.254114,22.865788 Z"
       inkscape:randomized="0"
       inkscape:rounded="0"
       inkscape:flatsided="false"
       sodipodi:arg2="1.6755161"
       sodipodi:arg1="1.0471976"
       sodipodi:r2="3.9725618"
       sodipodi:r1="7.9451237"
       sodipodi:cy="21.250002"
       sodipodi:cx="24.624998"
       sodipodi:sides="5"
       id="path857"
       style="fill:#ffffff;fill-opacity:1;fill-rule:nonzero;stroke:none"
       sodipodi:type="star" />
    <path
       sodipodi:type="star"
       style="fill:#ffffff;fill-opacity:1;fill-rule:nonzero;stroke:none"
       id="path859"
       sodipodi:sides="5"
       sodipodi:cx="24.624998"
       sodipodi:cy="21.250002"
       sodipodi:r1="7.9451237"
       sodipodi:r2="3.9725618"
       sodipodi:arg1="1.0471976"
       sodipodi:arg2="1.6755161"
       inkscape:flatsided="false"
       inkscape:rounded="0"
       inkscape:randomized="0"
       d="m 28.59756,28.130681 -4.387808,-2.929879 -4.90108,1.953577 1.430574,-5.078435 -3.372479,-4.057515 5.27195,-0.208767 2.816773,-4.46126 1.827671,4.949411 5.113341,1.300305 L 28.254114,22.865788 Z"
       transform="matrix(0.16076892,0.00441429,-0.00441429,0.16076892,16.992362,1018.493)"
       inkscape:transform-center-x="0.32527174"
       inkscape:transform-center-y="0.00070383602" />
    <path
       inkscape:transform-center-y="-3.7130685e-05"
       inkscape:transform-center-x="0.33432129"
       transform="matrix(0.16082951,0,0,0.16082951,24.065617,1018.4909)"
       d="m 28.59756,28.130681 -4.387808,-2.929879 -4.90108,1.953577 1.430574,-5.078435 -3.372479,-4.057515 5.27195,-0.208767 2.816773,-4.46126 1.827671,4.949411 5.113341,1.300305 L 28.254114,22.865788 Z"
       inkscape:randomized="0"
       inkscape:rounded="0"
       inkscape:flatsided="false"
       sodipodi:arg2="1.6755161"
       sodipodi:arg1="1.0471976"
       sodipodi:r2="3.9725618"
       sodipodi:r1="7.9451237"
       sodipodi:cy="21.250002"
       sodipodi:cx="24.624998"
       sodipodi:sides="5"
       id="path861"
       style="fill:#ffffff;fill-opacity:1;fill-rule:nonzero;stroke:none"
       sodipodi:type="star" />
    <path
       sodipodi:type="star"
       style="fill:#ffffff;fill-opacity:1;fill-rule:nonzero;stroke:none"
       id="path863"
       sodipodi:sides="5"
       sodipodi:cx="24.624998"
       sodipodi:cy="21.250002"
       sodipodi:r1="7.9451237"
       sodipodi:r2="3.9725618"
       sodipodi:arg1="1.0471976"
       sodipodi:arg2="1.6755161"
       inkscape:flatsided="false"
       inkscape:rounded="0"
       inkscape:randomized="0"
       d="m 28.59756,28.130681 -4.387808,-2.929879 -4.90108,1.953577 1.430574,-5.078435 -3.372479,-4.057515 5.27195,-0.208767 2.816773,-4.46126 1.827671,4.949411 5.113341,1.300305 L 28.254114,22.865788 Z"
       transform="matrix(0.15534937,-0.04162574,0.04162574,0.15534937,24.782836,1014.587)"
       inkscape:transform-center-x="0.40707155"
       inkscape:transform-center-y="0.11601782" />
    <path
       sodipodi:type="star"
       style="fill:#ffffff;fill-opacity:1;fill-rule:nonzero;stroke:none"
       id="path865"
       sodipodi:sides="5"
       sodipodi:cx="24.624998"
       sodipodi:cy="21.250002"
       sodipodi:r1="7.9451237"
       sodipodi:r2="3.9725618"
       sodipodi:arg1="1.0471976"
       sodipodi:arg2="1.6755161"
       inkscape:flatsided="false"
       inkscape:rounded="0"
       inkscape:randomized="0"
       d="m 28.59756,28.130681 -4.387808,-2.929879 -4.90108,1.953577 1.430574,-5.078435 -3.372479,-4.057515 5.27195,-0.208767 2.816773,-4.46126 1.827671,4.949411 5.113341,1.300305 L 28.254114,22.865788 Z"
       transform="matrix(0.12346078,0.10307069,-0.10307069,0.12346078,23.982403,1018.4077)"
       inkscape:transform-center-x="0.41558018"
       inkscape:transform-center-y="-0.11747613" />
    <path
       inkscape:transform-center-y="0.00070383602"
       inkscape:transform-center-x="0.32527174"
       transform="matrix(0.16076892,0.00441429,-0.00441429,0.16076892,21.411664,1025.0622)"
       d="m 28.59756,28.130681 -4.387808,-2.929879 -4.90108,1.953577 1.430574,-5.078435 -3.372479,-4.057515 5.27195,-0.208767 2.816773,-4.46126 1.827671,4.949411 5.113341,1.300305 L 28.254114,22.865788 Z"
       inkscape:randomized="0"
       inkscape:rounded="0"
       inkscape:flatsided="false"
       sodipodi:arg2="1.6755161"
       sodipodi:arg1="1.0471976"
       sodipodi:r2="3.9725618"
       sodipodi:r1="7.9451237"
       sodipodi:cy="21.250002"
       sodipodi:cx="24.624998"
       sodipodi:sides="5"
       id="path867"
       style="fill:#ffffff;fill-opacity:1;fill-rule:nonzero;stroke:none"
       sodipodi:type="star" />
    <path
       style="fill:url(#linearGradient873);fill-opacity:1;stroke:none"
       d="M 42.78125 27.34375 C 34.30472 27.34375 27.4375 34.211 27.4375 42.6875 C 27.4375 43.52822 27.521249 45.275059 27.65625 46.3125 L 40.625 46.3125 C 43.376216 46.3125 45.657718 44.374444 46.1875 41.78125 C 46.210682 41.667777 46.233672 41.553338 46.25 41.4375 C 46.258998 41.360797 46.27463 41.293969 46.28125 41.21875 C 46.300645 41.027404 46.3125 40.821515 46.3125 40.625 L 46.3125 27.75 C 45.181776 27.4845 43.992949 27.34375 42.78125 27.34375 z "
       transform="translate(0,1004.3622)"
       id="rect869" />
    <path
       style="fill:#89a02c;stroke:none"
       d="m 27.558091,1045.3281 c 0.844572,0.1689 8.023438,-0.2111 8.023438,-2.407 0,-2.1959 -1.689144,-7.939 2.026974,-8.9525 3.716118,-1.0135 6.841036,-2.1959 6.841036,-2.1959 l -12.753043,-1.3513 C 30.306971,1035.3873 27.900897,1040.0482 27.558091,1045.3281 Z"
       id="path854"
       inkscape:connector-curvature="0"
       sodipodi:nodetypes="cssccc" />
    <path
       style="fill:#ffffff;stroke:none"
       d="m 31.710889,1030.4076 c -0.3306,1.1815 -0.730476,2.3641 -1.134685,3.5235 L 33.86082,1030.6465 31.710889,1030.4076 Z"
       id="path856"
       inkscape:connector-curvature="0" />
  </g>
</svg>
