<?xml version="1.0" encoding="UTF-8" standalone="no"?>
<!-- Created with Inkscape (http://www.inkscape.org/) -->

<svg
   xmlns:dc="http://purl.org/dc/elements/1.1/"
   xmlns:cc="http://creativecommons.org/ns#"
   xmlns:rdf="http://www.w3.org/1999/02/22-rdf-syntax-ns#"
   xmlns:svg="http://www.w3.org/2000/svg"
   xmlns="http://www.w3.org/2000/svg"
   xmlns:xlink="http://www.w3.org/1999/xlink"
   xmlns:sodipodi="http://sodipodi.sourceforge.net/DTD/sodipodi-0.dtd"
   xmlns:inkscape="http://www.inkscape.org/namespaces/inkscape"
   width="48"
   height="48"
   id="svg2"
   version="1.1"
   inkscape:version="0.48+devel r11521"
   sodipodi:docname="gnome-settings-keybinding.svg">
  <defs
     id="defs4">
    <linearGradient
       id="linearGradient3795">
      <stop
         style="stop-color:#f13939;stop-opacity:1;"
         offset="0"
         id="stop3797" />
      <stop
         style="stop-color:#9d4221;stop-opacity:1;"
         offset="1"
         id="stop3799" />
    </linearGradient>
    <linearGradient
       id="linearGradient3698">
      <stop
         id="stop3700"
         offset="0"
         style="stop-color:#96d0e1;stop-opacity:1" />
      <stop
         style="stop-color:#89b7e1;stop-opacity:1"
         offset="0.67819428"
         id="stop3706" />
      <stop
         id="stop3702"
         offset="1"
         style="stop-color:#699dd3;stop-opacity:1" />
    </linearGradient>
    <linearGradient
       id="linearGradient3708">
      <stop
         id="stop3710"
         offset="0"
         style="stop-color:#87f99f;stop-opacity:1;" />
      <stop
         id="stop3712"
         offset="1"
         style="stop-color:#2a9349;stop-opacity:1;" />
    </linearGradient>
    <linearGradient
       id="linearGradient3750">
      <stop
         style="stop-color:#d0e2f1;stop-opacity:1"
         offset="0"
         id="stop3752" />
      <stop
         id="stop3756"
         offset="0.85580856"
         style="stop-color:#cadef0;stop-opacity:1" />
      <stop
         style="stop-color:#95bee3;stop-opacity:1"
         offset="1"
         id="stop3754" />
    </linearGradient>
    <linearGradient
       id="linearGradient3803">
      <stop
         id="stop3805"
         offset="0"
         style="stop-color:#d7def0;stop-opacity:1;" />
      <stop
         style="stop-color:#ffffff;stop-opacity:1"
         offset="0.5"
         id="stop3811" />
      <stop
         id="stop3807"
         offset="1"
         style="stop-color:#d5def0;stop-opacity:1" />
    </linearGradient>
    <linearGradient
       inkscape:collect="always"
       xlink:href="#linearGradient3795"
       id="linearGradient3859"
       x1="26.192217"
       y1="1024.0002"
       x2="28.641211"
       y2="1024.0002"
       gradientUnits="userSpaceOnUse" />
    <linearGradient
       inkscape:collect="always"
       xlink:href="#linearGradient3795"
       id="linearGradient3867"
       gradientUnits="userSpaceOnUse"
       x1="26.192217"
       y1="1024.0002"
       x2="28.641211"
       y2="1024.0002" />
    <linearGradient
       inkscape:collect="always"
       xlink:href="#linearGradient3795"
       id="linearGradient3869"
       gradientUnits="userSpaceOnUse"
       x1="26.192217"
       y1="1024.0002"
       x2="28.641211"
       y2="1024.0002" />
    <linearGradient
       inkscape:collect="always"
       xlink:href="#linearGradient3795"
       id="linearGradient3871"
       gradientUnits="userSpaceOnUse"
       x1="26.192217"
       y1="1024.0002"
       x2="28.641211"
       y2="1024.0002" />
    <linearGradient
       inkscape:collect="always"
       xlink:href="#linearGradient3795"
       id="linearGradient3877"
       gradientUnits="userSpaceOnUse"
       x1="29.718235"
       y1="1027.8575"
       x2="22.811094"
       y2="1015.5485" />
    <linearGradient
       inkscape:collect="always"
       xlink:href="#linearGradient3795"
       id="linearGradient3879"
       gradientUnits="userSpaceOnUse"
       x1="17.196316"
       y1="1006.2238"
       x2="31.448042"
       y2="1030.9086" />
    <linearGradient
       inkscape:collect="always"
       xlink:href="#linearGradient3795"
       id="linearGradient3895"
       x1="21.973417"
       y1="34.43922"
       x2="42.475323"
       y2="24.798252"
       gradientUnits="userSpaceOnUse" />
    <linearGradient
       id="linearGradient3708-2">
      <stop
         id="stop3710-1"
         offset="0"
         style="stop-color:#ff0ed0;stop-opacity:1;" />
      <stop
         id="stop3712-9"
         offset="1"
         style="stop-color:#8040a0;stop-opacity:1;" />
    </linearGradient>
    <linearGradient
       id="linearGradient3042">
      <stop
         id="stop3044"
         offset="0"
         style="stop-color:#ff0ed0;stop-opacity:1;" />
      <stop
         id="stop3046"
         offset="1"
         style="stop-color:#8040a0;stop-opacity:1;" />
    </linearGradient>
    <linearGradient
       id="linearGradient3049">
      <stop
         id="stop3051"
         offset="0"
         style="stop-color:#ff0ed0;stop-opacity:1;" />
      <stop
         id="stop3053"
         offset="1"
         style="stop-color:#8040a0;stop-opacity:1;" />
    </linearGradient>
    <linearGradient
       inkscape:collect="always"
       xlink:href="#linearGradient3708-2"
       id="linearGradient3882"
       gradientUnits="userSpaceOnUse"
       gradientTransform="matrix(1,0,0,-1,0,1059.9825)"
       x1="23.90136"
       y1="31.192211"
       x2="23.90136"
       y2="21.056902" />
    <linearGradient
       id="linearGradient3056">
      <stop
         id="stop3058"
         offset="0"
         style="stop-color:#ff0ed0;stop-opacity:1;" />
      <stop
         id="stop3060"
         offset="1"
         style="stop-color:#8040a0;stop-opacity:1;" />
    </linearGradient>
    <linearGradient
       inkscape:collect="always"
       xlink:href="#linearGradient3708"
       id="linearGradient3151"
       gradientUnits="userSpaceOnUse"
       gradientTransform="matrix(0.96799712,0,0,1.0252613,0.76812187,-25.977965)"
       x1="24.113745"
       y1="1007.2183"
       x2="24.113745"
       y2="1049.5842" />
    <linearGradient
       id="linearGradient3795-4">
      <stop
         id="stop3797-0"
         offset="0"
         style="stop-color:#68b8d8;stop-opacity:1;" />
      <stop
         id="stop3799-0"
         offset="1"
         style="stop-color:#3097bd;stop-opacity:1;" />
    </linearGradient>
    <linearGradient
       inkscape:collect="always"
       xlink:href="#linearGradient3795-4"
       id="linearGradient3030"
       gradientUnits="userSpaceOnUse"
       gradientTransform="matrix(0.96799712,0,0,1.0252613,0.76812014,-25.977808)"
       x1="24.113745"
       y1="1007.2183"
       x2="24.113745"
       y2="1049.5842" />
    <linearGradient
       gradientUnits="userSpaceOnUse"
       y2="1004.8474"
       x2="23.204165"
       y1="1053.158"
       x1="23.204165"
       id="linearGradient3801-6"
       xlink:href="#linearGradient3795-5"
       inkscape:collect="always" />
    <linearGradient
       gradientUnits="userSpaceOnUse"
       y2="25.0625"
       x2="45.325001"
       y1="25.0625"
       x1="6.8000002"
       id="linearGradient3920"
       xlink:href="#linearGradient3914"
       inkscape:collect="always" />
    <linearGradient
       id="linearGradient3803-0">
      <stop
         style="stop-color:#d7def0;stop-opacity:1;"
         offset="0"
         id="stop3805-5" />
      <stop
         id="stop3811-9"
         offset="0.5"
         style="stop-color:#ffffff;stop-opacity:1" />
      <stop
         style="stop-color:#d5def0;stop-opacity:1"
         offset="1"
         id="stop3807-3" />
    </linearGradient>
    <linearGradient
       id="linearGradient3750-6">
      <stop
         id="stop3752-8"
         offset="0"
         style="stop-color:#d0e2f1;stop-opacity:1" />
      <stop
         style="stop-color:#cadef0;stop-opacity:1"
         offset="0.85580856"
         id="stop3756-1" />
      <stop
         id="stop3754-8"
         offset="1"
         style="stop-color:#95bee3;stop-opacity:1" />
    </linearGradient>
    <linearGradient
       id="linearGradient3708-22">
      <stop
         style="stop-color:#658db6;stop-opacity:1"
         offset="0"
         id="stop3710-5" />
      <stop
         id="stop3716"
         offset="0.76777935"
         style="stop-color:#527fab;stop-opacity:1;" />
      <stop
         style="stop-color:#4071a0;stop-opacity:1"
         offset="1"
         id="stop3712-2" />
    </linearGradient>
    <linearGradient
       id="linearGradient3698-8">
      <stop
         style="stop-color:#96d0e1;stop-opacity:1"
         offset="0"
         id="stop3700-7" />
      <stop
         id="stop3706-8"
         offset="0.67819428"
         style="stop-color:#89b7e1;stop-opacity:1" />
      <stop
         style="stop-color:#699dd3;stop-opacity:1"
         offset="1"
         id="stop3702-7" />
    </linearGradient>
    <linearGradient
       id="linearGradient3914"
       inkscape:collect="always">
      <stop
         id="stop3916"
         offset="0"
         style="stop-color:#59b3e1;stop-opacity:1;" />
      <stop
         id="stop3918"
         offset="1"
         style="stop-color:#59b3e1;stop-opacity:0;" />
    </linearGradient>
    <linearGradient
       id="linearGradient3795-5">
      <stop
         id="stop3797-6"
         offset="0"
         style="stop-color:#52a2cc;stop-opacity:1;" />
      <stop
         id="stop3799-8"
         offset="1"
         style="stop-color:#59b3e1;stop-opacity:1;" />
    </linearGradient>
  </defs>
  <sodipodi:namedview
     id="base"
     pagecolor="#ffffff"
     bordercolor="#666666"
     borderopacity="1.0"
     inkscape:pageopacity="0.0"
     inkscape:pageshadow="2"
     inkscape:zoom="12.705741"
     inkscape:cx="28.819544"
     inkscape:cy="37.729947"
     inkscape:document-units="px"
     inkscape:current-layer="layer1"
     showgrid="false"
     inkscape:window-width="960"
     inkscape:window-height="1035"
     inkscape:window-x="0"
     inkscape:window-y="26"
     inkscape:window-maximized="0">
    <inkscape:grid
       type="xygrid"
       id="grid3850" />
  </sodipodi:namedview>
  <metadata
     id="metadata7">
    <rdf:RDF>
      <cc:Work
         rdf:about="">
        <dc:format>image/svg+xml</dc:format>
        <dc:type
           rdf:resource="http://purl.org/dc/dcmitype/StillImage" />
        <dc:title />
      </cc:Work>
    </rdf:RDF>
  </metadata>
  <g
     inkscape:label="Capa 1"
     inkscape:groupmode="layer"
     id="layer1"
     transform="translate(0,-1004.3622)">
    <path
       style="fill:url(#linearGradient3151);fill-opacity:1;stroke:#7d7d7d;stroke-width:0.39848712;stroke-miterlimit:4;stroke-opacity:1"
       d="m 7.3747792,1006.0615 33.2504418,0 c 3.144247,0 5.675535,2.5313 5.675535,5.6756 l 0,33.2504 c 0,3.1442 -2.531288,5.6755 -5.675535,5.6755 l -33.2504418,0 c -3.1442467,0 -5.6755357,-2.5313 -5.6755357,-5.6755 l 0,-33.2504 c 0,-3.1443 2.531289,-5.6756 5.6755357,-5.6756 z"
       id="rect2992" />
    <path
       inkscape:connector-curvature="0"
       id="rect3839"
       d="m 21.053382,1029.236 5.494419,0 c 0.687385,0 1.240767,0.5534 1.240767,1.2408 l 0,5.4944 c 0,0.6874 -0.553382,1.2408 -1.240767,1.2408 l -5.494419,0 c -0.687385,0 -1.240768,-0.5534 -1.240768,-1.2408 l 0,-5.4944 c 0,-0.6874 0.553383,-1.2408 1.240768,-1.2408 z"
       style="fill:#ffffff;fill-opacity:1;stroke:none" />
    <path
       inkscape:connector-curvature="0"
       id="rect3835"
       d="m 10.718521,1028.3963 5.494419,0 c 0.687385,0 1.240768,0.5534 1.240768,1.2408 l 0,5.4944 c 0,0.6874 -0.553383,1.2408 -1.240768,1.2408 l -5.494419,0 c -0.687385,0 -1.2407679,-0.5534 -1.2407679,-1.2408 l 0,-5.4944 c 0,-0.6874 0.5533829,-1.2408 1.2407679,-1.2408 z"
       style="fill:#000000;stroke:#000000;stroke-width:0.25523055;stroke-linecap:butt;stroke-linejoin:miter;stroke-miterlimit:4;stroke-opacity:1" />
    <path
       inkscape:connector-curvature="0"
       id="rect3843"
       d="m 31.787061,1028.3963 5.494419,0 c 0.687385,0 1.240767,0.5534 1.240767,1.2408 l 0,5.4944 c 0,0.6874 -0.553382,1.2408 -1.240767,1.2408 l -5.494419,0 c -0.687385,0 -1.240768,-0.5534 -1.240768,-1.2408 l 0,-5.4944 c 0,-0.6874 0.553383,-1.2408 1.240768,-1.2408 z"
       style="fill:#000000;stroke:#000000;stroke-width:0.25523055;stroke-linecap:butt;stroke-linejoin:miter;stroke-miterlimit:4;stroke-opacity:1" />
    <path
       inkscape:connector-curvature="0"
       id="rect3841"
       d="m 21.053441,1019.64 5.494419,0 c 0.687385,0 1.240768,0.5534 1.240768,1.2407 l 0,5.4945 c 0,0.6873 -0.553383,1.2407 -1.240768,1.2407 l -5.494419,0 c -0.687385,0 -1.240767,-0.5534 -1.240767,-1.2407 l 0,-5.4945 c 0,-0.6873 0.553382,-1.2407 1.240767,-1.2407 z"
       style="fill:#000000;stroke:#000000;stroke-width:0.25523055;stroke-linecap:butt;stroke-linejoin:miter;stroke-miterlimit:4;stroke-opacity:1" />
    <g
       id="text3225"
       style="font-size:6px;font-style:normal;font-variant:normal;font-weight:normal;font-stretch:normal;line-height:125%;letter-spacing:-0.03px;word-spacing:0px;fill:#4ebb6a;fill-opacity:1;stroke:none;font-family:Decker;-inkscape-font-specification:Decker"
       transform="translate(-4.7683716e-7,0.06382407)">
      <path
         inkscape:connector-curvature="0"
         id="path95"
         d="m 24.688347,1023.8661 0.779297,-2.4141 0.439453,0 -1.086914,3.2227 -0.269531,0 -0.75586,-2.4551 -0.74414,2.4551 -0.269532,0 -1.086914,-3.2227 0.430664,0 0.788086,2.4141 0.738281,-2.4141 0.298829,0 0.738281,2.4141 z" />
    </g>
    <g
       id="text3229"
       style="font-size:6px;font-style:normal;font-variant:normal;font-weight:normal;font-stretch:normal;line-height:125%;letter-spacing:-0.03px;word-spacing:0px;fill:#000000;fill-opacity:1;stroke:none;font-family:Decker;-inkscape-font-specification:Decker"
       transform="translate(-4.7683716e-7,0.06382407)">
      <path
         inkscape:connector-curvature="0"
         id="path98"
         d="m 21.0485,1035.2931 0,-4.2656 2.106445,0 0,0.4189 -1.693359,0 0,1.4942 1.693359,0 0,0.4218 -1.693359,0 0,1.9307 -0.413086,0 z" />
      <path
         inkscape:connector-curvature="0"
         id="path100"
         d="m 23.860297,1032.0704 0.401367,0 0,0.3662 q 0.19043,-0.2197 0.439453,-0.3251 0.251953,-0.1055 0.574219,-0.1055 0.354492,0 0.629883,0.1318 0.27832,0.1319 0.439453,0.3779 0.111328,0.1729 0.158203,0.4073 0.0498,0.2314 0.0498,0.6855 l 0,1.6846 -0.407227,0 0,-1.8047 q 0,-0.5713 -0.219726,-0.8291 -0.216797,-0.2578 -0.697266,-0.2578 -0.28125,0 -0.495117,0.1142 -0.210938,0.1114 -0.333985,0.3223 -0.07617,0.1318 -0.108398,0.3018 -0.0293,0.167 -0.0293,0.5859 l 0,1.5674 -0.401367,0 0,-3.2227 z" />
    </g>
    <g
       id="text3233"
       style="font-size:6px;font-style:normal;font-variant:normal;font-weight:normal;font-stretch:normal;line-height:125%;letter-spacing:-0.03px;word-spacing:0px;fill:#4ebb6a;fill-opacity:1;stroke:none;font-family:Decker;-inkscape-font-specification:Decker"
       transform="translate(-4.7683716e-7,0.06382407)">
      <path
         inkscape:connector-curvature="0"
         id="path103"
         d="m 12.003817,1034.4534 -0.442383,0 1.655273,-4.2657 0.503906,0 1.649415,4.2657 -0.448243,0 -0.509765,-1.3389 -1.898438,0 -0.509765,1.3389 z m 2.261718,-1.7227 -0.808593,-2.1416 -0.796875,2.1416 1.605468,0 z" />
    </g>
    <g
       id="text3237"
       style="font-size:6px;font-style:normal;font-variant:normal;font-weight:normal;font-stretch:normal;line-height:125%;letter-spacing:-0.03px;word-spacing:0px;fill:#4ebb6a;fill-opacity:1;stroke:none;font-family:Decker;-inkscape-font-specification:Decker"
       transform="translate(-4.7683716e-7,0.06382407)">
      <path
         inkscape:connector-curvature="0"
         id="path106"
         d="m 33.23349,1030.595 0,3.457 0.870117,0 q 0.814453,0 1.253906,-0.457 0.439454,-0.4571 0.439454,-1.295 0,-0.4189 -0.149415,-0.7734 -0.149414,-0.3545 -0.427734,-0.5947 -0.208008,-0.1817 -0.46582,-0.2578 -0.257813,-0.079 -0.75,-0.079 l -0.770508,0 z m -0.413086,-0.4073 1.212891,0 q 0.500976,0 0.84082,0.1 0.342773,0.1 0.603516,0.3193 0.366211,0.3076 0.568359,0.7529 0.202148,0.4453 0.202148,0.9522 0,0.5654 -0.222656,1.0312 -0.222656,0.4629 -0.629883,0.7559 -0.269531,0.1904 -0.583007,0.2724 -0.313477,0.082 -0.966797,0.082 l -1.025391,0 0,-4.2657 z" />
    </g>
  </g>
</svg>
