<?xml version="1.0" encoding="UTF-8" standalone="no"?>
<!-- Created with Inkscape (http://www.inkscape.org/) -->

<svg
   xmlns:dc="http://purl.org/dc/elements/1.1/"
   xmlns:cc="http://creativecommons.org/ns#"
   xmlns:rdf="http://www.w3.org/1999/02/22-rdf-syntax-ns#"
   xmlns:svg="http://www.w3.org/2000/svg"
   xmlns="http://www.w3.org/2000/svg"
   xmlns:xlink="http://www.w3.org/1999/xlink"
   xmlns:sodipodi="http://sodipodi.sourceforge.net/DTD/sodipodi-0.dtd"
   xmlns:inkscape="http://www.inkscape.org/namespaces/inkscape"
   width="48"
   height="48"
   id="svg2"
   version="1.1"
   inkscape:version="0.48+devel r11717"
   sodipodi:docname="onboard.svg">
  <defs
     id="defs4">
    <linearGradient
       id="linearGradient861">
      <stop
         id="stop863"
         offset="0"
         style="stop-color:#687dd8;stop-opacity:1" />
      <stop
         id="stop865"
         offset="1"
         style="stop-color:#3046bd;stop-opacity:1" />
    </linearGradient>
    <linearGradient
       id="linearGradient3795">
      <stop
         style="stop-color:#68b8d8;stop-opacity:1;"
         offset="0"
         id="stop3797" />
      <stop
         style="stop-color:#3097bd;stop-opacity:1;"
         offset="1"
         id="stop3799" />
    </linearGradient>
    <linearGradient
       id="linearGradient3698">
      <stop
         id="stop3700"
         offset="0"
         style="stop-color:#96d0e1;stop-opacity:1" />
      <stop
         style="stop-color:#89b7e1;stop-opacity:1"
         offset="0.67819428"
         id="stop3706" />
      <stop
         id="stop3702"
         offset="1"
         style="stop-color:#699dd3;stop-opacity:1" />
    </linearGradient>
    <linearGradient
       id="linearGradient3708">
      <stop
         id="stop3710"
         offset="0"
         style="stop-color:#658db6;stop-opacity:1" />
      <stop
         style="stop-color:#527fab;stop-opacity:1;"
         offset="0.76777935"
         id="stop3716" />
      <stop
         id="stop3712"
         offset="1"
         style="stop-color:#4071a0;stop-opacity:1" />
    </linearGradient>
    <linearGradient
       id="linearGradient3750">
      <stop
         style="stop-color:#d0e2f1;stop-opacity:1"
         offset="0"
         id="stop3752" />
      <stop
         id="stop3756"
         offset="0.85580856"
         style="stop-color:#cadef0;stop-opacity:1" />
      <stop
         style="stop-color:#95bee3;stop-opacity:1"
         offset="1"
         id="stop3754" />
    </linearGradient>
    <linearGradient
       id="linearGradient3803">
      <stop
         id="stop3805"
         offset="0"
         style="stop-color:#d7def0;stop-opacity:1;" />
      <stop
         style="stop-color:#ffffff;stop-opacity:1"
         offset="0.5"
         id="stop3811" />
      <stop
         id="stop3807"
         offset="1"
         style="stop-color:#d5def0;stop-opacity:1" />
    </linearGradient>
    <linearGradient
       inkscape:collect="always"
       xlink:href="#linearGradient3795"
       id="linearGradient3801"
       x1="23.204165"
       y1="1053.158"
       x2="23.204165"
       y2="1004.8474"
       gradientUnits="userSpaceOnUse"
       gradientTransform="translate(0,-2056.7244)" />
    <linearGradient
       inkscape:collect="always"
       xlink:href="#linearGradient3795"
       id="linearGradient3859"
       x1="26.192217"
       y1="1024.0002"
       x2="28.641211"
       y2="1024.0002"
       gradientUnits="userSpaceOnUse" />
    <linearGradient
       inkscape:collect="always"
       xlink:href="#linearGradient3795"
       id="linearGradient3867"
       gradientUnits="userSpaceOnUse"
       x1="26.192217"
       y1="1024.0002"
       x2="28.641211"
       y2="1024.0002" />
    <linearGradient
       inkscape:collect="always"
       xlink:href="#linearGradient3795"
       id="linearGradient3869"
       gradientUnits="userSpaceOnUse"
       x1="26.192217"
       y1="1024.0002"
       x2="28.641211"
       y2="1024.0002" />
    <linearGradient
       inkscape:collect="always"
       xlink:href="#linearGradient3795"
       id="linearGradient3871"
       gradientUnits="userSpaceOnUse"
       x1="26.192217"
       y1="1024.0002"
       x2="28.641211"
       y2="1024.0002" />
    <linearGradient
       inkscape:collect="always"
       xlink:href="#linearGradient3795"
       id="linearGradient3877"
       gradientUnits="userSpaceOnUse"
       x1="29.718235"
       y1="1027.8575"
       x2="22.811094"
       y2="1015.5485" />
    <linearGradient
       inkscape:collect="always"
       xlink:href="#linearGradient3795"
       id="linearGradient3879"
       gradientUnits="userSpaceOnUse"
       x1="17.196316"
       y1="1006.2238"
       x2="31.448042"
       y2="1030.9086" />
    <linearGradient
       inkscape:collect="always"
       xlink:href="#linearGradient3795"
       id="linearGradient3895"
       x1="21.973417"
       y1="34.43922"
       x2="42.475323"
       y2="24.798252"
       gradientUnits="userSpaceOnUse" />
    <linearGradient
       inkscape:collect="always"
       xlink:href="#linearGradient3895-8"
       id="linearGradient3857"
       gradientUnits="userSpaceOnUse"
       gradientTransform="matrix(0.96799712,0,0,1.0252613,604.84439,-419.13965)"
       x1="24.113745"
       y1="1049.2139"
       x2="24.113745"
       y2="1007.5135" />
    <linearGradient
       id="linearGradient3895-8">
      <stop
         id="stop3897"
         offset="0"
         style="stop-color:#e0880b;stop-opacity:1;" />
      <stop
         id="stop3899"
         offset="1"
         style="stop-color:#f7ce50;stop-opacity:1;" />
    </linearGradient>
    <linearGradient
       inkscape:collect="always"
       xlink:href="#linearGradient861-4"
       id="linearGradient3801-3"
       x1="23.204165"
       y1="1053.158"
       x2="23.204165"
       y2="1004.8474"
       gradientUnits="userSpaceOnUse"
       gradientTransform="translate(0,-2056.7244)" />
    <linearGradient
       id="linearGradient861-4">
      <stop
         style="stop-color:#ffffff;stop-opacity:1"
         offset="0"
         id="stop863-9" />
      <stop
         style="stop-color:#cccccc;stop-opacity:1"
         offset="1"
         id="stop865-0" />
    </linearGradient>
    <linearGradient
       y2="1004.8474"
       x2="23.204165"
       y1="1053.158"
       x1="23.204165"
       gradientTransform="matrix(1,0,0,-1,-8.0000008,1069.6123)"
       gradientUnits="userSpaceOnUse"
       id="linearGradient938"
       xlink:href="#linearGradient861-4"
       inkscape:collect="always" />
  </defs>
  <sodipodi:namedview
     id="base"
     pagecolor="#ffffff"
     bordercolor="#666666"
     borderopacity="1.0"
     inkscape:pageopacity="0.0"
     inkscape:pageshadow="2"
     inkscape:zoom="4.0000002"
     inkscape:cx="13.625004"
     inkscape:cy="25.926068"
     inkscape:document-units="px"
     inkscape:current-layer="layer1"
     showgrid="false"
     inkscape:window-width="1366"
     inkscape:window-height="746"
     inkscape:window-x="0"
     inkscape:window-y="0"
     inkscape:window-maximized="1">
    <inkscape:grid
       type="xygrid"
       id="grid3850" />
  </sodipodi:namedview>
  <metadata
     id="metadata7">
    <rdf:RDF>
      <cc:Work
         rdf:about="">
        <dc:format>image/svg+xml</dc:format>
        <dc:type
           rdf:resource="http://purl.org/dc/dcmitype/StillImage" />
        <dc:title></dc:title>
      </cc:Work>
    </rdf:RDF>
  </metadata>
  <g
     inkscape:label="Capa 1"
     inkscape:groupmode="layer"
     id="layer1"
     transform="translate(0,-1004.3622)">
    <g
       id="g890"
       transform="translate(8,-17.25)">
      <path
         id="rect2991"
         transform="translate(0,1004.3622)"
         d="m -0.625,18.9375 c -3.1442468,0 -5.6875,2.543253 -5.6875,5.6875 l 0,33.25 c 0,3.144247 2.5432532,5.6875 5.6875,5.6875 l 33.25,0 c 3.144247,0 5.6875,-2.543253 5.6875,-5.6875 l 0,-33.25 c 0,-3.144247 -2.543253,-5.6875 -5.6875,-5.6875 L -0.625,18.9375 Z"
         style="fill:url(#linearGradient938);fill-opacity:1;stroke:none"
         inkscape:connector-curvature="0" />
      <path
         id="rect878"
         transform="translate(0,1004.3622)"
         d="m -0.625,18.9375 c -3.1442468,0 -5.6875,2.543253 -5.6875,5.6875 l 0,16.9375 21.65625,0 c 0.54579,0 0.96875,-0.42296 0.96875,-0.96875 l 0,-21.65625 L -0.625,18.9375 Z"
         style="fill:#ffcc00;fill-opacity:1;stroke:none"
         inkscape:connector-curvature="0" />
      <path
         id="rect880"
         transform="translate(0,1004.3622)"
         d="m 16.65625,40.9375 c -0.54579,0 -0.96875,0.42296 -0.96875,0.96875 l 0,21.65625 16.9375,0 c 3.144247,0 5.6875,-2.543253 5.6875,-5.6875 l 0,-16.9375 L 16.65625,40.9375 Z"
         style="fill:#37abc8;fill-opacity:1;stroke:none"
         inkscape:connector-curvature="0" />
      <g
         id="text882"
         style="font-size:12.02211189px;font-style:normal;font-variant:normal;font-weight:normal;font-stretch:normal;line-height:125%;letter-spacing:0px;word-spacing:0px;fill:#000000;fill-opacity:1;stroke:none;font-family:Decker;-inkscape-font-specification:Decker"
         transform="translate(-8.0000008,17.250138)">
        <path
           id="path891"
           d="m 8.6753748,1016.4803 q 0,1.5615 1.0155397,2.6181 1.0155395,1.0567 2.5065635,1.0567 1.455802,0 2.459602,-1.0684 1.003799,-1.0684 1.003799,-2.6298 0,-1.4558 -1.03315,-2.5066 -1.03315,-1.0566 -2.488953,-1.0566 -0.592887,0 -1.144683,0.2054 -0.545926,0.1996 -1.0096699,0.5929 -0.6104979,0.5166 -0.9627082,1.2621 Q 8.6753748,1015.6996 8.6753748,1016.4803 z m -0.8805258,-0.012 q 0,-0.8923 0.34047,-1.7023 0.3463401,-0.8101 0.9979292,-1.45 0.6281084,-0.6163 1.3794908,-0.9275 0.757252,-0.3111 1.637778,-0.3111 0.898136,0 1.661258,0.317 0.768993,0.3111 1.402971,0.9334 0.651589,0.6398 0.980319,1.4323 0.32873,0.7925 0.32873,1.7082 0,0.9099 -0.281769,1.673 -0.281768,0.7573 -0.845304,1.3795 -0.65159,0.7162 -1.473414,1.0801 -0.821824,0.364 -1.784532,0.364 -1.843234,0 -3.0935804,-1.2915 Q 7.794849,1018.3764 7.794849,1016.4686 Z"
           inkscape:connector-curvature="0" />
      </g>
      <g
         id="text886"
         style="font-size:12.02211189px;font-style:normal;font-variant:normal;font-weight:normal;font-stretch:normal;line-height:125%;letter-spacing:0px;word-spacing:0px;fill:#000000;fill-opacity:1;stroke:none;font-family:Decker;-inkscape-font-specification:Decker"
         transform="translate(-8.0000008,17.250138)">
        <path
           id="path894"
           d="m 34.20877,1040.4376 0,3.2228 1.179905,0 q 1.03902,0 1.532115,-0.3933 0.498964,-0.3933 0.498964,-1.2093 0,-0.8159 -0.504835,-1.2151 -0.504834,-0.4051 -1.526244,-0.4051 L 34.20877,1040.4376 z m 0,-3.6923 0,2.8764 0.504835,0 q 1.244476,0 1.737571,-0.3405 0.498964,-0.3463 0.498964,-1.1271 0,-0.7337 -0.481354,-1.0683 -0.481354,-0.3405 -1.537985,-0.3405 L 34.20877,1036.7453 z m -0.804213,-0.816 1.590816,0 q 1.449933,0 2.130873,0.5518 0.680939,0.546 0.680939,1.7083 0,0.587 -0.228936,1.0038 -0.228937,0.4167 -0.68681,0.6809 0.69268,0.2876 1.03902,0.8101 0.34634,0.5166 0.34634,1.2679 0,1.3032 -0.722031,1.9137 -0.716161,0.6105 -2.260016,0.6105 l -1.890195,0 L 33.404557,1035.9293 Z"
           inkscape:connector-curvature="0" />
      </g>
    </g>
  </g>
</svg>
