<?xml version="1.0" encoding="UTF-8" standalone="no"?>
<!-- Created with Inkscape (http://www.inkscape.org/) -->

<svg
   xmlns:dc="http://purl.org/dc/elements/1.1/"
   xmlns:cc="http://creativecommons.org/ns#"
   xmlns:rdf="http://www.w3.org/1999/02/22-rdf-syntax-ns#"
   xmlns:svg="http://www.w3.org/2000/svg"
   xmlns="http://www.w3.org/2000/svg"
   xmlns:xlink="http://www.w3.org/1999/xlink"
   xmlns:sodipodi="http://sodipodi.sourceforge.net/DTD/sodipodi-0.dtd"
   xmlns:inkscape="http://www.inkscape.org/namespaces/inkscape"
   width="48"
   height="48"
   id="svg2"
   version="1.1"
   inkscape:version="0.48+devel r11521"
   sodipodi:docname="preferences-color.svg">
  <defs
     id="defs4">
    <linearGradient
       id="linearGradient3795">
      <stop
         style="stop-color:#e8e8e8;stop-opacity:1;"
         offset="0"
         id="stop3797" />
      <stop
         style="stop-color:#cdcdcd;stop-opacity:1;"
         offset="1"
         id="stop3799" />
    </linearGradient>
    <linearGradient
       id="linearGradient3698">
      <stop
         id="stop3700"
         offset="0"
         style="stop-color:#96d0e1;stop-opacity:1" />
      <stop
         style="stop-color:#89b7e1;stop-opacity:1"
         offset="0.67819428"
         id="stop3706" />
      <stop
         id="stop3702"
         offset="1"
         style="stop-color:#699dd3;stop-opacity:1" />
    </linearGradient>
    <linearGradient
       id="linearGradient3708">
      <stop
         id="stop3710"
         offset="0"
         style="stop-color:#658db6;stop-opacity:1" />
      <stop
         style="stop-color:#527fab;stop-opacity:1;"
         offset="0.76777935"
         id="stop3716" />
      <stop
         id="stop3712"
         offset="1"
         style="stop-color:#4071a0;stop-opacity:1" />
    </linearGradient>
    <linearGradient
       id="linearGradient3750">
      <stop
         style="stop-color:#d0e2f1;stop-opacity:1"
         offset="0"
         id="stop3752" />
      <stop
         id="stop3756"
         offset="0.85580856"
         style="stop-color:#cadef0;stop-opacity:1" />
      <stop
         style="stop-color:#95bee3;stop-opacity:1"
         offset="1"
         id="stop3754" />
    </linearGradient>
    <linearGradient
       id="linearGradient3803">
      <stop
         id="stop3805"
         offset="0"
         style="stop-color:#d7def0;stop-opacity:1;" />
      <stop
         style="stop-color:#ffffff;stop-opacity:1"
         offset="0.5"
         id="stop3811" />
      <stop
         id="stop3807"
         offset="1"
         style="stop-color:#d5def0;stop-opacity:1" />
    </linearGradient>
    <linearGradient
       inkscape:collect="always"
       xlink:href="#linearGradient3795"
       id="linearGradient3859"
       x1="26.192217"
       y1="1024.0002"
       x2="28.641211"
       y2="1024.0002"
       gradientUnits="userSpaceOnUse" />
    <linearGradient
       inkscape:collect="always"
       xlink:href="#linearGradient3795"
       id="linearGradient3867"
       gradientUnits="userSpaceOnUse"
       x1="26.192217"
       y1="1024.0002"
       x2="28.641211"
       y2="1024.0002" />
    <linearGradient
       inkscape:collect="always"
       xlink:href="#linearGradient3795"
       id="linearGradient3869"
       gradientUnits="userSpaceOnUse"
       x1="26.192217"
       y1="1024.0002"
       x2="28.641211"
       y2="1024.0002" />
    <linearGradient
       inkscape:collect="always"
       xlink:href="#linearGradient3795"
       id="linearGradient3871"
       gradientUnits="userSpaceOnUse"
       x1="26.192217"
       y1="1024.0002"
       x2="28.641211"
       y2="1024.0002" />
    <linearGradient
       inkscape:collect="always"
       xlink:href="#linearGradient3795"
       id="linearGradient3877"
       gradientUnits="userSpaceOnUse"
       x1="29.718235"
       y1="1027.8575"
       x2="22.811094"
       y2="1015.5485" />
    <linearGradient
       inkscape:collect="always"
       xlink:href="#linearGradient3795"
       id="linearGradient3879"
       gradientUnits="userSpaceOnUse"
       x1="17.196316"
       y1="1006.2238"
       x2="31.448042"
       y2="1030.9086" />
    <linearGradient
       inkscape:collect="always"
       xlink:href="#linearGradient3795"
       id="linearGradient3895"
       x1="21.973417"
       y1="34.43922"
       x2="42.475323"
       y2="24.798252"
       gradientUnits="userSpaceOnUse" />
    <radialGradient
       id="radialGradient4036-3"
       gradientUnits="userSpaceOnUse"
       cx="213.74001"
       cy="846.39001"
       r="25.774"
       gradientTransform="matrix(2.1446,0.54333,-0.23563,0.93006,-92.14468,107.95031)">
      <stop
         id="stop4012-29"
         style="stop-color:#fff"
         offset="0" />
      <stop
         id="stop4014-0"
         style="stop-color:#fff;stop-opacity:0"
         offset="1" />
    </radialGradient>
    <clipPath
       id="clipPath4157"
       clipPathUnits="userSpaceOnUse">
      <path
         inkscape:connector-curvature="0"
         id="path4159"
         style="color:#000000;fill:#f57900;fill-rule:evenodd;enable-background:new"
         d="m 269.47,688.53 c 15.602,15.625 19.169,37.385 19.169,37.385 0,0 -21.729,-3.5724 -37.33,-19.197 -15.602,-15.625 -19.169,-37.385 -19.169,-37.385 0,0 21.729,3.5724 37.33,19.197 z" />
    </clipPath>
    <filter
       id="filter4161"
       width="1.2402"
       y="-0.11991"
       x="-0.12009"
       height="1.2398"
       color-interpolation-filters="sRGB">
      <feGaussianBlur
         id="feGaussianBlur4163"
         stdDeviation="2.8270453" />
    </filter>
    <clipPath
       id="clipPath4083"
       clipPathUnits="userSpaceOnUse">
      <path
         inkscape:connector-curvature="0"
         id="path4085"
         style="color:#000000;fill:#729fcf;fill-rule:evenodd;enable-background:new"
         d="m 515.87,745.01 c 15.602,15.625 19.169,37.385 19.169,37.385 0,0 -21.729,-3.5724 -37.33,-19.197 -15.602,-15.625 -19.169,-37.385 -19.169,-37.385 0,0 21.729,3.5724 37.33,19.197 z" />
    </clipPath>
    <filter
       id="filter4087"
       width="1.2402"
       y="-0.11991"
       x="-0.12009"
       height="1.2398"
       color-interpolation-filters="sRGB">
      <feGaussianBlur
         id="feGaussianBlur4089"
         stdDeviation="2.8270455" />
    </filter>
    <clipPath
       id="clipPath4071"
       clipPathUnits="userSpaceOnUse">
      <path
         inkscape:connector-curvature="0"
         id="path4073"
         style="color:#000000;fill:#afea2c;fill-rule:evenodd;enable-background:new"
         d="m 515.87,706.72 c -15.602,15.625 -37.33,19.197 -37.33,19.197 0,0 3.5672,-21.76 19.169,-37.385 15.6018,-15.625 37.33,-19.197 37.33,-19.197 0,0 -3.5672,21.76 -19.169,37.385 z" />
    </clipPath>
    <filter
       id="filter4075"
       width="1.2402"
       y="-0.11991"
       x="-0.12009"
       height="1.2398"
       color-interpolation-filters="sRGB">
      <feGaussianBlur
         id="feGaussianBlur4077"
         stdDeviation="2.8270455" />
    </filter>
    <clipPath
       id="clipPath4133"
       clipPathUnits="userSpaceOnUse">
      <path
         inkscape:connector-curvature="0"
         id="path4135"
         style="color:#000000;fill:#65c808;fill-rule:evenodd;enable-background:new"
         d="m 538.47,738.73 c -22.064,0 -39.951,-12.861 -39.951,-12.861 0,0 17.887,-12.861 39.951,-12.861 22.064,0 39.951,12.861 39.951,12.861 0,0 -17.887,12.861 -39.951,12.861 z" />
    </clipPath>
    <filter
       id="filter4137"
       width="1.1586"
       y="-0.24639"
       x="-0.079314999"
       height="1.4928"
       color-interpolation-filters="sRGB">
      <feGaussianBlur
         id="feGaussianBlur4139"
         stdDeviation="2.6406015" />
    </filter>
    <clipPath
       id="clipPath4197"
       clipPathUnits="userSpaceOnUse">
      <path
         inkscape:connector-curvature="0"
         id="path4199"
         style="color:#000000;fill:#75507b;fill-rule:evenodd;enable-background:new"
         d="m 299.47,763.2 c -15.602,15.625 -37.33,19.197 -37.33,19.197 0,0 3.5672,-21.76 19.169,-37.385 15.6018,-15.625 37.33,-19.197 37.33,-19.197 0,0 -3.5672,21.76 -19.169,37.385 z" />
    </clipPath>
    <filter
       id="filter4201"
       width="1.2402"
       y="-0.11991"
       x="-0.12009"
       height="1.2398"
       color-interpolation-filters="sRGB">
      <feGaussianBlur
         id="feGaussianBlur4203"
         stdDeviation="2.8270453" />
    </filter>
    <clipPath
       id="clipPath4181"
       clipPathUnits="userSpaceOnUse">
      <path
         inkscape:connector-curvature="0"
         id="path4183"
         style="color:#000000;fill:#ef2929;fill-rule:evenodd;enable-background:new"
         d="m 348.71,698.73 c -22.064,0 -39.951,-12.861 -39.951,-12.861 0,0 17.887,-12.861 39.951,-12.861 22.064,0 39.951,12.861 39.951,12.861 0,0 -17.887,12.861 -39.951,12.861 z" />
    </clipPath>
    <filter
       id="filter4189"
       width="1.1586"
       y="-0.24639"
       x="-0.079314999"
       height="1.4928"
       color-interpolation-filters="sRGB">
      <feGaussianBlur
         id="feGaussianBlur4191"
         stdDeviation="2.6406013" />
    </filter>
    <clipPath
       id="clipPath4145"
       clipPathUnits="userSpaceOnUse">
      <path
         inkscape:connector-curvature="0"
         id="path4147"
         style="color:#000000;fill:#3465a4;fill-rule:evenodd;enable-background:new"
         d="m 401.43,865.8 c 0,22.097 -12.842,40.01 -12.842,40.01 0,0 -12.842,-17.913 -12.842,-40.01 0,-22.097 12.842,-40.01 12.842,-40.01 0,0 12.842,17.913 12.842,40.01 z" />
    </clipPath>
    <filter
       id="filter4149"
       width="1.4938999"
       y="-0.079258002"
       x="-0.24693"
       height="1.1585"
       color-interpolation-filters="sRGB">
      <feGaussianBlur
         id="feGaussianBlur4151"
         stdDeviation="2.642588" />
    </filter>
    <clipPath
       id="clipPath4169"
       clipPathUnits="userSpaceOnUse">
      <path
         inkscape:connector-curvature="0"
         id="path4171"
         style="color:#000000;fill:#edd400;fill-rule:evenodd;enable-background:new"
         d="m 471.43,685.93 c 0,22.097 -12.842,40.01 -12.842,40.01 0,0 -12.842,-17.913 -12.842,-40.01 0,-22.097 12.842,-40.01 12.842,-40.01 0,0 12.842,17.913 12.842,40.01 z" />
    </clipPath>
    <filter
       id="filter4173"
       width="1.4938999"
       y="-0.079258002"
       x="-0.24693"
       height="1.1585"
       color-interpolation-filters="sRGB">
      <feGaussianBlur
         id="feGaussianBlur4175"
         stdDeviation="2.642588" />
    </filter>
    <radialGradient
       gradientTransform="matrix(2.1446,0.54333,-0.23563,0.93006,-46.185,-798.23)"
       r="25.774"
       cy="846.39"
       cx="213.74"
       gradientUnits="userSpaceOnUse"
       id="radialGradient4036-3-6">
      <stop
         offset="0"
         style="stop-color:#fff"
         id="stop4012-29-2" />
      <stop
         offset="1"
         style="stop-color:#fff;stop-opacity:0"
         id="stop4014-0-5" />
    </radialGradient>
    <radialGradient
       gradientTransform="matrix(0.66762,-1.2556,0.62963,0.33477,-513.52,163.93)"
       r="25.774"
       cy="689.06"
       cx="174.42"
       gradientUnits="userSpaceOnUse"
       id="radialGradient4036-6">
      <stop
         offset="0"
         style="stop-color:#fff"
         id="stop4012-3" />
      <stop
         offset="1"
         style="stop-color:#fff;stop-opacity:0"
         id="stop4014-4" />
    </radialGradient>
    <radialGradient
       gradientTransform="matrix(-0.59883,-1.0815,1.5121,-0.83725,-944.83,910.25)"
       r="25.774"
       cy="714.44"
       cx="196.29"
       gradientUnits="userSpaceOnUse"
       id="radialGradient4036-9">
      <stop
         offset="0"
         style="stop-color:#fff"
         id="stop4012-2" />
      <stop
         offset="1"
         style="stop-color:#fff;stop-opacity:0"
         id="stop4014-51" />
    </radialGradient>
    <radialGradient
       gradientTransform="matrix(-7.1009,-3.7574,0.65284,-1.2338,945.4,1718.8)"
       r="25.774"
       cy="803.94"
       cx="190.11"
       gradientUnits="userSpaceOnUse"
       id="radialGradient4036">
      <stop
         offset="0"
         style="stop-color:#fff"
         id="stop4012-4" />
      <stop
         offset="1"
         style="stop-color:#fff;stop-opacity:0"
         id="stop4014-5" />
    </radialGradient>
    <filter
       color-interpolation-filters="sRGB"
       id="filter4144">
      <feGaussianBlur
         stdDeviation="0.52449438"
         id="feGaussianBlur4146" />
    </filter>
    <linearGradient
       x1="177.02"
       y1="715.69"
       x2="190.87"
       gradientUnits="userSpaceOnUse"
       y2="745.97"
       id="linearGradient4042">
      <stop
         offset="0"
         style="stop-color:#e3e3e1"
         id="stop4117" />
      <stop
         offset="1"
         style="stop-color:#7f8376"
         id="stop4119" />
    </linearGradient>
    <filter
       color-interpolation-filters="sRGB"
       height="1.2398"
       x="-.12009"
       y="-.11991"
       width="1.2402"
       id="filter4161-2">
      <feGaussianBlur
         stdDeviation="2.8270453"
         id="feGaussianBlur4163-7" />
    </filter>
    <clipPath
       clipPathUnits="userSpaceOnUse"
       id="clipPath4157-4">
      <path
         d="m269.47 688.53c15.602 15.625 19.169 37.385 19.169 37.385s-21.729-3.5724-37.33-19.197c-15.602-15.625-19.169-37.385-19.169-37.385s21.729 3.5724 37.33 19.197z"
         style="color:#000000;fill-rule:evenodd;enable-background:new;fill:#f57900"
         id="path4159-8" />
    </clipPath>
    <filter
       color-interpolation-filters="sRGB"
       height="1.2398"
       x="-.12009"
       y="-.11991"
       width="1.2402"
       id="filter4087-4">
      <feGaussianBlur
         stdDeviation="2.8270455"
         id="feGaussianBlur4089-4" />
    </filter>
    <clipPath
       clipPathUnits="userSpaceOnUse"
       id="clipPath4083-1">
      <path
         d="m515.87 745.01c15.602 15.625 19.169 37.385 19.169 37.385s-21.729-3.5724-37.33-19.197c-15.602-15.625-19.169-37.385-19.169-37.385s21.729 3.5724 37.33 19.197z"
         style="color:#000000;fill-rule:evenodd;enable-background:new;fill:#729fcf"
         id="path4085-9" />
    </clipPath>
    <filter
       color-interpolation-filters="sRGB"
       height="1.2398"
       x="-.12009"
       y="-.11991"
       width="1.2402"
       id="filter4075-6">
      <feGaussianBlur
         stdDeviation="2.8270455"
         id="feGaussianBlur4077-0" />
    </filter>
    <clipPath
       clipPathUnits="userSpaceOnUse"
       id="clipPath4071-8">
      <path
         d="m515.87 706.72c-15.602 15.625-37.33 19.197-37.33 19.197s3.5672-21.76 19.169-37.385 37.33-19.197 37.33-19.197-3.5672 21.76-19.169 37.385z"
         style="color:#000000;fill-rule:evenodd;enable-background:new;fill:#afea2c"
         id="path4073-0" />
    </clipPath>
    <filter
       color-interpolation-filters="sRGB"
       height="1.4928"
       x="-.079315"
       y="-.24639"
       width="1.1586"
       id="filter4137-2">
      <feGaussianBlur
         stdDeviation="2.6406015"
         id="feGaussianBlur4139-6" />
    </filter>
    <clipPath
       clipPathUnits="userSpaceOnUse"
       id="clipPath4133-7">
      <path
         d="m538.47 738.73c-22.064 0-39.951-12.861-39.951-12.861s17.887-12.861 39.951-12.861 39.951 12.861 39.951 12.861-17.887 12.861-39.951 12.861z"
         style="color:#000000;fill-rule:evenodd;enable-background:new;fill:#65c808"
         id="path4135-5" />
    </clipPath>
    <filter
       color-interpolation-filters="sRGB"
       height="1.2398"
       x="-.12009"
       y="-.11991"
       width="1.2402"
       id="filter4201-7">
      <feGaussianBlur
         stdDeviation="2.8270453"
         id="feGaussianBlur4203-3" />
    </filter>
    <clipPath
       clipPathUnits="userSpaceOnUse"
       id="clipPath4197-9">
      <path
         d="m299.47 763.2c-15.602 15.625-37.33 19.197-37.33 19.197s3.5672-21.76 19.169-37.385 37.33-19.197 37.33-19.197-3.5672 21.76-19.169 37.385z"
         style="color:#000000;fill-rule:evenodd;enable-background:new;fill:#75507b"
         id="path4199-2" />
    </clipPath>
    <filter
       color-interpolation-filters="sRGB"
       height="1.4928"
       x="-.079315"
       y="-.24639"
       width="1.1586"
       id="filter4189-0">
      <feGaussianBlur
         stdDeviation="2.6406013"
         id="feGaussianBlur4191-5" />
    </filter>
    <clipPath
       clipPathUnits="userSpaceOnUse"
       id="clipPath4181-1">
      <path
         d="m348.71 698.73c-22.064 0-39.951-12.861-39.951-12.861s17.887-12.861 39.951-12.861 39.951 12.861 39.951 12.861-17.887 12.861-39.951 12.861z"
         style="color:#000000;fill-rule:evenodd;enable-background:new;fill:#ef2929"
         id="path4183-8" />
    </clipPath>
    <filter
       color-interpolation-filters="sRGB"
       height="1.1585"
       x="-.24693"
       y="-.079258"
       width="1.4939"
       id="filter4149-2">
      <feGaussianBlur
         stdDeviation="2.642588"
         id="feGaussianBlur4151-0" />
    </filter>
    <clipPath
       clipPathUnits="userSpaceOnUse"
       id="clipPath4145-6">
      <path
         d="m401.43 865.8c0 22.097-12.842 40.01-12.842 40.01s-12.842-17.913-12.842-40.01 12.842-40.01 12.842-40.01 12.842 17.913 12.842 40.01z"
         style="color:#000000;fill-rule:evenodd;enable-background:new;fill:#3465a4"
         id="path4147-6" />
    </clipPath>
    <filter
       color-interpolation-filters="sRGB"
       height="1.1585"
       x="-.24693"
       y="-.079258"
       width="1.4939"
       id="filter4173-0">
      <feGaussianBlur
         stdDeviation="2.642588"
         id="feGaussianBlur4175-6" />
    </filter>
    <clipPath
       clipPathUnits="userSpaceOnUse"
       id="clipPath4169-3">
      <path
         d="m471.43 685.93c0 22.097-12.842 40.01-12.842 40.01s-12.842-17.913-12.842-40.01 12.842-40.01 12.842-40.01 12.842 17.913 12.842 40.01z"
         style="color:#000000;fill-rule:evenodd;enable-background:new;fill:#edd400"
         id="path4171-8" />
    </clipPath>
    <filter
       color-interpolation-filters="sRGB"
       id="filter4123">
      <feGaussianBlur
         stdDeviation="0.26224718"
         id="feGaussianBlur4125" />
    </filter>
    <clipPath
       clipPathUnits="userSpaceOnUse"
       id="clipPath3983">
      <path
         d="m184.12 701.5a2.2363 2.2363 0 0 0 -1.4688 0.90625s-3.328 4.7671-4.0312 11.156c-5.0181-4.0229-10.75-5.0625-10.75-5.0625a2.2363 2.2363 0 0 0 -2.5938 2.5625s1.034 5.7649 5.0625 10.781c-6.3978 0.70283-11.188 4.0312-11.188 4.0312a2.2363 2.2363 0 0 0 0 3.625s4.7948 3.3031 11.188 4c-4.0285 5.0164-5.0625 10.781-5.0625 10.781a2.2363 2.2363 0 0 0 2.5938 2.5625s5.7319-1.0396 10.75-5.0625c0.70267 6.3934 4.0312 11.188 4.0312 11.188a2.2363 2.2363 0 0 0 3.625 0s3.3111-4.8145 4-11.219c5.0262 4.0467 10.781 5.0938 10.781 5.0938a2.2363 2.2363 0 0 0 2.5938 -2.5938s-1.0624-5.7373-5.0938-10.75c6.397-0.69632 11.219-4 11.219-4a2.2363 2.2363 0 0 0 0 -3.625s-4.8167-3.329-11.219-4.0312c4.0313-5.0127 5.0938-10.75 5.0938-10.75a2.2363 2.2363 0 0 0 -2.59 -2.6s-5.755 1.047-10.781 5.0938c-0.69265-6.3936-4-11.188-4-11.188a2.2363 2.2363 0 0 0 -2.16 -0.91z"
         style="color:#000000;fill-rule:evenodd;enable-background:new;fill:#eeeeec"
         id="path3985" />
    </clipPath>
    <linearGradient
       id="linearGradient3795-7">
      <stop
         id="stop3797-5"
         offset="0"
         style="stop-color:#68aad8;stop-opacity:1;" />
      <stop
         id="stop3799-2"
         offset="1"
         style="stop-color:#307ebd;stop-opacity:1;" />
    </linearGradient>
    <linearGradient
       y2="1049.5842"
       x2="24.113745"
       y1="1007.2183"
       x1="24.113745"
       gradientTransform="matrix(0.96799712,0,0,1.0252613,0.76811093,-25.978353)"
       gradientUnits="userSpaceOnUse"
       id="linearGradient58"
       xlink:href="#linearGradient3795-7"
       inkscape:collect="always" />
    <linearGradient
       gradientUnits="userSpaceOnUse"
       y2="25.0625"
       x2="45.325001"
       y1="25.0625"
       x1="6.8000002"
       id="linearGradient3920"
       xlink:href="#linearGradient3914"
       inkscape:collect="always" />
    <linearGradient
       id="linearGradient3803-2">
      <stop
         style="stop-color:#d7def0;stop-opacity:1;"
         offset="0"
         id="stop3805-0" />
      <stop
         id="stop3811-4"
         offset="0.5"
         style="stop-color:#ffffff;stop-opacity:1" />
      <stop
         style="stop-color:#d5def0;stop-opacity:1"
         offset="1"
         id="stop3807-2" />
    </linearGradient>
    <linearGradient
       id="linearGradient3750-2">
      <stop
         id="stop3752-2"
         offset="0"
         style="stop-color:#d0e2f1;stop-opacity:1" />
      <stop
         style="stop-color:#cadef0;stop-opacity:1"
         offset="0.85580856"
         id="stop3756-0" />
      <stop
         id="stop3754-1"
         offset="1"
         style="stop-color:#95bee3;stop-opacity:1" />
    </linearGradient>
    <linearGradient
       id="linearGradient3708-7">
      <stop
         style="stop-color:#658db6;stop-opacity:1"
         offset="0"
         id="stop3710-9" />
      <stop
         id="stop3716-3"
         offset="0.76777935"
         style="stop-color:#527fab;stop-opacity:1;" />
      <stop
         style="stop-color:#4071a0;stop-opacity:1"
         offset="1"
         id="stop3712-0" />
    </linearGradient>
    <linearGradient
       id="linearGradient3698-7">
      <stop
         style="stop-color:#96d0e1;stop-opacity:1"
         offset="0"
         id="stop3700-7" />
      <stop
         id="stop3706-9"
         offset="0.67819428"
         style="stop-color:#89b7e1;stop-opacity:1" />
      <stop
         style="stop-color:#699dd3;stop-opacity:1"
         offset="1"
         id="stop3702-2" />
    </linearGradient>
    <linearGradient
       id="linearGradient3914"
       inkscape:collect="always">
      <stop
         id="stop3916"
         offset="0"
         style="stop-color:#59b3e1;stop-opacity:1;" />
      <stop
         id="stop3918"
         offset="1"
         style="stop-color:#59b3e1;stop-opacity:0;" />
    </linearGradient>
    <linearGradient
       id="linearGradient3795-3">
      <stop
         id="stop3797-2"
         offset="0"
         style="stop-color:#5281cc;stop-opacity:1;" />
      <stop
         id="stop3799-1"
         offset="1"
         style="stop-color:#599fe1;stop-opacity:1;" />
    </linearGradient>
    <inkscape:perspective
       id="perspective3014"
       inkscape:persp3d-origin="24 : 16 : 1"
       inkscape:vp_z="48 : 24 : 1"
       inkscape:vp_y="0 : 1000 : 0"
       inkscape:vp_x="0 : 24 : 1"
       sodipodi:type="inkscape:persp3d" />
    <linearGradient
       inkscape:collect="always"
       xlink:href="#linearGradient3795"
       id="linearGradient1038"
       x1="24.208422"
       y1="1007.3599"
       x2="24.208422"
       y2="1051.509"
       gradientUnits="userSpaceOnUse"
       gradientTransform="translate(-0.52725339,-1.3923107)" />
  </defs>
  <sodipodi:namedview
     id="base"
     pagecolor="#ffffff"
     bordercolor="#666666"
     borderopacity="1.0"
     inkscape:pageopacity="0.0"
     inkscape:pageshadow="2"
     inkscape:zoom="15.544718"
     inkscape:cx="34.462497"
     inkscape:cy="19.354408"
     inkscape:document-units="px"
     inkscape:current-layer="layer1"
     showgrid="false"
     inkscape:window-width="1920"
     inkscape:window-height="1035"
     inkscape:window-x="0"
     inkscape:window-y="26"
     inkscape:window-maximized="1">
    <inkscape:grid
       type="xygrid"
       id="grid3850" />
  </sodipodi:namedview>
  <metadata
     id="metadata7">
    <rdf:RDF>
      <cc:Work
         rdf:about="">
        <dc:format>image/svg+xml</dc:format>
        <dc:type
           rdf:resource="http://purl.org/dc/dcmitype/StillImage" />
        <dc:title />
      </cc:Work>
    </rdf:RDF>
  </metadata>
  <g
     inkscape:label="Capa 1"
     inkscape:groupmode="layer"
     id="layer1"
     transform="translate(0,-1004.3622)">
    <rect
       ry="5.6755357"
       y="1006.0615"
       x="1.6992435"
       height="44.601513"
       width="44.601513"
       id="rect2992"
       style="fill:url(#linearGradient1038);fill-opacity:1;stroke:#7d7d7d;stroke-width:0.39848712;stroke-miterlimit:4;stroke-opacity:1;stroke-dasharray:none" />
    <g
       style="enable-background:new"
       id="g3302"
       transform="matrix(0.1472416,0,0,0.14694679,6.665121,1010.7328)">
      <g
         transform="translate(-30.407,-47.718)"
         id="layer1-4">
        <g
           style="display:none"
           id="layer6">
          <rect
             x="296.06"
             y="49.995998"
             width="48"
             height="48"
             style="fill:#eeeeec;display:inline;enable-background:accumulate"
             id="rect6284" />
          <rect
             x="303"
             y="126"
             width="32"
             height="32"
             style="fill:#eeeeec;display:inline;enable-background:accumulate"
             id="rect6592" />
          <rect
             x="302"
             y="176"
             width="24"
             height="24"
             style="fill:#ffffff;display:inline;enable-background:accumulate"
             id="rect8104" />
          <rect
             x="303"
             y="177.06"
             width="22"
             height="22"
             style="fill:#eeeeec;display:inline;enable-background:accumulate"
             id="rect6749" />
          <rect
             x="303"
             y="219"
             width="16"
             height="16"
             style="fill:#eeeeec;display:inline;enable-background:accumulate"
             id="rect6833" />
          <rect
             x="16.062"
             y="31.996"
             width="256"
             height="256"
             style="fill:#eeeeec;display:inline;enable-background:accumulate"
             id="rect3068" />
          <text
             x="20.970737"
             y="21.513618"
             xml:space="preserve"
             style="font-size:18.3010006px;fill:#000000;display:inline;enable-background:new;font-family:Bitstream Vera Sans"
             id="context"><tspan
               y="21.513618"
               x="20.970737"
               id="tspan2716">apps</tspan></text>
          <text
             x="191.97073"
             y="21.513618"
             xml:space="preserve"
             style="font-size:18.3010006px;font-weight:bold;line-height:125%;fill:#000000;display:inline;enable-background:new;font-family:Droid Sans"
             id="text3021"
             sodipodi:linespacing="125%"><tspan
               x="191.97073"
               y="21.513618"
               id="tspan3023">preferences-color</tspan></text>
        </g>
      </g>
      <g
         transform="translate(-24.606,-41.05)"
         id="g4017">
        <path
           transform="matrix(4.1369,0,0,4.1487,-624.77,-2861.9)"
           d="m 184.12,701.5 a 2.2363,2.2363 0 0 0 -1.4688,0.90625 c 0,0 -3.328,4.7671 -4.0312,11.156 -5.0181,-4.0229 -10.75,-5.0625 -10.75,-5.0625 a 2.2363,2.2363 0 0 0 -2.5938,2.5625 c 0,0 1.034,5.7649 5.0625,10.781 -6.3978,0.70283 -11.188,4.0312 -11.188,4.0312 a 2.2363,2.2363 0 0 0 0,3.625 c 0,0 4.7948,3.3031 11.188,4 -4.0285,5.0164 -5.0625,10.781 -5.0625,10.781 a 2.2363,2.2363 0 0 0 2.5938,2.5625 c 0,0 5.7319,-1.0396 10.75,-5.0625 0.70267,6.3934 4.0312,11.188 4.0312,11.188 a 2.2363,2.2363 0 0 0 3.625,0 c 0,0 3.3111,-4.8145 4,-11.219 5.0262,4.0467 10.781,5.0938 10.781,5.0938 a 2.2363,2.2363 0 0 0 2.5938,-2.5938 c 0,0 -1.0624,-5.7373 -5.0938,-10.75 6.397,-0.69632 11.219,-4 11.219,-4 a 2.2363,2.2363 0 0 0 0,-3.625 c 0,0 -4.8167,-3.329 -11.219,-4.0312 4.0313,-5.0127 5.0938,-10.75 5.0938,-10.75 a 2.2363,2.2363 0 0 0 -2.59,-2.6 c 0,0 -5.755,1.047 -10.781,5.0938 -0.69265,-6.3936 -4,-11.188 -4,-11.188 a 2.2363,2.2363 0 0 0 -2.16,-0.91 z"
           style="color:#000000;fill:url(#linearGradient4042);fill-rule:evenodd;enable-background:new"
           id="path3687"
           inkscape:connector-curvature="0" />
        <path
           transform="matrix(4.1369,0,0,4.1487,-624.77,-2861.9)"
           clip-path="url(#clipPath3983)"
           d="m 184.12,701.5 a 2.2363,2.2363 0 0 0 -1.4688,0.90625 c 0,0 -3.328,4.7671 -4.0312,11.156 -5.0181,-4.0229 -10.75,-5.0625 -10.75,-5.0625 a 2.2363,2.2363 0 0 0 -2.5938,2.5625 c 0,0 1.034,5.7649 5.0625,10.781 -6.3978,0.70283 -11.188,4.0312 -11.188,4.0312 a 2.2363,2.2363 0 0 0 0,3.625 c 0,0 4.7948,3.3031 11.188,4 -4.0285,5.0164 -5.0625,10.781 -5.0625,10.781 a 2.2363,2.2363 0 0 0 2.5938,2.5625 c 0,0 5.7319,-1.0396 10.75,-5.0625 0.70267,6.3934 4.0312,11.188 4.0312,11.188 a 2.2363,2.2363 0 0 0 3.625,0 c 0,0 3.3111,-4.8145 4,-11.219 5.0262,4.0467 10.781,5.0938 10.781,5.0938 a 2.2363,2.2363 0 0 0 2.5938,-2.5938 c 0,0 -1.0624,-5.7373 -5.0938,-10.75 6.397,-0.69632 11.219,-4 11.219,-4 a 2.2363,2.2363 0 0 0 0,-3.625 c 0,0 -4.8167,-3.329 -11.219,-4.0312 4.0313,-5.0127 5.0938,-10.75 5.0938,-10.75 a 2.2363,2.2363 0 0 0 -2.59,-2.6 c 0,0 -5.755,1.047 -10.781,5.0938 -0.69265,-6.3936 -4,-11.188 -4,-11.188 a 2.2363,2.2363 0 0 0 -2.16,-0.91 z"
           style="opacity:0.96694001;color:#000000;fill:#f9f9f9;fill-rule:evenodd;filter:url(#filter4123);enable-background:new"
           id="path3979"
           inkscape:connector-curvature="0" />
        <path
           d="m 154.31,107.37 c 0,27.485 -15.972,49.766 -15.972,49.766 0,0 -15.972,-22.281 -15.972,-49.766 0,-27.485 15.972,-49.766 15.972,-49.766 0,0 15.972,22.281 15.972,49.766 z"
           style="color:#000000;fill:#d5be00;fill-rule:evenodd;enable-background:new"
           id="path3689"
           inkscape:connector-curvature="0" />
        <path
           transform="matrix(1.2437,0,0,1.2439,-432.02,-745.82)"
           clip-path="url(#clipPath4169-3)"
           d="m 471.43,685.93 c 0,22.097 -12.842,40.01 -12.842,40.01 0,0 -12.842,-17.913 -12.842,-40.01 0,-22.097 12.842,-40.01 12.842,-40.01 0,0 12.842,17.913 12.842,40.01 z"
           style="color:#000000;fill:#edd400;fill-rule:evenodd;filter:url(#filter4173-0);enable-background:new"
           id="path4165"
           inkscape:connector-curvature="0" />
        <path
           d="m 154.31,206.72 c 0,27.485 -15.972,49.766 -15.972,49.766 0,0 -15.972,-22.281 -15.972,-49.766 0,-27.485 15.972,-49.766 15.972,-49.766 0,0 15.972,22.281 15.972,49.766 z"
           style="color:#000000;fill:#23446e;fill-rule:evenodd;enable-background:new"
           id="path3691"
           inkscape:connector-curvature="0" />
        <path
           d="m 187.93,173.05 c -27.442,0 -49.688,-15.997 -49.688,-15.997 0,0 22.246,-15.997 49.688,-15.997 27.442,0 49.688,15.997 49.688,15.997 0,0 -22.246,15.997 -49.688,15.997 z"
           style="color:#000000;fill:#56aa07;fill-rule:evenodd;enable-background:new"
           id="path3693"
           inkscape:connector-curvature="0" />
        <path
           d="m 88.736,173.05 c -27.442,0 -49.688,-15.997 -49.688,-15.997 0,0 22.246,-15.997 49.688,-15.997 27.442,0 49.688,15.997 49.688,15.997 0,0 -22.246,15.997 -49.688,15.997 z"
           style="color:#000000;fill:#ca0f0f;fill-rule:evenodd;enable-background:new"
           id="path3695"
           inkscape:connector-curvature="0" />
        <path
           d="m 184.7,133.23 c -19.404,19.435 -46.429,23.878 -46.429,23.878 0,0 4.4366,-27.067 23.841,-46.502 19.4044,-19.435 46.429,-23.879 46.429,-23.879 0,0 -4.4366,27.067 -23.841,46.502 z"
           style="color:#000000;fill:#85b912;fill-rule:evenodd;enable-background:new"
           id="path3697"
           inkscape:connector-curvature="0" />
        <path
           transform="matrix(1.2437,0,0,1.2439,-344.96,-870.21)"
           clip-path="url(#clipPath4145-6)"
           d="m 401.43,865.8 c 0,22.097 -12.842,40.01 -12.842,40.01 0,0 -12.842,-17.913 -12.842,-40.01 0,-22.097 12.842,-40.01 12.842,-40.01 0,0 12.842,17.913 12.842,40.01 z"
           style="color:#000000;fill:#3465a4;fill-rule:evenodd;filter:url(#filter4149-2);enable-background:new"
           id="path4141"
           inkscape:connector-curvature="0" />
        <path
           transform="matrix(1.2437,0,0,1.2439,-344.96,-696.07)"
           clip-path="url(#clipPath4181-1)"
           d="m 348.71,698.73 c -22.064,0 -39.951,-12.861 -39.951,-12.861 0,0 17.887,-12.861 39.951,-12.861 22.064,0 39.951,12.861 39.951,12.861 0,0 -17.887,12.861 -39.951,12.861 z"
           style="color:#000000;fill:#ef2929;fill-rule:evenodd;filter:url(#filter4189-0);enable-background:new"
           id="path4177"
           inkscape:connector-curvature="0" />
        <path
           d="m 114.56,203.49 c -19.404,19.435 -46.429,23.878 -46.429,23.878 0,0 4.4366,-27.067 23.841,-46.502 19.4044,-19.435 46.429,-23.879 46.429,-23.879 0,0 -4.4366,27.067 -23.841,46.502 z"
           style="color:#000000;fill:#593d5e;fill-rule:evenodd;enable-background:new"
           id="path3699"
           inkscape:connector-curvature="0" />
        <path
           d="m 114.56,110.61 c 19.404,19.435 23.841,46.502 23.841,46.502 0,0 -27.024,-4.4435 -46.429,-23.878 -19.407,-19.43 -23.844,-46.497 -23.844,-46.497 0,0 27.024,4.4436 46.429,23.879 z"
           style="color:#000000;fill:#c96300;fill-rule:evenodd;enable-background:new"
           id="path3701"
           inkscape:connector-curvature="0" />
        <path
           transform="matrix(1.2437,0,0,1.2439,-257.9,-745.82)"
           clip-path="url(#clipPath4197-9)"
           d="m 299.47,763.2 c -15.602,15.625 -37.33,19.197 -37.33,19.197 0,0 3.5672,-21.76 19.169,-37.385 15.6018,-15.625 37.33,-19.197 37.33,-19.197 0,0 -3.5672,21.76 -19.169,37.385 z"
           style="color:#000000;fill:#75507b;fill-rule:evenodd;filter:url(#filter4201-7);enable-background:new"
           id="path4193"
           inkscape:connector-curvature="0" />
        <path
           d="m 184.7,180.86 c 19.404,19.435 23.841,46.502 23.841,46.502 0,0 -27.024,-4.4435 -46.429,-23.878 -19.404,-19.435 -23.841,-46.502 -23.841,-46.502 0,0 27.024,4.4436 46.429,23.879 z"
           style="color:#000000;fill:#3f7bba;fill-rule:evenodd;enable-background:new"
           id="path3703"
           inkscape:connector-curvature="0" />
        <path
           transform="matrix(1.2437,0,0,1.2439,-481.77,-745.82)"
           clip-path="url(#clipPath4133-7)"
           d="m 538.47,738.73 c -22.064,0 -39.951,-12.861 -39.951,-12.861 0,0 17.887,-12.861 39.951,-12.861 22.064,0 39.951,12.861 39.951,12.861 0,0 -17.887,12.861 -39.951,12.861 z"
           style="color:#000000;fill:#65c808;fill-rule:evenodd;filter:url(#filter4137-2);enable-background:new"
           id="path4129"
           inkscape:connector-curvature="0" />
        <path
           transform="matrix(1.2437,0,0,1.2439,-456.9,-745.82)"
           clip-path="url(#clipPath4071-8)"
           d="m 515.87,706.72 c -15.602,15.625 -37.33,19.197 -37.33,19.197 0,0 3.5672,-21.76 19.169,-37.385 15.6018,-15.625 37.33,-19.197 37.33,-19.197 0,0 -3.5672,21.76 -19.169,37.385 z"
           style="color:#000000;fill:#afea2c;fill-rule:evenodd;filter:url(#filter4075-6);enable-background:new"
           id="path4067"
           inkscape:connector-curvature="0" />
        <path
           transform="matrix(1.2437,0,0,1.2439,-456.9,-745.82)"
           clip-path="url(#clipPath4083-1)"
           d="m 515.87,745.01 c 15.602,15.625 19.169,37.385 19.169,37.385 0,0 -21.729,-3.5724 -37.33,-19.197 -15.602,-15.625 -19.169,-37.385 -19.169,-37.385 0,0 21.729,3.5724 37.33,19.197 z"
           style="color:#000000;fill:#729fcf;fill-rule:evenodd;filter:url(#filter4087-4);enable-background:new"
           id="path4079"
           inkscape:connector-curvature="0" />
        <path
           transform="matrix(1.2437,0,0,1.2439,-220.59,-745.82)"
           clip-path="url(#clipPath4157-4)"
           d="m 269.47,688.53 c 15.602,15.625 19.169,37.385 19.169,37.385 0,0 -21.729,-3.5724 -37.33,-19.197 -15.602,-15.625 -19.169,-37.385 -19.169,-37.385 0,0 21.729,3.5724 37.33,19.197 z"
           style="color:#000000;fill:#f57900;fill-rule:evenodd;filter:url(#filter4161-2);enable-background:new"
           id="path4153"
           inkscape:connector-curvature="0" />
        <path
           transform="matrix(6.548,0,0,6.5668,-1069,-4621.3)"
           d="m 187.62,727.61 c 0,1.864 -1.511,3.375 -3.375,3.375 -1.864,0 -3.375,-1.511 -3.375,-3.375 0,-1.864 1.511,-3.375 3.375,-3.375 1.864,0 3.375,1.511 3.375,3.375 z"
           style="opacity:0.1;color:#000000;fill:#ffffff;fill-rule:evenodd;enable-background:new"
           id="path3705"
           inkscape:connector-curvature="0" />
        <path
           transform="matrix(14.096,0,0,14.136,-2459.7,-10129)"
           d="m 187.62,727.61 c 0,1.864 -1.511,3.375 -3.375,3.375 -1.864,0 -3.375,-1.511 -3.375,-3.375 0,-1.864 1.511,-3.375 3.375,-3.375 1.864,0 3.375,1.511 3.375,3.375 z"
           style="opacity:0.1;color:#000000;fill:#ffffff;fill-rule:evenodd;enable-background:new"
           id="path3707"
           inkscape:connector-curvature="0" />
        <path
           d="m 137.45,85.333 c -4.1503,0 -8.2004,0.3795 -12.156,1.0625 -1.7282,6.3747 -2.9375,13.471 -2.9375,20.969 0,5.0399 0.52913,9.9153 1.4062,14.5 -2.6169,-3.8639 -5.6598,-7.6855 -9.2188,-11.25 -5.3715,-5.3799 -11.323,-9.6005 -17.125,-12.906 -7.1881,4.9097 -13.431,11.101 -18.406,18.25 3.3114,5.8519 7.5596,11.864 12.969,17.281 3.5524,3.5579 7.337,6.601 11.188,9.2188 -4.5674,-0.87461 -9.4181,-1.4062 -14.438,-1.4062 -7.6579,0 -14.897,1.266 -21.375,3.0625 -0.73474,4.1148 -1.1562,8.3608 -1.1562,12.688 0,4.5245 0.44816,8.9276 1.25,13.219 6.454,1.7824 13.661,3.0312 21.281,3.0312 5.0083,0 9.8477,-0.53507 14.406,-1.4062 -3.8391,2.6127 -7.6142,5.6712 -11.156,9.2188 -5.3237,5.332 -9.5243,11.236 -12.812,17 5.0429,7.1852 11.375,13.382 18.656,18.281 5.6708,-3.2703 11.475,-7.404 16.719,-12.656 3.5589,-3.5645 6.6018,-7.3861 9.2188,-11.25 -0.87712,4.5847 -1.4062,9.4601 -1.4062,14.5 0,7.2763 1.1355,14.178 2.7812,20.406 4.0053,0.70084 8.1072,1.0938 12.312,1.0938 4.843,0 9.5846,-0.51403 14.156,-1.4375 1.5959,-6.1375 2.6875,-12.921 2.6875,-20.062 0,-5.0401 -0.52905,-9.9152 -1.4062,-14.5 2.6172,3.8645 5.6593,7.6849 9.2188,11.25 4.9486,4.9563 10.384,8.944 15.75,12.125 7.4166,-5.1316 13.828,-11.613 18.844,-19.125 -3.1608,-5.3216 -7.1005,-10.718 -12,-15.625 -3.542,-3.5476 -7.3484,-6.606 -11.188,-9.2188 4.5674,0.87461 9.3868,1.4062 14.406,1.4062 6.9092,0 13.49,-1.0135 19.469,-2.5312 0.86405,-4.4474 1.3125,-9.0178 1.3125,-13.719 0,-4.5032 -0.42428,-8.9154 -1.2188,-13.188 -6.0041,-1.5314 -12.616,-2.5625 -19.562,-2.5625 -5.0416,0 -9.8836,0.52476 -14.469,1.4062 3.8578,-2.621 7.6911,-5.6542 11.25,-9.2188 4.9849,-4.9928 8.9681,-10.495 12.156,-15.906 -4.9435,-7.4702 -11.248,-13.953 -18.562,-19.094 -5.5072,3.223 -11.104,7.2837 -16.188,12.375 -3.5595,3.565 -6.6016,7.3855 -9.2188,11.25 0.8772,-4.5848 1.4062,-9.4599 1.4062,-14.5 0,-7.3625 -1.1659,-14.339 -2.8438,-20.625 -4.5237,-0.90329 -9.2116,-1.4062 -14,-1.4062 z"
           style="opacity:0.1;color:#000000;fill:#ffffff;fill-rule:evenodd;enable-background:new"
           id="path3906"
           inkscape:connector-curvature="0" />
      </g>
      <path
         d="m 113.24,10.256 c -0.19939,0.02904 -0.18988,0.09127 -0.38762,0.12986 -0.1994,0.03319 -0.1903,-0.04149 -0.38763,0 -0.19774,0.04149 -0.0633,0.07841 -0.25856,0.12986 -0.19526,0.05103 -0.0662,-0.06099 -0.25855,0 -0.19237,0.06099 -0.19857,0.05933 -0.38763,0.12986 -0.18905,0.07011 -0.0732,0.0502 -0.25855,0.12986 -0.18534,0.07966 -0.0774,0.04149 -0.25856,0.12986 -0.1812,0.08878 -0.0819,0.03319 -0.25856,0.12986 -0.17664,0.0975 -0.0869,0.02489 -0.25855,0.12986 -0.17168,0.10621 -0.0922,0.14479 -0.25856,0.2593 -0.1663,0.1145 -0.098,0.0083 -0.25855,0.12986 -0.16051,0.1228 -0.10425,0.12861 -0.25856,0.2593 -0.1543,0.13068 -0.11087,-0.0083 -0.25855,0.12986 -0.14769,0.13815 -0.11791,0.11409 -0.25856,0.2593 -0.14065,0.14521 0.004,0.10704 -0.12948,0.2593 -0.13321,0.15226 -0.13321,-0.02904 -0.25856,0.12986 -0.12535,0.15848 -0.0124,0.09459 -0.12949,0.2593 0,0 -13.344,19.338 -16.16,44.988 a 2.9762,2.9847 0 0 1 -4.7833,1.9447 c -20.094,-16.153 -43.181,-20.355 -43.181,-20.355 -0.23911,-0.0419 -0.14645,-0.10206 -0.38763,-0.12986 -0.24118,-0.02904 -0.1452,0.01245 -0.38763,0 -0.24242,-0.01245 -0.1452,-0.0012 -0.38763,0 -0.24284,0.0012 -0.14562,-0.0166 -0.38763,0 -0.24242,0.01659 -0.01655,-0.02904 -0.25856,0 -0.24077,0.02904 -0.14893,0.08505 -0.38763,0.12986 -0.2387,0.04439 -0.15224,-0.0585 -0.38763,0 -0.2358,0.0585 -0.15596,0.05684 -0.38763,0.12986 -0.23167,0.0726 -0.16092,0.04315 -0.38763,0.12986 -0.22712,0.08629 -0.03723,0.02904 -0.25856,0.12986 -0.22132,0.09957 -0.17251,0.01659 -0.38763,0.12986 -0.21512,0.11285 -0.05047,0.134 -0.25856,0.2593 -0.20808,0.12529 -0.1874,-0.0083 -0.38763,0.12986 -0.20022,0.13774 -0.0666,0.10994 -0.25856,0.2593 -0.19195,0.14935 -0.07612,0.09874 -0.25856,0.2593 -0.18244,0.16056 -0.08563,0.08837 -0.25856,0.2593 -0.17292,0.17093 -0.09639,0.078 -0.25856,0.2593 -0.16217,0.1813 -0.10714,0.06887 -0.25856,0.2593 -0.15141,0.19043 -0.11914,0.1896 -0.25856,0.38874 -0.13941,0.19914 -0.13114,0.05227 -0.25856,0.2593 -0.12742,0.20702 -0.01241,0.04481 -0.12948,0.2593 -0.115,0.21449 -0.02896,0.16802 -0.12948,0.38874 -0.10218,0.22113 -0.16961,0.16222 -0.25856,0.38874 -0.08894,0.22652 -0.05419,0.02904 -0.12948,0.2593 -0.07529,0.2315 0.06123,0.1535 0,0.38874 -0.06123,0.23565 -0.08191,0.15018 -0.12948,0.38874 -0.04716,0.23897 0.03309,0.1477 0,0.38874 -0.03309,0.24104 -0.11087,0.14604 -0.12948,0.38874 -0.01655,0.2427 0.0041,0.14562 0,0.38874 -0.0041,0.24353 -0.0083,0.14562 0,0.38874 0.0083,0.24312 -0.02482,0.01659 0,0.2593 0.02482,0.24229 0.09018,0.14852 0.12948,0.38874 0,0 4.1725,23.296 20.297,43.432 a 2.9762,2.9847 0 0 1 -1.9392,4.797 c -25.614,2.8218 -44.989,16.206 -44.989,16.206 -0.19526,0.14147 -0.07198,-0.0249 -0.25856,0.12985 -0.18657,0.15268 -0.0815,0.0958 -0.25856,0.2593 -0.17706,0.16346 -0.09143,0.0855 -0.25856,0.2593 -0.16713,0.17383 -0.10177,0.0759 -0.25856,0.25929 -0.15679,0.18338 -0.11294,0.19665 -0.25856,0.38874 -0.14562,0.19209 0.0041,0.0589 -0.12948,0.2593 -0.13404,0.20038 -0.13652,0.051 -0.25856,0.25929 -0.12204,0.20827 -0.02068,0.17383 -0.12948,0.38874 -0.10963,0.2149 -0.16175,0.0373 -0.25856,0.2593 -0.0968,0.22112 -0.04592,0.16263 -0.12948,0.38873 -0.08357,0.22652 -0.05916,0.15807 -0.12948,0.38874 -0.06991,0.23108 0.05626,0.15433 0,0.38874 -0.05626,0.23482 -0.08688,0.0207 -0.12948,0.25929 -0.04261,0.23773 0.02896,0.14936 0,0.38874 -0.02896,0.2398 -0.11501,0.14811 -0.12948,0.38874 -0.01241,0.24104 0,0.14769 0,0.38874 0,0.24145 -0.01241,0.14811 0,0.38873 0.01241,0.24104 0.10094,0.14936 0.12948,0.38874 0.02896,0.2398 -0.04261,0.15143 0,0.38874 0.04261,0.23772 0.07281,0.0249 0.12948,0.25929 0.05626,0.23482 -0.06991,0.15807 0,0.38874 0.06991,0.23109 0.04592,0.16263 0.12948,0.38874 0.08357,0.22652 0.0331,0.16802 0.12948,0.38873 0.0968,0.22113 0.14893,0.0444 0.25856,0.2593 0.10963,0.21491 0.0083,0.18089 0.12948,0.38874 0.12204,0.20827 0.12452,0.0589 0.25856,0.25929 0.13404,0.20039 -0.01655,0.0672 0.12948,0.2593 0.14562,0.19209 0.10177,0.20578 0.25856,0.38874 0.15679,0.18337 0.09143,0.0855 0.25856,0.25929 0.16713,0.17384 0.0815,0.0958 0.25856,0.2593 0.17706,0.16346 0.07198,0.10662 0.25856,0.2593 0.18657,0.15267 0.06329,-0.0125 0.25856,0.12985 0,0 19.261,13.278 44.859,16.076 a 2.9762,2.9847 0 0 1 2.0684,4.797 c -16.124,20.13 -20.296,43.43 -20.296,43.43 -0.03723,0.24021 -0.10466,0.14687 -0.12948,0.38874 -0.02482,0.24229 0.0083,0.0166 0,0.2593 -0.0083,0.24311 -0.0041,0.14562 0,0.38873 0.0041,0.24353 -0.01655,0.14604 0,0.38874 0.01655,0.2427 0.09639,0.1477 0.12948,0.38874 0.03309,0.24104 -0.04716,0.15018 0,0.38873 0.04716,0.23897 0.06785,0.15351 0.12948,0.38874 0.06123,0.23565 -0.07529,0.15765 0,0.38874 0.07529,0.2315 0.04137,0.0332 0.12948,0.2593 0.08894,0.22652 0.15637,0.16802 0.25856,0.38873 0.10218,0.22113 0.01241,0.17466 0.12948,0.38874 0.11501,0.21449 0.0017,0.0523 0.12948,0.2593 0.12742,0.20702 0.11914,0.0601 0.25856,0.25929 0.13941,0.19914 0.10714,0.19831 0.25856,0.38874 0.15141,0.19043 0.09639,0.078 0.25856,0.2593 0.16217,0.1813 0.08563,0.0884 0.25856,0.25929 0.17292,0.17093 0.07612,0.0987 0.25856,0.2593 0.18244,0.16056 0.0666,0.10994 0.25856,0.2593 0.19195,0.14935 0.05833,0.12155 0.25856,0.25929 0.20023,0.13774 0.17996,0.004 0.38763,0.12986 0.20809,0.12529 0.04344,0.14645 0.25856,0.25929 0.21512,0.11285 0.1663,0.029 0.38763,0.12986 0.22132,0.0996 0.0331,0.0431 0.25856,0.12985 0.22712,0.0863 0.15596,0.0568 0.38763,0.12986 0.23167,0.0726 0.15224,0.0709 0.38763,0.12986 0.2358,0.0585 0.14893,-0.0444 0.38763,0 0.2387,0.0444 0.14686,0.0996 0.38763,0.12985 0.24077,0.029 0.01655,-0.0166 0.25856,0 0.24242,0.0166 0.1452,-10e-4 0.38763,0 0.24284,0.001 0.1452,0.0125 0.38763,0 0.24242,-0.0124 0.14645,0.029 0.38763,0 0.24118,-0.029 0.14893,-0.0875 0.38763,-0.12985 0,0 23.087,-4.2017 43.179,-20.355 a 2.9762,2.9847 0 0 1 4.7833,1.9447 c 2.813,25.668 16.16,45.118 16.16,45.118 0.14106,0.19582 -0.0248,0.0722 0.12948,0.25929 0.15224,0.18711 0.0956,0.0817 0.25856,0.2593 0.16299,0.17757 0.0852,0.0917 0.25855,0.2593 0.17334,0.16761 0.0757,0.10206 0.25856,0.25929 0.18285,0.15724 0.19609,0.11326 0.38763,0.2593 0.19153,0.14604 0.0587,-0.004 0.25855,0.12986 0.19981,0.13441 0.0509,0.1369 0.25856,0.25929 0.20767,0.12239 0.17333,0.0208 0.38762,0.12986 0.2143,0.10994 0.0372,0.16221 0.25856,0.25929 0.2205,0.0971 0.16217,0.0461 0.38763,0.12986 0.22587,0.0838 0.15761,0.0593 0.38762,0.12985 0.23043,0.0701 0.1539,-0.0564 0.38763,0 0.23415,0.0564 0.0207,0.0871 0.25856,0.12986 0.23704,0.0427 0.14892,-0.029 0.38762,0 0.23912,0.029 0.14769,0.11534 0.38763,0.12986 0.24035,0.0124 0.14727,0 0.38763,0 0.24076,0 0.14768,0.0124 0.38762,0 0.24036,-0.0125 0.14893,-0.10123 0.38763,-0.12986 0.23911,-0.029 0.151,0.0427 0.38763,0 0.23704,-0.0427 0.0248,-0.073 0.25855,-0.12986 0.23415,-0.0564 0.15762,0.0701 0.38763,0 0.23042,-0.0701 0.16217,-0.0461 0.38763,-0.12985 0.22587,-0.0838 0.16754,-0.0332 0.38762,-0.12986 0.2205,-0.0971 0.0443,-0.14935 0.25856,-0.25929 0.21429,-0.10994 0.18037,-0.008 0.38763,-0.12986 0.20767,-0.12239 0.0587,-0.12488 0.25855,-0.25929 0.19981,-0.13442 0.067,0.0166 0.25856,-0.12986 0.19154,-0.14604 0.20519,-0.10206 0.38762,-0.2593 0.18286,-0.15723 0.0852,-0.0917 0.25856,-0.25929 0.17334,-0.16761 0.0956,-0.0817 0.25856,-0.2593 0.16299,-0.17757 0.10631,-0.0722 0.25855,-0.2593 0.15224,-0.1871 -0.0124,-0.0635 0.12949,-0.25929 0,0 13.272,-19.401 16.03,-45.118 a 2.9762,2.9847 0 0 1 4.7833,-2.0744 c 20.124,16.249 43.308,20.484 43.308,20.484 0.24118,0.0431 0.14438,0.10123 0.38763,0.12985 0.24325,0.029 0.14313,-0.0124 0.38762,0 0.24449,0.0125 0.14273,0.001 0.38763,0 0.2449,-9.9e-4 0.14355,0.0166 0.38763,0 0.24449,-0.0166 0.14479,0.029 0.38762,0 0.24325,-0.029 0.0166,-0.0846 0.25856,-0.12985 0.24077,-0.0452 0.15017,0.0593 0.38763,0 0.23745,-0.0593 0.1543,-0.056 0.38762,-0.12986 0.23374,-0.0738 0.15886,-0.0419 0.38763,-0.12986 0.22877,-0.0875 0.16465,-0.029 0.38763,-0.12985 0.22298,-0.10123 0.0418,-0.14479 0.25855,-0.2593 0.21678,-0.1145 0.1783,-0.002 0.38763,-0.12985 0.20933,-0.12737 0.0571,-0.11949 0.25856,-0.2593 0.20146,-0.13981 0.19526,0.0207 0.38762,-0.12985 0.19278,-0.15185 0.0753,-0.0963 0.25856,-0.2593 0.18326,-0.16305 0.0852,-0.0855 0.25855,-0.2593 0.17334,-0.17383 0.096,-0.0755 0.25856,-0.25929 0.16258,-0.18379 0.10715,-0.066 0.25856,-0.2593 0.15141,-0.19333 -0.008,-0.18669 0.12948,-0.38874 0.13941,-0.20204 0.13155,-0.0494 0.25856,-0.25929 0.127,-0.20993 0.0165,-0.17176 0.12948,-0.38874 0.11418,-0.2174 0.15762,-0.0373 0.25856,-0.2593 0.10094,-0.22361 0.0418,-0.15931 0.12948,-0.38873 0.0873,-0.22943 0.0558,-0.15475 0.12949,-0.38874 0.0736,-0.23441 0.0699,-0.1506 0.12948,-0.38874 0.0592,-0.23855 -0.0451,-0.14728 0,-0.38874 0.0451,-0.24145 0.0989,-0.0166 0.12949,-0.25929 0.0289,-0.24395 -0.0165,-0.14396 0,-0.38874 0.0165,-0.24519 -0.001,-0.14313 0,-0.38874 9.9e-4,-0.2456 0.0124,-0.14354 0,-0.38873 -0.0124,-0.2452 0.0289,-0.1448 0,-0.38874 -0.029,-0.24395 -0.0865,-0.14687 -0.12949,-0.38874 0,0 -4.2836,-23.173 -20.426,-43.302 a 2.9762,2.9847 0 0 1 2.0684,-4.797 c 25.617,-2.7964 44.989,-16.076 44.989,-16.076 0.19526,-0.14147 0.072,0.0249 0.25855,-0.12986 0.18658,-0.15267 0.0815,-0.0958 0.25856,-0.25929 0.17706,-0.16346 0.0914,-0.0855 0.25855,-0.2593 0.16713,-0.17383 0.10177,-0.0759 0.25856,-0.2593 0.15679,-0.18337 0.11294,-0.19665 0.25856,-0.38873 0.14561,-0.19209 -0.004,-0.0589 0.12948,-0.2593 0.13404,-0.20039 0.13652,-0.051 0.25856,-0.2593 0.12203,-0.20826 0.0207,-0.17383 0.12948,-0.38873 0.10963,-0.21491 0.16175,-0.0373 0.25856,-0.2593 0.0968,-0.22113 0.0459,-0.16263 0.12948,-0.38874 0.0836,-0.22652 0.0592,-0.15807 0.12949,-0.38874 0.0699,-0.23108 -0.0563,-0.15433 0,-0.38873 0.0563,-0.23482 0.0869,-0.0207 0.12948,-0.2593 0.0426,-0.23772 -0.029,-0.14935 0,-0.38874 0.029,-0.23979 0.11501,-0.14811 0.12949,-0.38873 0.0124,-0.24105 0,-0.1477 0,-0.38874 0,-0.24146 0.0124,-0.14811 0,-0.38874 -0.0124,-0.24104 -0.10094,-0.14935 -0.12949,-0.38873 -0.029,-0.2398 0.0426,-0.15143 0,-0.38874 -0.0426,-0.23773 -0.0728,-0.0249 -0.12948,-0.2593 -0.0563,-0.23482 0.0699,-0.15807 0,-0.38874 -0.0699,-0.23108 -0.0459,-0.16263 -0.12949,-0.38873 -0.0836,-0.22652 -0.0331,-0.16803 -0.12948,-0.38874 -0.0968,-0.22113 -0.14893,-0.0444 -0.25856,-0.2593 -0.10963,-0.2149 -0.008,-0.18088 -0.12948,-0.38873 -0.12204,-0.20827 -0.12452,-0.0589 -0.25856,-0.2593 -0.13404,-0.20038 0.0165,-0.0672 -0.12948,-0.2593 -0.14562,-0.19208 -0.10177,-0.20577 -0.25856,-0.38873 -0.15679,-0.18338 -0.0914,-0.0855 -0.25856,-0.2593 -0.16713,-0.17383 -0.0815,-0.0958 -0.25855,-0.2593 -0.17706,-0.16346 -0.072,-0.10662 -0.25856,-0.25929 -0.18657,-0.15268 -0.0633,0.0124 -0.25855,-0.12986 0,0 -19.486,-13.386 -45.118,-16.206 a 2.9762,2.9847 0 0 1 -1.9338,-4.8001 c 16.142,-20.129 20.426,-43.303 20.426,-43.303 0.043,-0.24187 0.10094,-0.14479 0.12948,-0.38874 0.029,-0.24395 -0.0124,-0.14355 0,-0.38874 0.0124,-0.24519 10e-4,-0.14313 0,-0.38874 -9.9e-4,-0.2456 0.0165,-0.14396 0,-0.38874 -0.0165,-0.24519 0.029,-0.14521 0,-0.38874 -0.029,-0.24395 -0.0844,-0.01659 -0.12948,-0.2593 -0.0451,-0.24146 0.0592,-0.1506 0,-0.38874 -0.0592,-0.23855 -0.0558,-0.15475 -0.12949,-0.38874 -0.0736,-0.2344 -0.0418,-0.15931 -0.12948,-0.38874 -0.0873,-0.22942 -0.029,-0.16512 -0.12949,-0.38874 -0.10094,-0.22362 -0.14437,-0.0419 -0.25855,-0.2593 -0.11418,-0.21739 -0.002,-0.17881 -0.12949,-0.38874 -0.127,-0.20993 -0.11914,-0.05725 -0.25855,-0.2593 -0.13941,-0.20204 0.0207,-0.19582 -0.12949,-0.38874 -0.15141,-0.19333 -0.096,-0.07551 -0.25855,-0.2593 -0.16258,-0.18379 -0.0852,-0.08546 -0.25856,-0.2593 -0.17333,-0.17383 -0.0753,-0.09625 -0.25855,-0.2593 -0.18327,-0.16304 -0.0658,-0.10745 -0.25856,-0.2593 -0.19278,-0.15184 -0.18657,0.0083 -0.38763,-0.12986 -0.20146,-0.13981 -0.0492,-0.13193 -0.25855,-0.2593 -0.20933,-0.12737 -0.17127,-0.01659 -0.38763,-0.12986 -0.21677,-0.1145 -0.0372,-0.15807 -0.25855,-0.2593 -0.22298,-0.10123 -0.15886,-0.0419 -0.38763,-0.12986 -0.22877,-0.08754 -0.15431,-0.05601 -0.38763,-0.12986 -0.23373,-0.07385 -0.15017,-0.07011 -0.38763,-0.12986 -0.23745,-0.05933 -0.14685,0.04522 -0.38762,0 -0.24077,-0.04522 -0.0165,-0.09915 -0.25856,-0.12986 -0.24325,-0.02904 -0.14355,0.01659 -0.38762,0 -0.24449,-0.0166 -0.14273,9.96e-4 -0.38763,0 -0.24491,-9.96e-4 -0.14314,-0.01245 -0.38763,0 -0.24449,0.01245 -0.14438,-0.02904 -0.38762,0 -0.24325,0.02904 -0.14645,0.08671 -0.38763,0.12986 0,0 -23.184,4.2357 -43.308,20.484 a 2.9762,2.9847 0 0 1 -4.7833,-2.0744 c -2.7733,-25.673 -16.03,-44.988 -16.03,-44.988 -0.1481,-0.2091 -0.0976,-0.06016 -0.25855,-0.2593 -0.16093,-0.19914 -0.0852,-0.07053 -0.25856,-0.2593 -0.17333,-0.18877 -0.074,-0.21117 -0.25855,-0.38874 -0.18451,-0.17757 -0.0633,-0.09376 -0.25856,-0.2593 -0.19526,-0.16553 -0.0534,0.02489 -0.25855,-0.12986 -0.20519,-0.15309 -0.17334,-0.11948 -0.38763,-0.2593 -0.21471,-0.13981 -0.0372,-0.13317 -0.25856,-0.2593 -0.22298,-0.12612 -0.15761,-0.0166 -0.38762,-0.12986 -0.23043,-0.1116 -0.151,-0.03319 -0.38763,-0.12986 -0.23663,-0.09708 -0.14562,-0.17715 -0.38763,-0.2593 -0.24242,-0.08214 -0.14065,0.06638 -0.38762,0 -0.24698,-0.06638 -0.13735,-0.07883 -0.38763,-0.12986 -0.2507,-0.05103 -0.13445,-0.09459 -0.38763,-0.12986 -0.25359,-0.03319 -0.13279,0.02074 -0.38762,0 -0.25525,-0.02074 -0.13197,0.0029 -0.38763,0 -0.17044,-0.0019 -0.19857,-0.003 -0.25856,0 -0.10011,0.0083 -0.10218,-0.0032 -0.12948,0 -0.029,0.0032 -0.029,-0.01245 -0.12949,0 z"
         style="opacity:0.96694001;color:#000000;fill:none;stroke:url(#radialGradient4036);stroke-width:2;enable-background:new"
         id="path4008-6"
         inkscape:connector-curvature="0" />
      <path
         d="m 113.24,10.256 c -0.19939,0.02904 -0.18988,0.09127 -0.38762,0.12986 -0.1994,0.03319 -0.1903,-0.04149 -0.38763,0 -0.19774,0.04149 -0.0633,0.07841 -0.25856,0.12986 -0.19526,0.05103 -0.0662,-0.06099 -0.25855,0 -0.19237,0.06099 -0.19857,0.05933 -0.38763,0.12986 -0.18905,0.07011 -0.0732,0.0502 -0.25855,0.12986 -0.18534,0.07966 -0.0774,0.04149 -0.25856,0.12986 -0.1812,0.08878 -0.0819,0.03319 -0.25856,0.12986 -0.17664,0.0975 -0.0869,0.02489 -0.25855,0.12986 -0.17168,0.10621 -0.0922,0.14479 -0.25856,0.2593 -0.1663,0.1145 -0.098,0.0083 -0.25855,0.12986 -0.16051,0.1228 -0.10425,0.12861 -0.25856,0.2593 -0.1543,0.13068 -0.11087,-0.0083 -0.25855,0.12986 -0.14769,0.13815 -0.11791,0.11409 -0.25856,0.2593 -0.14065,0.14521 0.004,0.10704 -0.12948,0.2593 -0.13321,0.15226 -0.13321,-0.02904 -0.25856,0.12986 -0.12535,0.15848 -0.0124,0.09459 -0.12949,0.2593 0,0 -13.344,19.338 -16.16,44.988 a 2.9762,2.9847 0 0 1 -4.7833,1.9447 c -20.094,-16.153 -43.181,-20.355 -43.181,-20.355 -0.23911,-0.0419 -0.14645,-0.10206 -0.38763,-0.12986 -0.24118,-0.02904 -0.1452,0.01245 -0.38763,0 -0.24242,-0.01245 -0.1452,-0.0012 -0.38763,0 -0.24284,0.0012 -0.14562,-0.0166 -0.38763,0 -0.24242,0.01659 -0.01655,-0.02904 -0.25856,0 -0.24077,0.02904 -0.14893,0.08505 -0.38763,0.12986 -0.2387,0.04439 -0.15224,-0.0585 -0.38763,0 -0.2358,0.0585 -0.15596,0.05684 -0.38763,0.12986 -0.23167,0.0726 -0.16092,0.04315 -0.38763,0.12986 -0.22712,0.08629 -0.03723,0.02904 -0.25856,0.12986 -0.22132,0.09957 -0.17251,0.01659 -0.38763,0.12986 -0.21512,0.11285 -0.05047,0.134 -0.25856,0.2593 -0.20808,0.12529 -0.1874,-0.0083 -0.38763,0.12986 -0.20022,0.13774 -0.0666,0.10994 -0.25856,0.2593 -0.19195,0.14935 -0.07612,0.09874 -0.25856,0.2593 -0.18244,0.16056 -0.08563,0.08837 -0.25856,0.2593 -0.17292,0.17093 -0.09639,0.078 -0.25856,0.2593 -0.16217,0.1813 -0.10714,0.06887 -0.25856,0.2593 -0.15141,0.19043 -0.11914,0.1896 -0.25856,0.38874 -0.13941,0.19914 -0.13114,0.05227 -0.25856,0.2593 -0.12742,0.20702 -0.01241,0.04481 -0.12948,0.2593 -0.115,0.21449 -0.02896,0.16802 -0.12948,0.38874 -0.10218,0.22113 -0.16961,0.16222 -0.25856,0.38874 -0.08894,0.22652 -0.05419,0.02904 -0.12948,0.2593 -0.07529,0.2315 0.06123,0.1535 0,0.38874 -0.06123,0.23565 -0.08191,0.15018 -0.12948,0.38874 -0.04716,0.23897 0.03309,0.1477 0,0.38874 -0.03309,0.24104 -0.11087,0.14604 -0.12948,0.38874 -0.01655,0.2427 0.0041,0.14562 0,0.38874 -0.0041,0.24353 -0.0083,0.14562 0,0.38874 0.0083,0.24312 -0.02482,0.01659 0,0.2593 0.02482,0.24229 0.09018,0.14852 0.12948,0.38874 0,0 4.1725,23.296 20.297,43.432 a 2.9762,2.9847 0 0 1 -1.9392,4.797 c -25.614,2.8218 -44.989,16.206 -44.989,16.206 -0.19526,0.14147 -0.07198,-0.0249 -0.25856,0.12985 -0.18657,0.15268 -0.0815,0.0958 -0.25856,0.2593 -0.17706,0.16346 -0.09143,0.0855 -0.25856,0.2593 -0.16713,0.17383 -0.10177,0.0759 -0.25856,0.25929 -0.15679,0.18338 -0.11294,0.19665 -0.25856,0.38874 -0.14562,0.19209 0.0041,0.0589 -0.12948,0.2593 -0.13404,0.20038 -0.13652,0.051 -0.25856,0.25929 -0.12204,0.20827 -0.02068,0.17383 -0.12948,0.38874 -0.10963,0.2149 -0.16175,0.0373 -0.25856,0.2593 -0.0968,0.22112 -0.04592,0.16263 -0.12948,0.38873 -0.08357,0.22652 -0.05916,0.15807 -0.12948,0.38874 -0.06991,0.23108 0.05626,0.15433 0,0.38874 -0.05626,0.23482 -0.08688,0.0207 -0.12948,0.25929 -0.04261,0.23773 0.02896,0.14936 0,0.38874 -0.02896,0.2398 -0.11501,0.14811 -0.12948,0.38874 -0.01241,0.24104 0,0.14769 0,0.38874 0,0.24145 -0.01241,0.14811 0,0.38873 0.01241,0.24104 0.10094,0.14936 0.12948,0.38874 0.02896,0.2398 -0.04261,0.15143 0,0.38874 0.04261,0.23772 0.07281,0.0249 0.12948,0.25929 0.05626,0.23482 -0.06991,0.15807 0,0.38874 0.06991,0.23109 0.04592,0.16263 0.12948,0.38874 0.08357,0.22652 0.0331,0.16802 0.12948,0.38873 0.0968,0.22113 0.14893,0.0444 0.25856,0.2593 0.10963,0.21491 0.0083,0.18089 0.12948,0.38874 0.12204,0.20827 0.12452,0.0589 0.25856,0.25929 0.13404,0.20039 -0.01655,0.0672 0.12948,0.2593 0.14562,0.19209 0.10177,0.20578 0.25856,0.38874 0.15679,0.18337 0.09143,0.0855 0.25856,0.25929 0.16713,0.17384 0.0815,0.0958 0.25856,0.2593 0.17706,0.16346 0.07198,0.10662 0.25856,0.2593 0.18657,0.15267 0.06329,-0.0125 0.25856,0.12985 0,0 19.261,13.278 44.859,16.076 a 2.9762,2.9847 0 0 1 2.0684,4.797 c -16.124,20.13 -20.296,43.43 -20.296,43.43 -0.03723,0.24021 -0.10466,0.14687 -0.12948,0.38874 -0.02482,0.24229 0.0083,0.0166 0,0.2593 -0.0083,0.24311 -0.0041,0.14562 0,0.38873 0.0041,0.24353 -0.01655,0.14604 0,0.38874 0.01655,0.2427 0.09639,0.1477 0.12948,0.38874 0.03309,0.24104 -0.04716,0.15018 0,0.38873 0.04716,0.23897 0.06785,0.15351 0.12948,0.38874 0.06123,0.23565 -0.07529,0.15765 0,0.38874 0.07529,0.2315 0.04137,0.0332 0.12948,0.2593 0.08894,0.22652 0.15637,0.16802 0.25856,0.38873 0.10218,0.22113 0.01241,0.17466 0.12948,0.38874 0.11501,0.21449 0.0017,0.0523 0.12948,0.2593 0.12742,0.20702 0.11914,0.0601 0.25856,0.25929 0.13941,0.19914 0.10714,0.19831 0.25856,0.38874 0.15141,0.19043 0.09639,0.078 0.25856,0.2593 0.16217,0.1813 0.08563,0.0884 0.25856,0.25929 0.17292,0.17093 0.07612,0.0987 0.25856,0.2593 0.18244,0.16056 0.0666,0.10994 0.25856,0.2593 0.19195,0.14935 0.05833,0.12155 0.25856,0.25929 0.20023,0.13774 0.17996,0.004 0.38763,0.12986 0.20809,0.12529 0.04344,0.14645 0.25856,0.25929 0.21512,0.11285 0.1663,0.029 0.38763,0.12986 0.22132,0.0996 0.0331,0.0431 0.25856,0.12985 0.22712,0.0863 0.15596,0.0568 0.38763,0.12986 0.23167,0.0726 0.15224,0.0709 0.38763,0.12986 0.2358,0.0585 0.14893,-0.0444 0.38763,0 0.2387,0.0444 0.14686,0.0996 0.38763,0.12985 0.24077,0.029 0.01655,-0.0166 0.25856,0 0.24242,0.0166 0.1452,-10e-4 0.38763,0 0.24284,0.001 0.1452,0.0125 0.38763,0 0.24242,-0.0124 0.14645,0.029 0.38763,0 0.24118,-0.029 0.14893,-0.0875 0.38763,-0.12985 0,0 23.087,-4.2017 43.179,-20.355 a 2.9762,2.9847 0 0 1 4.7833,1.9447 c 2.813,25.668 16.16,45.118 16.16,45.118 0.14106,0.19582 -0.0248,0.0722 0.12948,0.25929 0.15224,0.18711 0.0956,0.0817 0.25856,0.2593 0.16299,0.17757 0.0852,0.0917 0.25855,0.2593 0.17334,0.16761 0.0757,0.10206 0.25856,0.25929 0.18285,0.15724 0.19609,0.11326 0.38763,0.2593 0.19153,0.14604 0.0587,-0.004 0.25855,0.12986 0.19981,0.13441 0.0509,0.1369 0.25856,0.25929 0.20767,0.12239 0.17333,0.0208 0.38762,0.12986 0.2143,0.10994 0.0372,0.16221 0.25856,0.25929 0.2205,0.0971 0.16217,0.0461 0.38763,0.12986 0.22587,0.0838 0.15761,0.0593 0.38762,0.12985 0.23043,0.0701 0.1539,-0.0564 0.38763,0 0.23415,0.0564 0.0207,0.0871 0.25856,0.12986 0.23704,0.0427 0.14892,-0.029 0.38762,0 0.23912,0.029 0.14769,0.11534 0.38763,0.12986 0.24035,0.0124 0.14727,0 0.38763,0 0.24076,0 0.14768,0.0124 0.38762,0 0.24036,-0.0125 0.14893,-0.10123 0.38763,-0.12986 0.23911,-0.029 0.151,0.0427 0.38763,0 0.23704,-0.0427 0.0248,-0.073 0.25855,-0.12986 0.23415,-0.0564 0.15762,0.0701 0.38763,0 0.23042,-0.0701 0.16217,-0.0461 0.38763,-0.12985 0.22587,-0.0838 0.16754,-0.0332 0.38762,-0.12986 0.2205,-0.0971 0.0443,-0.14935 0.25856,-0.25929 0.21429,-0.10994 0.18037,-0.008 0.38763,-0.12986 0.20767,-0.12239 0.0587,-0.12488 0.25855,-0.25929 0.19981,-0.13442 0.067,0.0166 0.25856,-0.12986 0.19154,-0.14604 0.20519,-0.10206 0.38762,-0.2593 0.18286,-0.15723 0.0852,-0.0917 0.25856,-0.25929 0.17334,-0.16761 0.0956,-0.0817 0.25856,-0.2593 0.16299,-0.17757 0.10631,-0.0722 0.25855,-0.2593 0.15224,-0.1871 -0.0124,-0.0635 0.12949,-0.25929 0,0 13.272,-19.401 16.03,-45.118 a 2.9762,2.9847 0 0 1 4.7833,-2.0744 c 20.124,16.249 43.308,20.484 43.308,20.484 0.24118,0.0431 0.14438,0.10123 0.38763,0.12985 0.24325,0.029 0.14313,-0.0124 0.38762,0 0.24449,0.0125 0.14273,0.001 0.38763,0 0.2449,-9.9e-4 0.14355,0.0166 0.38763,0 0.24449,-0.0166 0.14479,0.029 0.38762,0 0.24325,-0.029 0.0166,-0.0846 0.25856,-0.12985 0.24077,-0.0452 0.15017,0.0593 0.38763,0 0.23745,-0.0593 0.1543,-0.056 0.38762,-0.12986 0.23374,-0.0738 0.15886,-0.0419 0.38763,-0.12986 0.22877,-0.0875 0.16465,-0.029 0.38763,-0.12985 0.22298,-0.10123 0.0418,-0.14479 0.25855,-0.2593 0.21678,-0.1145 0.1783,-0.002 0.38763,-0.12985 0.20933,-0.12737 0.0571,-0.11949 0.25856,-0.2593 0.20146,-0.13981 0.19526,0.0207 0.38762,-0.12985 0.19278,-0.15185 0.0753,-0.0963 0.25856,-0.2593 0.18326,-0.16305 0.0852,-0.0855 0.25855,-0.2593 0.17334,-0.17383 0.096,-0.0755 0.25856,-0.25929 0.16258,-0.18379 0.10715,-0.066 0.25856,-0.2593 0.15141,-0.19333 -0.008,-0.18669 0.12948,-0.38874 0.13941,-0.20204 0.13155,-0.0494 0.25856,-0.25929 0.127,-0.20993 0.0165,-0.17176 0.12948,-0.38874 0.11418,-0.2174 0.15762,-0.0373 0.25856,-0.2593 0.10094,-0.22361 0.0418,-0.15931 0.12948,-0.38873 0.0873,-0.22943 0.0558,-0.15475 0.12949,-0.38874 0.0736,-0.23441 0.0699,-0.1506 0.12948,-0.38874 0.0592,-0.23855 -0.0451,-0.14728 0,-0.38874 0.0451,-0.24145 0.0989,-0.0166 0.12949,-0.25929 0.0289,-0.24395 -0.0165,-0.14396 0,-0.38874 0.0165,-0.24519 -0.001,-0.14313 0,-0.38874 9.9e-4,-0.2456 0.0124,-0.14354 0,-0.38873 -0.0124,-0.2452 0.0289,-0.1448 0,-0.38874 -0.029,-0.24395 -0.0865,-0.14687 -0.12949,-0.38874 0,0 -4.2836,-23.173 -20.426,-43.302 a 2.9762,2.9847 0 0 1 2.0684,-4.797 c 25.617,-2.7964 44.989,-16.076 44.989,-16.076 0.19526,-0.14147 0.072,0.0249 0.25855,-0.12986 0.18658,-0.15267 0.0815,-0.0958 0.25856,-0.25929 0.17706,-0.16346 0.0914,-0.0855 0.25855,-0.2593 0.16713,-0.17383 0.10177,-0.0759 0.25856,-0.2593 0.15679,-0.18337 0.11294,-0.19665 0.25856,-0.38873 0.14561,-0.19209 -0.004,-0.0589 0.12948,-0.2593 0.13404,-0.20039 0.13652,-0.051 0.25856,-0.2593 0.12203,-0.20826 0.0207,-0.17383 0.12948,-0.38873 0.10963,-0.21491 0.16175,-0.0373 0.25856,-0.2593 0.0968,-0.22113 0.0459,-0.16263 0.12948,-0.38874 0.0836,-0.22652 0.0592,-0.15807 0.12949,-0.38874 0.0699,-0.23108 -0.0563,-0.15433 0,-0.38873 0.0563,-0.23482 0.0869,-0.0207 0.12948,-0.2593 0.0426,-0.23772 -0.029,-0.14935 0,-0.38874 0.029,-0.23979 0.11501,-0.14811 0.12949,-0.38873 0.0124,-0.24105 0,-0.1477 0,-0.38874 0,-0.24146 0.0124,-0.14811 0,-0.38874 -0.0124,-0.24104 -0.10094,-0.14935 -0.12949,-0.38873 -0.029,-0.2398 0.0426,-0.15143 0,-0.38874 -0.0426,-0.23773 -0.0728,-0.0249 -0.12948,-0.2593 -0.0563,-0.23482 0.0699,-0.15807 0,-0.38874 -0.0699,-0.23108 -0.0459,-0.16263 -0.12949,-0.38873 -0.0836,-0.22652 -0.0331,-0.16803 -0.12948,-0.38874 -0.0968,-0.22113 -0.14893,-0.0444 -0.25856,-0.2593 -0.10963,-0.2149 -0.008,-0.18088 -0.12948,-0.38873 -0.12204,-0.20827 -0.12452,-0.0589 -0.25856,-0.2593 -0.13404,-0.20038 0.0165,-0.0672 -0.12948,-0.2593 -0.14562,-0.19208 -0.10177,-0.20577 -0.25856,-0.38873 -0.15679,-0.18338 -0.0914,-0.0855 -0.25856,-0.2593 -0.16713,-0.17383 -0.0815,-0.0958 -0.25855,-0.2593 -0.17706,-0.16346 -0.072,-0.10662 -0.25856,-0.25929 -0.18657,-0.15268 -0.0633,0.0124 -0.25855,-0.12986 0,0 -19.486,-13.386 -45.118,-16.206 a 2.9762,2.9847 0 0 1 -1.9338,-4.8001 c 16.142,-20.129 20.426,-43.303 20.426,-43.303 0.043,-0.24187 0.10094,-0.14479 0.12948,-0.38874 0.029,-0.24395 -0.0124,-0.14355 0,-0.38874 0.0124,-0.24519 10e-4,-0.14313 0,-0.38874 -9.9e-4,-0.2456 0.0165,-0.14396 0,-0.38874 -0.0165,-0.24519 0.029,-0.14521 0,-0.38874 -0.029,-0.24395 -0.0844,-0.01659 -0.12948,-0.2593 -0.0451,-0.24146 0.0592,-0.1506 0,-0.38874 -0.0592,-0.23855 -0.0558,-0.15475 -0.12949,-0.38874 -0.0736,-0.2344 -0.0418,-0.15931 -0.12948,-0.38874 -0.0873,-0.22942 -0.029,-0.16512 -0.12949,-0.38874 -0.10094,-0.22362 -0.14437,-0.0419 -0.25855,-0.2593 -0.11418,-0.21739 -0.002,-0.17881 -0.12949,-0.38874 -0.127,-0.20993 -0.11914,-0.05725 -0.25855,-0.2593 -0.13941,-0.20204 0.0207,-0.19582 -0.12949,-0.38874 -0.15141,-0.19333 -0.096,-0.07551 -0.25855,-0.2593 -0.16258,-0.18379 -0.0852,-0.08546 -0.25856,-0.2593 -0.17333,-0.17383 -0.0753,-0.09625 -0.25855,-0.2593 -0.18327,-0.16304 -0.0658,-0.10745 -0.25856,-0.2593 -0.19278,-0.15184 -0.18657,0.0083 -0.38763,-0.12986 -0.20146,-0.13981 -0.0492,-0.13193 -0.25855,-0.2593 -0.20933,-0.12737 -0.17127,-0.01659 -0.38763,-0.12986 -0.21677,-0.1145 -0.0372,-0.15807 -0.25855,-0.2593 -0.22298,-0.10123 -0.15886,-0.0419 -0.38763,-0.12986 -0.22877,-0.08754 -0.15431,-0.05601 -0.38763,-0.12986 -0.23373,-0.07385 -0.15017,-0.07011 -0.38763,-0.12986 -0.23745,-0.05933 -0.14685,0.04522 -0.38762,0 -0.24077,-0.04522 -0.0165,-0.09915 -0.25856,-0.12986 -0.24325,-0.02904 -0.14355,0.01659 -0.38762,0 -0.24449,-0.0166 -0.14273,9.96e-4 -0.38763,0 -0.24491,-9.96e-4 -0.14314,-0.01245 -0.38763,0 -0.24449,0.01245 -0.14438,-0.02904 -0.38762,0 -0.24325,0.02904 -0.14645,0.08671 -0.38763,0.12986 0,0 -23.184,4.2357 -43.308,20.484 a 2.9762,2.9847 0 0 1 -4.7833,-2.0744 c -2.7733,-25.673 -16.03,-44.988 -16.03,-44.988 -0.1481,-0.2091 -0.0976,-0.06016 -0.25855,-0.2593 -0.16093,-0.19914 -0.0852,-0.07053 -0.25856,-0.2593 -0.17333,-0.18877 -0.074,-0.21117 -0.25855,-0.38874 -0.18451,-0.17757 -0.0633,-0.09376 -0.25856,-0.2593 -0.19526,-0.16553 -0.0534,0.02489 -0.25855,-0.12986 -0.20519,-0.15309 -0.17334,-0.11948 -0.38763,-0.2593 -0.21471,-0.13981 -0.0372,-0.13317 -0.25856,-0.2593 -0.22298,-0.12612 -0.15761,-0.0166 -0.38762,-0.12986 -0.23043,-0.1116 -0.151,-0.03319 -0.38763,-0.12986 -0.23663,-0.09708 -0.14562,-0.17715 -0.38763,-0.2593 -0.24242,-0.08214 -0.14065,0.06638 -0.38762,0 -0.24698,-0.06638 -0.13735,-0.07883 -0.38763,-0.12986 -0.2507,-0.05103 -0.13445,-0.09459 -0.38763,-0.12986 -0.25359,-0.03319 -0.13279,0.02074 -0.38762,0 -0.25525,-0.02074 -0.13197,0.0029 -0.38763,0 -0.17044,-0.0019 -0.19857,-0.003 -0.25856,0 -0.10011,0.0083 -0.10218,-0.0032 -0.12948,0 -0.029,0.0032 -0.029,-0.01245 -0.12949,0 z"
         style="opacity:0.96694001;color:#000000;fill:none;stroke:url(#radialGradient4036-9);stroke-width:2;enable-background:new"
         id="path4008-7"
         inkscape:connector-curvature="0" />
      <path
         d="m 113.24,10.256 c -0.19939,0.02904 -0.18988,0.09127 -0.38762,0.12986 -0.1994,0.03319 -0.1903,-0.04149 -0.38763,0 -0.19774,0.04149 -0.0633,0.07841 -0.25856,0.12986 -0.19526,0.05103 -0.0662,-0.06099 -0.25855,0 -0.19237,0.06099 -0.19857,0.05933 -0.38763,0.12986 -0.18905,0.07011 -0.0732,0.0502 -0.25855,0.12986 -0.18534,0.07966 -0.0774,0.04149 -0.25856,0.12986 -0.1812,0.08878 -0.0819,0.03319 -0.25856,0.12986 -0.17664,0.0975 -0.0869,0.02489 -0.25855,0.12986 -0.17168,0.10621 -0.0922,0.14479 -0.25856,0.2593 -0.1663,0.1145 -0.098,0.0083 -0.25855,0.12986 -0.16051,0.1228 -0.10425,0.12861 -0.25856,0.2593 -0.1543,0.13068 -0.11087,-0.0083 -0.25855,0.12986 -0.14769,0.13815 -0.11791,0.11409 -0.25856,0.2593 -0.14065,0.14521 0.004,0.10704 -0.12948,0.2593 -0.13321,0.15226 -0.13321,-0.02904 -0.25856,0.12986 -0.12535,0.15848 -0.0124,0.09459 -0.12949,0.2593 0,0 -13.344,19.338 -16.16,44.988 a 2.9762,2.9847 0 0 1 -4.7833,1.9447 c -20.094,-16.153 -43.181,-20.355 -43.181,-20.355 -0.23911,-0.0419 -0.14645,-0.10206 -0.38763,-0.12986 -0.24118,-0.02904 -0.1452,0.01245 -0.38763,0 -0.24242,-0.01245 -0.1452,-0.0012 -0.38763,0 -0.24284,0.0012 -0.14562,-0.0166 -0.38763,0 -0.24242,0.01659 -0.01655,-0.02904 -0.25856,0 -0.24077,0.02904 -0.14893,0.08505 -0.38763,0.12986 -0.2387,0.04439 -0.15224,-0.0585 -0.38763,0 -0.2358,0.0585 -0.15596,0.05684 -0.38763,0.12986 -0.23167,0.0726 -0.16092,0.04315 -0.38763,0.12986 -0.22712,0.08629 -0.03723,0.02904 -0.25856,0.12986 -0.22132,0.09957 -0.17251,0.01659 -0.38763,0.12986 -0.21512,0.11285 -0.05047,0.134 -0.25856,0.2593 -0.20808,0.12529 -0.1874,-0.0083 -0.38763,0.12986 -0.20022,0.13774 -0.0666,0.10994 -0.25856,0.2593 -0.19195,0.14935 -0.07612,0.09874 -0.25856,0.2593 -0.18244,0.16056 -0.08563,0.08837 -0.25856,0.2593 -0.17292,0.17093 -0.09639,0.078 -0.25856,0.2593 -0.16217,0.1813 -0.10714,0.06887 -0.25856,0.2593 -0.15141,0.19043 -0.11914,0.1896 -0.25856,0.38874 -0.13941,0.19914 -0.13114,0.05227 -0.25856,0.2593 -0.12742,0.20702 -0.01241,0.04481 -0.12948,0.2593 -0.115,0.21449 -0.02896,0.16802 -0.12948,0.38874 -0.10218,0.22113 -0.16961,0.16222 -0.25856,0.38874 -0.08894,0.22652 -0.05419,0.02904 -0.12948,0.2593 -0.07529,0.2315 0.06123,0.1535 0,0.38874 -0.06123,0.23565 -0.08191,0.15018 -0.12948,0.38874 -0.04716,0.23897 0.03309,0.1477 0,0.38874 -0.03309,0.24104 -0.11087,0.14604 -0.12948,0.38874 -0.01655,0.2427 0.0041,0.14562 0,0.38874 -0.0041,0.24353 -0.0083,0.14562 0,0.38874 0.0083,0.24312 -0.02482,0.01659 0,0.2593 0.02482,0.24229 0.09018,0.14852 0.12948,0.38874 0,0 4.1725,23.296 20.297,43.432 a 2.9762,2.9847 0 0 1 -1.9392,4.797 c -25.614,2.8218 -44.989,16.206 -44.989,16.206 -0.19526,0.14147 -0.07198,-0.0249 -0.25856,0.12985 -0.18657,0.15268 -0.0815,0.0958 -0.25856,0.2593 -0.17706,0.16346 -0.09143,0.0855 -0.25856,0.2593 -0.16713,0.17383 -0.10177,0.0759 -0.25856,0.25929 -0.15679,0.18338 -0.11294,0.19665 -0.25856,0.38874 -0.14562,0.19209 0.0041,0.0589 -0.12948,0.2593 -0.13404,0.20038 -0.13652,0.051 -0.25856,0.25929 -0.12204,0.20827 -0.02068,0.17383 -0.12948,0.38874 -0.10963,0.2149 -0.16175,0.0373 -0.25856,0.2593 -0.0968,0.22112 -0.04592,0.16263 -0.12948,0.38873 -0.08357,0.22652 -0.05916,0.15807 -0.12948,0.38874 -0.06991,0.23108 0.05626,0.15433 0,0.38874 -0.05626,0.23482 -0.08688,0.0207 -0.12948,0.25929 -0.04261,0.23773 0.02896,0.14936 0,0.38874 -0.02896,0.2398 -0.11501,0.14811 -0.12948,0.38874 -0.01241,0.24104 0,0.14769 0,0.38874 0,0.24145 -0.01241,0.14811 0,0.38873 0.01241,0.24104 0.10094,0.14936 0.12948,0.38874 0.02896,0.2398 -0.04261,0.15143 0,0.38874 0.04261,0.23772 0.07281,0.0249 0.12948,0.25929 0.05626,0.23482 -0.06991,0.15807 0,0.38874 0.06991,0.23109 0.04592,0.16263 0.12948,0.38874 0.08357,0.22652 0.0331,0.16802 0.12948,0.38873 0.0968,0.22113 0.14893,0.0444 0.25856,0.2593 0.10963,0.21491 0.0083,0.18089 0.12948,0.38874 0.12204,0.20827 0.12452,0.0589 0.25856,0.25929 0.13404,0.20039 -0.01655,0.0672 0.12948,0.2593 0.14562,0.19209 0.10177,0.20578 0.25856,0.38874 0.15679,0.18337 0.09143,0.0855 0.25856,0.25929 0.16713,0.17384 0.0815,0.0958 0.25856,0.2593 0.17706,0.16346 0.07198,0.10662 0.25856,0.2593 0.18657,0.15267 0.06329,-0.0125 0.25856,0.12985 0,0 19.261,13.278 44.859,16.076 a 2.9762,2.9847 0 0 1 2.0684,4.797 c -16.124,20.13 -20.296,43.43 -20.296,43.43 -0.03723,0.24021 -0.10466,0.14687 -0.12948,0.38874 -0.02482,0.24229 0.0083,0.0166 0,0.2593 -0.0083,0.24311 -0.0041,0.14562 0,0.38873 0.0041,0.24353 -0.01655,0.14604 0,0.38874 0.01655,0.2427 0.09639,0.1477 0.12948,0.38874 0.03309,0.24104 -0.04716,0.15018 0,0.38873 0.04716,0.23897 0.06785,0.15351 0.12948,0.38874 0.06123,0.23565 -0.07529,0.15765 0,0.38874 0.07529,0.2315 0.04137,0.0332 0.12948,0.2593 0.08894,0.22652 0.15637,0.16802 0.25856,0.38873 0.10218,0.22113 0.01241,0.17466 0.12948,0.38874 0.11501,0.21449 0.0017,0.0523 0.12948,0.2593 0.12742,0.20702 0.11914,0.0601 0.25856,0.25929 0.13941,0.19914 0.10714,0.19831 0.25856,0.38874 0.15141,0.19043 0.09639,0.078 0.25856,0.2593 0.16217,0.1813 0.08563,0.0884 0.25856,0.25929 0.17292,0.17093 0.07612,0.0987 0.25856,0.2593 0.18244,0.16056 0.0666,0.10994 0.25856,0.2593 0.19195,0.14935 0.05833,0.12155 0.25856,0.25929 0.20023,0.13774 0.17996,0.004 0.38763,0.12986 0.20809,0.12529 0.04344,0.14645 0.25856,0.25929 0.21512,0.11285 0.1663,0.029 0.38763,0.12986 0.22132,0.0996 0.0331,0.0431 0.25856,0.12985 0.22712,0.0863 0.15596,0.0568 0.38763,0.12986 0.23167,0.0726 0.15224,0.0709 0.38763,0.12986 0.2358,0.0585 0.14893,-0.0444 0.38763,0 0.2387,0.0444 0.14686,0.0996 0.38763,0.12985 0.24077,0.029 0.01655,-0.0166 0.25856,0 0.24242,0.0166 0.1452,-10e-4 0.38763,0 0.24284,0.001 0.1452,0.0125 0.38763,0 0.24242,-0.0124 0.14645,0.029 0.38763,0 0.24118,-0.029 0.14893,-0.0875 0.38763,-0.12985 0,0 23.087,-4.2017 43.179,-20.355 a 2.9762,2.9847 0 0 1 4.7833,1.9447 c 2.813,25.668 16.16,45.118 16.16,45.118 0.14106,0.19582 -0.0248,0.0722 0.12948,0.25929 0.15224,0.18711 0.0956,0.0817 0.25856,0.2593 0.16299,0.17757 0.0852,0.0917 0.25855,0.2593 0.17334,0.16761 0.0757,0.10206 0.25856,0.25929 0.18285,0.15724 0.19609,0.11326 0.38763,0.2593 0.19153,0.14604 0.0587,-0.004 0.25855,0.12986 0.19981,0.13441 0.0509,0.1369 0.25856,0.25929 0.20767,0.12239 0.17333,0.0208 0.38762,0.12986 0.2143,0.10994 0.0372,0.16221 0.25856,0.25929 0.2205,0.0971 0.16217,0.0461 0.38763,0.12986 0.22587,0.0838 0.15761,0.0593 0.38762,0.12985 0.23043,0.0701 0.1539,-0.0564 0.38763,0 0.23415,0.0564 0.0207,0.0871 0.25856,0.12986 0.23704,0.0427 0.14892,-0.029 0.38762,0 0.23912,0.029 0.14769,0.11534 0.38763,0.12986 0.24035,0.0124 0.14727,0 0.38763,0 0.24076,0 0.14768,0.0124 0.38762,0 0.24036,-0.0125 0.14893,-0.10123 0.38763,-0.12986 0.23911,-0.029 0.151,0.0427 0.38763,0 0.23704,-0.0427 0.0248,-0.073 0.25855,-0.12986 0.23415,-0.0564 0.15762,0.0701 0.38763,0 0.23042,-0.0701 0.16217,-0.0461 0.38763,-0.12985 0.22587,-0.0838 0.16754,-0.0332 0.38762,-0.12986 0.2205,-0.0971 0.0443,-0.14935 0.25856,-0.25929 0.21429,-0.10994 0.18037,-0.008 0.38763,-0.12986 0.20767,-0.12239 0.0587,-0.12488 0.25855,-0.25929 0.19981,-0.13442 0.067,0.0166 0.25856,-0.12986 0.19154,-0.14604 0.20519,-0.10206 0.38762,-0.2593 0.18286,-0.15723 0.0852,-0.0917 0.25856,-0.25929 0.17334,-0.16761 0.0956,-0.0817 0.25856,-0.2593 0.16299,-0.17757 0.10631,-0.0722 0.25855,-0.2593 0.15224,-0.1871 -0.0124,-0.0635 0.12949,-0.25929 0,0 13.272,-19.401 16.03,-45.118 a 2.9762,2.9847 0 0 1 4.7833,-2.0744 c 20.124,16.249 43.308,20.484 43.308,20.484 0.24118,0.0431 0.14438,0.10123 0.38763,0.12985 0.24325,0.029 0.14313,-0.0124 0.38762,0 0.24449,0.0125 0.14273,0.001 0.38763,0 0.2449,-9.9e-4 0.14355,0.0166 0.38763,0 0.24449,-0.0166 0.14479,0.029 0.38762,0 0.24325,-0.029 0.0166,-0.0846 0.25856,-0.12985 0.24077,-0.0452 0.15017,0.0593 0.38763,0 0.23745,-0.0593 0.1543,-0.056 0.38762,-0.12986 0.23374,-0.0738 0.15886,-0.0419 0.38763,-0.12986 0.22877,-0.0875 0.16465,-0.029 0.38763,-0.12985 0.22298,-0.10123 0.0418,-0.14479 0.25855,-0.2593 0.21678,-0.1145 0.1783,-0.002 0.38763,-0.12985 0.20933,-0.12737 0.0571,-0.11949 0.25856,-0.2593 0.20146,-0.13981 0.19526,0.0207 0.38762,-0.12985 0.19278,-0.15185 0.0753,-0.0963 0.25856,-0.2593 0.18326,-0.16305 0.0852,-0.0855 0.25855,-0.2593 0.17334,-0.17383 0.096,-0.0755 0.25856,-0.25929 0.16258,-0.18379 0.10715,-0.066 0.25856,-0.2593 0.15141,-0.19333 -0.008,-0.18669 0.12948,-0.38874 0.13941,-0.20204 0.13155,-0.0494 0.25856,-0.25929 0.127,-0.20993 0.0165,-0.17176 0.12948,-0.38874 0.11418,-0.2174 0.15762,-0.0373 0.25856,-0.2593 0.10094,-0.22361 0.0418,-0.15931 0.12948,-0.38873 0.0873,-0.22943 0.0558,-0.15475 0.12949,-0.38874 0.0736,-0.23441 0.0699,-0.1506 0.12948,-0.38874 0.0592,-0.23855 -0.0451,-0.14728 0,-0.38874 0.0451,-0.24145 0.0989,-0.0166 0.12949,-0.25929 0.0289,-0.24395 -0.0165,-0.14396 0,-0.38874 0.0165,-0.24519 -0.001,-0.14313 0,-0.38874 9.9e-4,-0.2456 0.0124,-0.14354 0,-0.38873 -0.0124,-0.2452 0.0289,-0.1448 0,-0.38874 -0.029,-0.24395 -0.0865,-0.14687 -0.12949,-0.38874 0,0 -4.2836,-23.173 -20.426,-43.302 a 2.9762,2.9847 0 0 1 2.0684,-4.797 c 25.617,-2.7964 44.989,-16.076 44.989,-16.076 0.19526,-0.14147 0.072,0.0249 0.25855,-0.12986 0.18658,-0.15267 0.0815,-0.0958 0.25856,-0.25929 0.17706,-0.16346 0.0914,-0.0855 0.25855,-0.2593 0.16713,-0.17383 0.10177,-0.0759 0.25856,-0.2593 0.15679,-0.18337 0.11294,-0.19665 0.25856,-0.38873 0.14561,-0.19209 -0.004,-0.0589 0.12948,-0.2593 0.13404,-0.20039 0.13652,-0.051 0.25856,-0.2593 0.12203,-0.20826 0.0207,-0.17383 0.12948,-0.38873 0.10963,-0.21491 0.16175,-0.0373 0.25856,-0.2593 0.0968,-0.22113 0.0459,-0.16263 0.12948,-0.38874 0.0836,-0.22652 0.0592,-0.15807 0.12949,-0.38874 0.0699,-0.23108 -0.0563,-0.15433 0,-0.38873 0.0563,-0.23482 0.0869,-0.0207 0.12948,-0.2593 0.0426,-0.23772 -0.029,-0.14935 0,-0.38874 0.029,-0.23979 0.11501,-0.14811 0.12949,-0.38873 0.0124,-0.24105 0,-0.1477 0,-0.38874 0,-0.24146 0.0124,-0.14811 0,-0.38874 -0.0124,-0.24104 -0.10094,-0.14935 -0.12949,-0.38873 -0.029,-0.2398 0.0426,-0.15143 0,-0.38874 -0.0426,-0.23773 -0.0728,-0.0249 -0.12948,-0.2593 -0.0563,-0.23482 0.0699,-0.15807 0,-0.38874 -0.0699,-0.23108 -0.0459,-0.16263 -0.12949,-0.38873 -0.0836,-0.22652 -0.0331,-0.16803 -0.12948,-0.38874 -0.0968,-0.22113 -0.14893,-0.0444 -0.25856,-0.2593 -0.10963,-0.2149 -0.008,-0.18088 -0.12948,-0.38873 -0.12204,-0.20827 -0.12452,-0.0589 -0.25856,-0.2593 -0.13404,-0.20038 0.0165,-0.0672 -0.12948,-0.2593 -0.14562,-0.19208 -0.10177,-0.20577 -0.25856,-0.38873 -0.15679,-0.18338 -0.0914,-0.0855 -0.25856,-0.2593 -0.16713,-0.17383 -0.0815,-0.0958 -0.25855,-0.2593 -0.17706,-0.16346 -0.072,-0.10662 -0.25856,-0.25929 -0.18657,-0.15268 -0.0633,0.0124 -0.25855,-0.12986 0,0 -19.486,-13.386 -45.118,-16.206 a 2.9762,2.9847 0 0 1 -1.9338,-4.8001 c 16.142,-20.129 20.426,-43.303 20.426,-43.303 0.043,-0.24187 0.10094,-0.14479 0.12948,-0.38874 0.029,-0.24395 -0.0124,-0.14355 0,-0.38874 0.0124,-0.24519 10e-4,-0.14313 0,-0.38874 -9.9e-4,-0.2456 0.0165,-0.14396 0,-0.38874 -0.0165,-0.24519 0.029,-0.14521 0,-0.38874 -0.029,-0.24395 -0.0844,-0.01659 -0.12948,-0.2593 -0.0451,-0.24146 0.0592,-0.1506 0,-0.38874 -0.0592,-0.23855 -0.0558,-0.15475 -0.12949,-0.38874 -0.0736,-0.2344 -0.0418,-0.15931 -0.12948,-0.38874 -0.0873,-0.22942 -0.029,-0.16512 -0.12949,-0.38874 -0.10094,-0.22362 -0.14437,-0.0419 -0.25855,-0.2593 -0.11418,-0.21739 -0.002,-0.17881 -0.12949,-0.38874 -0.127,-0.20993 -0.11914,-0.05725 -0.25855,-0.2593 -0.13941,-0.20204 0.0207,-0.19582 -0.12949,-0.38874 -0.15141,-0.19333 -0.096,-0.07551 -0.25855,-0.2593 -0.16258,-0.18379 -0.0852,-0.08546 -0.25856,-0.2593 -0.17333,-0.17383 -0.0753,-0.09625 -0.25855,-0.2593 -0.18327,-0.16304 -0.0658,-0.10745 -0.25856,-0.2593 -0.19278,-0.15184 -0.18657,0.0083 -0.38763,-0.12986 -0.20146,-0.13981 -0.0492,-0.13193 -0.25855,-0.2593 -0.20933,-0.12737 -0.17127,-0.01659 -0.38763,-0.12986 -0.21677,-0.1145 -0.0372,-0.15807 -0.25855,-0.2593 -0.22298,-0.10123 -0.15886,-0.0419 -0.38763,-0.12986 -0.22877,-0.08754 -0.15431,-0.05601 -0.38763,-0.12986 -0.23373,-0.07385 -0.15017,-0.07011 -0.38763,-0.12986 -0.23745,-0.05933 -0.14685,0.04522 -0.38762,0 -0.24077,-0.04522 -0.0165,-0.09915 -0.25856,-0.12986 -0.24325,-0.02904 -0.14355,0.01659 -0.38762,0 -0.24449,-0.0166 -0.14273,9.96e-4 -0.38763,0 -0.24491,-9.96e-4 -0.14314,-0.01245 -0.38763,0 -0.24449,0.01245 -0.14438,-0.02904 -0.38762,0 -0.24325,0.02904 -0.14645,0.08671 -0.38763,0.12986 0,0 -23.184,4.2357 -43.308,20.484 a 2.9762,2.9847 0 0 1 -4.7833,-2.0744 c -2.7733,-25.673 -16.03,-44.988 -16.03,-44.988 -0.1481,-0.2091 -0.0976,-0.06016 -0.25855,-0.2593 -0.16093,-0.19914 -0.0852,-0.07053 -0.25856,-0.2593 -0.17333,-0.18877 -0.074,-0.21117 -0.25855,-0.38874 -0.18451,-0.17757 -0.0633,-0.09376 -0.25856,-0.2593 -0.19526,-0.16553 -0.0534,0.02489 -0.25855,-0.12986 -0.20519,-0.15309 -0.17334,-0.11948 -0.38763,-0.2593 -0.21471,-0.13981 -0.0372,-0.13317 -0.25856,-0.2593 -0.22298,-0.12612 -0.15761,-0.0166 -0.38762,-0.12986 -0.23043,-0.1116 -0.151,-0.03319 -0.38763,-0.12986 -0.23663,-0.09708 -0.14562,-0.17715 -0.38763,-0.2593 -0.24242,-0.08214 -0.14065,0.06638 -0.38762,0 -0.24698,-0.06638 -0.13735,-0.07883 -0.38763,-0.12986 -0.2507,-0.05103 -0.13445,-0.09459 -0.38763,-0.12986 -0.25359,-0.03319 -0.13279,0.02074 -0.38762,0 -0.25525,-0.02074 -0.13197,0.0029 -0.38763,0 -0.17044,-0.0019 -0.19857,-0.003 -0.25856,0 -0.10011,0.0083 -0.10218,-0.0032 -0.12948,0 -0.029,0.0032 -0.029,-0.01245 -0.12949,0 z"
         style="opacity:0.96694001;color:#000000;fill:none;stroke:url(#radialGradient4036-6);stroke-width:2;enable-background:new"
         id="path4008-1"
         inkscape:connector-curvature="0" />
      <path
         d="m 113.24,10.256 c -0.19939,0.02904 -0.18988,0.09127 -0.38762,0.12986 -0.1994,0.03319 -0.1903,-0.04149 -0.38763,0 -0.19774,0.04149 -0.0633,0.07841 -0.25856,0.12986 -0.19526,0.05103 -0.0662,-0.06099 -0.25855,0 -0.19237,0.06099 -0.19857,0.05933 -0.38763,0.12986 -0.18905,0.07011 -0.0732,0.0502 -0.25855,0.12986 -0.18534,0.07966 -0.0774,0.04149 -0.25856,0.12986 -0.1812,0.08878 -0.0819,0.03319 -0.25856,0.12986 -0.17664,0.0975 -0.0869,0.02489 -0.25855,0.12986 -0.17168,0.10621 -0.0922,0.14479 -0.25856,0.2593 -0.1663,0.1145 -0.098,0.0083 -0.25855,0.12986 -0.16051,0.1228 -0.10425,0.12861 -0.25856,0.2593 -0.1543,0.13068 -0.11087,-0.0083 -0.25855,0.12986 -0.14769,0.13815 -0.11791,0.11409 -0.25856,0.2593 -0.14065,0.14521 0.004,0.10704 -0.12948,0.2593 -0.13321,0.15226 -0.13321,-0.02904 -0.25856,0.12986 -0.12535,0.15848 -0.0124,0.09459 -0.12949,0.2593 0,0 -13.344,19.338 -16.16,44.988 a 2.9762,2.9847 0 0 1 -4.7833,1.9447 c -20.094,-16.153 -43.181,-20.355 -43.181,-20.355 -0.23911,-0.0419 -0.14645,-0.10206 -0.38763,-0.12986 -0.24118,-0.02904 -0.1452,0.01245 -0.38763,0 -0.24242,-0.01245 -0.1452,-0.0012 -0.38763,0 -0.24284,0.0012 -0.14562,-0.0166 -0.38763,0 -0.24242,0.01659 -0.01655,-0.02904 -0.25856,0 -0.24077,0.02904 -0.14893,0.08505 -0.38763,0.12986 -0.2387,0.04439 -0.15224,-0.0585 -0.38763,0 -0.2358,0.0585 -0.15596,0.05684 -0.38763,0.12986 -0.23167,0.0726 -0.16092,0.04315 -0.38763,0.12986 -0.22712,0.08629 -0.03723,0.02904 -0.25856,0.12986 -0.22132,0.09957 -0.17251,0.01659 -0.38763,0.12986 -0.21512,0.11285 -0.05047,0.134 -0.25856,0.2593 -0.20808,0.12529 -0.1874,-0.0083 -0.38763,0.12986 -0.20022,0.13774 -0.0666,0.10994 -0.25856,0.2593 -0.19195,0.14935 -0.07612,0.09874 -0.25856,0.2593 -0.18244,0.16056 -0.08563,0.08837 -0.25856,0.2593 -0.17292,0.17093 -0.09639,0.078 -0.25856,0.2593 -0.16217,0.1813 -0.10714,0.06887 -0.25856,0.2593 -0.15141,0.19043 -0.11914,0.1896 -0.25856,0.38874 -0.13941,0.19914 -0.13114,0.05227 -0.25856,0.2593 -0.12742,0.20702 -0.01241,0.04481 -0.12948,0.2593 -0.115,0.21449 -0.02896,0.16802 -0.12948,0.38874 -0.10218,0.22113 -0.16961,0.16222 -0.25856,0.38874 -0.08894,0.22652 -0.05419,0.02904 -0.12948,0.2593 -0.07529,0.2315 0.06123,0.1535 0,0.38874 -0.06123,0.23565 -0.08191,0.15018 -0.12948,0.38874 -0.04716,0.23897 0.03309,0.1477 0,0.38874 -0.03309,0.24104 -0.11087,0.14604 -0.12948,0.38874 -0.01655,0.2427 0.0041,0.14562 0,0.38874 -0.0041,0.24353 -0.0083,0.14562 0,0.38874 0.0083,0.24312 -0.02482,0.01659 0,0.2593 0.02482,0.24229 0.09018,0.14852 0.12948,0.38874 0,0 4.1725,23.296 20.297,43.432 a 2.9762,2.9847 0 0 1 -1.9392,4.797 c -25.614,2.8218 -44.989,16.206 -44.989,16.206 -0.19526,0.14147 -0.07198,-0.0249 -0.25856,0.12985 -0.18657,0.15268 -0.0815,0.0958 -0.25856,0.2593 -0.17706,0.16346 -0.09143,0.0855 -0.25856,0.2593 -0.16713,0.17383 -0.10177,0.0759 -0.25856,0.25929 -0.15679,0.18338 -0.11294,0.19665 -0.25856,0.38874 -0.14562,0.19209 0.0041,0.0589 -0.12948,0.2593 -0.13404,0.20038 -0.13652,0.051 -0.25856,0.25929 -0.12204,0.20827 -0.02068,0.17383 -0.12948,0.38874 -0.10963,0.2149 -0.16175,0.0373 -0.25856,0.2593 -0.0968,0.22112 -0.04592,0.16263 -0.12948,0.38873 -0.08357,0.22652 -0.05916,0.15807 -0.12948,0.38874 -0.06991,0.23108 0.05626,0.15433 0,0.38874 -0.05626,0.23482 -0.08688,0.0207 -0.12948,0.25929 -0.04261,0.23773 0.02896,0.14936 0,0.38874 -0.02896,0.2398 -0.11501,0.14811 -0.12948,0.38874 -0.01241,0.24104 0,0.14769 0,0.38874 0,0.24145 -0.01241,0.14811 0,0.38873 0.01241,0.24104 0.10094,0.14936 0.12948,0.38874 0.02896,0.2398 -0.04261,0.15143 0,0.38874 0.04261,0.23772 0.07281,0.0249 0.12948,0.25929 0.05626,0.23482 -0.06991,0.15807 0,0.38874 0.06991,0.23109 0.04592,0.16263 0.12948,0.38874 0.08357,0.22652 0.0331,0.16802 0.12948,0.38873 0.0968,0.22113 0.14893,0.0444 0.25856,0.2593 0.10963,0.21491 0.0083,0.18089 0.12948,0.38874 0.12204,0.20827 0.12452,0.0589 0.25856,0.25929 0.13404,0.20039 -0.01655,0.0672 0.12948,0.2593 0.14562,0.19209 0.10177,0.20578 0.25856,0.38874 0.15679,0.18337 0.09143,0.0855 0.25856,0.25929 0.16713,0.17384 0.0815,0.0958 0.25856,0.2593 0.17706,0.16346 0.07198,0.10662 0.25856,0.2593 0.18657,0.15267 0.06329,-0.0125 0.25856,0.12985 0,0 19.261,13.278 44.859,16.076 a 2.9762,2.9847 0 0 1 2.0684,4.797 c -16.124,20.13 -20.296,43.43 -20.296,43.43 -0.03723,0.24021 -0.10466,0.14687 -0.12948,0.38874 -0.02482,0.24229 0.0083,0.0166 0,0.2593 -0.0083,0.24311 -0.0041,0.14562 0,0.38873 0.0041,0.24353 -0.01655,0.14604 0,0.38874 0.01655,0.2427 0.09639,0.1477 0.12948,0.38874 0.03309,0.24104 -0.04716,0.15018 0,0.38873 0.04716,0.23897 0.06785,0.15351 0.12948,0.38874 0.06123,0.23565 -0.07529,0.15765 0,0.38874 0.07529,0.2315 0.04137,0.0332 0.12948,0.2593 0.08894,0.22652 0.15637,0.16802 0.25856,0.38873 0.10218,0.22113 0.01241,0.17466 0.12948,0.38874 0.11501,0.21449 0.0017,0.0523 0.12948,0.2593 0.12742,0.20702 0.11914,0.0601 0.25856,0.25929 0.13941,0.19914 0.10714,0.19831 0.25856,0.38874 0.15141,0.19043 0.09639,0.078 0.25856,0.2593 0.16217,0.1813 0.08563,0.0884 0.25856,0.25929 0.17292,0.17093 0.07612,0.0987 0.25856,0.2593 0.18244,0.16056 0.0666,0.10994 0.25856,0.2593 0.19195,0.14935 0.05833,0.12155 0.25856,0.25929 0.20023,0.13774 0.17996,0.004 0.38763,0.12986 0.20809,0.12529 0.04344,0.14645 0.25856,0.25929 0.21512,0.11285 0.1663,0.029 0.38763,0.12986 0.22132,0.0996 0.0331,0.0431 0.25856,0.12985 0.22712,0.0863 0.15596,0.0568 0.38763,0.12986 0.23167,0.0726 0.15224,0.0709 0.38763,0.12986 0.2358,0.0585 0.14893,-0.0444 0.38763,0 0.2387,0.0444 0.14686,0.0996 0.38763,0.12985 0.24077,0.029 0.01655,-0.0166 0.25856,0 0.24242,0.0166 0.1452,-10e-4 0.38763,0 0.24284,0.001 0.1452,0.0125 0.38763,0 0.24242,-0.0124 0.14645,0.029 0.38763,0 0.24118,-0.029 0.14893,-0.0875 0.38763,-0.12985 0,0 23.087,-4.2017 43.179,-20.355 a 2.9762,2.9847 0 0 1 4.7833,1.9447 c 2.813,25.668 16.16,45.118 16.16,45.118 0.14106,0.19582 -0.0248,0.0722 0.12948,0.25929 0.15224,0.18711 0.0956,0.0817 0.25856,0.2593 0.16299,0.17757 0.0852,0.0917 0.25855,0.2593 0.17334,0.16761 0.0757,0.10206 0.25856,0.25929 0.18285,0.15724 0.19609,0.11326 0.38763,0.2593 0.19153,0.14604 0.0587,-0.004 0.25855,0.12986 0.19981,0.13441 0.0509,0.1369 0.25856,0.25929 0.20767,0.12239 0.17333,0.0208 0.38762,0.12986 0.2143,0.10994 0.0372,0.16221 0.25856,0.25929 0.2205,0.0971 0.16217,0.0461 0.38763,0.12986 0.22587,0.0838 0.15761,0.0593 0.38762,0.12985 0.23043,0.0701 0.1539,-0.0564 0.38763,0 0.23415,0.0564 0.0207,0.0871 0.25856,0.12986 0.23704,0.0427 0.14892,-0.029 0.38762,0 0.23912,0.029 0.14769,0.11534 0.38763,0.12986 0.24035,0.0124 0.14727,0 0.38763,0 0.24076,0 0.14768,0.0124 0.38762,0 0.24036,-0.0125 0.14893,-0.10123 0.38763,-0.12986 0.23911,-0.029 0.151,0.0427 0.38763,0 0.23704,-0.0427 0.0248,-0.073 0.25855,-0.12986 0.23415,-0.0564 0.15762,0.0701 0.38763,0 0.23042,-0.0701 0.16217,-0.0461 0.38763,-0.12985 0.22587,-0.0838 0.16754,-0.0332 0.38762,-0.12986 0.2205,-0.0971 0.0443,-0.14935 0.25856,-0.25929 0.21429,-0.10994 0.18037,-0.008 0.38763,-0.12986 0.20767,-0.12239 0.0587,-0.12488 0.25855,-0.25929 0.19981,-0.13442 0.067,0.0166 0.25856,-0.12986 0.19154,-0.14604 0.20519,-0.10206 0.38762,-0.2593 0.18286,-0.15723 0.0852,-0.0917 0.25856,-0.25929 0.17334,-0.16761 0.0956,-0.0817 0.25856,-0.2593 0.16299,-0.17757 0.10631,-0.0722 0.25855,-0.2593 0.15224,-0.1871 -0.0124,-0.0635 0.12949,-0.25929 0,0 13.272,-19.401 16.03,-45.118 a 2.9762,2.9847 0 0 1 4.7833,-2.0744 c 20.124,16.249 43.308,20.484 43.308,20.484 0.24118,0.0431 0.14438,0.10123 0.38763,0.12985 0.24325,0.029 0.14313,-0.0124 0.38762,0 0.24449,0.0125 0.14273,0.001 0.38763,0 0.2449,-9.9e-4 0.14355,0.0166 0.38763,0 0.24449,-0.0166 0.14479,0.029 0.38762,0 0.24325,-0.029 0.0166,-0.0846 0.25856,-0.12985 0.24077,-0.0452 0.15017,0.0593 0.38763,0 0.23745,-0.0593 0.1543,-0.056 0.38762,-0.12986 0.23374,-0.0738 0.15886,-0.0419 0.38763,-0.12986 0.22877,-0.0875 0.16465,-0.029 0.38763,-0.12985 0.22298,-0.10123 0.0418,-0.14479 0.25855,-0.2593 0.21678,-0.1145 0.1783,-0.002 0.38763,-0.12985 0.20933,-0.12737 0.0571,-0.11949 0.25856,-0.2593 0.20146,-0.13981 0.19526,0.0207 0.38762,-0.12985 0.19278,-0.15185 0.0753,-0.0963 0.25856,-0.2593 0.18326,-0.16305 0.0852,-0.0855 0.25855,-0.2593 0.17334,-0.17383 0.096,-0.0755 0.25856,-0.25929 0.16258,-0.18379 0.10715,-0.066 0.25856,-0.2593 0.15141,-0.19333 -0.008,-0.18669 0.12948,-0.38874 0.13941,-0.20204 0.13155,-0.0494 0.25856,-0.25929 0.127,-0.20993 0.0165,-0.17176 0.12948,-0.38874 0.11418,-0.2174 0.15762,-0.0373 0.25856,-0.2593 0.10094,-0.22361 0.0418,-0.15931 0.12948,-0.38873 0.0873,-0.22943 0.0558,-0.15475 0.12949,-0.38874 0.0736,-0.23441 0.0699,-0.1506 0.12948,-0.38874 0.0592,-0.23855 -0.0451,-0.14728 0,-0.38874 0.0451,-0.24145 0.0989,-0.0166 0.12949,-0.25929 0.0289,-0.24395 -0.0165,-0.14396 0,-0.38874 0.0165,-0.24519 -0.001,-0.14313 0,-0.38874 9.9e-4,-0.2456 0.0124,-0.14354 0,-0.38873 -0.0124,-0.2452 0.0289,-0.1448 0,-0.38874 -0.029,-0.24395 -0.0865,-0.14687 -0.12949,-0.38874 0,0 -4.2836,-23.173 -20.426,-43.302 a 2.9762,2.9847 0 0 1 2.0684,-4.797 c 25.617,-2.7964 44.989,-16.076 44.989,-16.076 0.19526,-0.14147 0.072,0.0249 0.25855,-0.12986 0.18658,-0.15267 0.0815,-0.0958 0.25856,-0.25929 0.17706,-0.16346 0.0914,-0.0855 0.25855,-0.2593 0.16713,-0.17383 0.10177,-0.0759 0.25856,-0.2593 0.15679,-0.18337 0.11294,-0.19665 0.25856,-0.38873 0.14561,-0.19209 -0.004,-0.0589 0.12948,-0.2593 0.13404,-0.20039 0.13652,-0.051 0.25856,-0.2593 0.12203,-0.20826 0.0207,-0.17383 0.12948,-0.38873 0.10963,-0.21491 0.16175,-0.0373 0.25856,-0.2593 0.0968,-0.22113 0.0459,-0.16263 0.12948,-0.38874 0.0836,-0.22652 0.0592,-0.15807 0.12949,-0.38874 0.0699,-0.23108 -0.0563,-0.15433 0,-0.38873 0.0563,-0.23482 0.0869,-0.0207 0.12948,-0.2593 0.0426,-0.23772 -0.029,-0.14935 0,-0.38874 0.029,-0.23979 0.11501,-0.14811 0.12949,-0.38873 0.0124,-0.24105 0,-0.1477 0,-0.38874 0,-0.24146 0.0124,-0.14811 0,-0.38874 -0.0124,-0.24104 -0.10094,-0.14935 -0.12949,-0.38873 -0.029,-0.2398 0.0426,-0.15143 0,-0.38874 -0.0426,-0.23773 -0.0728,-0.0249 -0.12948,-0.2593 -0.0563,-0.23482 0.0699,-0.15807 0,-0.38874 -0.0699,-0.23108 -0.0459,-0.16263 -0.12949,-0.38873 -0.0836,-0.22652 -0.0331,-0.16803 -0.12948,-0.38874 -0.0968,-0.22113 -0.14893,-0.0444 -0.25856,-0.2593 -0.10963,-0.2149 -0.008,-0.18088 -0.12948,-0.38873 -0.12204,-0.20827 -0.12452,-0.0589 -0.25856,-0.2593 -0.13404,-0.20038 0.0165,-0.0672 -0.12948,-0.2593 -0.14562,-0.19208 -0.10177,-0.20577 -0.25856,-0.38873 -0.15679,-0.18338 -0.0914,-0.0855 -0.25856,-0.2593 -0.16713,-0.17383 -0.0815,-0.0958 -0.25855,-0.2593 -0.17706,-0.16346 -0.072,-0.10662 -0.25856,-0.25929 -0.18657,-0.15268 -0.0633,0.0124 -0.25855,-0.12986 0,0 -19.486,-13.386 -45.118,-16.206 a 2.9762,2.9847 0 0 1 -1.9338,-4.8001 c 16.142,-20.129 20.426,-43.303 20.426,-43.303 0.043,-0.24187 0.10094,-0.14479 0.12948,-0.38874 0.029,-0.24395 -0.0124,-0.14355 0,-0.38874 0.0124,-0.24519 10e-4,-0.14313 0,-0.38874 -9.9e-4,-0.2456 0.0165,-0.14396 0,-0.38874 -0.0165,-0.24519 0.029,-0.14521 0,-0.38874 -0.029,-0.24395 -0.0844,-0.01659 -0.12948,-0.2593 -0.0451,-0.24146 0.0592,-0.1506 0,-0.38874 -0.0592,-0.23855 -0.0558,-0.15475 -0.12949,-0.38874 -0.0736,-0.2344 -0.0418,-0.15931 -0.12948,-0.38874 -0.0873,-0.22942 -0.029,-0.16512 -0.12949,-0.38874 -0.10094,-0.22362 -0.14437,-0.0419 -0.25855,-0.2593 -0.11418,-0.21739 -0.002,-0.17881 -0.12949,-0.38874 -0.127,-0.20993 -0.11914,-0.05725 -0.25855,-0.2593 -0.13941,-0.20204 0.0207,-0.19582 -0.12949,-0.38874 -0.15141,-0.19333 -0.096,-0.07551 -0.25855,-0.2593 -0.16258,-0.18379 -0.0852,-0.08546 -0.25856,-0.2593 -0.17333,-0.17383 -0.0753,-0.09625 -0.25855,-0.2593 -0.18327,-0.16304 -0.0658,-0.10745 -0.25856,-0.2593 -0.19278,-0.15184 -0.18657,0.0083 -0.38763,-0.12986 -0.20146,-0.13981 -0.0492,-0.13193 -0.25855,-0.2593 -0.20933,-0.12737 -0.17127,-0.01659 -0.38763,-0.12986 -0.21677,-0.1145 -0.0372,-0.15807 -0.25855,-0.2593 -0.22298,-0.10123 -0.15886,-0.0419 -0.38763,-0.12986 -0.22877,-0.08754 -0.15431,-0.05601 -0.38763,-0.12986 -0.23373,-0.07385 -0.15017,-0.07011 -0.38763,-0.12986 -0.23745,-0.05933 -0.14685,0.04522 -0.38762,0 -0.24077,-0.04522 -0.0165,-0.09915 -0.25856,-0.12986 -0.24325,-0.02904 -0.14355,0.01659 -0.38762,0 -0.24449,-0.0166 -0.14273,9.96e-4 -0.38763,0 -0.24491,-9.96e-4 -0.14314,-0.01245 -0.38763,0 -0.24449,0.01245 -0.14438,-0.02904 -0.38762,0 -0.24325,0.02904 -0.14645,0.08671 -0.38763,0.12986 0,0 -23.184,4.2357 -43.308,20.484 a 2.9762,2.9847 0 0 1 -4.7833,-2.0744 c -2.7733,-25.673 -16.03,-44.988 -16.03,-44.988 -0.1481,-0.2091 -0.0976,-0.06016 -0.25855,-0.2593 -0.16093,-0.19914 -0.0852,-0.07053 -0.25856,-0.2593 -0.17333,-0.18877 -0.074,-0.21117 -0.25855,-0.38874 -0.18451,-0.17757 -0.0633,-0.09376 -0.25856,-0.2593 -0.19526,-0.16553 -0.0534,0.02489 -0.25855,-0.12986 -0.20519,-0.15309 -0.17334,-0.11948 -0.38763,-0.2593 -0.21471,-0.13981 -0.0372,-0.13317 -0.25856,-0.2593 -0.22298,-0.12612 -0.15761,-0.0166 -0.38762,-0.12986 -0.23043,-0.1116 -0.151,-0.03319 -0.38763,-0.12986 -0.23663,-0.09708 -0.14562,-0.17715 -0.38763,-0.2593 -0.24242,-0.08214 -0.14065,0.06638 -0.38762,0 -0.24698,-0.06638 -0.13735,-0.07883 -0.38763,-0.12986 -0.2507,-0.05103 -0.13445,-0.09459 -0.38763,-0.12986 -0.25359,-0.03319 -0.13279,0.02074 -0.38762,0 -0.25525,-0.02074 -0.13197,0.0029 -0.38763,0 -0.17044,-0.0019 -0.19857,-0.003 -0.25856,0 -0.10011,0.0083 -0.10218,-0.0032 -0.12948,0 -0.029,0.0032 -0.029,-0.01245 -0.12949,0 z"
         style="opacity:0.96694001;color:#000000;fill:none;stroke:url(#radialGradient4036-3-6);stroke-width:2;enable-background:new"
         id="path4008-0"
         inkscape:connector-curvature="0" />
    </g>
  </g>
</svg>
