<?xml version="1.0" encoding="UTF-8" standalone="no"?>
<!-- Created with Inkscape (http://www.inkscape.org/) -->

<svg
   xmlns:dc="http://purl.org/dc/elements/1.1/"
   xmlns:cc="http://creativecommons.org/ns#"
   xmlns:rdf="http://www.w3.org/1999/02/22-rdf-syntax-ns#"
   xmlns:svg="http://www.w3.org/2000/svg"
   xmlns="http://www.w3.org/2000/svg"
   xmlns:xlink="http://www.w3.org/1999/xlink"
   xmlns:sodipodi="http://sodipodi.sourceforge.net/DTD/sodipodi-0.dtd"
   xmlns:inkscape="http://www.inkscape.org/namespaces/inkscape"
   width="48"
   height="48"
   id="svg2"
   version="1.1"
   inkscape:version="0.48+devel r11521"
   sodipodi:docname="shotwell.svg">
  <defs
     id="defs4">
    <linearGradient
       id="linearGradient3795">
      <stop
         style="stop-color:#1e649f;stop-opacity:1;"
         offset="0"
         id="stop3797" />
      <stop
         style="stop-color:#59a8e1;stop-opacity:1;"
         offset="1"
         id="stop3799" />
    </linearGradient>
    <linearGradient
       inkscape:collect="always"
       id="linearGradient3914">
      <stop
         style="stop-color:#59b3e1;stop-opacity:1;"
         offset="0"
         id="stop3916" />
      <stop
         style="stop-color:#59b3e1;stop-opacity:0;"
         offset="1"
         id="stop3918" />
    </linearGradient>
    <linearGradient
       id="linearGradient3698">
      <stop
         id="stop3700"
         offset="0"
         style="stop-color:#96d0e1;stop-opacity:1" />
      <stop
         style="stop-color:#89b7e1;stop-opacity:1"
         offset="0.67819428"
         id="stop3706" />
      <stop
         id="stop3702"
         offset="1"
         style="stop-color:#699dd3;stop-opacity:1" />
    </linearGradient>
    <linearGradient
       id="linearGradient3708">
      <stop
         style="stop-color:#b54ac8;stop-opacity:1;"
         offset="0"
         id="stop3716" />
      <stop
         id="stop3712"
         offset="1"
         style="stop-color:#cd79df;stop-opacity:1;" />
    </linearGradient>
    <linearGradient
       id="linearGradient3750">
      <stop
         style="stop-color:#d0e2f1;stop-opacity:1"
         offset="0"
         id="stop3752" />
      <stop
         id="stop3756"
         offset="0.85580856"
         style="stop-color:#cadef0;stop-opacity:1" />
      <stop
         style="stop-color:#95bee3;stop-opacity:1"
         offset="1"
         id="stop3754" />
    </linearGradient>
    <linearGradient
       id="linearGradient3803">
      <stop
         id="stop3805"
         offset="0"
         style="stop-color:#d7def0;stop-opacity:1;" />
      <stop
         style="stop-color:#ffffff;stop-opacity:1"
         offset="0.5"
         id="stop3811" />
      <stop
         id="stop3807"
         offset="1"
         style="stop-color:#d5def0;stop-opacity:1" />
    </linearGradient>
    <linearGradient
       inkscape:collect="always"
       xlink:href="#linearGradient3914"
       id="linearGradient3920"
       x1="6.8000002"
       y1="25.0625"
       x2="45.325001"
       y2="25.0625"
       gradientUnits="userSpaceOnUse" />
    <linearGradient
       x1="62.336792"
       y1="79.015236"
       x2="62.336792"
       y2="12.797539"
       id="linearGradient2936"
       xlink:href="#linearGradient3694"
       gradientUnits="userSpaceOnUse"
       gradientTransform="matrix(0.87485882,0,0,0.90698611,2.762671,6.33428)" />
    <linearGradient
       id="linearGradient3694">
      <stop
         id="stop3696"
         style="stop-color:#e6e6e6;stop-opacity:1"
         offset="0" />
      <stop
         id="stop3698"
         style="stop-color:#f5f5f5;stop-opacity:1"
         offset="1" />
    </linearGradient>
    <linearGradient
       x1="55"
       y1="18"
       x2="55"
       y2="112"
       id="linearGradient3831"
       xlink:href="#linearGradient3825"
       gradientUnits="userSpaceOnUse" />
    <linearGradient
       id="linearGradient3825">
      <stop
         id="stop3827"
         style="stop-color:#501616;stop-opacity:1"
         offset="0" />
      <stop
         id="stop3829"
         style="stop-color:#501616;stop-opacity:0"
         offset="1" />
    </linearGradient>
    <linearGradient
       inkscape:collect="always"
       xlink:href="#linearGradient3795"
       id="linearGradient3202-8"
       gradientUnits="userSpaceOnUse"
       gradientTransform="matrix(0.96799712,0,0,1.0252613,0.76811969,-2082.7025)"
       x1="24.113745"
       y1="1007.2183"
       x2="24.113745"
       y2="1049.5842" />
    <linearGradient
       id="linearGradient3795-5">
      <stop
         id="stop3797-2"
         offset="0"
         style="stop-color:#68b8d8;stop-opacity:1;" />
      <stop
         id="stop3799-7"
         offset="1"
         style="stop-color:#3097bd;stop-opacity:1;" />
    </linearGradient>
    <linearGradient
       inkscape:collect="always"
       xlink:href="#linearGradient3795-5"
       id="linearGradient3030"
       gradientUnits="userSpaceOnUse"
       gradientTransform="matrix(0.96799712,0,0,1.0252613,0.76812014,-25.977808)"
       x1="24.113745"
       y1="1007.2183"
       x2="24.113745"
       y2="1049.5842" />
    <clipPath
       id="clipPath4254"
       clipPathUnits="userSpaceOnUse">
      <path
         transform="translate(0,-1.7889608)"
         clip-path="url(#clipPath4174-8)"
         sodipodi:nodetypes="sscccccsscccsccs"
         inkscape:connector-curvature="0"
         id="path4256"
         d="m 256,176 c -44.18278,0 -80,35.64044 -80,80 0,0 -0.53033,7.51472 1.76777,16 l 122.85723,0 c -3.3167,9.26456 -9.26562,17.57666 -17.34375,23.125 -18.58481,14.67263 -46.73117,9.33733 -62.5625,-7.125 l -38.03125,0 c 12.35038,28.24167 40.51668,48 73.3125,48 44.18278,0 80,-35.81722 80,-80 0,0 0,-8.22183 -1.59099,-16 L 211.5,240 c 6.91612,-17.48162 23.43148,-31.64803 42.625,-31.8125 0.96047,-0.0463 1.91732,-0.0507 2.875,-0.0312 12.86627,0.2609 25.35078,6.36236 34.03125,15.84375 l 38.28125,0 C 316.96212,195.75833 288.79582,176 256,176 z"
         style="fill:url(#linearGradient4258);fill-opacity:1;stroke:none;display:inline" />
    </clipPath>
    <linearGradient
       inkscape:collect="always"
       xlink:href="#linearGradient3919"
       id="linearGradient3202"
       gradientUnits="userSpaceOnUse"
       x1="260.03125"
       y1="92.121216"
       x2="260.03125"
       y2="419.87878" />
    <clipPath
       id="clipPath4063"
       clipPathUnits="userSpaceOnUse">
      <path
         sodipodi:nodetypes="cccccccccccccccccccccc"
         inkscape:connector-curvature="0"
         clip-path="url(#clipPath4127-2)"
         id="path4065"
         d="M 240,92.121216 240,129 c -52.45501,6.5377 -95.05053,44.80985 -107.96875,95 l 33.1875,0 c 13.61057,-36.22794 49.64746,-64.48252 89.03125,-64.21875 0.95497,-0.0253 1.92176,-0.0369 2.875,-0.0312 14.29865,0.0853 28.35374,3.63533 41.09375,10 22.94737,10.32987 39.98645,30.74431 48.3125,54.25 l 33.4375,0 C 367.05053,173.80985 324.45501,135.5377 272,129 l 0,-36.878784 z M 132.03125,288 C 144.94947,338.19015 187.54499,376.4623 240,383 l 0,36.87878 32,0 L 272,383 c 52.45501,-6.5377 95.05053,-44.80985 107.96875,-95 L 347,288 c -12.9362,38.16182 -52.91943,65.60507 -93.34375,64.1875 -39.35846,0.19888 -75.06281,-27.91764 -88.375,-64.1875 z"
         style="fill:url(#linearGradient4067);fill-opacity:1;stroke:none" />
    </clipPath>
    <linearGradient
       id="linearGradient3919">
      <stop
         style="stop-color:#00a070;stop-opacity:1;"
         offset="0"
         id="stop3921" />
      <stop
         style="stop-color:#11ffeb;stop-opacity:1;"
         offset="1"
         id="stop3923" />
    </linearGradient>
    <linearGradient
       gradientUnits="userSpaceOnUse"
       y2="419.87878"
       x2="260.03125"
       y1="92.121216"
       x1="260.03125"
       id="linearGradient4038"
       xlink:href="#linearGradient3919"
       inkscape:collect="always" />
    <linearGradient
       gradientUnits="userSpaceOnUse"
       y2="1004.8474"
       x2="23.204165"
       y1="1053.158"
       x1="23.204165"
       id="linearGradient3801-0"
       xlink:href="#linearGradient3795-0"
       inkscape:collect="always" />
    <linearGradient
       id="linearGradient3803-4">
      <stop
         style="stop-color:#d7def0;stop-opacity:1;"
         offset="0"
         id="stop3805-0" />
      <stop
         id="stop3811-1"
         offset="0.5"
         style="stop-color:#ffffff;stop-opacity:1" />
      <stop
         style="stop-color:#d5def0;stop-opacity:1"
         offset="1"
         id="stop3807-2" />
    </linearGradient>
    <linearGradient
       id="linearGradient3750-7">
      <stop
         id="stop3752-9"
         offset="0"
         style="stop-color:#d0e2f1;stop-opacity:1" />
      <stop
         style="stop-color:#cadef0;stop-opacity:1"
         offset="0.85580856"
         id="stop3756-7" />
      <stop
         id="stop3754-8"
         offset="1"
         style="stop-color:#95bee3;stop-opacity:1" />
    </linearGradient>
    <linearGradient
       id="linearGradient3708-2">
      <stop
         style="stop-color:#658db6;stop-opacity:1"
         offset="0"
         id="stop3710" />
      <stop
         id="stop3716-0"
         offset="0.76777935"
         style="stop-color:#527fab;stop-opacity:1;" />
      <stop
         style="stop-color:#4071a0;stop-opacity:1"
         offset="1"
         id="stop3712-6" />
    </linearGradient>
    <linearGradient
       id="linearGradient3698-8">
      <stop
         style="stop-color:#96d0e1;stop-opacity:1"
         offset="0"
         id="stop3700-4" />
      <stop
         id="stop3706-2"
         offset="0.67819428"
         style="stop-color:#89b7e1;stop-opacity:1" />
      <stop
         style="stop-color:#699dd3;stop-opacity:1"
         offset="1"
         id="stop3702-3" />
    </linearGradient>
    <linearGradient
       id="linearGradient3795-0">
      <stop
         id="stop3797-22"
         offset="0"
         style="stop-color:#48af7a;stop-opacity:1;" />
      <stop
         id="stop3799-3"
         offset="1"
         style="stop-color:#67e7d2;stop-opacity:1;" />
    </linearGradient>
  </defs>
  <sodipodi:namedview
     id="base"
     pagecolor="#ffffff"
     bordercolor="#666666"
     borderopacity="1.0"
     inkscape:pageopacity="0.0"
     inkscape:pageshadow="2"
     inkscape:zoom="4.6886621"
     inkscape:cx="91.808865"
     inkscape:cy="47.687994"
     inkscape:document-units="px"
     inkscape:current-layer="layer1"
     showgrid="false"
     inkscape:window-width="1920"
     inkscape:window-height="1035"
     inkscape:window-x="0"
     inkscape:window-y="26"
     inkscape:window-maximized="1"
     showguides="true"
     inkscape:guide-bbox="true" />
  <metadata
     id="metadata7">
    <rdf:RDF>
      <cc:Work
         rdf:about="">
        <dc:format>image/svg+xml</dc:format>
        <dc:type
           rdf:resource="http://purl.org/dc/dcmitype/StillImage" />
        <dc:title />
      </cc:Work>
    </rdf:RDF>
  </metadata>
  <g
     inkscape:label="Capa 1"
     inkscape:groupmode="layer"
     id="layer1"
     transform="translate(0,-1004.3622)">
    <rect
       ry="5.6755357"
       y="-1050.663"
       x="1.6992435"
       height="44.601513"
       width="44.601513"
       id="rect2992"
       style="fill:url(#linearGradient3202-8);fill-opacity:1;stroke:#7d7d7d;stroke-width:0.39848712;stroke-miterlimit:4;stroke-opacity:1;stroke-dasharray:none"
       transform="scale(1,-1)" />
    <g
       id="g3217"
       transform="matrix(0.65578677,0,0,0.65578677,8.189391,353.89833)">
      <path
         transform="matrix(0.79933457,0,0,0.79933457,4.6161382,1008.6786)"
         d="m 28.874998,24.625002 c 0,2.554317 -2.070683,4.625 -4.625,4.625 -2.554317,0 -4.625,-2.070683 -4.625,-4.625 0,-2.554317 2.070683,-4.625 4.625,-4.625 2.554317,0 4.625,2.070683 4.625,4.625 z"
         sodipodi:ry="4.625"
         sodipodi:rx="4.625"
         sodipodi:cy="24.625002"
         sodipodi:cx="24.249998"
         id="path3030"
         style="fill:#ffffff;fill-opacity:1;stroke:none"
         sodipodi:type="arc" />
      <g
         inkscape:transform-center-y="-11.510246"
         inkscape:transform-center-x="-6.5316986"
         id="g3125"
         transform="translate(-0.98131061,-0.28492656)">
        <g
           id="g3127">
          <path
             inkscape:connector-curvature="0"
             id="path3129"
             d="m 21.812499,1022.9872 22.624999,0 -8.8125,-8.8125 z"
             style="fill:#ffffff;stroke:none" />
        </g>
        <g
           transform="matrix(-0.25881905,-0.96592582,0.96592582,-0.25881905,-962.99775,1317.5702)"
           id="g3133" />
      </g>
      <g
         transform="matrix(0.5,-0.8660254,0.8660254,0.5,-879.3729,535.8269)"
         id="g3177"
         inkscape:transform-center-x="1.3496883"
         inkscape:transform-center-y="-9.8470345">
        <g
           id="g3179">
          <path
             style="fill:#ffffff;stroke:none"
             d="m 21.812499,1022.9872 22.624999,0 -8.8125,-8.8125 z"
             id="path3181"
             inkscape:connector-curvature="0" />
        </g>
        <g
           id="g3183"
           transform="matrix(-0.25881905,-0.96592582,0.96592582,-0.25881905,-962.99775,1317.5702)" />
      </g>
      <g
         inkscape:transform-center-y="-4.0688345"
         inkscape:transform-center-x="10.634027"
         id="g3185"
         transform="matrix(-0.5,-0.8660254,0.8660254,-0.5,-854.28224,1564.5923)">
        <g
           id="g3187">
          <path
             inkscape:connector-curvature="0"
             id="path3189"
             d="m 21.812499,1022.9872 22.624999,0 -8.8125,-8.8125 z"
             style="fill:#ffffff;stroke:none" />
        </g>
        <g
           transform="matrix(-0.25881905,-0.96592582,0.96592582,-0.25881905,-962.99775,1317.5702)"
           id="g3191" />
      </g>
      <g
         transform="matrix(-1,0,0,-1,49.20006,2057.2458)"
         id="g3193"
         inkscape:transform-center-x="8.0343259"
         inkscape:transform-center-y="10.184406">
        <g
           id="g3195">
          <path
             style="fill:#ffffff;stroke:none"
             d="m 21.812499,1022.9872 22.624999,0 -8.8125,-8.8125 z"
             id="path3197"
             inkscape:connector-curvature="0" />
        </g>
        <g
           id="g3199"
           transform="matrix(-0.25881905,-0.96592582,0.96592582,-0.25881905,-962.99775,1317.5702)" />
      </g>
      <g
         inkscape:transform-center-y="9.8470461"
         inkscape:transform-center-x="-1.3496739"
         id="g3201"
         transform="matrix(-0.5,0.8660254,-0.8660254,-0.5,927.59166,1521.134)">
        <g
           id="g3203">
          <path
             inkscape:connector-curvature="0"
             id="path3205"
             d="m 21.812499,1022.9872 22.624999,0 -8.8125,-8.8125 z"
             style="fill:#ffffff;stroke:none" />
        </g>
        <g
           transform="matrix(-0.25881905,-0.96592582,0.96592582,-0.25881905,-962.99775,1317.5702)"
           id="g3207" />
      </g>
      <g
         transform="matrix(0.5,0.8660254,-0.8660254,0.5,902.50102,492.36862)"
         id="g3209"
         inkscape:transform-center-x="-10.634032"
         inkscape:transform-center-y="4.0688661">
        <g
           id="g3211">
          <path
             style="fill:#ffffff;stroke:none"
             d="m 21.812499,1022.9872 22.624999,0 -8.8125,-8.8125 z"
             id="path3213"
             inkscape:connector-curvature="0" />
        </g>
        <g
           id="g3215"
           transform="matrix(-0.25881905,-0.96592582,0.96592582,-0.25881905,-962.99775,1317.5702)" />
      </g>
    </g>
  </g>
</svg>
