<?xml version="1.0" encoding="UTF-8" standalone="no"?>
<!-- Created with Inkscape (http://www.inkscape.org/) -->

<svg
   xmlns:dc="http://purl.org/dc/elements/1.1/"
   xmlns:cc="http://creativecommons.org/ns#"
   xmlns:rdf="http://www.w3.org/1999/02/22-rdf-syntax-ns#"
   xmlns:svg="http://www.w3.org/2000/svg"
   xmlns="http://www.w3.org/2000/svg"
   xmlns:xlink="http://www.w3.org/1999/xlink"
   xmlns:sodipodi="http://sodipodi.sourceforge.net/DTD/sodipodi-0.dtd"
   xmlns:inkscape="http://www.inkscape.org/namespaces/inkscape"
   width="48"
   height="48"
   id="svg2"
   version="1.1"
   inkscape:version="0.48+devel r11521"
   sodipodi:docname="softwarecenter.svg">
  <defs
     id="defs4">
    <linearGradient
       id="linearGradient3880">
      <stop
         style="stop-color:#000000;stop-opacity:1;"
         offset="0"
         id="stop3882" />
      <stop
         style="stop-color:#ffffff;stop-opacity:1;"
         offset="1"
         id="stop3884" />
    </linearGradient>
    <linearGradient
       id="linearGradient3870">
      <stop
         style="stop-color:#000000;stop-opacity:0.47340426;"
         offset="0"
         id="stop3872" />
      <stop
         style="stop-color:#000000;stop-opacity:0;"
         offset="1"
         id="stop3874" />
    </linearGradient>
    <linearGradient
       id="linearGradient3795">
      <stop
         style="stop-color:#cd5c24;stop-opacity:1;"
         offset="0"
         id="stop3797" />
      <stop
         style="stop-color:#ff6700;stop-opacity:1;"
         offset="1"
         id="stop3799" />
    </linearGradient>
    <linearGradient
       inkscape:collect="always"
       id="linearGradient3914">
      <stop
         style="stop-color:#59b3e1;stop-opacity:1;"
         offset="0"
         id="stop3916" />
      <stop
         style="stop-color:#59b3e1;stop-opacity:0;"
         offset="1"
         id="stop3918" />
    </linearGradient>
    <linearGradient
       id="linearGradient3698">
      <stop
         id="stop3700"
         offset="0"
         style="stop-color:#96d0e1;stop-opacity:1" />
      <stop
         style="stop-color:#89b7e1;stop-opacity:1"
         offset="0.67819428"
         id="stop3706" />
      <stop
         id="stop3702"
         offset="1"
         style="stop-color:#699dd3;stop-opacity:1" />
    </linearGradient>
    <linearGradient
       id="linearGradient3708">
      <stop
         id="stop3710"
         offset="0"
         style="stop-color:#658db6;stop-opacity:1" />
      <stop
         style="stop-color:#527fab;stop-opacity:1;"
         offset="0.76777935"
         id="stop3716" />
      <stop
         id="stop3712"
         offset="1"
         style="stop-color:#4071a0;stop-opacity:1" />
    </linearGradient>
    <linearGradient
       id="linearGradient3750">
      <stop
         style="stop-color:#d0e2f1;stop-opacity:1"
         offset="0"
         id="stop3752" />
      <stop
         id="stop3756"
         offset="0.85580856"
         style="stop-color:#cadef0;stop-opacity:1" />
      <stop
         style="stop-color:#95bee3;stop-opacity:1"
         offset="1"
         id="stop3754" />
    </linearGradient>
    <linearGradient
       id="linearGradient3803">
      <stop
         id="stop3805"
         offset="0"
         style="stop-color:#d7def0;stop-opacity:1;" />
      <stop
         style="stop-color:#ffffff;stop-opacity:1"
         offset="0.5"
         id="stop3811" />
      <stop
         id="stop3807"
         offset="1"
         style="stop-color:#d5def0;stop-opacity:1" />
    </linearGradient>
    <linearGradient
       inkscape:collect="always"
       xlink:href="#linearGradient3914"
       id="linearGradient3920"
       x1="6.8000002"
       y1="25.0625"
       x2="45.325001"
       y2="25.0625"
       gradientUnits="userSpaceOnUse" />
    <linearGradient
       inkscape:collect="always"
       xlink:href="#linearGradient3795"
       id="linearGradient3801"
       x1="23.204165"
       y1="1053.158"
       x2="23.204165"
       y2="1004.8474"
       gradientUnits="userSpaceOnUse"
       gradientTransform="translate(0,-1004.3622)" />
    <linearGradient
       inkscape:collect="always"
       xlink:href="#linearGradient3635"
       id="linearGradient2962"
       gradientUnits="userSpaceOnUse"
       gradientTransform="matrix(0.33911974,0,0,0.33911974,6.3369476,1011.3633)"
       x1="45.382812"
       y1="0.028305121"
       x2="45.382812"
       y2="93.81749" />
    <linearGradient
       id="linearGradient3635">
      <stop
         style="stop-color:#ffffff;stop-opacity:1;"
         offset="0"
         id="stop3637" />
      <stop
         style="stop-color:#dcdcdc;stop-opacity:1;"
         offset="1"
         id="stop3639" />
    </linearGradient>
    <linearGradient
       inkscape:collect="always"
       xlink:href="#linearGradient3635"
       id="linearGradient3856"
       x1="23.663969"
       y1="1026.5491"
       x2="23.663969"
       y2="1016.9882"
       gradientUnits="userSpaceOnUse" />
    <linearGradient
       inkscape:collect="always"
       xlink:href="#linearGradient3635"
       id="linearGradient3864"
       x1="17.4375"
       y1="1035.6594"
       x2="-3.5355842"
       y2="1062.2844"
       gradientUnits="userSpaceOnUse"
       gradientTransform="translate(0,-1004.3622)" />
    <linearGradient
       inkscape:collect="always"
       xlink:href="#linearGradient3870"
       id="linearGradient3876"
       x1="23.412399"
       y1="96.141907"
       x2="23.412399"
       y2="-0.22190553"
       gradientUnits="userSpaceOnUse" />
    <linearGradient
       inkscape:collect="always"
       xlink:href="#linearGradient3880"
       id="linearGradient3886"
       x1="23.895184"
       y1="55.435028"
       x2="23.895184"
       y2="30.675968"
       gradientUnits="userSpaceOnUse" />
    <linearGradient
       id="linearGradient3795-1">
      <stop
         style="stop-color:#1e649f;stop-opacity:1;"
         offset="0"
         id="stop3797-8" />
      <stop
         style="stop-color:#59a8e1;stop-opacity:1;"
         offset="1"
         id="stop3799-30" />
    </linearGradient>
    <linearGradient
       inkscape:collect="always"
       id="linearGradient3914-5">
      <stop
         style="stop-color:#59b3e1;stop-opacity:1;"
         offset="0"
         id="stop3916-5" />
      <stop
         style="stop-color:#59b3e1;stop-opacity:0;"
         offset="1"
         id="stop3918-5" />
    </linearGradient>
    <linearGradient
       id="linearGradient3698-0">
      <stop
         id="stop3700-5"
         offset="0"
         style="stop-color:#96d0e1;stop-opacity:1" />
      <stop
         style="stop-color:#89b7e1;stop-opacity:1"
         offset="0.67819428"
         id="stop3706-7" />
      <stop
         id="stop3702-0"
         offset="1"
         style="stop-color:#699dd3;stop-opacity:1" />
    </linearGradient>
    <linearGradient
       id="linearGradient3708-4">
      <stop
         style="stop-color:#b54ac8;stop-opacity:1;"
         offset="0"
         id="stop3716-7" />
      <stop
         id="stop3712-2"
         offset="1"
         style="stop-color:#cd79df;stop-opacity:1;" />
    </linearGradient>
    <linearGradient
       id="linearGradient3750-2">
      <stop
         style="stop-color:#d0e2f1;stop-opacity:1"
         offset="0"
         id="stop3752-7" />
      <stop
         id="stop3756-6"
         offset="0.85580856"
         style="stop-color:#cadef0;stop-opacity:1" />
      <stop
         style="stop-color:#95bee3;stop-opacity:1"
         offset="1"
         id="stop3754-0" />
    </linearGradient>
    <linearGradient
       id="linearGradient3803-1">
      <stop
         id="stop3805-9"
         offset="0"
         style="stop-color:#d7def0;stop-opacity:1;" />
      <stop
         style="stop-color:#ffffff;stop-opacity:1"
         offset="0.5"
         id="stop3811-5" />
      <stop
         id="stop3807-9"
         offset="1"
         style="stop-color:#d5def0;stop-opacity:1" />
    </linearGradient>
    <linearGradient
       inkscape:collect="always"
       xlink:href="#linearGradient3914-5"
       id="linearGradient3920-6"
       x1="6.8000002"
       y1="25.0625"
       x2="45.325001"
       y2="25.0625"
       gradientUnits="userSpaceOnUse" />
    <linearGradient
       x1="62.336792"
       y1="79.015236"
       x2="62.336792"
       y2="12.797539"
       id="linearGradient2936"
       xlink:href="#linearGradient3694"
       gradientUnits="userSpaceOnUse"
       gradientTransform="matrix(0.87485882,0,0,0.90698611,2.762671,6.33428)" />
    <linearGradient
       id="linearGradient3694">
      <stop
         id="stop3696"
         style="stop-color:#e6e6e6;stop-opacity:1"
         offset="0" />
      <stop
         id="stop3698"
         style="stop-color:#f5f5f5;stop-opacity:1"
         offset="1" />
    </linearGradient>
    <linearGradient
       x1="55"
       y1="18"
       x2="55"
       y2="112"
       id="linearGradient3831"
       xlink:href="#linearGradient3825"
       gradientUnits="userSpaceOnUse" />
    <linearGradient
       id="linearGradient3825">
      <stop
         id="stop3827"
         style="stop-color:#501616;stop-opacity:1"
         offset="0" />
      <stop
         id="stop3829"
         style="stop-color:#501616;stop-opacity:0"
         offset="1" />
    </linearGradient>
    <linearGradient
       id="linearGradient3795-5">
      <stop
         id="stop3797-2"
         offset="0"
         style="stop-color:#68b8d8;stop-opacity:1;" />
      <stop
         id="stop3799-7"
         offset="1"
         style="stop-color:#3097bd;stop-opacity:1;" />
    </linearGradient>
    <linearGradient
       inkscape:collect="always"
       xlink:href="#linearGradient3795-5"
       id="linearGradient3030"
       gradientUnits="userSpaceOnUse"
       gradientTransform="matrix(0.96799712,0,0,1.0252613,0.76812014,-25.977808)"
       x1="24.113745"
       y1="1007.2183"
       x2="24.113745"
       y2="1049.5842" />
    <clipPath
       id="clipPath4254"
       clipPathUnits="userSpaceOnUse">
      <path
         transform="translate(0,-1.7889608)"
         clip-path="url(#clipPath4174-8)"
         sodipodi:nodetypes="sscccccsscccsccs"
         inkscape:connector-curvature="0"
         id="path4256"
         d="m 256,176 c -44.18278,0 -80,35.64044 -80,80 0,0 -0.53033,7.51472 1.76777,16 l 122.85723,0 c -3.3167,9.26456 -9.26562,17.57666 -17.34375,23.125 -18.58481,14.67263 -46.73117,9.33733 -62.5625,-7.125 l -38.03125,0 c 12.35038,28.24167 40.51668,48 73.3125,48 44.18278,0 80,-35.81722 80,-80 0,0 0,-8.22183 -1.59099,-16 L 211.5,240 c 6.91612,-17.48162 23.43148,-31.64803 42.625,-31.8125 0.96047,-0.0463 1.91732,-0.0507 2.875,-0.0312 12.86627,0.2609 25.35078,6.36236 34.03125,15.84375 l 38.28125,0 C 316.96212,195.75833 288.79582,176 256,176 z"
         style="fill:url(#linearGradient4258);fill-opacity:1;stroke:none;display:inline" />
    </clipPath>
    <linearGradient
       inkscape:collect="always"
       xlink:href="#linearGradient3919"
       id="linearGradient3202"
       gradientUnits="userSpaceOnUse"
       x1="260.03125"
       y1="92.121216"
       x2="260.03125"
       y2="419.87878" />
    <clipPath
       id="clipPath4063"
       clipPathUnits="userSpaceOnUse">
      <path
         sodipodi:nodetypes="cccccccccccccccccccccc"
         inkscape:connector-curvature="0"
         clip-path="url(#clipPath4127-2)"
         id="path4065"
         d="M 240,92.121216 240,129 c -52.45501,6.5377 -95.05053,44.80985 -107.96875,95 l 33.1875,0 c 13.61057,-36.22794 49.64746,-64.48252 89.03125,-64.21875 0.95497,-0.0253 1.92176,-0.0369 2.875,-0.0312 14.29865,0.0853 28.35374,3.63533 41.09375,10 22.94737,10.32987 39.98645,30.74431 48.3125,54.25 l 33.4375,0 C 367.05053,173.80985 324.45501,135.5377 272,129 l 0,-36.878784 z M 132.03125,288 C 144.94947,338.19015 187.54499,376.4623 240,383 l 0,36.87878 32,0 L 272,383 c 52.45501,-6.5377 95.05053,-44.80985 107.96875,-95 L 347,288 c -12.9362,38.16182 -52.91943,65.60507 -93.34375,64.1875 -39.35846,0.19888 -75.06281,-27.91764 -88.375,-64.1875 z"
         style="fill:url(#linearGradient4067);fill-opacity:1;stroke:none" />
    </clipPath>
    <linearGradient
       id="linearGradient3919">
      <stop
         style="stop-color:#00a070;stop-opacity:1;"
         offset="0"
         id="stop3921" />
      <stop
         style="stop-color:#11ffeb;stop-opacity:1;"
         offset="1"
         id="stop3923" />
    </linearGradient>
    <linearGradient
       gradientUnits="userSpaceOnUse"
       y2="419.87878"
       x2="260.03125"
       y1="92.121216"
       x1="260.03125"
       id="linearGradient4038"
       xlink:href="#linearGradient3919"
       inkscape:collect="always" />
    <linearGradient
       gradientUnits="userSpaceOnUse"
       y2="1004.8474"
       x2="23.204165"
       y1="1053.158"
       x1="23.204165"
       id="linearGradient3801-0"
       xlink:href="#linearGradient3795-0"
       inkscape:collect="always" />
    <linearGradient
       id="linearGradient3803-4">
      <stop
         style="stop-color:#d7def0;stop-opacity:1;"
         offset="0"
         id="stop3805-0" />
      <stop
         id="stop3811-1"
         offset="0.5"
         style="stop-color:#ffffff;stop-opacity:1" />
      <stop
         style="stop-color:#d5def0;stop-opacity:1"
         offset="1"
         id="stop3807-2" />
    </linearGradient>
    <linearGradient
       id="linearGradient3750-7">
      <stop
         id="stop3752-9"
         offset="0"
         style="stop-color:#d0e2f1;stop-opacity:1" />
      <stop
         style="stop-color:#cadef0;stop-opacity:1"
         offset="0.85580856"
         id="stop3756-7" />
      <stop
         id="stop3754-8"
         offset="1"
         style="stop-color:#95bee3;stop-opacity:1" />
    </linearGradient>
    <linearGradient
       id="linearGradient3708-2">
      <stop
         style="stop-color:#658db6;stop-opacity:1"
         offset="0"
         id="stop3710-9" />
      <stop
         id="stop3716-0"
         offset="0.76777935"
         style="stop-color:#527fab;stop-opacity:1;" />
      <stop
         style="stop-color:#4071a0;stop-opacity:1"
         offset="1"
         id="stop3712-6" />
    </linearGradient>
    <linearGradient
       id="linearGradient3698-8">
      <stop
         style="stop-color:#96d0e1;stop-opacity:1"
         offset="0"
         id="stop3700-4" />
      <stop
         id="stop3706-2"
         offset="0.67819428"
         style="stop-color:#89b7e1;stop-opacity:1" />
      <stop
         style="stop-color:#699dd3;stop-opacity:1"
         offset="1"
         id="stop3702-3" />
    </linearGradient>
    <linearGradient
       id="linearGradient3795-0">
      <stop
         id="stop3797-22"
         offset="0"
         style="stop-color:#48af7a;stop-opacity:1;" />
      <stop
         id="stop3799-3"
         offset="1"
         style="stop-color:#67e7d2;stop-opacity:1;" />
    </linearGradient>
    <linearGradient
       id="linearGradient3028">
      <stop
         id="stop3030"
         offset="0"
         style="stop-color:#60b5cc;stop-opacity:1;" />
      <stop
         id="stop3032"
         offset="1"
         style="stop-color:#ffffff;stop-opacity:1;" />
    </linearGradient>
    <linearGradient
       y2="165.946"
       x2="175.71454"
       y1="89.953423"
       x1="136.74812"
       gradientTransform="matrix(1.001916,0,0,1,-927.00055,142.24199)"
       gradientUnits="userSpaceOnUse"
       id="linearGradient6004"
       xlink:href="#linearGradient3013-3"
       inkscape:collect="always" />
    <linearGradient
       id="linearGradient3021">
      <stop
         id="stop3023"
         offset="0"
         style="stop-color:#60b5cc;stop-opacity:1;" />
      <stop
         id="stop3025"
         offset="1"
         style="stop-color:#ffffff;stop-opacity:1;" />
    </linearGradient>
    <linearGradient
       y2="165.946"
       x2="175.71454"
       y1="89.953423"
       x1="136.74812"
       gradientTransform="matrix(-1.001916,0,0,1,-560.92501,142.24199)"
       gradientUnits="userSpaceOnUse"
       id="linearGradient6002"
       xlink:href="#linearGradient3013-3"
       inkscape:collect="always" />
    <linearGradient
       id="linearGradient3013-3">
      <stop
         id="stop3015-0"
         offset="0"
         style="stop-color:#414141;stop-opacity:0;" />
      <stop
         id="stop3017-7"
         offset="1"
         style="stop-color:#ffffff;stop-opacity:1;" />
    </linearGradient>
    <linearGradient
       id="linearGradient3013">
      <stop
         id="stop3015"
         offset="0"
         style="stop-color:#60b5cc;stop-opacity:1;" />
      <stop
         id="stop3017"
         offset="1"
         style="stop-color:#ffffff;stop-opacity:1;" />
    </linearGradient>
    <linearGradient
       gradientUnits="userSpaceOnUse"
       y2="24.798252"
       x2="42.475323"
       y1="34.43922"
       x1="21.973417"
       id="linearGradient3895"
       xlink:href="#linearGradient3795-59"
       inkscape:collect="always" />
    <linearGradient
       y2="1030.9086"
       x2="31.448042"
       y1="1006.2238"
       x1="17.196316"
       gradientUnits="userSpaceOnUse"
       id="linearGradient3879"
       xlink:href="#linearGradient3795-59"
       inkscape:collect="always" />
    <linearGradient
       y2="1015.5485"
       x2="22.811094"
       y1="1027.8575"
       x1="29.718235"
       gradientUnits="userSpaceOnUse"
       id="linearGradient3877"
       xlink:href="#linearGradient3795-59"
       inkscape:collect="always" />
    <linearGradient
       y2="1024.0002"
       x2="28.641211"
       y1="1024.0002"
       x1="26.192217"
       gradientUnits="userSpaceOnUse"
       id="linearGradient3871"
       xlink:href="#linearGradient3795-59"
       inkscape:collect="always" />
    <linearGradient
       y2="1024.0002"
       x2="28.641211"
       y1="1024.0002"
       x1="26.192217"
       gradientUnits="userSpaceOnUse"
       id="linearGradient3869"
       xlink:href="#linearGradient3795-59"
       inkscape:collect="always" />
    <linearGradient
       y2="1024.0002"
       x2="28.641211"
       y1="1024.0002"
       x1="26.192217"
       gradientUnits="userSpaceOnUse"
       id="linearGradient3867"
       xlink:href="#linearGradient3795-59"
       inkscape:collect="always" />
    <linearGradient
       gradientUnits="userSpaceOnUse"
       y2="1024.0002"
       x2="28.641211"
       y1="1024.0002"
       x1="26.192217"
       id="linearGradient3859"
       xlink:href="#linearGradient3795-59"
       inkscape:collect="always" />
    <linearGradient
       id="linearGradient3803-47">
      <stop
         style="stop-color:#d7def0;stop-opacity:1;"
         offset="0"
         id="stop3805-07" />
      <stop
         id="stop3811-8"
         offset="0.5"
         style="stop-color:#ffffff;stop-opacity:1" />
      <stop
         style="stop-color:#d5def0;stop-opacity:1"
         offset="1"
         id="stop3807-5" />
    </linearGradient>
    <linearGradient
       id="linearGradient3750-8">
      <stop
         id="stop3752-1"
         offset="0"
         style="stop-color:#d0e2f1;stop-opacity:1" />
      <stop
         style="stop-color:#cadef0;stop-opacity:1"
         offset="0.85580856"
         id="stop3756-4" />
      <stop
         id="stop3754-1"
         offset="1"
         style="stop-color:#95bee3;stop-opacity:1" />
    </linearGradient>
    <linearGradient
       id="linearGradient3708-3">
      <stop
         style="stop-color:#658db6;stop-opacity:1"
         offset="0"
         id="stop3710-2" />
      <stop
         id="stop3716-5"
         offset="0.76777935"
         style="stop-color:#527fab;stop-opacity:1;" />
      <stop
         style="stop-color:#4071a0;stop-opacity:1"
         offset="1"
         id="stop3712-7" />
    </linearGradient>
    <linearGradient
       id="linearGradient3698-1">
      <stop
         style="stop-color:#96d0e1;stop-opacity:1"
         offset="0"
         id="stop3700-9" />
      <stop
         id="stop3706-4"
         offset="0.67819428"
         style="stop-color:#89b7e1;stop-opacity:1" />
      <stop
         style="stop-color:#699dd3;stop-opacity:1"
         offset="1"
         id="stop3702-9" />
    </linearGradient>
    <linearGradient
       id="linearGradient3795-59">
      <stop
         id="stop3797-5"
         offset="0"
         style="stop-color:#afe0f3;stop-opacity:1;" />
      <stop
         id="stop3799-6"
         offset="1"
         style="stop-color:#3094bd;stop-opacity:1;" />
    </linearGradient>
  </defs>
  <sodipodi:namedview
     id="base"
     pagecolor="#ffffff"
     bordercolor="#666666"
     borderopacity="1.0"
     inkscape:pageopacity="0.0"
     inkscape:pageshadow="2"
     inkscape:zoom="12.610973"
     inkscape:cx="25.253424"
     inkscape:cy="21.296824"
     inkscape:document-units="px"
     inkscape:current-layer="layer1"
     showgrid="false"
     inkscape:window-width="1920"
     inkscape:window-height="1035"
     inkscape:window-x="0"
     inkscape:window-y="26"
     inkscape:window-maximized="1"
     showguides="true"
     inkscape:guide-bbox="true">
    <inkscape:grid
       type="xygrid"
       id="grid3011" />
  </sodipodi:namedview>
  <metadata
     id="metadata7">
    <rdf:RDF>
      <cc:Work
         rdf:about="">
        <dc:format>image/svg+xml</dc:format>
        <dc:type
           rdf:resource="http://purl.org/dc/dcmitype/StillImage" />
        <dc:title />
      </cc:Work>
    </rdf:RDF>
  </metadata>
  <g
     inkscape:label="Capa 1"
     inkscape:groupmode="layer"
     id="layer1"
     transform="translate(0,-1004.3622)">
    <g
       id="g1105">
      <path
         id="rect2991"
         transform="translate(0,1004.3622)"
         d="M 7.375 1.6875 C 4.2307532 1.6875 1.6875 4.2307532 1.6875 7.375 L 1.6875 40.625 C 1.6875 43.769247 4.2307532 46.3125 7.375 46.3125 L 40.625 46.3125 C 43.769247 46.3125 46.3125 43.769247 46.3125 40.625 L 46.3125 7.375 C 46.3125 4.2307532 43.769247 1.6875 40.625 1.6875 L 7.375 1.6875 z "
         style="fill:url(#linearGradient3801);fill-opacity:1;stroke:none" />
      <path
         transform="translate(0.4375,1004.3622)"
         d="m 19.5,8.78125 c 0,0.8802038 -0.755519,1.59375 -1.6875,1.59375 -0.931981,0 -1.6875,-0.7135462 -1.6875,-1.59375 0,-0.8802038 0.755519,-1.59375 1.6875,-1.59375 0.931981,0 1.6875,0.7135462 1.6875,1.59375 z"
         sodipodi:ry="1.59375"
         sodipodi:rx="1.6875"
         sodipodi:cy="8.78125"
         sodipodi:cx="17.8125"
         id="path3846"
         style="fill:#000000;fill-opacity:1;stroke:none;stroke-width:0.20000000000000001;stroke-linecap:square;stroke-linejoin:miter;stroke-miterlimit:4;stroke-opacity:1;stroke-dasharray:none;stroke-dashoffset:0;opacity:0.46568627"
         sodipodi:type="arc" />
      <path
         sodipodi:type="arc"
         style="fill:#000000;fill-opacity:1;stroke:none;stroke-width:0.20000000000000001;stroke-linecap:square;stroke-linejoin:miter;stroke-miterlimit:4;stroke-opacity:1;stroke-dasharray:none;stroke-dashoffset:0;opacity:0.46568627"
         id="path3848"
         sodipodi:cx="17.8125"
         sodipodi:cy="8.78125"
         sodipodi:rx="1.6875"
         sodipodi:ry="1.59375"
         d="m 19.5,8.78125 c 0,0.8802038 -0.755519,1.59375 -1.6875,1.59375 -0.931981,0 -1.6875,-0.7135462 -1.6875,-1.59375 0,-0.8802038 0.755519,-1.59375 1.6875,-1.59375 0.931981,0 1.6875,0.7135462 1.6875,1.59375 z"
         transform="translate(12,1004.3622)" />
      <path
         sodipodi:nodetypes="ccccccc"
         inkscape:connector-curvature="0"
         id="path3026"
         d="m 16.91141,1013.6211 c 0.89995,-1.3433 1.756035,-1.2536 2.56305,0 0,7.705 8.955874,7.6612 8.955874,-0.3047 0.719648,-0.802 1.650672,-1.4294 2.592804,0 0.487383,3.7431 -1.814982,7.085 -4.648158,8.0884 -1.642981,0.6458 -3.285962,0.4629 -4.928943,0 -4.132671,-1.4652 -4.509408,-3.9294 -4.534627,-7.7837 z"
         style="fill:url(#linearGradient3856);stroke:none;fill-opacity:1" />
      <path
         style="opacity:0.11162791;fill:#000000;fill-opacity:1;stroke:none"
         d="m 16.91141,1013.6211 c 0.89995,-1.3433 -0.275215,-1.2536 0.5318,0 -0.118658,10.0837 12.762163,10.2802 12.893374,-0.3047 0.719648,-0.802 -0.255578,-1.4294 0.686554,0 0.487383,3.7431 -1.814982,7.085 -4.648158,8.0884 -1.642981,0.6458 -3.285962,0.4629 -4.928943,0 -4.132671,-1.4652 -4.509408,-3.9294 -4.534627,-7.7837 z"
         id="path3866"
         inkscape:connector-curvature="0"
         sodipodi:nodetypes="ccccccc" />
      <path
         id="path3868"
         transform="translate(0,1004.3622)"
         d="M 7.375 1.6875 C 4.2307532 1.6875 1.6875 4.2307532 1.6875 7.375 L 1.6875 36.0625 L 46.3125 36.0625 L 46.3125 7.375 C 46.3125 4.2307532 43.769247 1.6875 40.625 1.6875 L 7.375 1.6875 z "
         style="fill:url(#linearGradient3876);fill-opacity:1;stroke:none" />
      <path
         id="path3878"
         transform="translate(0,1004.3622)"
         d="M 1.6875 36 L 1.6875 40.625 C 1.6875 43.769247 4.2307532 46.3125 7.375 46.3125 L 40.625 46.3125 C 43.769247 46.3125 46.3125 43.769247 46.3125 40.625 L 46.3125 36 L 1.6875 36 z "
         style="opacity:0.27906979;fill:url(#linearGradient3886);fill-opacity:1;stroke:none" />
      <path
         id="circle15"
         transform="translate(0,1004.3622)"
         d="M 9.34375 35.96875 C 8.565279 35.96875 7.9375 36.5966 7.9375 37.375 C 7.9375 38.1535 8.565279 38.78125 9.34375 38.78125 C 10.12222 38.78125 10.75 38.1535 10.75 37.375 C 10.75 36.5966 10.12222 35.96875 9.34375 35.96875 z M 5.65625 37.34375 C 4.8923391 37.38575 4.1463911 37.5559 3.46875 37.875 L 4.65625 39.96875 C 5.0577636 39.80705 5.5102305 39.71875 5.96875 39.71875 C 7.723884 39.71875 9.1963441 41.02915 9.4375 42.71875 L 11.84375 42.71875 C 11.734065 41.39105 11.170282 40.1633 10.25 39.1875 C 9.6606291 39.4877 8.9281335 39.4803 8.3125 39.125 C 7.6964026 38.7692 7.3780475 38.12995 7.34375 37.46875 C 6.9063957 37.36685 6.4289694 37.34375 5.96875 37.34375 C 5.8586006 37.34375 5.7653803 37.33375 5.65625 37.34375 z M 2.625 38.375 C 2.3415152 38.573 2.0623061 38.8128 1.8125 39.0625 C 1.7701437 39.104855 1.7283544 39.144239 1.6875 39.1875 L 1.6875 40.625 C 1.6875 41.698128 1.9865511 42.708438 2.5 43.5625 C 2.4884917 43.448315 2.46875 43.3359 2.46875 43.21875 C 2.46875 42.10735 3.0006673 41.10785 3.8125 40.46875 L 2.625 38.375 z M 9.4375 43.71875 C 9.2755406 44.856871 8.5481919 45.804108 7.5625 46.3125 L 10.96875 46.3125 C 11.456875 45.525795 11.766876 44.651546 11.84375 43.71875 L 9.4375 43.71875 z "
         style="fill:url(#linearGradient3864);fill-opacity:1" />
      <text
         sodipodi:linespacing="125%"
         id="text3888"
         y="1027.4366"
         x="43.107647"
         style="font-size:4px;font-style:normal;font-variant:normal;font-weight:normal;font-stretch:normal;text-align:end;line-height:125%;letter-spacing:-0.03px;word-spacing:0px;text-anchor:end;fill:#ffffff;fill-opacity:1;stroke:none;font-family:Ubuntu;-inkscape-font-specification:Ubuntu"
         xml:space="preserve"><tspan
           style="text-align:end;text-anchor:end;fill:#4d4d4d"
           y="1027.4366"
           x="43.077648"
           id="tspan3890"
           sodipodi:role="line">Ubuntu</tspan><tspan
           id="tspan3892"
           y="1032.4366"
           x="43.077648"
           sodipodi:role="line">Software</tspan><tspan
           id="tspan3894"
           y="1037.4366"
           x="43.077648"
           sodipodi:role="line">Center</tspan></text>
    </g>
  </g>
</svg>
