<?xml version="1.0" encoding="UTF-8" standalone="no"?>
<!-- Created with Inkscape (http://www.inkscape.org/) -->

<svg
   xmlns:i="http://ns.adobe.com/AdobeIllustrator/10.0/"
   xmlns:dc="http://purl.org/dc/elements/1.1/"
   xmlns:cc="http://creativecommons.org/ns#"
   xmlns:rdf="http://www.w3.org/1999/02/22-rdf-syntax-ns#"
   xmlns:svg="http://www.w3.org/2000/svg"
   xmlns="http://www.w3.org/2000/svg"
   xmlns:xlink="http://www.w3.org/1999/xlink"
   xmlns:sodipodi="http://sodipodi.sourceforge.net/DTD/sodipodi-0.dtd"
   xmlns:inkscape="http://www.inkscape.org/namespaces/inkscape"
   width="48"
   height="48"
   id="svg2"
   version="1.1"
   inkscape:version="0.48+devel r11521"
   sodipodi:docname="ubuntu-tweak.svg">
  <defs
     id="defs4">
    <linearGradient
       id="linearGradient3795">
      <stop
         style="stop-color:#32df09;stop-opacity:1;"
         offset="0"
         id="stop3797" />
      <stop
         style="stop-color:#48ab00;stop-opacity:1;"
         offset="1"
         id="stop3799" />
    </linearGradient>
    <linearGradient
       id="linearGradient3698">
      <stop
         id="stop3700"
         offset="0"
         style="stop-color:#96d0e1;stop-opacity:1" />
      <stop
         style="stop-color:#89b7e1;stop-opacity:1"
         offset="0.67819428"
         id="stop3706" />
      <stop
         id="stop3702"
         offset="1"
         style="stop-color:#699dd3;stop-opacity:1" />
    </linearGradient>
    <linearGradient
       id="linearGradient3708">
      <stop
         id="stop3710"
         offset="0"
         style="stop-color:#658db6;stop-opacity:1" />
      <stop
         style="stop-color:#527fab;stop-opacity:1;"
         offset="0.76777935"
         id="stop3716" />
      <stop
         id="stop3712"
         offset="1"
         style="stop-color:#4071a0;stop-opacity:1" />
    </linearGradient>
    <linearGradient
       id="linearGradient3750">
      <stop
         style="stop-color:#d0e2f1;stop-opacity:1"
         offset="0"
         id="stop3752" />
      <stop
         id="stop3756"
         offset="0.85580856"
         style="stop-color:#cadef0;stop-opacity:1" />
      <stop
         style="stop-color:#95bee3;stop-opacity:1"
         offset="1"
         id="stop3754" />
    </linearGradient>
    <linearGradient
       id="linearGradient3803">
      <stop
         id="stop3805"
         offset="0"
         style="stop-color:#d7def0;stop-opacity:1;" />
      <stop
         style="stop-color:#ffffff;stop-opacity:1"
         offset="0.5"
         id="stop3811" />
      <stop
         id="stop3807"
         offset="1"
         style="stop-color:#d5def0;stop-opacity:1" />
    </linearGradient>
    <linearGradient
       inkscape:collect="always"
       xlink:href="#linearGradient3795"
       id="linearGradient3859"
       x1="26.192217"
       y1="1024.0002"
       x2="28.641211"
       y2="1024.0002"
       gradientUnits="userSpaceOnUse" />
    <linearGradient
       inkscape:collect="always"
       xlink:href="#linearGradient3795"
       id="linearGradient3867"
       gradientUnits="userSpaceOnUse"
       x1="26.192217"
       y1="1024.0002"
       x2="28.641211"
       y2="1024.0002" />
    <linearGradient
       inkscape:collect="always"
       xlink:href="#linearGradient3795"
       id="linearGradient3869"
       gradientUnits="userSpaceOnUse"
       x1="26.192217"
       y1="1024.0002"
       x2="28.641211"
       y2="1024.0002" />
    <linearGradient
       inkscape:collect="always"
       xlink:href="#linearGradient3795"
       id="linearGradient3871"
       gradientUnits="userSpaceOnUse"
       x1="26.192217"
       y1="1024.0002"
       x2="28.641211"
       y2="1024.0002" />
    <linearGradient
       inkscape:collect="always"
       xlink:href="#linearGradient3795"
       id="linearGradient3877"
       gradientUnits="userSpaceOnUse"
       x1="29.718235"
       y1="1027.8575"
       x2="22.811094"
       y2="1015.5485" />
    <linearGradient
       inkscape:collect="always"
       xlink:href="#linearGradient3795"
       id="linearGradient3879"
       gradientUnits="userSpaceOnUse"
       x1="17.196316"
       y1="1006.2238"
       x2="31.448042"
       y2="1030.9086" />
    <linearGradient
       inkscape:collect="always"
       xlink:href="#linearGradient3795"
       id="linearGradient3895"
       x1="21.973417"
       y1="34.43922"
       x2="42.475323"
       y2="24.798252"
       gradientUnits="userSpaceOnUse" />
    <linearGradient
       gradientTransform="matrix(0.49046264,0,0,0.49046264,1.7528597,0.99901873)"
       y2="56.028"
       x2="9.1239996"
       y1="37.779999"
       x1="9.1239996"
       gradientUnits="userSpaceOnUse"
       id="linearGradient3650"
       xlink:href="#linearGradient3216"
       inkscape:collect="always" />
    <foreignObject
       requiredExtensions="http://ns.adobe.com/AdobeIllustrator/10.0/"
       x="0"
       y="0"
       width="1"
       height="1"
       id="foreignObject8">
      <i:pgfRef
         xlink:href="#adobe_illustrator_pgf" />
    </foreignObject>
    <inkscape:perspective
       id="perspective19"
       inkscape:persp3d-origin="60 : 40 : 1"
       inkscape:vp_z="120 : 60 : 1"
       inkscape:vp_y="0 : 1000 : 0"
       inkscape:vp_x="0 : 60 : 1"
       sodipodi:type="inkscape:persp3d" />
    <linearGradient
       id="linearGradient3196">
      <stop
         id="stop3198"
         offset="0"
         style="stop-color:#de220c;stop-opacity:1;" />
      <stop
         id="stop3200"
         offset="1"
         style="stop-color:#700000;stop-opacity:1;" />
    </linearGradient>
    <linearGradient
       id="linearGradient3206">
      <stop
         id="stop3208"
         offset="0"
         style="stop-color:#fd8011;stop-opacity:1;" />
      <stop
         id="stop3210"
         offset="1"
         style="stop-color:#cb4e00;stop-opacity:1;" />
    </linearGradient>
    <linearGradient
       id="linearGradient3216">
      <stop
         id="stop3218"
         offset="0"
         style="stop-color:#e3b216;stop-opacity:1;" />
      <stop
         id="stop3220"
         offset="1"
         style="stop-color:#dc951d;stop-opacity:1;" />
    </linearGradient>
    <linearGradient
       id="linearGradient4081">
      <stop
         offset="0"
         style="stop-color:#aaaaaa;stop-opacity:1"
         id="stop4083" />
      <stop
         offset="1"
         style="stop-color:#f0f0f0;stop-opacity:1"
         id="stop4085" />
    </linearGradient>
    <linearGradient
       id="linearGradient3619">
      <stop
         style="stop-color:#787878;stop-opacity:1;"
         offset="0"
         id="stop3621" />
      <stop
         style="stop-color:#f0f0f0;stop-opacity:1;"
         offset="1"
         id="stop3623" />
    </linearGradient>
    <linearGradient
       id="linearGradient3795-2">
      <stop
         style="stop-color:#e8e8e8;stop-opacity:1;"
         offset="0"
         id="stop3797-9" />
      <stop
         style="stop-color:#cdcdcd;stop-opacity:1;"
         offset="1"
         id="stop3799-3" />
    </linearGradient>
    <linearGradient
       id="linearGradient3698-3">
      <stop
         id="stop3700-8"
         offset="0"
         style="stop-color:#96d0e1;stop-opacity:1" />
      <stop
         style="stop-color:#89b7e1;stop-opacity:1"
         offset="0.67819428"
         id="stop3706-7" />
      <stop
         id="stop3702-5"
         offset="1"
         style="stop-color:#699dd3;stop-opacity:1" />
    </linearGradient>
    <linearGradient
       id="linearGradient3708-5">
      <stop
         id="stop3710-7"
         offset="0"
         style="stop-color:#658db6;stop-opacity:1" />
      <stop
         style="stop-color:#527fab;stop-opacity:1;"
         offset="0.76777935"
         id="stop3716-3" />
      <stop
         id="stop3712-6"
         offset="1"
         style="stop-color:#4071a0;stop-opacity:1" />
    </linearGradient>
    <linearGradient
       id="linearGradient3750-7">
      <stop
         style="stop-color:#d0e2f1;stop-opacity:1"
         offset="0"
         id="stop3752-5" />
      <stop
         id="stop3756-5"
         offset="0.85580856"
         style="stop-color:#cadef0;stop-opacity:1" />
      <stop
         style="stop-color:#95bee3;stop-opacity:1"
         offset="1"
         id="stop3754-3" />
    </linearGradient>
    <linearGradient
       id="linearGradient3803-8">
      <stop
         id="stop3805-8"
         offset="0"
         style="stop-color:#d7def0;stop-opacity:1;" />
      <stop
         style="stop-color:#ffffff;stop-opacity:1"
         offset="0.5"
         id="stop3811-7" />
      <stop
         id="stop3807-8"
         offset="1"
         style="stop-color:#d5def0;stop-opacity:1" />
    </linearGradient>
    <linearGradient
       inkscape:collect="always"
       xlink:href="#linearGradient3795-2"
       id="linearGradient3801-5"
       x1="23.204165"
       y1="1053.158"
       x2="23.204165"
       y2="1004.8474"
       gradientUnits="userSpaceOnUse"
       gradientTransform="translate(0,-2056.7244)" />
    <linearGradient
       inkscape:collect="always"
       xlink:href="#linearGradient3795-2"
       id="linearGradient3859-4"
       x1="26.192217"
       y1="1024.0002"
       x2="28.641211"
       y2="1024.0002"
       gradientUnits="userSpaceOnUse" />
    <linearGradient
       inkscape:collect="always"
       xlink:href="#linearGradient3795-2"
       id="linearGradient3867-2"
       gradientUnits="userSpaceOnUse"
       x1="26.192217"
       y1="1024.0002"
       x2="28.641211"
       y2="1024.0002" />
    <linearGradient
       inkscape:collect="always"
       xlink:href="#linearGradient3795-2"
       id="linearGradient3869-8"
       gradientUnits="userSpaceOnUse"
       x1="26.192217"
       y1="1024.0002"
       x2="28.641211"
       y2="1024.0002" />
    <linearGradient
       inkscape:collect="always"
       xlink:href="#linearGradient3795-2"
       id="linearGradient3871-3"
       gradientUnits="userSpaceOnUse"
       x1="26.192217"
       y1="1024.0002"
       x2="28.641211"
       y2="1024.0002" />
    <linearGradient
       inkscape:collect="always"
       xlink:href="#linearGradient3795-2"
       id="linearGradient3877-5"
       gradientUnits="userSpaceOnUse"
       x1="29.718235"
       y1="1027.8575"
       x2="22.811094"
       y2="1015.5485" />
    <linearGradient
       inkscape:collect="always"
       xlink:href="#linearGradient3795-2"
       id="linearGradient3879-5"
       gradientUnits="userSpaceOnUse"
       x1="17.196316"
       y1="1006.2238"
       x2="31.448042"
       y2="1030.9086" />
    <linearGradient
       inkscape:collect="always"
       xlink:href="#linearGradient3795-2"
       id="linearGradient3895-0"
       x1="21.973417"
       y1="34.43922"
       x2="42.475323"
       y2="24.798252"
       gradientUnits="userSpaceOnUse" />
    <radialGradient
       id="radialGradient4036-3"
       gradientUnits="userSpaceOnUse"
       cx="213.74001"
       cy="846.39001"
       r="25.774"
       gradientTransform="matrix(2.1446,0.54333,-0.23563,0.93006,-92.14468,107.95031)">
      <stop
         id="stop4012-29"
         style="stop-color:#fff"
         offset="0" />
      <stop
         id="stop4014-0"
         style="stop-color:#fff;stop-opacity:0"
         offset="1" />
    </radialGradient>
    <clipPath
       id="clipPath4157"
       clipPathUnits="userSpaceOnUse">
      <path
         inkscape:connector-curvature="0"
         id="path4159"
         style="color:#000000;fill:#f57900;fill-rule:evenodd;enable-background:new"
         d="m 269.47,688.53 c 15.602,15.625 19.169,37.385 19.169,37.385 0,0 -21.729,-3.5724 -37.33,-19.197 -15.602,-15.625 -19.169,-37.385 -19.169,-37.385 0,0 21.729,3.5724 37.33,19.197 z" />
    </clipPath>
    <filter
       id="filter4161"
       width="1.2402"
       y="-0.11991"
       x="-0.12009"
       height="1.2398"
       color-interpolation-filters="sRGB">
      <feGaussianBlur
         id="feGaussianBlur4163"
         stdDeviation="2.8270453" />
    </filter>
    <clipPath
       id="clipPath4083"
       clipPathUnits="userSpaceOnUse">
      <path
         inkscape:connector-curvature="0"
         id="path4085"
         style="color:#000000;fill:#729fcf;fill-rule:evenodd;enable-background:new"
         d="m 515.87,745.01 c 15.602,15.625 19.169,37.385 19.169,37.385 0,0 -21.729,-3.5724 -37.33,-19.197 -15.602,-15.625 -19.169,-37.385 -19.169,-37.385 0,0 21.729,3.5724 37.33,19.197 z" />
    </clipPath>
    <filter
       id="filter4087"
       width="1.2402"
       y="-0.11991"
       x="-0.12009"
       height="1.2398"
       color-interpolation-filters="sRGB">
      <feGaussianBlur
         id="feGaussianBlur4089"
         stdDeviation="2.8270455" />
    </filter>
    <clipPath
       id="clipPath4071"
       clipPathUnits="userSpaceOnUse">
      <path
         inkscape:connector-curvature="0"
         id="path4073"
         style="color:#000000;fill:#afea2c;fill-rule:evenodd;enable-background:new"
         d="m 515.87,706.72 c -15.602,15.625 -37.33,19.197 -37.33,19.197 0,0 3.5672,-21.76 19.169,-37.385 15.6018,-15.625 37.33,-19.197 37.33,-19.197 0,0 -3.5672,21.76 -19.169,37.385 z" />
    </clipPath>
    <filter
       id="filter4075"
       width="1.2402"
       y="-0.11991"
       x="-0.12009"
       height="1.2398"
       color-interpolation-filters="sRGB">
      <feGaussianBlur
         id="feGaussianBlur4077"
         stdDeviation="2.8270455" />
    </filter>
    <clipPath
       id="clipPath4133"
       clipPathUnits="userSpaceOnUse">
      <path
         inkscape:connector-curvature="0"
         id="path4135"
         style="color:#000000;fill:#65c808;fill-rule:evenodd;enable-background:new"
         d="m 538.47,738.73 c -22.064,0 -39.951,-12.861 -39.951,-12.861 0,0 17.887,-12.861 39.951,-12.861 22.064,0 39.951,12.861 39.951,12.861 0,0 -17.887,12.861 -39.951,12.861 z" />
    </clipPath>
    <filter
       id="filter4137"
       width="1.1586"
       y="-0.24639"
       x="-0.079314999"
       height="1.4928"
       color-interpolation-filters="sRGB">
      <feGaussianBlur
         id="feGaussianBlur4139"
         stdDeviation="2.6406015" />
    </filter>
    <clipPath
       id="clipPath4197"
       clipPathUnits="userSpaceOnUse">
      <path
         inkscape:connector-curvature="0"
         id="path4199"
         style="color:#000000;fill:#75507b;fill-rule:evenodd;enable-background:new"
         d="m 299.47,763.2 c -15.602,15.625 -37.33,19.197 -37.33,19.197 0,0 3.5672,-21.76 19.169,-37.385 15.6018,-15.625 37.33,-19.197 37.33,-19.197 0,0 -3.5672,21.76 -19.169,37.385 z" />
    </clipPath>
    <filter
       id="filter4201"
       width="1.2402"
       y="-0.11991"
       x="-0.12009"
       height="1.2398"
       color-interpolation-filters="sRGB">
      <feGaussianBlur
         id="feGaussianBlur4203"
         stdDeviation="2.8270453" />
    </filter>
    <clipPath
       id="clipPath4181"
       clipPathUnits="userSpaceOnUse">
      <path
         inkscape:connector-curvature="0"
         id="path4183"
         style="color:#000000;fill:#ef2929;fill-rule:evenodd;enable-background:new"
         d="m 348.71,698.73 c -22.064,0 -39.951,-12.861 -39.951,-12.861 0,0 17.887,-12.861 39.951,-12.861 22.064,0 39.951,12.861 39.951,12.861 0,0 -17.887,12.861 -39.951,12.861 z" />
    </clipPath>
    <filter
       id="filter4189"
       width="1.1586"
       y="-0.24639"
       x="-0.079314999"
       height="1.4928"
       color-interpolation-filters="sRGB">
      <feGaussianBlur
         id="feGaussianBlur4191"
         stdDeviation="2.6406013" />
    </filter>
    <clipPath
       id="clipPath4145"
       clipPathUnits="userSpaceOnUse">
      <path
         inkscape:connector-curvature="0"
         id="path4147"
         style="color:#000000;fill:#3465a4;fill-rule:evenodd;enable-background:new"
         d="m 401.43,865.8 c 0,22.097 -12.842,40.01 -12.842,40.01 0,0 -12.842,-17.913 -12.842,-40.01 0,-22.097 12.842,-40.01 12.842,-40.01 0,0 12.842,17.913 12.842,40.01 z" />
    </clipPath>
    <filter
       id="filter4149"
       width="1.4938999"
       y="-0.079258002"
       x="-0.24693"
       height="1.1585"
       color-interpolation-filters="sRGB">
      <feGaussianBlur
         id="feGaussianBlur4151"
         stdDeviation="2.642588" />
    </filter>
    <clipPath
       id="clipPath4169"
       clipPathUnits="userSpaceOnUse">
      <path
         inkscape:connector-curvature="0"
         id="path4171"
         style="color:#000000;fill:#edd400;fill-rule:evenodd;enable-background:new"
         d="m 471.43,685.93 c 0,22.097 -12.842,40.01 -12.842,40.01 0,0 -12.842,-17.913 -12.842,-40.01 0,-22.097 12.842,-40.01 12.842,-40.01 0,0 12.842,17.913 12.842,40.01 z" />
    </clipPath>
    <filter
       id="filter4173"
       width="1.4938999"
       y="-0.079258002"
       x="-0.24693"
       height="1.1585"
       color-interpolation-filters="sRGB">
      <feGaussianBlur
         id="feGaussianBlur4175"
         stdDeviation="2.642588" />
    </filter>
    <radialGradient
       gradientTransform="matrix(2.1446,0.54333,-0.23563,0.93006,-46.185,-798.23)"
       r="25.774"
       cy="846.39"
       cx="213.74"
       gradientUnits="userSpaceOnUse"
       id="radialGradient4036-3-6">
      <stop
         offset="0"
         style="stop-color:#fff"
         id="stop4012-29-2" />
      <stop
         offset="1"
         style="stop-color:#fff;stop-opacity:0"
         id="stop4014-0-5" />
    </radialGradient>
    <radialGradient
       gradientTransform="matrix(0.66762,-1.2556,0.62963,0.33477,-513.52,163.93)"
       r="25.774"
       cy="689.06"
       cx="174.42"
       gradientUnits="userSpaceOnUse"
       id="radialGradient4036-6">
      <stop
         offset="0"
         style="stop-color:#fff"
         id="stop4012-3" />
      <stop
         offset="1"
         style="stop-color:#fff;stop-opacity:0"
         id="stop4014-4" />
    </radialGradient>
    <radialGradient
       gradientTransform="matrix(-0.59883,-1.0815,1.5121,-0.83725,-944.83,910.25)"
       r="25.774"
       cy="714.44"
       cx="196.29"
       gradientUnits="userSpaceOnUse"
       id="radialGradient4036-9">
      <stop
         offset="0"
         style="stop-color:#fff"
         id="stop4012-2" />
      <stop
         offset="1"
         style="stop-color:#fff;stop-opacity:0"
         id="stop4014-51" />
    </radialGradient>
    <radialGradient
       gradientTransform="matrix(-7.1009,-3.7574,0.65284,-1.2338,945.4,1718.8)"
       r="25.774"
       cy="803.94"
       cx="190.11"
       gradientUnits="userSpaceOnUse"
       id="radialGradient4036">
      <stop
         offset="0"
         style="stop-color:#fff"
         id="stop4012-4" />
      <stop
         offset="1"
         style="stop-color:#fff;stop-opacity:0"
         id="stop4014-5" />
    </radialGradient>
    <filter
       color-interpolation-filters="sRGB"
       id="filter4144">
      <feGaussianBlur
         stdDeviation="0.52449438"
         id="feGaussianBlur4146" />
    </filter>
    <linearGradient
       x1="177.02"
       y1="715.69"
       x2="190.87"
       gradientUnits="userSpaceOnUse"
       y2="745.97"
       id="linearGradient4042">
      <stop
         offset="0"
         style="stop-color:#f5f5f5;stop-opacity:1;"
         id="stop4117" />
      <stop
         offset="1"
         style="stop-color:#d1d2cd;stop-opacity:1;"
         id="stop4119" />
    </linearGradient>
    <filter
       color-interpolation-filters="sRGB"
       height="1.2398"
       x="-.12009"
       y="-.11991"
       width="1.2402"
       id="filter4161-2">
      <feGaussianBlur
         stdDeviation="2.8270453"
         id="feGaussianBlur4163-7" />
    </filter>
    <clipPath
       clipPathUnits="userSpaceOnUse"
       id="clipPath4157-4">
      <path
         d="m269.47 688.53c15.602 15.625 19.169 37.385 19.169 37.385s-21.729-3.5724-37.33-19.197c-15.602-15.625-19.169-37.385-19.169-37.385s21.729 3.5724 37.33 19.197z"
         style="color:#000000;fill-rule:evenodd;enable-background:new;fill:#f57900"
         id="path4159-8" />
    </clipPath>
    <filter
       color-interpolation-filters="sRGB"
       height="1.2398"
       x="-.12009"
       y="-.11991"
       width="1.2402"
       id="filter4087-4">
      <feGaussianBlur
         stdDeviation="2.8270455"
         id="feGaussianBlur4089-4" />
    </filter>
    <clipPath
       clipPathUnits="userSpaceOnUse"
       id="clipPath4083-1">
      <path
         d="m515.87 745.01c15.602 15.625 19.169 37.385 19.169 37.385s-21.729-3.5724-37.33-19.197c-15.602-15.625-19.169-37.385-19.169-37.385s21.729 3.5724 37.33 19.197z"
         style="color:#000000;fill-rule:evenodd;enable-background:new;fill:#729fcf"
         id="path4085-9" />
    </clipPath>
    <filter
       color-interpolation-filters="sRGB"
       height="1.2398"
       x="-.12009"
       y="-.11991"
       width="1.2402"
       id="filter4075-6">
      <feGaussianBlur
         stdDeviation="2.8270455"
         id="feGaussianBlur4077-0" />
    </filter>
    <clipPath
       clipPathUnits="userSpaceOnUse"
       id="clipPath4071-8">
      <path
         d="m515.87 706.72c-15.602 15.625-37.33 19.197-37.33 19.197s3.5672-21.76 19.169-37.385 37.33-19.197 37.33-19.197-3.5672 21.76-19.169 37.385z"
         style="color:#000000;fill-rule:evenodd;enable-background:new;fill:#afea2c"
         id="path4073-0" />
    </clipPath>
    <filter
       color-interpolation-filters="sRGB"
       height="1.4928"
       x="-.079315"
       y="-.24639"
       width="1.1586"
       id="filter4137-2">
      <feGaussianBlur
         stdDeviation="2.6406015"
         id="feGaussianBlur4139-6" />
    </filter>
    <clipPath
       clipPathUnits="userSpaceOnUse"
       id="clipPath4133-7">
      <path
         d="m538.47 738.73c-22.064 0-39.951-12.861-39.951-12.861s17.887-12.861 39.951-12.861 39.951 12.861 39.951 12.861-17.887 12.861-39.951 12.861z"
         style="color:#000000;fill-rule:evenodd;enable-background:new;fill:#65c808"
         id="path4135-5" />
    </clipPath>
    <filter
       color-interpolation-filters="sRGB"
       height="1.2398"
       x="-.12009"
       y="-.11991"
       width="1.2402"
       id="filter4201-7">
      <feGaussianBlur
         stdDeviation="2.8270453"
         id="feGaussianBlur4203-3" />
    </filter>
    <clipPath
       clipPathUnits="userSpaceOnUse"
       id="clipPath4197-9">
      <path
         d="m299.47 763.2c-15.602 15.625-37.33 19.197-37.33 19.197s3.5672-21.76 19.169-37.385 37.33-19.197 37.33-19.197-3.5672 21.76-19.169 37.385z"
         style="color:#000000;fill-rule:evenodd;enable-background:new;fill:#75507b"
         id="path4199-2" />
    </clipPath>
    <filter
       color-interpolation-filters="sRGB"
       height="1.4928"
       x="-.079315"
       y="-.24639"
       width="1.1586"
       id="filter4189-0">
      <feGaussianBlur
         stdDeviation="2.6406013"
         id="feGaussianBlur4191-5" />
    </filter>
    <clipPath
       clipPathUnits="userSpaceOnUse"
       id="clipPath4181-1">
      <path
         d="m348.71 698.73c-22.064 0-39.951-12.861-39.951-12.861s17.887-12.861 39.951-12.861 39.951 12.861 39.951 12.861-17.887 12.861-39.951 12.861z"
         style="color:#000000;fill-rule:evenodd;enable-background:new;fill:#ef2929"
         id="path4183-8" />
    </clipPath>
    <filter
       color-interpolation-filters="sRGB"
       height="1.1585"
       x="-.24693"
       y="-.079258"
       width="1.4939"
       id="filter4149-2">
      <feGaussianBlur
         stdDeviation="2.642588"
         id="feGaussianBlur4151-0" />
    </filter>
    <clipPath
       clipPathUnits="userSpaceOnUse"
       id="clipPath4145-6">
      <path
         d="m401.43 865.8c0 22.097-12.842 40.01-12.842 40.01s-12.842-17.913-12.842-40.01 12.842-40.01 12.842-40.01 12.842 17.913 12.842 40.01z"
         style="color:#000000;fill-rule:evenodd;enable-background:new;fill:#3465a4"
         id="path4147-6" />
    </clipPath>
    <filter
       color-interpolation-filters="sRGB"
       height="1.1585"
       x="-.24693"
       y="-.079258"
       width="1.4939"
       id="filter4173-0">
      <feGaussianBlur
         stdDeviation="2.642588"
         id="feGaussianBlur4175-6" />
    </filter>
    <clipPath
       clipPathUnits="userSpaceOnUse"
       id="clipPath4169-3">
      <path
         d="m471.43 685.93c0 22.097-12.842 40.01-12.842 40.01s-12.842-17.913-12.842-40.01 12.842-40.01 12.842-40.01 12.842 17.913 12.842 40.01z"
         style="color:#000000;fill-rule:evenodd;enable-background:new;fill:#edd400"
         id="path4171-8" />
    </clipPath>
    <filter
       color-interpolation-filters="sRGB"
       id="filter4123">
      <feGaussianBlur
         stdDeviation="0.26224718"
         id="feGaussianBlur4125" />
    </filter>
    <clipPath
       clipPathUnits="userSpaceOnUse"
       id="clipPath3983">
      <path
         d="m184.12 701.5a2.2363 2.2363 0 0 0 -1.4688 0.90625s-3.328 4.7671-4.0312 11.156c-5.0181-4.0229-10.75-5.0625-10.75-5.0625a2.2363 2.2363 0 0 0 -2.5938 2.5625s1.034 5.7649 5.0625 10.781c-6.3978 0.70283-11.188 4.0312-11.188 4.0312a2.2363 2.2363 0 0 0 0 3.625s4.7948 3.3031 11.188 4c-4.0285 5.0164-5.0625 10.781-5.0625 10.781a2.2363 2.2363 0 0 0 2.5938 2.5625s5.7319-1.0396 10.75-5.0625c0.70267 6.3934 4.0312 11.188 4.0312 11.188a2.2363 2.2363 0 0 0 3.625 0s3.3111-4.8145 4-11.219c5.0262 4.0467 10.781 5.0938 10.781 5.0938a2.2363 2.2363 0 0 0 2.5938 -2.5938s-1.0624-5.7373-5.0938-10.75c6.397-0.69632 11.219-4 11.219-4a2.2363 2.2363 0 0 0 0 -3.625s-4.8167-3.329-11.219-4.0312c4.0313-5.0127 5.0938-10.75 5.0938-10.75a2.2363 2.2363 0 0 0 -2.59 -2.6s-5.755 1.047-10.781 5.0938c-0.69265-6.3936-4-11.188-4-11.188a2.2363 2.2363 0 0 0 -2.16 -0.91z"
         style="color:#000000;fill-rule:evenodd;enable-background:new;fill:#eeeeec"
         id="path3985" />
    </clipPath>
    <radialGradient
       r="15.678572"
       fy="1040.3323"
       fx="24"
       cy="1040.3323"
       cx="24"
       gradientTransform="matrix(1,0,0,0.22551253,0,805.72436)"
       gradientUnits="userSpaceOnUse"
       id="radialGradient3823"
       xlink:href="#linearGradient2679"
       inkscape:collect="always" />
    <radialGradient
       r="18.885624"
       fy="12.12002"
       fx="18.737123"
       cy="12.12002"
       cx="18.737123"
       gradientUnits="userSpaceOnUse"
       id="radialGradient3821"
       xlink:href="#linearGradient2679"
       inkscape:collect="always" />
    <radialGradient
       gradientUnits="userSpaceOnUse"
       r="18.885624"
       fy="12.12002"
       fx="18.737123"
       cy="12.12002"
       cx="18.737123"
       id="radialGradient4021"
       xlink:href="#linearGradient2679"
       inkscape:collect="always" />
    <radialGradient
       gradientUnits="userSpaceOnUse"
       gradientTransform="matrix(1,0,0,0.22551253,0,805.72436)"
       r="15.678572"
       fy="1040.3323"
       fx="24"
       cy="1040.3323"
       cx="24"
       id="radialGradient4019"
       xlink:href="#linearGradient2679"
       inkscape:collect="always" />
    <inkscape:perspective
       sodipodi:type="inkscape:persp3d"
       inkscape:vp_x="0 : 24 : 1"
       inkscape:vp_y="0 : 1000 : 0"
       inkscape:vp_z="48 : 24 : 1"
       inkscape:persp3d-origin="24 : 16 : 1"
       id="perspective68" />
    <linearGradient
       id="linearGradient4061">
      <stop
         id="stop4063"
         offset="0"
         style="stop-color:#474845;stop-opacity:1;" />
      <stop
         id="stop4065"
         offset="1"
         style="stop-color:#838681;stop-opacity:1" />
    </linearGradient>
    <linearGradient
       id="linearGradient3881">
      <stop
         style="stop-color:#474845;stop-opacity:1;"
         offset="0"
         id="stop3883" />
      <stop
         style="stop-color:#838681;stop-opacity:1"
         offset="1"
         id="stop3885" />
    </linearGradient>
    <linearGradient
       id="linearGradient2684">
      <stop
         id="stop2686"
         offset="0"
         style="stop-color:#ffffff;stop-opacity:1;" />
      <stop
         id="stop2688"
         offset="1"
         style="stop-color:#000000;stop-opacity:1;" />
    </linearGradient>
    <linearGradient
       id="linearGradient2584">
      <stop
         style="stop-color:#000000;stop-opacity:1;"
         offset="0"
         id="stop2586" />
      <stop
         style="stop-color:#ffffff;stop-opacity:0;"
         offset="1"
         id="stop2588" />
    </linearGradient>
    <linearGradient
       id="linearGradient5075">
      <stop
         style="stop-color:#adb0a8;stop-opacity:1;"
         offset="0"
         id="stop5077" />
      <stop
         style="stop-color:#464744;stop-opacity:1"
         offset="1"
         id="stop5079" />
    </linearGradient>
    <linearGradient
       gradientUnits="userSpaceOnUse"
       y2="36"
       x2="23.750401"
       y1="13.658564"
       x1="24.476166"
       id="linearGradient2322"
       xlink:href="#linearGradient2316"
       inkscape:collect="always" />
    <radialGradient
       r="8.75"
       fy="147.99352"
       fx="64.227074"
       cy="147.99352"
       cx="64.227074"
       gradientTransform="matrix(0.222659,-0.996273,2.129992,0.476041,-308.946,20.8517)"
       gradientUnits="userSpaceOnUse"
       id="radialGradient1439"
       xlink:href="#linearGradient2679"
       inkscape:collect="always" />
    <radialGradient
       r="8.75"
       fy="147.99352"
       fx="64.227074"
       cy="147.99352"
       cx="64.227074"
       gradientTransform="matrix(0.222659,-0.996273,2.129992,0.476041,-290.946,20.8517)"
       gradientUnits="userSpaceOnUse"
       id="radialGradient1436"
       xlink:href="#linearGradient2679"
       inkscape:collect="always" />
    <linearGradient
       y2="115.13713"
       x2="49.667324"
       y1="112.94963"
       x1="49.430401"
       gradientTransform="translate(-44.99051,-97.26213)"
       gradientUnits="userSpaceOnUse"
       id="linearGradient1426"
       xlink:href="#linearGradient2584"
       inkscape:collect="always" />
    <linearGradient
       y2="142.18799"
       x2="54.896976"
       y1="156"
       x1="54.988514"
       gradientTransform="translate(-47.9996,-121)"
       gradientUnits="userSpaceOnUse"
       id="linearGradient1401"
       xlink:href="#linearGradient5075"
       inkscape:collect="always" />
    <linearGradient
       inkscape:collect="always"
       id="linearGradient2679">
      <stop
         style="stop-color:#ffffff;stop-opacity:1"
         offset="0"
         id="stop2681" />
      <stop
         style="stop-color:#d3d7cf"
         offset="1"
         id="stop2683" />
    </linearGradient>
    <linearGradient
       id="linearGradient2316">
      <stop
         id="stop2318"
         offset="0"
         style="stop-color:#000000;stop-opacity:1;" />
      <stop
         id="stop2320"
         offset="1"
         style="stop-color:#ffffff;stop-opacity:0.65979379;" />
    </linearGradient>
    <linearGradient
       id="linearGradient8666">
      <stop
         style="stop-color:#f5f5f5;stop-opacity:1;"
         offset="0"
         id="stop8668" />
      <stop
         style="stop-color:#f5f5f5;stop-opacity:0;"
         offset="1"
         id="stop8670" />
    </linearGradient>
    <linearGradient
       id="linearGradient8658">
      <stop
         style="stop-color:#000000;stop-opacity:1;"
         offset="0"
         id="stop8660" />
      <stop
         style="stop-color:#000000;stop-opacity:0;"
         offset="1"
         id="stop8662" />
    </linearGradient>
    <linearGradient
       id="linearGradient8645">
      <stop
         style="stop-color:#333333;stop-opacity:1;"
         offset="0"
         id="stop8647" />
      <stop
         style="stop-color:#333333;stop-opacity:0;"
         offset="1"
         id="stop8649" />
    </linearGradient>
    <linearGradient
       id="linearGradient8635">
      <stop
         id="stop8637"
         offset="0"
         style="stop-color:#333333;stop-opacity:1;" />
      <stop
         id="stop8639"
         offset="1"
         style="stop-color:#f0f0f0;stop-opacity:0;" />
    </linearGradient>
    <linearGradient
       id="linearGradient8657">
      <stop
         style="stop-color:#ffffff;stop-opacity:1;"
         offset="0"
         id="stop8659" />
      <stop
         style="stop-color:#dce1e5;stop-opacity:1;"
         offset="1"
         id="stop8661" />
    </linearGradient>
    <linearGradient
       id="linearGradient8649">
      <stop
         style="stop-color:#8c8c8c;stop-opacity:1;"
         offset="0"
         id="stop8651" />
      <stop
         style="stop-color:#f0f0f0;stop-opacity:0;"
         offset="1"
         id="stop8653" />
    </linearGradient>
    <linearGradient
       id="linearGradient8636">
      <stop
         style="stop-color:#646464;stop-opacity:1;"
         offset="0"
         id="stop8638" />
      <stop
         style="stop-color:#333333;stop-opacity:1;"
         offset="1"
         id="stop8640" />
    </linearGradient>
    <inkscape:perspective
       sodipodi:type="inkscape:persp3d"
       inkscape:vp_x="0 : 526.18109 : 1"
       inkscape:vp_y="0 : 1000 : 0"
       inkscape:vp_z="744.09448 : 526.18109 : 1"
       inkscape:persp3d-origin="372.04724 : 350.78739 : 1"
       id="perspective10" />
    <inkscape:perspective
       id="perspective7856"
       inkscape:persp3d-origin="372.04724 : 350.78739 : 1"
       inkscape:vp_z="744.09448 : 526.18109 : 1"
       inkscape:vp_y="0 : 1000 : 0"
       inkscape:vp_x="0 : 526.18109 : 1"
       sodipodi:type="inkscape:persp3d" />
    <radialGradient
       inkscape:collect="always"
       xlink:href="#linearGradient8636"
       id="radialGradient8642"
       cx="70.458"
       cy="73.199226"
       fx="70.458"
       fy="73.199226"
       r="55.811367"
       gradientTransform="matrix(2.1073751,0,0,2.1073803,-78.023434,-81.059384)"
       gradientUnits="userSpaceOnUse" />
    <radialGradient
       inkscape:collect="always"
       xlink:href="#linearGradient8657"
       id="radialGradient8665"
       cx="70.458"
       cy="73.199226"
       fx="70.458"
       fy="73.199226"
       r="55.811367"
       gradientTransform="matrix(1,0,0,1.0000025,0,-1.8169358e-4)"
       gradientUnits="userSpaceOnUse" />
    <linearGradient
       inkscape:collect="always"
       xlink:href="#linearGradient8645"
       id="linearGradient8651"
       x1="70.205498"
       y1="7.3844137"
       x2="70.205498"
       y2="34.237083"
       gradientUnits="userSpaceOnUse" />
    <linearGradient
       inkscape:collect="always"
       xlink:href="#linearGradient8645"
       id="linearGradient8664"
       x1="70.458"
       y1="14.799726"
       x2="70.458"
       y2="87.977859"
       gradientUnits="userSpaceOnUse" />
    <linearGradient
       inkscape:collect="always"
       xlink:href="#linearGradient8666"
       id="linearGradient8672"
       x1="70.205498"
       y1="14.045123"
       x2="70.205498"
       y2="60.825073"
       gradientUnits="userSpaceOnUse" />
    <radialGradient
       inkscape:collect="always"
       xlink:href="#linearGradient8636"
       id="radialGradient8689"
       cx="70.458"
       cy="73.199226"
       fx="70.458"
       fy="73.199226"
       r="60.276276"
       gradientTransform="matrix(1.8914286,0,0,1.7898877,-62.808273,-57.81917)"
       gradientUnits="userSpaceOnUse" />
    <radialGradient
       inkscape:collect="always"
       xlink:href="#linearGradient8657"
       id="radialGradient8699"
       gradientUnits="userSpaceOnUse"
       gradientTransform="matrix(1,0,0,1.0000025,0,-1.8169358e-4)"
       cx="70.458"
       cy="73.199226"
       fx="70.458"
       fy="73.199226"
       r="55.811367" />
    <linearGradient
       inkscape:collect="always"
       xlink:href="#linearGradient8645"
       id="linearGradient8701"
       gradientUnits="userSpaceOnUse"
       x1="70.458"
       y1="14.799726"
       x2="70.458"
       y2="87.977859" />
    <linearGradient
       inkscape:collect="always"
       xlink:href="#linearGradient8666"
       id="linearGradient8703"
       gradientUnits="userSpaceOnUse"
       x1="70.205498"
       y1="-7.918128"
       x2="70.205498"
       y2="60.825073" />
    <radialGradient
       inkscape:collect="always"
       xlink:href="#linearGradient8636"
       id="radialGradient8705"
       gradientUnits="userSpaceOnUse"
       gradientTransform="matrix(1.8914286,0,0,1.7898877,-62.808273,-57.81917)"
       cx="70.458"
       cy="73.199226"
       fx="70.458"
       fy="73.199226"
       r="60.276276" />
    <inkscape:perspective
       id="perspective8732"
       inkscape:persp3d-origin="372.04724 : 350.78739 : 1"
       inkscape:vp_z="744.09448 : 526.18109 : 1"
       inkscape:vp_y="0 : 1000 : 0"
       inkscape:vp_x="0 : 526.18109 : 1"
       sodipodi:type="inkscape:persp3d" />
    <linearGradient
       id="linearGradient3761">
      <stop
         style="stop-color:#2d2d2d;stop-opacity:1"
         offset="0"
         id="stop3763" />
      <stop
         style="stop-color:#a7a7a7;stop-opacity:1"
         offset="1"
         id="stop3765" />
    </linearGradient>
    <linearGradient
       id="linearGradient3017">
      <stop
         style="stop-color:#2d2d2d;stop-opacity:1"
         offset="0"
         id="stop3019" />
      <stop
         style="stop-color:#a7a7a7;stop-opacity:1"
         offset="1"
         id="stop3021" />
    </linearGradient>
    <linearGradient
       y2="1049.5842"
       x2="24.113745"
       y1="1007.2183"
       x1="24.113745"
       gradientTransform="matrix(0.96799712,0,0,1.0252613,0.76812014,-25.977808)"
       gradientUnits="userSpaceOnUse"
       id="linearGradient3030"
       xlink:href="#linearGradient3795-5"
       inkscape:collect="always" />
    <linearGradient
       id="linearGradient3795-5">
      <stop
         style="stop-color:#68b8d8;stop-opacity:1;"
         offset="0"
         id="stop3797-2" />
      <stop
         style="stop-color:#3097bd;stop-opacity:1;"
         offset="1"
         id="stop3799-4" />
    </linearGradient>
    <linearGradient
       y2="1049.5842"
       x2="24.113745"
       y1="1007.2183"
       x1="24.113745"
       gradientTransform="matrix(0.96799712,0,0,1.0252613,0.76811886,-25.978201)"
       gradientUnits="userSpaceOnUse"
       id="linearGradient3032"
       xlink:href="#linearGradient3795-6"
       inkscape:collect="always" />
    <linearGradient
       gradientUnits="userSpaceOnUse"
       y2="24.798252"
       x2="42.475323"
       y1="34.43922"
       x1="21.973417"
       id="linearGradient3895-00"
       xlink:href="#linearGradient3795-6"
       inkscape:collect="always" />
    <linearGradient
       y2="1030.9086"
       x2="31.448042"
       y1="1006.2238"
       x1="17.196316"
       gradientUnits="userSpaceOnUse"
       id="linearGradient3879-1"
       xlink:href="#linearGradient3795-6"
       inkscape:collect="always" />
    <linearGradient
       y2="1015.5485"
       x2="22.811094"
       y1="1027.8575"
       x1="29.718235"
       gradientUnits="userSpaceOnUse"
       id="linearGradient3877-9"
       xlink:href="#linearGradient3795-6"
       inkscape:collect="always" />
    <linearGradient
       y2="1024.0002"
       x2="28.641211"
       y1="1024.0002"
       x1="26.192217"
       gradientUnits="userSpaceOnUse"
       id="linearGradient3871-9"
       xlink:href="#linearGradient3795-6"
       inkscape:collect="always" />
    <linearGradient
       y2="1024.0002"
       x2="28.641211"
       y1="1024.0002"
       x1="26.192217"
       gradientUnits="userSpaceOnUse"
       id="linearGradient3869-9"
       xlink:href="#linearGradient3795-6"
       inkscape:collect="always" />
    <linearGradient
       y2="1024.0002"
       x2="28.641211"
       y1="1024.0002"
       x1="26.192217"
       gradientUnits="userSpaceOnUse"
       id="linearGradient3867-8"
       xlink:href="#linearGradient3795-6"
       inkscape:collect="always" />
    <linearGradient
       gradientUnits="userSpaceOnUse"
       y2="1024.0002"
       x2="28.641211"
       y1="1024.0002"
       x1="26.192217"
       id="linearGradient3859-6"
       xlink:href="#linearGradient3795-6"
       inkscape:collect="always" />
    <linearGradient
       id="linearGradient3803-2">
      <stop
         style="stop-color:#d7def0;stop-opacity:1;"
         offset="0"
         id="stop3805-5" />
      <stop
         id="stop3811-9"
         offset="0.5"
         style="stop-color:#ffffff;stop-opacity:1" />
      <stop
         style="stop-color:#d5def0;stop-opacity:1"
         offset="1"
         id="stop3807-3" />
    </linearGradient>
    <linearGradient
       id="linearGradient3750-8">
      <stop
         id="stop3752-54"
         offset="0"
         style="stop-color:#d0e2f1;stop-opacity:1" />
      <stop
         style="stop-color:#cadef0;stop-opacity:1"
         offset="0.85580856"
         id="stop3756-8" />
      <stop
         id="stop3754-7"
         offset="1"
         style="stop-color:#95bee3;stop-opacity:1" />
    </linearGradient>
    <linearGradient
       id="linearGradient3708-1">
      <stop
         style="stop-color:#658db6;stop-opacity:1"
         offset="0"
         id="stop3710-4" />
      <stop
         id="stop3716-8"
         offset="0.76777935"
         style="stop-color:#527fab;stop-opacity:1;" />
      <stop
         style="stop-color:#4071a0;stop-opacity:1"
         offset="1"
         id="stop3712-2" />
    </linearGradient>
    <linearGradient
       id="linearGradient3698-2">
      <stop
         style="stop-color:#96d0e1;stop-opacity:1"
         offset="0"
         id="stop3700-9" />
      <stop
         id="stop3706-0"
         offset="0.67819428"
         style="stop-color:#89b7e1;stop-opacity:1" />
      <stop
         style="stop-color:#699dd3;stop-opacity:1"
         offset="1"
         id="stop3702-1" />
    </linearGradient>
    <linearGradient
       id="linearGradient3795-6">
      <stop
         id="stop3797-26"
         offset="0"
         style="stop-color:#8cd528;stop-opacity:1;" />
      <stop
         id="stop3799-5"
         offset="1"
         style="stop-color:#7f9f2f;stop-opacity:1;" />
    </linearGradient>
  </defs>
  <sodipodi:namedview
     id="base"
     pagecolor="#ffffff"
     bordercolor="#666666"
     borderopacity="1.0"
     inkscape:pageopacity="0.0"
     inkscape:pageshadow="2"
     inkscape:zoom="9.1815101"
     inkscape:cx="28.198206"
     inkscape:cy="24.271161"
     inkscape:document-units="px"
     inkscape:current-layer="layer1"
     showgrid="false"
     inkscape:window-width="1920"
     inkscape:window-height="1035"
     inkscape:window-x="0"
     inkscape:window-y="26"
     inkscape:window-maximized="1">
    <inkscape:grid
       type="xygrid"
       id="grid3850" />
  </sodipodi:namedview>
  <metadata
     id="metadata7">
    <rdf:RDF>
      <cc:Work
         rdf:about="">
        <dc:format>image/svg+xml</dc:format>
        <dc:type
           rdf:resource="http://purl.org/dc/dcmitype/StillImage" />
        <dc:title />
      </cc:Work>
    </rdf:RDF>
  </metadata>
  <g
     inkscape:label="Capa 1"
     inkscape:groupmode="layer"
     id="layer1"
     transform="translate(0,-1004.3622)">
    <rect
       ry="5.6755357"
       y="1006.0615"
       x="1.6992435"
       height="44.601513"
       width="44.601513"
       id="rect2992"
       style="fill:url(#linearGradient3032);fill-opacity:1;stroke:#7d7d7d;stroke-width:0.39848712;stroke-miterlimit:4;stroke-opacity:1;stroke-dasharray:none" />
    <g
       id="g1362"
       transform="translate(-4.3596193e-7,1.7890309e-5)">
      <g
         style="fill:#4d4d4d;stroke:#4d4d4d"
         transform="matrix(0.56075249,0,0,0.56075249,43.127041,451.00914)"
         id="g6501">
        <path
           inkscape:connector-curvature="0"
           id="path6387"
           d="m -34.833199,1009.431 c -10.151721,0.5482 -18.230721,9.517 -18.230721,20.4687 0,11.3049 8.607545,20.4687 19.21875,20.4687 10.611205,0 19.21875,-9.1638 19.21875,-20.4687 0,-11.3049 -8.607545,-20.4687 -19.21875,-20.4687 -0.3316,0 -0.660554,-0.017 -0.988029,0 z"
           style="fill:#4d4d4d;fill-opacity:1;stroke:#4d4d4d" />
        <g
           style="fill:#4d4d4d;fill-opacity:1;stroke:#4d4d4d"
           transform="matrix(1,0,0,1.0167438,-57.982754,-16.520528)"
           id="g6365">
          <rect
             style="fill:#4d4d4d;fill-opacity:1;stroke:#4d4d4d"
             id="rect6367"
             width="9.6823416"
             height="6.7857141"
             x="19.031988"
             y="1006.5006"
             rx="0.82490999"
             ry="1.34375" />
          <rect
             ry="1.34375"
             rx="0.82490999"
             y="1044.5076"
             x="19.031988"
             height="6.7857141"
             width="9.6823416"
             id="rect6369"
             style="fill:#4d4d4d;fill-opacity:1;stroke:#4d4d4d" />
        </g>
        <g
           transform="matrix(0.71297047,0.71883417,-0.71297047,0.71883417,682.48462,272.79893)"
           id="g6353"
           style="fill:#4d4d4d;fill-opacity:1;stroke:#4d4d4d">
          <rect
             transform="matrix(0,1,-1,0,0,0)"
             style="fill:#4d4d4d;fill-opacity:1;stroke:#4d4d4d"
             id="rect6355"
             width="9.6823416"
             height="6.7857141"
             x="1024.3164"
             y="-46.623081"
             rx="0.82490999"
             ry="1.34375" />
          <rect
             transform="matrix(0,1,-1,0,0,0)"
             ry="1.34375"
             rx="0.82490999"
             y="-8.6160603"
             x="1024.3164"
             height="6.7857141"
             width="9.6823416"
             id="rect6357"
             style="fill:#4d4d4d;fill-opacity:1;stroke:#4d4d4d" />
        </g>
        <g
           style="fill:#4d4d4d;fill-opacity:1;stroke:#4d4d4d"
           id="g6359"
           transform="matrix(0.71414322,0.71766144,-0.71414322,0.71766144,684.07325,274.50629)">
          <rect
             ry="1.34375"
             rx="0.82490999"
             y="1006.5006"
             x="19.031988"
             height="6.7857141"
             width="9.6823416"
             id="rect6361"
             style="fill:#4d4d4d;fill-opacity:1;stroke:#4d4d4d" />
          <rect
             style="fill:#4d4d4d;fill-opacity:1;stroke:#4d4d4d"
             id="rect6363"
             width="9.6823416"
             height="6.7857141"
             x="19.031988"
             y="1044.5076"
             rx="0.82490999"
             ry="1.34375" />
        </g>
        <g
           transform="matrix(0.97959013,0,0,1.2190916,-57.841845,-224.50482)"
           style="fill:#4d4d4d;fill-opacity:1;stroke:#4d4d4d"
           id="g6347">
          <rect
             ry="1.34375"
             rx="0.82490999"
             y="-46.623081"
             x="1024.3164"
             height="6.7857141"
             width="9.6823416"
             id="rect6349"
             style="fill:#4d4d4d;fill-opacity:1;stroke:#4d4d4d"
             transform="matrix(0,1,-1,0,0,0)" />
          <rect
             style="fill:#4d4d4d;fill-opacity:1;stroke:#4d4d4d"
             id="rect6351"
             width="9.6823416"
             height="6.7857141"
             x="1024.3164"
             y="-8.6160603"
             rx="0.82490999"
             ry="1.34375"
             transform="matrix(0,1,-1,0,0,0)" />
        </g>
        <path
           style="fill:#4d4d4d;fill-opacity:1;stroke:#4d4d4d"
           d="m -34.81392,1009.6809 c -9.953639,0.5407 -17.875,9.3863 -17.875,20.1875 0,11.1496 8.439593,20.1875 18.84375,20.1875 10.404157,0 18.84375,-9.0379 18.84375,-20.1875 0,-11.1496 -8.439593,-20.1875 -18.84375,-20.1875 -0.32513,0 -0.647665,-0.017 -0.96875,0 z"
           id="path4959"
           inkscape:connector-curvature="0" />
        <g
           id="g6091"
           transform="translate(-57.982754,0.70710678)"
           style="fill:#4d4d4d;fill-opacity:1;stroke:#4d4d4d">
          <rect
             ry="1.34375"
             rx="0.82490999"
             y="1006.5006"
             x="19.031988"
             height="6.7857141"
             width="9.6823416"
             id="rect6065"
             style="fill:#4d4d4d;fill-opacity:1;stroke:#4d4d4d" />
          <rect
             style="fill:#4d4d4d;fill-opacity:1;stroke:#4d4d4d"
             id="rect6069"
             width="9.6823416"
             height="6.7857141"
             x="19.031988"
             y="1044.5076"
             rx="0.82490999"
             ry="1.34375" />
        </g>
        <g
           id="g6087"
           style="fill:#4d4d4d;fill-opacity:1;stroke:#4d4d4d"
           transform="matrix(0.96842761,0,0,1.2190916,-57.571414,-224.77274)">
          <rect
             transform="matrix(0,1,-1,0,0,0)"
             style="fill:#4d4d4d;fill-opacity:1;stroke:#4d4d4d"
             id="rect6083"
             width="9.6823416"
             height="6.7857141"
             x="1024.3164"
             y="-46.623081"
             rx="0.82490999"
             ry="1.34375" />
          <rect
             transform="matrix(0,1,-1,0,0,0)"
             ry="1.34375"
             rx="0.82490999"
             y="-8.6160603"
             x="1024.3164"
             height="6.7857141"
             width="9.6823416"
             id="rect6085"
             style="fill:#4d4d4d;fill-opacity:1;stroke:#4d4d4d" />
        </g>
        <g
           transform="matrix(0.70710678,0.70710678,-0.70710678,0.70710678,676.81396,285.44375)"
           id="g6095"
           style="fill:#4d4d4d;fill-opacity:1;stroke:#4d4d4d">
          <rect
             style="fill:#4d4d4d;fill-opacity:1;stroke:#4d4d4d"
             id="rect6097"
             width="9.6823416"
             height="6.7857141"
             x="19.031988"
             y="1006.5006"
             rx="0.82490999"
             ry="1.34375" />
          <rect
             ry="1.34375"
             rx="0.82490999"
             y="1044.5076"
             x="19.031988"
             height="6.7857141"
             width="9.6823416"
             id="rect6099"
             style="fill:#4d4d4d;fill-opacity:1;stroke:#4d4d4d" />
        </g>
        <g
           style="fill:#4d4d4d;fill-opacity:1;stroke:#4d4d4d"
           id="g6101"
           transform="matrix(0.70710678,0.70710678,-0.70710678,0.70710678,676.74826,285.00946)">
          <rect
             ry="1.34375"
             rx="0.82490999"
             y="-46.623081"
             x="1024.3164"
             height="6.7857141"
             width="9.6823416"
             id="rect6103"
             style="fill:#4d4d4d;fill-opacity:1;stroke:#4d4d4d"
             transform="matrix(0,1,-1,0,0,0)" />
          <rect
             style="fill:#4d4d4d;fill-opacity:1;stroke:#4d4d4d"
             id="rect6105"
             width="9.6823416"
             height="6.7857141"
             x="1024.3164"
             y="-8.6160603"
             rx="0.82490999"
             ry="1.34375"
             transform="matrix(0,1,-1,0,0,0)" />
        </g>
        <path
           transform="matrix(2.2676056,0,0,2.2676056,-96.04244,973.07119)"
           d="m 33.587573,24.930641 c 0,3.465903 -2.80967,6.275573 -6.275573,6.275573 -3.465903,0 -6.275573,-2.80967 -6.275573,-6.275573 0,-3.465903 2.80967,-6.275573 6.275573,-6.275573 3.465903,0 6.275573,2.80967 6.275573,6.275573 z"
           sodipodi:ry="6.2755728"
           sodipodi:rx="6.2755728"
           sodipodi:cy="24.930641"
           sodipodi:cx="27.312"
           id="path6272"
           style="fill:#4d4d4d;fill-opacity:1;stroke:#4d4d4d"
           sodipodi:type="arc" />
        <path
           sodipodi:type="arc"
           style="fill:#4d4d4d;stroke:#4d4d4d;stroke-width:0.2;stroke-linecap:round;stroke-linejoin:miter;stroke-miterlimit:4;stroke-opacity:1;stroke-dasharray:none"
           id="path6270"
           sodipodi:cx="27.312"
           sodipodi:cy="24.930641"
           sodipodi:rx="6.2755728"
           sodipodi:ry="6.2755728"
           d="m 33.587573,24.930641 c 0,3.465903 -2.80967,6.275573 -6.275573,6.275573 -3.465903,0 -6.275573,-2.80967 -6.275573,-6.275573 0,-3.465903 2.80967,-6.275573 6.275573,-6.275573 3.465903,0 6.275573,2.80967 6.275573,6.275573 z"
           transform="translate(-61.157171,1004.934)" />
      </g>
      <g
         transform="matrix(0.33498447,0.20014124,-0.20014124,0.33498447,239.33262,690.3727)"
         style="fill:#ffffff;stroke:#f9f9f9"
         id="g3131">
        <circle
           d="m 18.247999,46.903999 c 0,5.039046 -4.084954,9.124 -9.1239994,9.124 C 4.0849538,56.027999 0,51.943045 0,46.903999 0,41.864953 4.0849538,37.78 9.1239996,37.78 c 5.0390454,0 9.1239994,4.084953 9.1239994,9.123999 z"
           i:knockout="Off"
           cx="9.1239996"
           cy="46.903999"
           r="9.1239996"
           id="circle15"
           sodipodi:cx="9.1239996"
           sodipodi:cy="46.903999"
           sodipodi:rx="9.1239996"
           sodipodi:ry="9.1239996"
           style="fill:#ffffff;fill-opacity:1;stroke:#f9f9f9"
           transform="matrix(0.49046263,0,0,0.49046263,-55.746322,1003.1983)" />
        <circle
           d="m 83.671996,84.667 c 0,5.039046 -4.084954,9.123999 -9.123999,9.123999 -5.039046,0 -9.124,-4.084953 -9.124,-9.123999 0,-5.039046 4.084954,-9.124 9.124,-9.124 5.039045,0 9.123999,4.084954 9.123999,9.124 z"
           i:knockout="Off"
           cx="74.547997"
           cy="84.667"
           r="9.1239996"
           id="circle17"
           sodipodi:cx="74.547997"
           sodipodi:cy="84.667"
           sodipodi:rx="9.1239996"
           sodipodi:ry="9.1239996"
           style="fill:#ffffff;fill-opacity:1;stroke:#f9f9f9"
           transform="matrix(0.49046263,0,0,0.49046263,-55.746322,1003.1983)" />
        <path
           inkscape:connector-curvature="0"
           i:knockout="Off"
           d="m -29.879814,1015.1297 c 5.572146,0 10.195246,4.1376 10.960861,9.5018 l 7.66691,0 c -0.348228,-4.2151 -2.095745,-8.1437 -5.017432,-11.2419 -1.871115,0.9529 -4.171875,0.9711 -6.126369,-0.157 -1.955966,-1.1295 -3.090895,-3.1326 -3.199779,-5.2317 -1.388499,-0.3237 -2.823102,-0.4915 -4.284191,-0.4915 -2.797599,0 -5.501029,0.6106 -7.959718,1.7686 l 3.838361,6.6482 c 1.274713,-0.513 2.665664,-0.7965 4.121357,-0.7965 z"
           id="path19"
           style="fill:#ffffff;fill-opacity:1;stroke:#f9f9f9" />
        <path
           inkscape:connector-curvature="0"
           i:knockout="Off"
           d="m -18.918463,1027.7694 c -0.76365,5.3662 -5.387733,9.5062 -10.961351,9.5062 -1.456674,0 -2.848116,-0.2835 -4.122829,-0.7975 l -3.838851,6.6487 c 2.458199,1.1585 5.16261,1.7696 7.96119,1.7696 1.462069,0 2.898634,-0.1687 4.287624,-0.4924 0.106922,-2.1017 1.242342,-4.1081 3.199777,-5.2382 1.954987,-1.129 4.256726,-1.1109 6.128331,-0.1559 2.919235,-3.0988 4.664791,-7.0269 5.01204,-11.2405 l -7.665931,0 z"
           id="path21"
           style="fill:#ffffff;fill-opacity:1;stroke:#f9f9f9" />
        <path
           inkscape:connector-curvature="0"
           i:knockout="Off"
           d="m -40.952498,1026.2029 c 0,-3.5279 1.658254,-6.6752 4.235636,-8.7042 l -3.83738,-6.6473 c -0.899999,0.6288 -1.751443,1.3405 -2.54452,2.1331 -2.220815,2.2208 -3.813348,4.9021 -4.689804,7.8287 1.765665,1.1438 2.934928,3.1292 2.934928,5.3897 0,2.2601 -1.169263,4.2459 -2.934928,5.3892 0.876456,2.9266 2.468989,5.608 4.689804,7.8288 0.792587,0.7926 1.64305,1.5032 2.542558,2.1325 l 3.837871,-6.6477 c -2.576892,-2.0291 -4.234165,-5.1764 -4.234165,-8.7028 z"
           id="path23"
           style="fill:#ffffff;fill-opacity:1;stroke:#f9f9f9" />
        <circle
           d="m 83.664001,9.1260004 c 0,5.0390456 -4.084954,9.1239996 -9.124,9.1239996 -5.039046,0 -9.124,-4.084954 -9.124,-9.1239996 0,-5.0390458 4.084954,-9.12399959 9.124,-9.12399959 5.039046,0 9.124,4.08495379 9.124,9.12399959 z"
           i:knockout="Off"
           cx="74.540001"
           cy="9.1260004"
           r="9.1239996"
           id="circle25"
           sodipodi:cx="74.540001"
           sodipodi:cy="9.1260004"
           sodipodi:rx="9.1239996"
           sodipodi:ry="9.1239996"
           style="fill:#ffffff;fill-opacity:1;stroke:#f9f9f9"
           transform="matrix(0.49046263,0,0,0.49046263,-55.746322,1003.1983)" />
      </g>
    </g>
  </g>
</svg>
