<?xml version="1.0" encoding="UTF-8" standalone="no"?>
<!-- Created with Inkscape (http://www.inkscape.org/) -->

<svg
   xmlns:dc="http://purl.org/dc/elements/1.1/"
   xmlns:cc="http://creativecommons.org/ns#"
   xmlns:rdf="http://www.w3.org/1999/02/22-rdf-syntax-ns#"
   xmlns:svg="http://www.w3.org/2000/svg"
   xmlns="http://www.w3.org/2000/svg"
   xmlns:xlink="http://www.w3.org/1999/xlink"
   xmlns:sodipodi="http://sodipodi.sourceforge.net/DTD/sodipodi-0.dtd"
   xmlns:inkscape="http://www.inkscape.org/namespaces/inkscape"
   width="48"
   height="48"
   id="svg2"
   version="1.1"
   inkscape:version="0.48+devel r11772"
   sodipodi:docname="gnome-web-browser.svg">
  <defs
     id="defs4">
    <linearGradient
       id="linearGradient1210">
      <stop
         id="stop1212"
         offset="0"
         style="stop-color:#892ca0;stop-opacity:1" />
      <stop
         id="stop1214"
         offset="1"
         style="stop-color:#bc5fd3;stop-opacity:1" />
    </linearGradient>
    <linearGradient
       id="linearGradient3795">
      <stop
         style="stop-color:#52a2cc;stop-opacity:1;"
         offset="0"
         id="stop3797" />
      <stop
         style="stop-color:#59b3e1;stop-opacity:1;"
         offset="1"
         id="stop3799" />
    </linearGradient>
    <linearGradient
       inkscape:collect="always"
       id="linearGradient3914">
      <stop
         style="stop-color:#59b3e1;stop-opacity:1;"
         offset="0"
         id="stop3916" />
      <stop
         style="stop-color:#59b3e1;stop-opacity:0;"
         offset="1"
         id="stop3918" />
    </linearGradient>
    <linearGradient
       id="linearGradient3698">
      <stop
         id="stop3700"
         offset="0"
         style="stop-color:#96d0e1;stop-opacity:1" />
      <stop
         style="stop-color:#89b7e1;stop-opacity:1"
         offset="0.67819428"
         id="stop3706" />
      <stop
         id="stop3702"
         offset="1"
         style="stop-color:#699dd3;stop-opacity:1" />
    </linearGradient>
    <linearGradient
       id="linearGradient3708">
      <stop
         id="stop3710"
         offset="0"
         style="stop-color:#658db6;stop-opacity:1" />
      <stop
         style="stop-color:#527fab;stop-opacity:1;"
         offset="0.76777935"
         id="stop3716" />
      <stop
         id="stop3712"
         offset="1"
         style="stop-color:#4071a0;stop-opacity:1" />
    </linearGradient>
    <linearGradient
       id="linearGradient3750">
      <stop
         style="stop-color:#d0e2f1;stop-opacity:1"
         offset="0"
         id="stop3752" />
      <stop
         id="stop3756"
         offset="0.85580856"
         style="stop-color:#cadef0;stop-opacity:1" />
      <stop
         style="stop-color:#95bee3;stop-opacity:1"
         offset="1"
         id="stop3754" />
    </linearGradient>
    <linearGradient
       id="linearGradient3803">
      <stop
         id="stop3805"
         offset="0"
         style="stop-color:#d7def0;stop-opacity:1;" />
      <stop
         style="stop-color:#ffffff;stop-opacity:1"
         offset="0.5"
         id="stop3811" />
      <stop
         id="stop3807"
         offset="1"
         style="stop-color:#d5def0;stop-opacity:1" />
    </linearGradient>
    <linearGradient
       inkscape:collect="always"
       xlink:href="#linearGradient3914"
       id="linearGradient3920"
       x1="6.8000002"
       y1="25.0625"
       x2="45.325001"
       y2="25.0625"
       gradientUnits="userSpaceOnUse" />
    <linearGradient
       inkscape:collect="always"
       xlink:href="#linearGradient3795"
       id="linearGradient3801"
       x1="23.204165"
       y1="1053.158"
       x2="23.204165"
       y2="1004.8474"
       gradientUnits="userSpaceOnUse" />
    <linearGradient
       y2="1049.5842"
       x2="24.113745"
       y1="1007.2183"
       x1="24.113745"
       gradientTransform="matrix(0.96799712,0,0,1.0252613,0.76812014,-25.977808)"
       gradientUnits="userSpaceOnUse"
       id="linearGradient3030"
       xlink:href="#linearGradient3795-4"
       inkscape:collect="always" />
    <linearGradient
       id="linearGradient3795-4">
      <stop
         style="stop-color:#68b8d8;stop-opacity:1;"
         offset="0"
         id="stop3797-0" />
      <stop
         style="stop-color:#3097bd;stop-opacity:1;"
         offset="1"
         id="stop3799-0" />
    </linearGradient>
    <linearGradient
       y2="1049.5842"
       x2="24.113745"
       y1="1007.2183"
       x1="24.113745"
       gradientTransform="matrix(0.96799712,0,0,1.0252613,0.76812381,-2082.7024)"
       gradientUnits="userSpaceOnUse"
       id="linearGradient3151"
       xlink:href="#linearGradient1210"
       inkscape:collect="always" />
    <radialGradient
       cx="63.98003"
       cy="61.948856"
       r="58.01997"
       fx="63.98003"
       fy="61.948856"
       id="radialGradient5232-9"
       xlink:href="#linearGradient4132"
       gradientUnits="userSpaceOnUse"
       gradientTransform="matrix(1.090012,0,0,0.84044811,-21.739002,-5.4878171)" />
    <linearGradient
       id="linearGradient4132">
      <stop
         id="stop4134"
         style="stop-color:#7bb8f0;stop-opacity:1"
         offset="0" />
      <stop
         id="stop4136"
         style="stop-color:#b5d5f2;stop-opacity:0.1221374"
         offset="1" />
    </linearGradient>
    <style
       id="style1115"
       type="text/css"><![CDATA[ .fil0 {fill:#1F1A17} ]]></style>
    <style
       id="style1246"
       type="text/css"><![CDATA[ .fil0 {fill:#1F1A17} ]]></style>
  </defs>
  <sodipodi:namedview
     id="base"
     pagecolor="#ffffff"
     bordercolor="#666666"
     borderopacity="1.0"
     inkscape:pageopacity="0.0"
     inkscape:pageshadow="2"
     inkscape:zoom="5.6568543"
     inkscape:cx="22.575997"
     inkscape:cy="17.03664"
     inkscape:document-units="px"
     inkscape:current-layer="layer1"
     showgrid="false"
     inkscape:window-width="1366"
     inkscape:window-height="712"
     inkscape:window-x="0"
     inkscape:window-y="0"
     inkscape:window-maximized="1" />
  <metadata
     id="metadata7">
    <rdf:RDF>
      <cc:Work
         rdf:about="">
        <dc:format>image/svg+xml</dc:format>
        <dc:type
           rdf:resource="http://purl.org/dc/dcmitype/StillImage" />
        <dc:title />
      </cc:Work>
    </rdf:RDF>
  </metadata>
  <g
     inkscape:label="Capa 1"
     inkscape:groupmode="layer"
     id="layer1"
     transform="translate(0,-1004.3622)">
    <rect
       ry="5.6755357"
       y="-1050.6631"
       x="1.6992455"
       height="44.601513"
       width="44.601513"
       id="rect2992"
       style="fill:url(#linearGradient3151);fill-opacity:1;stroke:#7d7d7d;stroke-width:0.39848712;stroke-miterlimit:4;stroke-opacity:1;stroke-dasharray:none"
       transform="scale(1,-1)" />
    <path
       style="fill:#ffffff;stroke:none"
       d="m 24,1013.9559 c -7.95361,0 -14.40625,6.4527 -14.40625,14.4063 0,7.9536 6.45264,14.4063 14.40625,14.4063 7.95361,0 14.40625,-6.4527 14.40625,-14.4063 C 38.40625,1020.4086 31.95361,1013.9559 24,1013.9559 z m 0,0.9351 c 7.437173,0 13.471159,6.034 13.471159,13.4712 0,7.4372 -6.033986,13.4712 -13.471159,13.4712 -7.437173,0 -13.471159,-6.034 -13.471159,-13.4712 C 10.528841,1020.925 16.562827,1014.891 24,1014.891 Z"
       id="path3012"
       inkscape:connector-curvature="0" />
    <g
       style="fill:#000000"
       id="g1249"
       transform="matrix(0.01610301,0,0,0.01610301,44.780016,1013.1747)" />
    <path
       style="fill:#ffffff;fill-opacity:1;stroke:none"
       d="m 23.99901,1015.5047 c -1.094437,0 -2.14549,0.1513 -3.159897,0.4086 l -1.906834,2.152 2.77853,2.2882 -0.871696,0.9534 -1.68891,-0.2997 0.217924,-1.0351 -0.57205,0 -0.272404,0.7355 0.190682,0.5993 -1.253061,-0.109 -0.681012,0.899 0.463088,0.3541 0.898936,0.2724 0.844455,0.9534 0.299645,-0.9534 -0.190684,-0.1907 0,-0.9534 1.988556,0.3269 1.607189,1.9069 -2.26096,1.2802 0,0.7082 -0.381368,-0.054 -0.381366,0.3541 0.08172,0.5176 -0.898936,0.7627 0.245163,0.8444 -0.435847,0 -0.381366,-0.572 -1.416505,0 -0.517569,0.9535 0.517569,0.5174 0.245165,0 0.517568,-0.3268 0.326887,0.1906 -0.136203,0.7083 0.517569,0.054 0.136203,0.7899 0.898936,0 0.898935,-0.3813 0.626531,0.2451 1.198582,0.027 0.08172,0.79 0.953417,0 0.108961,0.8989 0.681013,0 1.68891,1.1441 -0.490329,0.5993 -0.136202,1.1441 -3.895389,4.1677 c 0.140369,0.2387 0.192351,0.5086 0.136203,0.8173 l -0.51757,0.5176 0.272405,0.3269 c 0.973236,0.2355 1.978065,0.3813 3.023693,0.3813 3.626918,0 6.896986,-1.507 9.234523,-3.9226 l -1.035137,-2.8057 0.354126,-0.4632 0,-0.7627 -0.926177,-1.0624 0.381368,-0.2724 -0.898937,-0.572 -1.77063,-0.054 -1.03514,-0.899 -0.05448,-1.9886 2.288201,-1.9884 1.280303,-0.1091 0.326885,0.3814 -0.05448,0.2996 1.007898,0.327 0.517569,-0.4359 0.381367,0.3269 1.389265,0.054 0.272405,-0.2725 0,-0.7628 -0.57205,0.7628 -0.762734,-1.0079 0.136202,1.0079 -0.735494,-0.5176 -0.108961,-0.7355 -0.871695,-1.0079 -0.136203,0.1635 0.681012,0.9534 -0.463088,0.6265 -0.163442,-0.7355 -0.789974,-0.5993 -0.435848,0.4087 -0.245165,-0.1363 -1.470987,1.3621 -0.517569,-1.4438 1.03514,0.081 0.163442,-0.463 -0.381367,-0.3815 0.653772,-0.5175 0.381366,-0.054 0.708252,-0.6538 -0.190682,-0.4903 0.381367,-0.1908 0.245164,0.3815 1.307543,-0.054 0.05448,-0.3813 1.389266,-0.5176 -0.245165,-0.3269 -0.898936,0.3269 -0.245165,-0.5721 0.626532,-0.5176 -0.381367,-0.3813 -0.817214,1.0896 0.299645,0.2452 -0.05448,0.6538 -0.844455,0.2452 -0.190683,-0.5176 -0.871696,0.1089 0.05448,-0.7355 1.443745,-1.9886 0.57205,-0.1361 c -1.31042,-1.4033 -2.945434,-2.5076 -4.767085,-3.2144 l -0.62653,0.5448 -0.163444,1.6072 -1.144099,1.7706 -1.825113,0.5721 -0.463089,1.0896 -0.817214,-0.054 -0.953416,-1.471 -0.381367,-1.9885 -0.789974,-0.5721 -0.817215,0.2724 -0.435847,-0.5993 1.389264,-1.7161 2.533366,-0.3269 C 24.089121,1015.5042 24.045215,1015.5047 23.99901,1015.5047 z m -3.023695,25.3337 c -0.369294,-0.09 -0.733544,-0.1792 -1.089618,-0.2998 C 20.241771,1040.6592 20.606021,1040.749 20.975315,1040.8384 z m -1.089618,-0.2998 -0.136204,-0.1634 0,-1.8523 0.626532,-3.6502 -0.844456,-0.3814 -0.871695,-2.2337 0.381368,-0.5721 0,-0.6537 -0.898936,0 -0.381367,-0.7628 -0.517569,0.054 -1.797873,-1.0081 -0.57205,-0.7082 -0.681012,0 -1.934074,-2.5606 0.08172,-1.2531 -0.463089,-0.681 c -0.468183,1.3334 -0.735494,2.7562 -0.735494,4.2495 C 11.141501,1034.0208 14.807401,1038.8202 19.885697,1040.5386 z m -8.008702,-16.4259 c 0.176859,-0.5038 0.390966,-0.9983 0.626531,-1.471 C 12.267673,1023.1148 12.054006,1023.6086 11.876995,1024.1127 z m 0.626531,-1.471 c 0.108437,-0.2176 0.206692,-0.4162 0.326885,-0.6265 C 12.713842,1022.2199 12.608976,1022.4301 12.503526,1022.6417 z m 13.974368,-6.8918 c 0.370932,0.074 0.73081,0.1674 1.089619,0.2724 C 27.209388,1015.9185 26.848172,1015.8226 26.477894,1015.7499 z m 1.089619,0.2724 c 0.342249,0.1 0.6779,0.2279 1.007897,0.3541 C 28.243536,1016.2491 27.911967,1016.1221 27.567513,1016.0223 z m -6.810122,-0.081 c -0.230113,0.06 -0.456108,0.1183 -0.681012,0.1906 C 20.303512,1016.0581 20.524932,1016.0012 20.757391,1015.9405 z m -1.443745,0.463 c -0.250344,0.098 -0.493087,0.2138 -0.735493,0.327 C 18.81792,1016.6187 19.066101,1016.5008 19.313646,1016.4036 z m -0.735493,0.327 c -0.410584,0.1916 -0.812979,0.3942 -1.198581,0.6265 C 17.766453,1017.1238 18.166081,1016.9227 18.578153,1016.7305 z m -3.268859,2.1791 c -0.345485,0.3179 -0.671656,0.6544 -0.980656,1.008 C 14.639421,1019.5625 14.961659,1019.2287 15.309294,1018.9098 z m 13.129914,1.5256 0.57205,0.5175 -1.17134,0.8173 -0.681012,-1.008 L 28.439208,1020.4352 z m 1.525468,1.8523 0.272403,0.6266 0.544811,0.4358 -0.05448,0.5448 -0.898936,0 0.272405,-0.5448 -0.57205,-0.6265 L 29.964676,1022.2876 z m -0.762734,0.7082 0.463088,0.5721 -0.408607,0.4358 -0.435848,-0.3813 L 29.201942,1022.9958 z m 5.992906,1.689 -0.57205,0.7355 0.108962,0.4358 0.490328,-0.3814 0.408608,0 0.898936,0.054 c -0.04366,-0.1935 -0.08392,-0.3818 -0.136202,-0.5719 l -0.02724,-0.027 -0.05448,-0.1089 -0.435848,-0.081 0.02724,0.327 -0.381366,0.054 L 35.194848,1024.6848 z m -2.724048,1.2803 0.163442,0.5175 -0.408606,-0.1362 L 32.4708,1025.965 z m 4.303996,0.9533 c 0.02369,0.2 0.04037,0.3967 0.05448,0.5993 C 36.81609,1027.3163 36.797151,1027.1172 36.774796,1026.9184 z m -1.116859,0.5993 -0.05448,0.5177 0.926176,1.9068 0.190683,0.1362 c 0.04601,-0.3424 0.09047,-0.6848 0.108963,-1.0351 L 36.039304,1027.5185 35.657937,1027.5177 z m -16.180847,0.327 0.517568,0.7081 -0.517568,-0.2723 L 19.47709,1027.8446 z m -0.871695,0.6809 1.007896,0.2725 -0.136201,0.4087 -0.980659,-0.2181 L 18.605395,1028.5257 z m 1.443744,0.4631 1.797872,0.7628 -0.299645,0.1362 -1.607188,-0.572 L 20.049139,1028.9887 Z"
       id="path1335"
       inkscape:connector-curvature="0" />
  </g>
</svg>
