<?xml version="1.0" encoding="UTF-8" standalone="no"?>
<!-- Created with Inkscape (http://www.inkscape.org/) -->

<svg
   xmlns:dc="http://purl.org/dc/elements/1.1/"
   xmlns:cc="http://creativecommons.org/ns#"
   xmlns:rdf="http://www.w3.org/1999/02/22-rdf-syntax-ns#"
   xmlns:svg="http://www.w3.org/2000/svg"
   xmlns="http://www.w3.org/2000/svg"
   xmlns:xlink="http://www.w3.org/1999/xlink"
   xmlns:sodipodi="http://sodipodi.sourceforge.net/DTD/sodipodi-0.dtd"
   xmlns:inkscape="http://www.inkscape.org/namespaces/inkscape"
   width="48"
   height="48"
   id="svg2"
   version="1.1"
   inkscape:version="0.48+devel r11556"
   sodipodi:docname="xchat.svg">
  <defs
     id="defs4">
    <linearGradient
       id="linearGradient852">
      <stop
         id="stop854"
         offset="0"
         style="stop-color:#e4a300;stop-opacity:1" />
      <stop
         id="stop856"
         offset="1"
         style="stop-color:#c3650d;stop-opacity:1" />
    </linearGradient>
    <linearGradient
       id="linearGradient3804">
      <stop
         style="stop-color:#999999;stop-opacity:1;"
         offset="0"
         id="stop3806" />
      <stop
         style="stop-color:#ffffff;stop-opacity:1;"
         offset="1"
         id="stop3808" />
    </linearGradient>
    <linearGradient
       id="linearGradient3795">
      <stop
         style="stop-color:#7ce400;stop-opacity:1;"
         offset="0"
         id="stop3797" />
      <stop
         style="stop-color:#5fc30d;stop-opacity:1;"
         offset="1"
         id="stop3799" />
    </linearGradient>
    <linearGradient
       id="linearGradient3698">
      <stop
         id="stop3700"
         offset="0"
         style="stop-color:#96d0e1;stop-opacity:1" />
      <stop
         style="stop-color:#89b7e1;stop-opacity:1"
         offset="0.67819428"
         id="stop3706" />
      <stop
         id="stop3702"
         offset="1"
         style="stop-color:#699dd3;stop-opacity:1" />
    </linearGradient>
    <linearGradient
       id="linearGradient3708">
      <stop
         id="stop3710"
         offset="0"
         style="stop-color:#658db6;stop-opacity:1" />
      <stop
         style="stop-color:#527fab;stop-opacity:1;"
         offset="0.76777935"
         id="stop3716" />
      <stop
         id="stop3712"
         offset="1"
         style="stop-color:#4071a0;stop-opacity:1" />
    </linearGradient>
    <linearGradient
       id="linearGradient3750">
      <stop
         style="stop-color:#d0e2f1;stop-opacity:1"
         offset="0"
         id="stop3752" />
      <stop
         id="stop3756"
         offset="0.85580856"
         style="stop-color:#cadef0;stop-opacity:1" />
      <stop
         style="stop-color:#95bee3;stop-opacity:1"
         offset="1"
         id="stop3754" />
    </linearGradient>
    <linearGradient
       id="linearGradient3803">
      <stop
         id="stop3805"
         offset="0"
         style="stop-color:#d7def0;stop-opacity:1;" />
      <stop
         style="stop-color:#ffffff;stop-opacity:1"
         offset="0.5"
         id="stop3811" />
      <stop
         id="stop3807"
         offset="1"
         style="stop-color:#d5def0;stop-opacity:1" />
    </linearGradient>
    <linearGradient
       inkscape:collect="always"
       xlink:href="#linearGradient3795"
       id="linearGradient3859"
       x1="26.192217"
       y1="1024.0002"
       x2="28.641211"
       y2="1024.0002"
       gradientUnits="userSpaceOnUse" />
    <linearGradient
       inkscape:collect="always"
       xlink:href="#linearGradient3795"
       id="linearGradient3867"
       gradientUnits="userSpaceOnUse"
       x1="26.192217"
       y1="1024.0002"
       x2="28.641211"
       y2="1024.0002" />
    <linearGradient
       inkscape:collect="always"
       xlink:href="#linearGradient3795"
       id="linearGradient3869"
       gradientUnits="userSpaceOnUse"
       x1="26.192217"
       y1="1024.0002"
       x2="28.641211"
       y2="1024.0002" />
    <linearGradient
       inkscape:collect="always"
       xlink:href="#linearGradient3795"
       id="linearGradient3871"
       gradientUnits="userSpaceOnUse"
       x1="26.192217"
       y1="1024.0002"
       x2="28.641211"
       y2="1024.0002" />
    <linearGradient
       inkscape:collect="always"
       xlink:href="#linearGradient3795"
       id="linearGradient3877"
       gradientUnits="userSpaceOnUse"
       x1="29.718235"
       y1="1027.8575"
       x2="22.811094"
       y2="1015.5485" />
    <linearGradient
       inkscape:collect="always"
       xlink:href="#linearGradient3795"
       id="linearGradient3879"
       gradientUnits="userSpaceOnUse"
       x1="17.196316"
       y1="1006.2238"
       x2="31.448042"
       y2="1030.9086" />
    <linearGradient
       inkscape:collect="always"
       xlink:href="#linearGradient3795"
       id="linearGradient3895"
       x1="21.973417"
       y1="34.43922"
       x2="42.475323"
       y2="24.798252"
       gradientUnits="userSpaceOnUse" />
    <linearGradient
       inkscape:collect="always"
       xlink:href="#linearGradient3804"
       id="linearGradient3810"
       x1="24.428679"
       y1="1037.3021"
       x2="24.428679"
       y2="1024.0713"
       gradientUnits="userSpaceOnUse" />
    <linearGradient
       inkscape:collect="always"
       xlink:href="#linearGradient3804"
       id="linearGradient3818"
       x1="22.973623"
       y1="1037.491"
       x2="22.973623"
       y2="1023.2142"
       gradientUnits="userSpaceOnUse" />
    <linearGradient
       inkscape:collect="always"
       xlink:href="#linearGradient3804"
       id="linearGradient3023"
       gradientUnits="userSpaceOnUse"
       x1="22.973623"
       y1="1037.491"
       x2="22.973623"
       y2="1023.2142" />
    <linearGradient
       inkscape:collect="always"
       xlink:href="#linearGradient3804"
       id="linearGradient3025"
       gradientUnits="userSpaceOnUse"
       x1="24.428679"
       y1="1037.3021"
       x2="24.428679"
       y2="1024.0713" />
    <linearGradient
       inkscape:collect="always"
       xlink:href="#linearGradient3804"
       id="linearGradient3800"
       x1="41.619999"
       y1="40.650322"
       x2="41.619999"
       y2="13.795001"
       gradientUnits="userSpaceOnUse"
       gradientTransform="matrix(0.35493122,0,0,0.35493122,9.9039088,1016.9606)" />
    <linearGradient
       id="linearGradient3795-2">
      <stop
         style="stop-color:#4793db;stop-opacity:1;"
         offset="0"
         id="stop3797-6" />
      <stop
         style="stop-color:#306497;stop-opacity:1;"
         offset="1"
         id="stop3799-2" />
    </linearGradient>
    <linearGradient
       id="linearGradient3698-4">
      <stop
         id="stop3700-6"
         offset="0"
         style="stop-color:#96d0e1;stop-opacity:1" />
      <stop
         style="stop-color:#89b7e1;stop-opacity:1"
         offset="0.67819428"
         id="stop3706-3" />
      <stop
         id="stop3702-9"
         offset="1"
         style="stop-color:#699dd3;stop-opacity:1" />
    </linearGradient>
    <linearGradient
       id="linearGradient3708-6">
      <stop
         id="stop3710-2"
         offset="0"
         style="stop-color:#658db6;stop-opacity:1" />
      <stop
         style="stop-color:#527fab;stop-opacity:1;"
         offset="0.76777935"
         id="stop3716-2" />
      <stop
         id="stop3712-5"
         offset="1"
         style="stop-color:#4071a0;stop-opacity:1" />
    </linearGradient>
    <linearGradient
       id="linearGradient3750-2">
      <stop
         style="stop-color:#d0e2f1;stop-opacity:1"
         offset="0"
         id="stop3752-0" />
      <stop
         id="stop3756-8"
         offset="0.85580856"
         style="stop-color:#cadef0;stop-opacity:1" />
      <stop
         style="stop-color:#95bee3;stop-opacity:1"
         offset="1"
         id="stop3754-5" />
    </linearGradient>
    <linearGradient
       id="linearGradient3803-5">
      <stop
         id="stop3805-5"
         offset="0"
         style="stop-color:#d7def0;stop-opacity:1;" />
      <stop
         style="stop-color:#ffffff;stop-opacity:1"
         offset="0.5"
         id="stop3811-3" />
      <stop
         id="stop3807-9"
         offset="1"
         style="stop-color:#d5def0;stop-opacity:1" />
    </linearGradient>
    <linearGradient
       inkscape:collect="always"
       xlink:href="#linearGradient3795-2"
       id="linearGradient3801-39"
       x1="23.204165"
       y1="1053.158"
       x2="23.204165"
       y2="1004.8474"
       gradientUnits="userSpaceOnUse"
       gradientTransform="translate(0,-2056.7244)" />
    <linearGradient
       inkscape:collect="always"
       xlink:href="#linearGradient3795-2"
       id="linearGradient3859-2"
       x1="26.192217"
       y1="1024.0002"
       x2="28.641211"
       y2="1024.0002"
       gradientUnits="userSpaceOnUse" />
    <linearGradient
       inkscape:collect="always"
       xlink:href="#linearGradient3795-2"
       id="linearGradient3867-2"
       gradientUnits="userSpaceOnUse"
       x1="26.192217"
       y1="1024.0002"
       x2="28.641211"
       y2="1024.0002" />
    <linearGradient
       inkscape:collect="always"
       xlink:href="#linearGradient3795-2"
       id="linearGradient3869-9"
       gradientUnits="userSpaceOnUse"
       x1="26.192217"
       y1="1024.0002"
       x2="28.641211"
       y2="1024.0002" />
    <linearGradient
       inkscape:collect="always"
       xlink:href="#linearGradient3795-2"
       id="linearGradient3871-9"
       gradientUnits="userSpaceOnUse"
       x1="26.192217"
       y1="1024.0002"
       x2="28.641211"
       y2="1024.0002" />
    <linearGradient
       inkscape:collect="always"
       xlink:href="#linearGradient3795-2"
       id="linearGradient3877-3"
       gradientUnits="userSpaceOnUse"
       x1="29.718235"
       y1="1027.8575"
       x2="22.811094"
       y2="1015.5485" />
    <linearGradient
       inkscape:collect="always"
       xlink:href="#linearGradient3795-2"
       id="linearGradient3879-2"
       gradientUnits="userSpaceOnUse"
       x1="17.196316"
       y1="1006.2238"
       x2="31.448042"
       y2="1030.9086" />
    <linearGradient
       inkscape:collect="always"
       xlink:href="#linearGradient3795-2"
       id="linearGradient3895-9"
       x1="21.973417"
       y1="34.43922"
       x2="42.475323"
       y2="24.798252"
       gradientUnits="userSpaceOnUse" />
    <linearGradient
       inkscape:collect="always"
       xlink:href="#linearGradient3795-4"
       id="linearGradient3801-3"
       x1="23.204165"
       y1="1053.158"
       x2="23.204165"
       y2="1004.8474"
       gradientUnits="userSpaceOnUse" />
    <linearGradient
       id="linearGradient3795-4">
      <stop
         style="stop-color:#9f1e4d;stop-opacity:1;"
         offset="0"
         id="stop3797-9" />
      <stop
         style="stop-color:#d33859;stop-opacity:1;"
         offset="1"
         id="stop3799-1" />
    </linearGradient>
    <linearGradient
       inkscape:collect="always"
       xlink:href="#linearGradient3795-4-6"
       id="linearGradient3151"
       gradientUnits="userSpaceOnUse"
       gradientTransform="matrix(0.96799712,0,0,1.0252613,0.7681219,-2082.7022)"
       x1="24.113745"
       y1="1007.2183"
       x2="24.113745"
       y2="1049.5842" />
    <linearGradient
       id="linearGradient3795-4-6">
      <stop
         style="stop-color:#9f1e4d;stop-opacity:1;"
         offset="0"
         id="stop3797-9-0" />
      <stop
         style="stop-color:#d33859;stop-opacity:1;"
         offset="1"
         id="stop3799-1-0" />
    </linearGradient>
    <linearGradient
       y2="1049.5842"
       x2="24.113745"
       y1="1007.2183"
       x1="24.113745"
       gradientTransform="matrix(0.96799712,0,0,1.0252613,0.76812023,-25.977709)"
       gradientUnits="userSpaceOnUse"
       id="linearGradient955"
       xlink:href="#linearGradient852"
       inkscape:collect="always" />
    <radialGradient
       gradientUnits="userSpaceOnUse"
       gradientTransform="matrix(1,0,0,26.374999,0.40625002,396.82312)"
       r="0.5"
       fy="23.937501"
       fx="24.624999"
       cy="23.937501"
       cx="24.624999"
       id="radialGradient3806"
       xlink:href="#linearGradient3800-6"
       inkscape:collect="always" />
    <radialGradient
       gradientUnits="userSpaceOnUse"
       gradientTransform="matrix(18.751666,2.574892e-5,-8.8637076e-5,64.550002,-436.72636,-516.9917)"
       r="0.5"
       fy="23.937502"
       fx="24.624998"
       cy="23.937502"
       cx="24.624998"
       id="radialGradient3790"
       xlink:href="#linearGradient3784"
       inkscape:collect="always" />
    <linearGradient
       gradientUnits="userSpaceOnUse"
       y2="25.0625"
       x2="45.325001"
       y1="25.0625"
       x1="6.8000002"
       id="linearGradient3920"
       xlink:href="#linearGradient3914"
       inkscape:collect="always" />
    <linearGradient
       id="linearGradient3803-8">
      <stop
         style="stop-color:#d7def0;stop-opacity:1;"
         offset="0"
         id="stop3805-6" />
      <stop
         id="stop3811-0"
         offset="0.5"
         style="stop-color:#ffffff;stop-opacity:1" />
      <stop
         style="stop-color:#d5def0;stop-opacity:1"
         offset="1"
         id="stop3807-7" />
    </linearGradient>
    <linearGradient
       id="linearGradient3750-4">
      <stop
         id="stop3752-4"
         offset="0"
         style="stop-color:#d0e2f1;stop-opacity:1" />
      <stop
         style="stop-color:#cadef0;stop-opacity:1"
         offset="0.85580856"
         id="stop3756-0" />
      <stop
         id="stop3754-7"
         offset="1"
         style="stop-color:#95bee3;stop-opacity:1" />
    </linearGradient>
    <linearGradient
       id="linearGradient3708-9">
      <stop
         style="stop-color:#658db6;stop-opacity:1"
         offset="0"
         id="stop3710-5" />
      <stop
         id="stop3716-7"
         offset="0.76777935"
         style="stop-color:#527fab;stop-opacity:1;" />
      <stop
         style="stop-color:#4071a0;stop-opacity:1"
         offset="1"
         id="stop3712-0" />
    </linearGradient>
    <linearGradient
       id="linearGradient3698-0">
      <stop
         style="stop-color:#96d0e1;stop-opacity:1"
         offset="0"
         id="stop3700-4" />
      <stop
         id="stop3706-8"
         offset="0.67819428"
         style="stop-color:#89b7e1;stop-opacity:1" />
      <stop
         style="stop-color:#699dd3;stop-opacity:1"
         offset="1"
         id="stop3702-8" />
    </linearGradient>
    <linearGradient
       id="linearGradient3914"
       inkscape:collect="always">
      <stop
         id="stop3916"
         offset="0"
         style="stop-color:#59b3e1;stop-opacity:1;" />
      <stop
         id="stop3918"
         offset="1"
         style="stop-color:#59b3e1;stop-opacity:0;" />
    </linearGradient>
    <linearGradient
       id="linearGradient3795-20">
      <stop
         id="stop3797-7"
         offset="0"
         style="stop-color:#5275cc;stop-opacity:1;" />
      <stop
         id="stop3799-25"
         offset="1"
         style="stop-color:#59bee1;stop-opacity:1;" />
    </linearGradient>
    <linearGradient
       id="linearGradient3784"
       inkscape:collect="always">
      <stop
         id="stop3786"
         offset="0"
         style="stop-color:#000000;stop-opacity:1;" />
      <stop
         id="stop3788"
         offset="1"
         style="stop-color:#000000;stop-opacity:0" />
    </linearGradient>
    <linearGradient
       id="linearGradient3800-6"
       inkscape:collect="always">
      <stop
         id="stop3802"
         offset="0"
         style="stop-color:#ffffff;stop-opacity:1;" />
      <stop
         id="stop3804"
         offset="1"
         style="stop-color:#ffffff;stop-opacity:0;" />
    </linearGradient>
  </defs>
  <sodipodi:namedview
     id="base"
     pagecolor="#ffffff"
     bordercolor="#666666"
     borderopacity="1.0"
     inkscape:pageopacity="0.0"
     inkscape:pageshadow="2"
     inkscape:zoom="19.987441"
     inkscape:cx="24.51417"
     inkscape:cy="25.650377"
     inkscape:document-units="px"
     inkscape:current-layer="layer1"
     showgrid="false"
     inkscape:window-width="1366"
     inkscape:window-height="750"
     inkscape:window-x="0"
     inkscape:window-y="0"
     inkscape:window-maximized="1">
    <inkscape:grid
       type="xygrid"
       id="grid3850"
       empspacing="5"
       visible="true"
       enabled="true"
       snapvisiblegridlinesonly="true" />
  </sodipodi:namedview>
  <metadata
     id="metadata7">
    <rdf:RDF>
      <cc:Work
         rdf:about="">
        <dc:format>image/svg+xml</dc:format>
        <dc:type
           rdf:resource="http://purl.org/dc/dcmitype/StillImage" />
        <dc:title />
      </cc:Work>
    </rdf:RDF>
  </metadata>
  <g
     inkscape:label="Capa 1"
     inkscape:groupmode="layer"
     id="layer1"
     transform="translate(0,-1004.3622)">
    <rect
       ry="5.6755357"
       y="1006.0615"
       x="1.6992435"
       height="44.601513"
       width="44.601513"
       id="rect2992"
       style="fill:url(#linearGradient955);fill-opacity:1;stroke:#7d7d7d;stroke-width:0.39848712;stroke-miterlimit:4;stroke-opacity:1;stroke-dasharray:none" />
    <rect
       style="fill:none;stroke:#ffffff;stroke-width:3.65761065;stroke-linecap:round;stroke-linejoin:round;stroke-miterlimit:4;stroke-opacity:1;stroke-dasharray:none"
       id="rect3792"
       width="20.293354"
       height="14.999999"
       x="13.853323"
       y="1018.5487"
       ry="7.4999995" />
    <path
       style="fill:#ffffff;fill-opacity:1;stroke:none"
       inkscape:transform-center-x="-0.86382428"
       inkscape:transform-center-y="-2.9812608e-05"
       d="m 23.293425,1040.0045 0,-7.7972 5.182909,2.9923 z"
       id="path3794"
       inkscape:connector-curvature="0"
       sodipodi:nodetypes="cccc" />
    <g
       style="font-size:14.19724941px;font-style:normal;font-variant:normal;font-weight:normal;font-stretch:normal;line-height:125%;letter-spacing:0px;word-spacing:0px;fill:#ffffff;fill-opacity:1;stroke:none;font-family:Anonymous;-inkscape-font-specification:Anonymous"
       id="text3790">
      <path
         d="m 27.949416,1028.0815 -1.910175,0 0,1.9102 -0.942181,0 0,-1.9102 -2.194121,0 0,1.9102 -0.942181,0 0,-1.9102 -1.910175,0 0,-0.9422 1.910175,0 0,-2.1941 -1.910175,0 0,-0.9293 1.910175,0 0,-1.9102 0.942181,0 0,1.9102 2.194121,0 0,-1.9102 0.942181,0 0,1.9102 1.910175,0 0,0.9293 -1.910175,0 0,2.1941 1.910175,0 0,0.9422 z m -2.852356,-0.9422 0,-2.1941 -2.194121,0 0,2.1941 2.194121,0 z"
         style="fill:#ffffff;font-family:Anonymous;-inkscape-font-specification:Anonymous"
         id="path123" />
    </g>
  </g>
</svg>
