<?xml version="1.0" encoding="UTF-8" standalone="no"?>
<!-- Created with Inkscape (http://www.inkscape.org/) -->

<svg
   xmlns:dc="http://purl.org/dc/elements/1.1/"
   xmlns:cc="http://creativecommons.org/ns#"
   xmlns:rdf="http://www.w3.org/1999/02/22-rdf-syntax-ns#"
   xmlns:svg="http://www.w3.org/2000/svg"
   xmlns="http://www.w3.org/2000/svg"
   xmlns:xlink="http://www.w3.org/1999/xlink"
   xmlns:sodipodi="http://sodipodi.sourceforge.net/DTD/sodipodi-0.dtd"
   xmlns:inkscape="http://www.inkscape.org/namespaces/inkscape"
   width="48"
   height="48"
   id="svg2"
   version="1.1"
   inkscape:version="0.48+devel r11521"
   sodipodi:docname="gnome-settings-theme.svg">
  <defs
     id="defs4">
    <linearGradient
       inkscape:collect="always"
       id="linearGradient1047-7-5">
      <stop
         style="stop-color:#caba1c;stop-opacity:1"
         offset="0"
         id="stop1160" />
      <stop
         style="stop-color:#ff3636;stop-opacity:1"
         offset="1"
         id="stop1162" />
    </linearGradient>
    <linearGradient
       id="linearGradient3795-3">
      <stop
         id="stop1144"
         offset="0"
         style="stop-color:#e7a4e6;stop-opacity:1" />
      <stop
         id="stop1146"
         offset="1"
         style="stop-color:#ce3b87;stop-opacity:1" />
    </linearGradient>
    <linearGradient
       id="linearGradient1047-7"
       inkscape:collect="always">
      <stop
         id="stop1091"
         offset="0"
         style="stop-color:#ca1c1c;stop-opacity:1" />
      <stop
         id="stop1093"
         offset="1"
         style="stop-color:#ff3636;stop-opacity:1" />
    </linearGradient>
    <linearGradient
       id="linearGradient3795-8">
      <stop
         id="stop1071"
         offset="0"
         style="stop-color:#91d868;stop-opacity:1" />
      <stop
         id="stop1073"
         offset="1"
         style="stop-color:#79bd30;stop-opacity:1" />
    </linearGradient>
    <linearGradient
       inkscape:collect="always"
       id="linearGradient1047">
      <stop
         style="stop-color:#1ca4ca;stop-opacity:1"
         offset="0"
         id="stop1049" />
      <stop
         style="stop-color:#36c5ff;stop-opacity:1"
         offset="1"
         id="stop1051" />
    </linearGradient>
    <linearGradient
       id="linearGradient3795">
      <stop
         style="stop-color:#d868d3;stop-opacity:1;"
         offset="0"
         id="stop3797" />
      <stop
         style="stop-color:#bd3096;stop-opacity:1;"
         offset="1"
         id="stop3799" />
    </linearGradient>
    <linearGradient
       id="linearGradient3698">
      <stop
         id="stop3700"
         offset="0"
         style="stop-color:#96d0e1;stop-opacity:1" />
      <stop
         style="stop-color:#89b7e1;stop-opacity:1"
         offset="0.67819428"
         id="stop3706" />
      <stop
         id="stop3702"
         offset="1"
         style="stop-color:#699dd3;stop-opacity:1" />
    </linearGradient>
    <linearGradient
       id="linearGradient3708">
      <stop
         id="stop3710"
         offset="0"
         style="stop-color:#658db6;stop-opacity:1" />
      <stop
         style="stop-color:#527fab;stop-opacity:1;"
         offset="0.76777935"
         id="stop3716" />
      <stop
         id="stop3712"
         offset="1"
         style="stop-color:#4071a0;stop-opacity:1" />
    </linearGradient>
    <linearGradient
       id="linearGradient3750">
      <stop
         style="stop-color:#d0e2f1;stop-opacity:1"
         offset="0"
         id="stop3752" />
      <stop
         id="stop3756"
         offset="0.85580856"
         style="stop-color:#cadef0;stop-opacity:1" />
      <stop
         style="stop-color:#95bee3;stop-opacity:1"
         offset="1"
         id="stop3754" />
    </linearGradient>
    <linearGradient
       id="linearGradient3803">
      <stop
         id="stop3805"
         offset="0"
         style="stop-color:#d7def0;stop-opacity:1;" />
      <stop
         style="stop-color:#ffffff;stop-opacity:1"
         offset="0.5"
         id="stop3811" />
      <stop
         id="stop3807"
         offset="1"
         style="stop-color:#d5def0;stop-opacity:1" />
    </linearGradient>
    <linearGradient
       inkscape:collect="always"
       xlink:href="#linearGradient3795"
       id="linearGradient3859"
       x1="26.192217"
       y1="1024.0002"
       x2="28.641211"
       y2="1024.0002"
       gradientUnits="userSpaceOnUse" />
    <linearGradient
       inkscape:collect="always"
       xlink:href="#linearGradient3795"
       id="linearGradient3867"
       gradientUnits="userSpaceOnUse"
       x1="26.192217"
       y1="1024.0002"
       x2="28.641211"
       y2="1024.0002" />
    <linearGradient
       inkscape:collect="always"
       xlink:href="#linearGradient3795"
       id="linearGradient3869"
       gradientUnits="userSpaceOnUse"
       x1="26.192217"
       y1="1024.0002"
       x2="28.641211"
       y2="1024.0002" />
    <linearGradient
       inkscape:collect="always"
       xlink:href="#linearGradient3795"
       id="linearGradient3871"
       gradientUnits="userSpaceOnUse"
       x1="26.192217"
       y1="1024.0002"
       x2="28.641211"
       y2="1024.0002" />
    <linearGradient
       inkscape:collect="always"
       xlink:href="#linearGradient3795"
       id="linearGradient3877"
       gradientUnits="userSpaceOnUse"
       x1="29.718235"
       y1="1027.8575"
       x2="22.811094"
       y2="1015.5485" />
    <linearGradient
       inkscape:collect="always"
       xlink:href="#linearGradient3795"
       id="linearGradient3879"
       gradientUnits="userSpaceOnUse"
       x1="17.196316"
       y1="1006.2238"
       x2="31.448042"
       y2="1030.9086" />
    <linearGradient
       inkscape:collect="always"
       xlink:href="#linearGradient3795"
       id="linearGradient3895"
       x1="21.973417"
       y1="34.43922"
       x2="42.475323"
       y2="24.798252"
       gradientUnits="userSpaceOnUse" />
    <linearGradient
       id="linearGradient3795-45">
      <stop
         style="stop-color:#68b8d8;stop-opacity:1;"
         offset="0"
         id="stop3797-9" />
      <stop
         style="stop-color:#3097bd;stop-opacity:1;"
         offset="1"
         id="stop3799-2" />
    </linearGradient>
    <linearGradient
       id="linearGradient3698-7">
      <stop
         style="stop-color:#030303;stop-opacity:1;"
         offset="0"
         id="stop3706-7" />
      <stop
         id="stop3702-6"
         offset="1"
         style="stop-color:#b3b3b3;stop-opacity:1;" />
    </linearGradient>
    <linearGradient
       id="linearGradient3708-5">
      <stop
         id="stop3710-7"
         offset="0"
         style="stop-color:#000000;stop-opacity:1" />
      <stop
         style="stop-color:#6f6f6f;stop-opacity:1"
         offset="0.66666085"
         id="stop3716-8" />
      <stop
         id="stop3712-8"
         offset="1"
         style="stop-color:#000000;stop-opacity:1" />
    </linearGradient>
    <linearGradient
       id="linearGradient3750-2">
      <stop
         style="stop-color:#d0e2f1;stop-opacity:1"
         offset="0"
         id="stop3752-4" />
      <stop
         id="stop3756-1"
         offset="0.85580856"
         style="stop-color:#cadef0;stop-opacity:1" />
      <stop
         style="stop-color:#95bee3;stop-opacity:1"
         offset="1"
         id="stop3754-1" />
    </linearGradient>
    <linearGradient
       id="linearGradient3803-7">
      <stop
         id="stop3805-0"
         offset="0"
         style="stop-color:#d7def0;stop-opacity:1;" />
      <stop
         style="stop-color:#ffffff;stop-opacity:1"
         offset="0.5"
         id="stop3811-5" />
      <stop
         id="stop3807-1"
         offset="1"
         style="stop-color:#d5def0;stop-opacity:1" />
    </linearGradient>
    <linearGradient
       inkscape:collect="always"
       xlink:href="#linearGradient3795-45"
       id="linearGradient3801-3"
       x1="23.204165"
       y1="1053.158"
       x2="23.204165"
       y2="1004.8474"
       gradientUnits="userSpaceOnUse"
       gradientTransform="translate(0,-2056.7244)" />
    <linearGradient
       inkscape:collect="always"
       xlink:href="#linearGradient3795-45"
       id="linearGradient3859-1"
       x1="26.192217"
       y1="1024.0002"
       x2="28.641211"
       y2="1024.0002"
       gradientUnits="userSpaceOnUse" />
    <linearGradient
       inkscape:collect="always"
       xlink:href="#linearGradient3795-45"
       id="linearGradient3867-5"
       gradientUnits="userSpaceOnUse"
       x1="26.192217"
       y1="1024.0002"
       x2="28.641211"
       y2="1024.0002" />
    <linearGradient
       inkscape:collect="always"
       xlink:href="#linearGradient3795-45"
       id="linearGradient3869-0"
       gradientUnits="userSpaceOnUse"
       x1="26.192217"
       y1="1024.0002"
       x2="28.641211"
       y2="1024.0002" />
    <linearGradient
       inkscape:collect="always"
       xlink:href="#linearGradient3795-45"
       id="linearGradient3871-9"
       gradientUnits="userSpaceOnUse"
       x1="26.192217"
       y1="1024.0002"
       x2="28.641211"
       y2="1024.0002" />
    <linearGradient
       inkscape:collect="always"
       xlink:href="#linearGradient3795-45"
       id="linearGradient3877-9"
       gradientUnits="userSpaceOnUse"
       x1="29.718235"
       y1="1027.8575"
       x2="22.811094"
       y2="1015.5485" />
    <linearGradient
       inkscape:collect="always"
       xlink:href="#linearGradient3795-45"
       id="linearGradient3879-7"
       gradientUnits="userSpaceOnUse"
       x1="17.196316"
       y1="1006.2238"
       x2="31.448042"
       y2="1030.9086" />
    <linearGradient
       inkscape:collect="always"
       xlink:href="#linearGradient3795-45"
       id="linearGradient3895-9"
       x1="21.973417"
       y1="34.43922"
       x2="42.475323"
       y2="24.798252"
       gradientUnits="userSpaceOnUse" />
    <linearGradient
       inkscape:collect="always"
       xlink:href="#linearGradient3698-7"
       id="linearGradient3828"
       x1="29.543879"
       y1="1025.3817"
       x2="31.992247"
       y2="1025.3817"
       gradientUnits="userSpaceOnUse" />
    <linearGradient
       y2="1049.5842"
       x2="24.113745"
       y1="1007.2183"
       x1="24.113745"
       gradientTransform="matrix(0.96799712,0,0,1.0252613,0.76812014,-25.977808)"
       gradientUnits="userSpaceOnUse"
       id="linearGradient3030"
       xlink:href="#linearGradient3795-4"
       inkscape:collect="always" />
    <linearGradient
       id="linearGradient3795-4">
      <stop
         style="stop-color:#68b8d8;stop-opacity:1;"
         offset="0"
         id="stop3797-8" />
      <stop
         style="stop-color:#3097bd;stop-opacity:1;"
         offset="1"
         id="stop3799-9" />
    </linearGradient>
    <linearGradient
       y2="1049.5842"
       x2="24.113745"
       y1="1007.88"
       x1="24.113745"
       gradientTransform="matrix(0.96799712,0,0,1.0252613,0.76812021,-25.978155)"
       gradientUnits="userSpaceOnUse"
       id="linearGradient3202"
       xlink:href="#linearGradient3795-3"
       inkscape:collect="always" />
    <linearGradient
       y2="1024.0713"
       x2="24.428679"
       y1="1037.3021"
       x1="24.428679"
       gradientUnits="userSpaceOnUse"
       id="linearGradient3025"
       xlink:href="#linearGradient3804"
       inkscape:collect="always" />
    <linearGradient
       y2="1023.2142"
       x2="22.973623"
       y1="1037.491"
       x1="22.973623"
       gradientUnits="userSpaceOnUse"
       id="linearGradient3023"
       xlink:href="#linearGradient3804"
       inkscape:collect="always" />
    <linearGradient
       gradientUnits="userSpaceOnUse"
       y2="1023.2142"
       x2="22.973623"
       y1="1037.491"
       x1="22.973623"
       id="linearGradient3818"
       xlink:href="#linearGradient3804"
       inkscape:collect="always" />
    <linearGradient
       gradientUnits="userSpaceOnUse"
       y2="1024.0713"
       x2="24.428679"
       y1="1037.3021"
       x1="24.428679"
       id="linearGradient3810"
       xlink:href="#linearGradient3804"
       inkscape:collect="always" />
    <linearGradient
       gradientUnits="userSpaceOnUse"
       y2="24.798252"
       x2="42.475323"
       y1="34.43922"
       x1="21.973417"
       id="linearGradient3895-7"
       xlink:href="#linearGradient3795-7"
       inkscape:collect="always" />
    <linearGradient
       y2="1030.9086"
       x2="31.448042"
       y1="1006.2238"
       x1="17.196316"
       gradientUnits="userSpaceOnUse"
       id="linearGradient3879-72"
       xlink:href="#linearGradient3795-7"
       inkscape:collect="always" />
    <linearGradient
       y2="1015.5485"
       x2="22.811094"
       y1="1027.8575"
       x1="29.718235"
       gradientUnits="userSpaceOnUse"
       id="linearGradient3877-7"
       xlink:href="#linearGradient3795-7"
       inkscape:collect="always" />
    <linearGradient
       y2="1024.0002"
       x2="28.641211"
       y1="1024.0002"
       x1="26.192217"
       gradientUnits="userSpaceOnUse"
       id="linearGradient3871-3"
       xlink:href="#linearGradient3795-7"
       inkscape:collect="always" />
    <linearGradient
       y2="1024.0002"
       x2="28.641211"
       y1="1024.0002"
       x1="26.192217"
       gradientUnits="userSpaceOnUse"
       id="linearGradient3869-2"
       xlink:href="#linearGradient3795-7"
       inkscape:collect="always" />
    <linearGradient
       y2="1024.0002"
       x2="28.641211"
       y1="1024.0002"
       x1="26.192217"
       gradientUnits="userSpaceOnUse"
       id="linearGradient3867-3"
       xlink:href="#linearGradient3795-7"
       inkscape:collect="always" />
    <linearGradient
       gradientUnits="userSpaceOnUse"
       y2="1024.0002"
       x2="28.641211"
       y1="1024.0002"
       x1="26.192217"
       id="linearGradient3859-2"
       xlink:href="#linearGradient3795-7"
       inkscape:collect="always" />
    <linearGradient
       id="linearGradient3803-5">
      <stop
         style="stop-color:#d7def0;stop-opacity:1;"
         offset="0"
         id="stop3805-6" />
      <stop
         id="stop3811-3"
         offset="0.5"
         style="stop-color:#ffffff;stop-opacity:1" />
      <stop
         style="stop-color:#d5def0;stop-opacity:1"
         offset="1"
         id="stop3807-6" />
    </linearGradient>
    <linearGradient
       id="linearGradient3750-1">
      <stop
         id="stop3752-7"
         offset="0"
         style="stop-color:#d0e2f1;stop-opacity:1" />
      <stop
         style="stop-color:#cadef0;stop-opacity:1"
         offset="0.85580856"
         id="stop3756-9" />
      <stop
         id="stop3754-0"
         offset="1"
         style="stop-color:#95bee3;stop-opacity:1" />
    </linearGradient>
    <linearGradient
       id="linearGradient3708-9">
      <stop
         style="stop-color:#658db6;stop-opacity:1"
         offset="0"
         id="stop3710-75" />
      <stop
         id="stop3716-9"
         offset="0.76777935"
         style="stop-color:#527fab;stop-opacity:1;" />
      <stop
         style="stop-color:#4071a0;stop-opacity:1"
         offset="1"
         id="stop3712-0" />
    </linearGradient>
    <linearGradient
       id="linearGradient3698-8">
      <stop
         style="stop-color:#96d0e1;stop-opacity:1"
         offset="0"
         id="stop3700-1" />
      <stop
         id="stop3706-0"
         offset="0.67819428"
         style="stop-color:#89b7e1;stop-opacity:1" />
      <stop
         style="stop-color:#699dd3;stop-opacity:1"
         offset="1"
         id="stop3702-8" />
    </linearGradient>
    <linearGradient
       id="linearGradient3795-7">
      <stop
         id="stop3797-3"
         offset="0"
         style="stop-color:#c0c0c0;stop-opacity:1;" />
      <stop
         id="stop3799-91"
         offset="1"
         style="stop-color:#797979;stop-opacity:1;" />
    </linearGradient>
    <linearGradient
       id="linearGradient3804">
      <stop
         id="stop3806"
         offset="0"
         style="stop-color:#999999;stop-opacity:1;" />
      <stop
         id="stop3808"
         offset="1"
         style="stop-color:#ffffff;stop-opacity:1;" />
    </linearGradient>
    <linearGradient
       inkscape:collect="always"
       xlink:href="#linearGradient1047"
       id="linearGradient1053"
       x1="12.896825"
       y1="1086.4098"
       x2="12.896825"
       y2="1038.0897"
       gradientUnits="userSpaceOnUse"
       gradientTransform="translate(-42.228324,0.39249529)" />
    <linearGradient
       inkscape:collect="always"
       xlink:href="#linearGradient3795-8"
       id="linearGradient1063"
       gradientUnits="userSpaceOnUse"
       gradientTransform="matrix(0.79504486,0,0,0.64048411,-37.166642,409.38903)"
       x1="24.113745"
       y1="1007.2183"
       x2="24.113745"
       y2="1049.5842" />
    <linearGradient
       inkscape:collect="always"
       xlink:href="#linearGradient3795"
       id="linearGradient1079"
       gradientUnits="userSpaceOnUse"
       gradientTransform="matrix(0.79504486,0,0,0.64048411,-28.226643,409.38903)"
       x1="24.113745"
       y1="1007.2183"
       x2="24.113745"
       y2="1049.5842" />
    <linearGradient
       inkscape:collect="always"
       xlink:href="#linearGradient1047-7"
       id="linearGradient1087"
       gradientUnits="userSpaceOnUse"
       gradientTransform="matrix(-1,0,0,1,5.2046791,0.39249529)"
       x1="12.896825"
       y1="1086.4098"
       x2="12.896825"
       y2="1038.0897" />
    <radialGradient
       inkscape:collect="always"
       xlink:href="#linearGradient1047-7-5"
       id="radialGradient1156"
       cx="8"
       cy="39.360001"
       fx="8"
       fy="39.360001"
       r="3.2"
       gradientUnits="userSpaceOnUse"
       gradientTransform="matrix(1.5624999,0,0,1.5625006,-4.4999989,-22.500025)" />
    <linearGradient
       inkscape:collect="always"
       xlink:href="#linearGradient3708-5"
       id="linearGradient1178"
       x1="29"
       y1="1047.3622"
       x2="29"
       y2="1041.3622"
       gradientUnits="userSpaceOnUse"
       gradientTransform="matrix(1.3327839,0,0,1,-13.573331,0.53090117)" />
  </defs>
  <sodipodi:namedview
     id="base"
     pagecolor="#ffffff"
     bordercolor="#666666"
     borderopacity="1.0"
     inkscape:pageopacity="0.0"
     inkscape:pageshadow="2"
     inkscape:zoom="14.782147"
     inkscape:cx="37.703747"
     inkscape:cy="21.780968"
     inkscape:document-units="px"
     inkscape:current-layer="layer1"
     showgrid="false"
     inkscape:window-width="1920"
     inkscape:window-height="1035"
     inkscape:window-x="0"
     inkscape:window-y="26"
     inkscape:window-maximized="1">
    <inkscape:grid
       type="xygrid"
       id="grid3850" />
  </sodipodi:namedview>
  <metadata
     id="metadata7">
    <rdf:RDF>
      <cc:Work
         rdf:about="">
        <dc:format>image/svg+xml</dc:format>
        <dc:type
           rdf:resource="http://purl.org/dc/dcmitype/StillImage" />
        <dc:title />
      </cc:Work>
    </rdf:RDF>
  </metadata>
  <g
     inkscape:label="Capa 1"
     inkscape:groupmode="layer"
     id="layer1"
     transform="translate(0,-1004.3622)">
    <rect
       ry="5.6755357"
       y="1006.0615"
       x="1.6992435"
       height="44.601513"
       width="44.601513"
       id="rect2992"
       style="fill:url(#linearGradient3202);fill-opacity:1;stroke:#7d7d7d;stroke-width:0.39848712;stroke-miterlimit:4;stroke-opacity:1;stroke-dasharray:none" />
    <g
       id="g1134"
       transform="translate(42.5,-37.201781)">
      <g
         transform="translate(0.01182245,-7.30555)"
         id="g1105">
        <path
           style="fill:url(#linearGradient1063);fill-opacity:1;stroke:none"
           d="m -27.551116,1054.2681 0,27.6875 9,0 0,-27.6875 -9,0 z"
           id="rect1002"
           inkscape:connector-curvature="0" />
        <path
           style="fill:url(#linearGradient1053);fill-opacity:1;stroke:none"
           d="m -27.409299,1081.9451 -5.589776,0 c -1.964221,0 -3.545526,-1.5813 -3.545526,-3.5455 l 0,-20.6735 c 0,-1.9643 1.581305,-3.4366 3.545526,-3.4366 l 0,0 5.589777,0"
           id="path1035"
           inkscape:connector-curvature="0"
           sodipodi:nodetypes="csssccc" />
        <path
           id="path1077"
           d="m -18.611116,1054.2681 0,27.6875 9.0000003,0 0,-27.6875 -9.0000003,0 z"
           style="fill:url(#linearGradient1079);fill-opacity:1;stroke:none"
           inkscape:connector-curvature="0" />
        <path
           inkscape:connector-curvature="0"
           id="path1085"
           d="m -9.6143469,1081.9451 5.589777,0 c 1.964222,0 3.545526,-1.5813 3.545526,-3.5455 l 0,-20.5645 c 0,-1.9643 -1.581304,-3.5456 -3.545526,-3.5456 l 0,0 -5.589778,0"
           style="fill:url(#linearGradient1087);fill-opacity:1;stroke:none"
           sodipodi:nodetypes="csssccc" />
      </g>
      <path
         inkscape:connector-curvature="0"
         id="path1113"
         d="m -27.5625,1046.9627 0,0.031 -5.4375,0 c -1.964221,0 -3.53125,1.4732 -3.53125,3.4375 l 0,20.6875 c 0,1.9642 1.567029,3.5312 3.53125,3.5312 l 5.4375,0 0.15625,0 8.78125,0 0.0625,0 8.9375,0 5.59375,0 c 1.964222,0 3.5625,-1.567 3.5625,-3.5312 l 0,-20.5938 c 0,-1.9643 -1.598278,-3.5312 -3.5625,-3.5312 l -5.59375,0 0,-0.031 -8.9375,0 -0.0625,0 -8.9375,0 z"
         style="fill:none;stroke:#7d7d7d;stroke-width:0.40000001;stroke-miterlimit:4;stroke-opacity:1;stroke-dasharray:none" />
    </g>
    <rect
       style="fill:url(#linearGradient1178);fill-opacity:1;stroke:none"
       id="rect1164"
       width="35.492058"
       height="3"
       x="6.2539711"
       y="1042.8622"
       ry="1.0309012"
       rx="2.008007" />
    <path
       sodipodi:type="arc"
       style="fill:url(#radialGradient1156);fill-opacity:1;stroke:none"
       id="path1148"
       sodipodi:cx="8"
       sodipodi:cy="40"
       sodipodi:rx="3"
       sodipodi:ry="3"
       d="m 11,40 a 3,3 0 1 1 -6,0 3,3 0 1 1 6,0 z"
       transform="translate(4.4648453,1004.3622)" />
  </g>
</svg>
