<?xml version="1.0" encoding="UTF-8" standalone="no"?>
<!-- Created with Inkscape (http://www.inkscape.org/) -->

<svg
   xmlns:dc="http://purl.org/dc/elements/1.1/"
   xmlns:cc="http://creativecommons.org/ns#"
   xmlns:rdf="http://www.w3.org/1999/02/22-rdf-syntax-ns#"
   xmlns:svg="http://www.w3.org/2000/svg"
   xmlns="http://www.w3.org/2000/svg"
   xmlns:xlink="http://www.w3.org/1999/xlink"
   xmlns:sodipodi="http://sodipodi.sourceforge.net/DTD/sodipodi-0.dtd"
   xmlns:inkscape="http://www.inkscape.org/namespaces/inkscape"
   width="48"
   height="48"
   id="svg2"
   version="1.1"
   inkscape:version="0.48+devel r11521"
   sodipodi:docname="evolution.svg">
  <defs
     id="defs4">
    <linearGradient
       id="linearGradient3864">
      <stop
         style="stop-color:#000000;stop-opacity:1;"
         offset="0"
         id="stop3866" />
      <stop
         style="stop-color:#ffffff;stop-opacity:1;"
         offset="1"
         id="stop3868" />
    </linearGradient>
    <linearGradient
       id="linearGradient3858">
      <stop
         style="stop-color:#b7b7b7;stop-opacity:1;"
         offset="0"
         id="stop3860" />
      <stop
         style="stop-color:#feb81e;stop-opacity:1;"
         offset="1"
         id="stop3862" />
    </linearGradient>
    <linearGradient
       id="linearGradient3932">
      <stop
         id="stop3934"
         offset="0"
         style="stop-color:#b7b7b7;stop-opacity:0.41489363;" />
      <stop
         id="stop3936"
         offset="1"
         style="stop-color:#000000;stop-opacity:0;" />
    </linearGradient>
    <linearGradient
       inkscape:collect="always"
       id="linearGradient3912">
      <stop
         style="stop-color:#ffffff;stop-opacity:1;"
         offset="0"
         id="stop3914" />
      <stop
         style="stop-color:#ffffff;stop-opacity:0;"
         offset="1"
         id="stop3916" />
    </linearGradient>
    <linearGradient
       id="linearGradient3896">
      <stop
         style="stop-color:#a9a9a9;stop-opacity:0.31914893;"
         offset="0"
         id="stop3898" />
      <stop
         style="stop-color:#000000;stop-opacity:0;"
         offset="1"
         id="stop3900" />
    </linearGradient>
    <linearGradient
       id="linearGradient3874">
      <stop
         id="stop3876"
         offset="0"
         style="stop-color:#d0d0d0;stop-opacity:1;" />
      <stop
         id="stop3878"
         offset="1"
         style="stop-color:#ffffff;stop-opacity:1;" />
    </linearGradient>
    <linearGradient
       id="linearGradient3846">
      <stop
         id="stop3848"
         offset="0"
         style="stop-color:#e8bf64;stop-opacity:1;" />
      <stop
         id="stop3850"
         offset="1"
         style="stop-color:#fe9e1e;stop-opacity:1;" />
    </linearGradient>
    <linearGradient
       id="linearGradient3810">
      <stop
         style="stop-color:#b6b6b6;stop-opacity:1;"
         offset="0"
         id="stop3812" />
      <stop
         style="stop-color:#ececec;stop-opacity:1;"
         offset="1"
         id="stop3814" />
    </linearGradient>
    <linearGradient
       id="linearGradient3795">
      <stop
         style="stop-color:#877571;stop-opacity:1;"
         offset="0"
         id="stop3797" />
      <stop
         style="stop-color:#da8686;stop-opacity:1;"
         offset="1"
         id="stop3799" />
    </linearGradient>
    <linearGradient
       id="linearGradient3698">
      <stop
         id="stop3700"
         offset="0"
         style="stop-color:#96d0e1;stop-opacity:1" />
      <stop
         style="stop-color:#89b7e1;stop-opacity:1"
         offset="0.67819428"
         id="stop3706" />
      <stop
         id="stop3702"
         offset="1"
         style="stop-color:#699dd3;stop-opacity:1" />
    </linearGradient>
    <linearGradient
       id="linearGradient3708">
      <stop
         id="stop3710"
         offset="0"
         style="stop-color:#658db6;stop-opacity:1" />
      <stop
         style="stop-color:#527fab;stop-opacity:1;"
         offset="0.76777935"
         id="stop3716" />
      <stop
         id="stop3712"
         offset="1"
         style="stop-color:#4071a0;stop-opacity:1" />
    </linearGradient>
    <linearGradient
       id="linearGradient3750">
      <stop
         style="stop-color:#d0e2f1;stop-opacity:1"
         offset="0"
         id="stop3752" />
      <stop
         id="stop3756"
         offset="0.85580856"
         style="stop-color:#cadef0;stop-opacity:1" />
      <stop
         style="stop-color:#95bee3;stop-opacity:1"
         offset="1"
         id="stop3754" />
    </linearGradient>
    <linearGradient
       id="linearGradient3803">
      <stop
         id="stop3805"
         offset="0"
         style="stop-color:#d7def0;stop-opacity:1;" />
      <stop
         style="stop-color:#ffffff;stop-opacity:1"
         offset="0.5"
         id="stop3811" />
      <stop
         id="stop3807"
         offset="1"
         style="stop-color:#d5def0;stop-opacity:1" />
    </linearGradient>
    <linearGradient
       inkscape:collect="always"
       xlink:href="#linearGradient3810"
       id="linearGradient3801"
       x1="23.204165"
       y1="1053.158"
       x2="23.204165"
       y2="1004.8474"
       gradientUnits="userSpaceOnUse"
       gradientTransform="translate(0,-1004.3622)" />
    <linearGradient
       inkscape:collect="always"
       xlink:href="#linearGradient3795"
       id="linearGradient3859"
       x1="26.192217"
       y1="1024.0002"
       x2="28.641211"
       y2="1024.0002"
       gradientUnits="userSpaceOnUse" />
    <linearGradient
       inkscape:collect="always"
       xlink:href="#linearGradient3795"
       id="linearGradient3867"
       gradientUnits="userSpaceOnUse"
       x1="26.192217"
       y1="1024.0002"
       x2="28.641211"
       y2="1024.0002" />
    <linearGradient
       inkscape:collect="always"
       xlink:href="#linearGradient3795"
       id="linearGradient3869"
       gradientUnits="userSpaceOnUse"
       x1="26.192217"
       y1="1024.0002"
       x2="28.641211"
       y2="1024.0002" />
    <linearGradient
       inkscape:collect="always"
       xlink:href="#linearGradient3795"
       id="linearGradient3871"
       gradientUnits="userSpaceOnUse"
       x1="26.192217"
       y1="1024.0002"
       x2="28.641211"
       y2="1024.0002" />
    <linearGradient
       inkscape:collect="always"
       xlink:href="#linearGradient3795"
       id="linearGradient3877"
       gradientUnits="userSpaceOnUse"
       x1="29.718235"
       y1="1027.8575"
       x2="22.811094"
       y2="1015.5485" />
    <linearGradient
       inkscape:collect="always"
       xlink:href="#linearGradient3795"
       id="linearGradient3879"
       gradientUnits="userSpaceOnUse"
       x1="17.196316"
       y1="1006.2238"
       x2="31.448042"
       y2="1030.9086" />
    <linearGradient
       inkscape:collect="always"
       xlink:href="#linearGradient3795"
       id="linearGradient3895"
       x1="21.973417"
       y1="34.43922"
       x2="42.475323"
       y2="24.798252"
       gradientUnits="userSpaceOnUse" />
    <linearGradient
       inkscape:collect="always"
       xlink:href="#linearGradient3874"
       id="linearGradient3872"
       gradientUnits="userSpaceOnUse"
       x1="23.204165"
       y1="1053.158"
       x2="23.204165"
       y2="1004.8474"
       gradientTransform="matrix(1,0,0,0.58854167,0,-571.35901)" />
    <linearGradient
       inkscape:collect="always"
       xlink:href="#linearGradient3846"
       id="linearGradient3883"
       gradientUnits="userSpaceOnUse"
       x1="23.204165"
       y1="1053.158"
       x2="23.204165"
       y2="1004.8474"
       gradientTransform="matrix(0.91666666,0,0,0.91145833,2,93.177901)" />
    <radialGradient
       inkscape:collect="always"
       xlink:href="#linearGradient3896"
       id="radialGradient3902"
       cx="16.4375"
       cy="38.4375"
       fx="16.4375"
       fy="38.4375"
       r="6.3125"
       gradientUnits="userSpaceOnUse"
       gradientTransform="matrix(1.7283694,0.06726717,-0.03960396,1.0175882,-10.693324,1002.4797)" />
    <radialGradient
       inkscape:collect="always"
       xlink:href="#linearGradient3896"
       id="radialGradient3906"
       gradientUnits="userSpaceOnUse"
       gradientTransform="matrix(1.7283694,-0.06726717,-0.03960396,-1.0175882,5.181676,1082.4322)"
       cx="16.4375"
       cy="38.4375"
       fx="16.4375"
       fy="38.4375"
       r="6.3125" />
    <radialGradient
       inkscape:collect="always"
       xlink:href="#linearGradient3912"
       id="radialGradient3918"
       cx="16.875"
       cy="1042.456"
       fx="16.875"
       fy="1042.456"
       r="7.7907409"
       gradientTransform="matrix(1,0,0,1.0000012,-0.2890625,-0.00121764)"
       gradientUnits="userSpaceOnUse" />
    <radialGradient
       inkscape:collect="always"
       xlink:href="#linearGradient3896"
       id="radialGradient3922"
       gradientUnits="userSpaceOnUse"
       gradientTransform="matrix(1,0,0,1.0000012,-0.59375,-0.00121764)"
       cx="16.875"
       cy="1042.4561"
       fx="16.875"
       fy="1042.4561"
       r="7.790741" />
    <radialGradient
       inkscape:collect="always"
       xlink:href="#linearGradient3932"
       id="radialGradient3930"
       gradientUnits="userSpaceOnUse"
       gradientTransform="matrix(5.0156038,0,1.2043373e-8,1.3769875,-77.433731,979.29063)"
       cx="16.848967"
       cy="39.346973"
       fx="16.848967"
       fy="39.346973"
       r="6.3125" />
    <radialGradient
       inkscape:collect="always"
       xlink:href="#linearGradient3932"
       id="radialGradient3816"
       gradientUnits="userSpaceOnUse"
       gradientTransform="matrix(-6.2257818,0,0,1.1537804,145.86159,988.07311)"
       cx="16.848967"
       cy="39.346973"
       fx="16.848967"
       fy="39.346973"
       r="6.3125" />
    <linearGradient
       inkscape:collect="always"
       xlink:href="#linearGradient6213"
       id="linearGradient3326"
       gradientUnits="userSpaceOnUse"
       gradientTransform="matrix(0.21245266,0,0,0.1920997,-38.717841,976.9585)"
       x1="481.51273"
       y1="182.75591"
       x2="472.16617"
       y2="193.08932" />
    <linearGradient
       id="linearGradient6213">
      <stop
         style="stop-color:#ffffff;stop-opacity:1;"
         offset="0"
         id="stop6215" />
      <stop
         style="stop-color:#000000;stop-opacity:1;"
         offset="1"
         id="stop6217" />
    </linearGradient>
    <linearGradient
       inkscape:collect="always"
       xlink:href="#linearGradient3858"
       id="linearGradient3329"
       gradientUnits="userSpaceOnUse"
       gradientTransform="matrix(0.19133117,0,0,0.18423097,-49.727597,977.93353)"
       x1="479.51547"
       y1="191.57246"
       x2="475.51288"
       y2="195.72931" />
    <linearGradient
       id="linearGradient3674">
      <stop
         id="stop3676"
         offset="0"
         style="stop-color:#ffffff;stop-opacity:1;" />
      <stop
         style="stop-color:#ffffff;stop-opacity:1;"
         offset="0.49646813"
         id="stop6199" />
      <stop
         id="stop3678"
         offset="1"
         style="stop-color:#adadad;stop-opacity:1;" />
    </linearGradient>
    <linearGradient
       inkscape:collect="always"
       xlink:href="#linearGradient6213"
       id="linearGradient3082"
       gradientUnits="userSpaceOnUse"
       gradientTransform="matrix(0.21245266,0,0,0.17997895,-56.170966,978.23972)"
       x1="481.51273"
       y1="182.75591"
       x2="472.16617"
       y2="193.08932" />
    <linearGradient
       inkscape:collect="always"
       xlink:href="#linearGradient3864"
       id="linearGradient3870"
       x1="436.72778"
       y1="228.03995"
       x2="485.89282"
       y2="183.30147"
       gradientUnits="userSpaceOnUse" />
    <linearGradient
       y2="1049.5842"
       x2="24.113745"
       y1="1007.2183"
       x1="24.113745"
       gradientTransform="matrix(0.96799712,0,0,1.0252613,0.76812239,-2082.7023)"
       gradientUnits="userSpaceOnUse"
       id="linearGradient856"
       xlink:href="#linearGradient3795-3"
       inkscape:collect="always" />
    <linearGradient
       id="linearGradient3795-3">
      <stop
         style="stop-color:#9f1e25;stop-opacity:1;"
         offset="0"
         id="stop3797-0" />
      <stop
         style="stop-color:#e16459;stop-opacity:1;"
         offset="1"
         id="stop3799-4" />
    </linearGradient>
  </defs>
  <sodipodi:namedview
     id="base"
     pagecolor="#ffffff"
     bordercolor="#666666"
     borderopacity="1.0"
     inkscape:pageopacity="0.0"
     inkscape:pageshadow="2"
     inkscape:zoom="7.9999996"
     inkscape:cx="25.228594"
     inkscape:cy="18.329729"
     inkscape:document-units="px"
     inkscape:current-layer="layer1"
     showgrid="false"
     inkscape:window-width="1920"
     inkscape:window-height="1035"
     inkscape:window-x="0"
     inkscape:window-y="26"
     inkscape:window-maximized="1">
    <inkscape:grid
       type="xygrid"
       id="grid3850" />
  </sodipodi:namedview>
  <metadata
     id="metadata7">
    <rdf:RDF>
      <cc:Work
         rdf:about="">
        <dc:format>image/svg+xml</dc:format>
        <dc:type
           rdf:resource="http://purl.org/dc/dcmitype/StillImage" />
        <dc:title />
      </cc:Work>
    </rdf:RDF>
  </metadata>
  <g
     inkscape:label="Capa 1"
     inkscape:groupmode="layer"
     id="layer1"
     transform="translate(0,-1004.3622)">
    <path
       style="fill:url(#linearGradient3801);fill-opacity:1;stroke:none"
       d="M 7.375 1.6875 C 4.2307533 1.6875 1.6875 4.2307 1.6875 7.375 L 1.6875 40.625 C 1.6875 43.7693 4.2307533 46.3125 7.375 46.3125 L 40.625 46.3125 C 43.769247 46.3125 46.3125 43.7693 46.3125 40.625 L 46.3125 7.375 C 46.3125 4.2307 43.769247 1.6875 40.625 1.6875 L 7.375 1.6875 z "
       transform="translate(0,1004.3622)"
       id="rect2991" />
    <path
       style="opacity:0.17000002;fill:#7a7a7a;fill-opacity:1;stroke:none"
       d="M 6.0312501,1.6874999 C 3.9372098,2.8964946 1.6875,4.5614835 1.6875,7.375 l 0,33.25 c 0,3.144247 2.5432532,5.6875 5.6875,5.6875 l 33.25,0 c 3.144247,0 5.6875,-2.543253 5.6875,-5.6875 l 0,-33.25 c 0,-3.5766955 -3.163214,-4.6943736 -4.28125,-5.6875001 z"
       transform="translate(0,1004.3622)"
       id="rect3046"
       inkscape:connector-curvature="0"
       sodipodi:nodetypes="csssssscc" />
    <path
       style="fill:url(#linearGradient3883);fill-opacity:1;stroke:none"
       d="m 3.7723705,1008.6122 40.4552595,0 c 0.981893,0 1.77237,0.7905 1.77237,1.7724 l 0,35.8742 c 0,0.9819 -0.790477,1.7724 -1.77237,1.7724 l -40.4552595,0 C 2.7904772,1048.0312 2,1047.2407 2,1046.2588 l 0,-35.8742 c 0,-0.9819 0.7904772,-1.7724 1.7723705,-1.7724 z"
       id="rect3881"
       inkscape:connector-curvature="0"
       sodipodi:nodetypes="sssssssss" />
    <path
       style="fill:url(#linearGradient3872);fill-opacity:1;stroke:none"
       d="M 1.6875 20.03125 L 1.6875 40.625 C 1.6875 43.7693 4.2307533 46.3125 7.375 46.3125 L 40.625 46.3125 C 43.769247 46.3125 46.3125 43.7693 46.3125 40.625 L 46.3125 20.03125 L 24 32.375 L 1.6875 20.03125 z "
       transform="translate(0,1004.3622)"
       id="rect3870" />
    <path
       sodipodi:nodetypes="cc"
       inkscape:connector-curvature="0"
       id="path3904"
       d="M 40.003241,1050.1467 24.621759,1034.7652"
       style="fill:none;stroke:url(#radialGradient3906);stroke-width:0.3;stroke-linecap:butt;stroke-linejoin:miter;stroke-miterlimit:4;stroke-opacity:1;stroke-dasharray:none" />
    <path
       style="fill:none;stroke:url(#radialGradient3902);stroke-width:0.3;stroke-linecap:butt;stroke-linejoin:miter;stroke-miterlimit:4;stroke-opacity:1;stroke-dasharray:none"
       d="M 24.128241,1034.7652 8.7467592,1050.1467"
       id="path3885"
       inkscape:connector-curvature="0"
       sodipodi:nodetypes="cc" />
    <text
       xml:space="preserve"
       style="font-size:18.62982178px;font-style:normal;font-variant:normal;font-weight:bold;font-stretch:normal;line-height:125%;letter-spacing:0px;word-spacing:0px;fill:#ffffff;fill-opacity:1;stroke:none;font-family:Decker;-inkscape-font-specification:Decker Bold"
       x="14.685089"
       y="1025.4402"
       id="text3924"
       sodipodi:linespacing="125%"><tspan
         sodipodi:role="line"
         id="tspan3926"
         x="14.685089"
         y="1025.4402"
         style="font-weight:normal;-inkscape-font-specification:Decker">@</tspan></text>
    <path
       sodipodi:nodetypes="cc"
       inkscape:connector-curvature="0"
       id="path3928"
       d="M 23.787607,1039.71 0,1025.3622"
       style="fill:none;stroke:url(#radialGradient3930);stroke-width:0.30000000999999998;stroke-linecap:butt;stroke-linejoin:miter;stroke-miterlimit:4;stroke-opacity:1;stroke-dasharray:none" />
    <path
       style="fill:none;stroke:url(#radialGradient3816);stroke-width:0.30000000999999998;stroke-linecap:butt;stroke-linejoin:miter;stroke-miterlimit:4;stroke-opacity:1;stroke-dasharray:none"
       d="m 24.25,1039.71 23.787607,-14.3478"
       id="path3814"
       inkscape:connector-curvature="0"
       sodipodi:nodetypes="cc" />
    <path
       sodipodi:nodetypes="cccccc"
       inkscape:connector-curvature="0"
       id="path3283"
       d="m 31.755229,1008.6115 c 6.967516,2.5078 3.438441,9.9421 3.438441,9.9421 2.903791,-2.0897 9.465973,-1.1905 10.812292,-0.1847 l -0.0119,-3.0145 c 0.03278,-5.3925 0.401896,-6.081 -1.464245,-6.7451 z"
       style="fill:url(#linearGradient3329);fill-opacity:1;stroke:none" />
    <path
       style="fill:#d7d7d7;fill-opacity:1;stroke:none"
       d="m 36.5,4.1875 8.098731,0 c 1.915464,0.2817785 1.496886,2.6967991 1.425932,4.5638404 l -6.69e-4,4.5924096 z"
       id="path3874"
       inkscape:connector-curvature="0"
       transform="translate(0,1004.3622)"
       sodipodi:nodetypes="ccccc" />
  </g>
</svg>
