<?xml version="1.0" encoding="UTF-8" standalone="no"?>
<!-- Created with Inkscape (http://www.inkscape.org/) -->

<svg
   xmlns:dc="http://purl.org/dc/elements/1.1/"
   xmlns:cc="http://creativecommons.org/ns#"
   xmlns:rdf="http://www.w3.org/1999/02/22-rdf-syntax-ns#"
   xmlns:svg="http://www.w3.org/2000/svg"
   xmlns="http://www.w3.org/2000/svg"
   xmlns:xlink="http://www.w3.org/1999/xlink"
   xmlns:sodipodi="http://sodipodi.sourceforge.net/DTD/sodipodi-0.dtd"
   xmlns:inkscape="http://www.inkscape.org/namespaces/inkscape"
   width="48"
   height="48"
   id="svg2"
   version="1.1"
   inkscape:version="0.48+devel r11556"
   sodipodi:docname="xfce-filemanager.svg">
  <defs
     id="defs4">
    <linearGradient
       id="linearGradient3822">
      <stop
         style="stop-color:#df9846;stop-opacity:1;"
         offset="0"
         id="stop3824" />
      <stop
         style="stop-color:#f5be63;stop-opacity:1;"
         offset="1"
         id="stop3826" />
    </linearGradient>
    <linearGradient
       id="linearGradient3797">
      <stop
         style="stop-color:#000000;stop-opacity:0.54255319;"
         offset="0"
         id="stop3800" />
      <stop
         style="stop-color:#000000;stop-opacity:0;"
         offset="1"
         id="stop3802" />
    </linearGradient>
    <linearGradient
       id="linearGradient3786">
      <stop
         id="stop3788"
         offset="0"
         style="stop-color:#bd792b;stop-opacity:1;" />
      <stop
         id="stop3790"
         offset="1"
         style="stop-color:#eba93a;stop-opacity:1;" />
    </linearGradient>
    <linearGradient
       id="linearGradient3795">
      <stop
         style="stop-color:#52a2cc;stop-opacity:1;"
         offset="0"
         id="stop3797" />
      <stop
         style="stop-color:#59b3e1;stop-opacity:1;"
         offset="1"
         id="stop3799" />
    </linearGradient>
    <linearGradient
       inkscape:collect="always"
       id="linearGradient3914">
      <stop
         style="stop-color:#59b3e1;stop-opacity:1;"
         offset="0"
         id="stop3916" />
      <stop
         style="stop-color:#59b3e1;stop-opacity:0;"
         offset="1"
         id="stop3918" />
    </linearGradient>
    <linearGradient
       id="linearGradient3698">
      <stop
         id="stop3700"
         offset="0"
         style="stop-color:#96d0e1;stop-opacity:1" />
      <stop
         style="stop-color:#89b7e1;stop-opacity:1"
         offset="0.67819428"
         id="stop3706" />
      <stop
         id="stop3702"
         offset="1"
         style="stop-color:#699dd3;stop-opacity:1" />
    </linearGradient>
    <linearGradient
       id="linearGradient3708">
      <stop
         id="stop3710"
         offset="0"
         style="stop-color:#658db6;stop-opacity:1" />
      <stop
         style="stop-color:#527fab;stop-opacity:1;"
         offset="0.76777935"
         id="stop3716" />
      <stop
         id="stop3712"
         offset="1"
         style="stop-color:#4071a0;stop-opacity:1" />
    </linearGradient>
    <linearGradient
       id="linearGradient3750">
      <stop
         style="stop-color:#d0e2f1;stop-opacity:1"
         offset="0"
         id="stop3752" />
      <stop
         id="stop3756"
         offset="0.85580856"
         style="stop-color:#cadef0;stop-opacity:1" />
      <stop
         style="stop-color:#95bee3;stop-opacity:1"
         offset="1"
         id="stop3754" />
    </linearGradient>
    <linearGradient
       id="linearGradient3803">
      <stop
         id="stop3805"
         offset="0"
         style="stop-color:#d7def0;stop-opacity:1;" />
      <stop
         style="stop-color:#ffffff;stop-opacity:1"
         offset="0.5"
         id="stop3811" />
      <stop
         id="stop3807"
         offset="1"
         style="stop-color:#d5def0;stop-opacity:1" />
    </linearGradient>
    <linearGradient
       inkscape:collect="always"
       xlink:href="#linearGradient3914"
       id="linearGradient3920"
       x1="6.8000002"
       y1="25.0625"
       x2="45.325001"
       y2="25.0625"
       gradientUnits="userSpaceOnUse" />
    <linearGradient
       inkscape:collect="always"
       xlink:href="#linearGradient3786"
       id="linearGradient3801"
       x1="23.204165"
       y1="1053.158"
       x2="23.204165"
       y2="1004.8474"
       gradientUnits="userSpaceOnUse"
       gradientTransform="matrix(1,0,0,0.87478318,0,131.77345)" />
    <linearGradient
       inkscape:collect="always"
       xlink:href="#linearGradient3786"
       id="linearGradient3016"
       gradientUnits="userSpaceOnUse"
       gradientTransform="matrix(0.5912039,0,0,0.19884592,0,804.66323)"
       x1="23.204165"
       y1="1199.4276"
       x2="23.204165"
       y2="1041.7751" />
    <linearGradient
       inkscape:collect="always"
       xlink:href="#linearGradient3797"
       id="linearGradient3804"
       x1="48.097301"
       y1="1014.7087"
       x2="24.170286"
       y2="1014.7087"
       gradientUnits="userSpaceOnUse"
       gradientTransform="matrix(0.98452226,0,0,1,0.43312775,0)" />
    <linearGradient
       inkscape:collect="always"
       xlink:href="#linearGradient3786"
       id="linearGradient3808"
       gradientUnits="userSpaceOnUse"
       gradientTransform="matrix(0.5912039,0,0,0.19884592,19.622213,805.33142)"
       x1="23.204165"
       y1="1199.4276"
       x2="23.204165"
       y2="1041.7751" />
    <linearGradient
       inkscape:collect="always"
       xlink:href="#linearGradient3786"
       id="linearGradient3817"
       gradientUnits="userSpaceOnUse"
       gradientTransform="matrix(0.5912039,0,0,0.19884592,19.622213,805.33142)"
       x1="23.204165"
       y1="1199.4276"
       x2="23.204165"
       y2="1041.7751" />
    <linearGradient
       inkscape:collect="always"
       xlink:href="#linearGradient3786"
       id="linearGradient3819"
       gradientUnits="userSpaceOnUse"
       gradientTransform="matrix(0.5912039,0,0,0.19884592,0,804.66323)"
       x1="23.204165"
       y1="1199.4276"
       x2="23.204165"
       y2="1041.7751" />
    <linearGradient
       inkscape:collect="always"
       xlink:href="#linearGradient3797"
       id="linearGradient3821"
       gradientUnits="userSpaceOnUse"
       gradientTransform="matrix(0.98452226,0,0,1,0.43312775,0)"
       x1="48.097301"
       y1="1014.7087"
       x2="24.170286"
       y2="1014.7087" />
    <linearGradient
       inkscape:collect="always"
       xlink:href="#linearGradient3786"
       id="linearGradient3823"
       gradientUnits="userSpaceOnUse"
       gradientTransform="matrix(1,0,0,0.87478318,0,131.77345)"
       x1="23.204165"
       y1="1053.158"
       x2="23.204165"
       y2="1004.8474" />
    <linearGradient
       inkscape:collect="always"
       xlink:href="#linearGradient3786"
       id="linearGradient3027"
       gradientUnits="userSpaceOnUse"
       gradientTransform="matrix(1,0,0,0.87504413,0,131.49887)"
       x1="23.204165"
       y1="1053.158"
       x2="23.204165"
       y2="1004.8474" />
    <linearGradient
       inkscape:collect="always"
       xlink:href="#linearGradient3797"
       id="linearGradient3030"
       gradientUnits="userSpaceOnUse"
       gradientTransform="matrix(0.98452226,0,0,1.0002983,0.43312775,-0.31388924)"
       x1="48.097301"
       y1="1014.7087"
       x2="24.170286"
       y2="1014.7087" />
    <linearGradient
       inkscape:collect="always"
       xlink:href="#linearGradient3786"
       id="linearGradient3033"
       gradientUnits="userSpaceOnUse"
       gradientTransform="matrix(0.5912039,0,0,0.19890524,0,804.58937)"
       x1="23.204165"
       y1="1199.4276"
       x2="23.204165"
       y2="1041.7751" />
    <linearGradient
       inkscape:collect="always"
       xlink:href="#linearGradient3786"
       id="linearGradient3037"
       gradientUnits="userSpaceOnUse"
       gradientTransform="matrix(0.5912039,0,0,0.19890524,19.622213,805.25776)"
       x1="23.204165"
       y1="1199.4276"
       x2="23.204165"
       y2="1041.7751" />
    <linearGradient
       inkscape:collect="always"
       xlink:href="#linearGradient3786"
       id="linearGradient3041"
       gradientUnits="userSpaceOnUse"
       gradientTransform="matrix(0.5912039,0,0,0.19890524,0,-199.77283)"
       x1="23.204165"
       y1="1199.4276"
       x2="23.204165"
       y2="1041.7751" />
    <linearGradient
       inkscape:collect="always"
       xlink:href="#linearGradient3822"
       id="linearGradient3828"
       gradientUnits="userSpaceOnUse"
       gradientTransform="matrix(0.5912039,0,0,0.19890524,56.565088,804.55182)"
       x1="23.204165"
       y1="1199.4276"
       x2="23.204165"
       y2="1041.7751" />
    <linearGradient
       inkscape:collect="always"
       xlink:href="#linearGradient3786"
       id="linearGradient3836"
       x1="26.184299"
       y1="1053.0715"
       x2="26.184299"
       y2="991.72864"
       gradientUnits="userSpaceOnUse"
       gradientTransform="translate(56.582137,0)" />
    <linearGradient
       inkscape:collect="always"
       xlink:href="#linearGradient3822"
       id="linearGradient3874"
       gradientUnits="userSpaceOnUse"
       gradientTransform="matrix(0.5912039,0,0,0.19890524,56.565088,804.55182)"
       x1="23.204165"
       y1="1199.4276"
       x2="23.204165"
       y2="1041.7751" />
    <linearGradient
       inkscape:collect="always"
       xlink:href="#linearGradient3786"
       id="linearGradient3876"
       gradientUnits="userSpaceOnUse"
       gradientTransform="translate(56.582137,0)"
       x1="26.184299"
       y1="1053.0715"
       x2="26.184299"
       y2="991.72864" />
    <linearGradient
       inkscape:collect="always"
       xlink:href="#linearGradient3822"
       id="linearGradient3888"
       gradientUnits="userSpaceOnUse"
       gradientTransform="matrix(0.5912039,0,0,0.19890524,56.565088,804.55182)"
       x1="23.204165"
       y1="1199.4276"
       x2="23.204165"
       y2="1041.7751" />
    <linearGradient
       inkscape:collect="always"
       xlink:href="#linearGradient3786"
       id="linearGradient3890"
       gradientUnits="userSpaceOnUse"
       gradientTransform="translate(56.582137,0)"
       x1="26.184299"
       y1="1053.0715"
       x2="26.184299"
       y2="991.72864" />
    <linearGradient
       inkscape:collect="always"
       xlink:href="#linearGradient3786"
       id="linearGradient3904"
       gradientUnits="userSpaceOnUse"
       gradientTransform="matrix(0.5912039,0,0,0.19890524,19.622213,805.25776)"
       x1="23.204165"
       y1="1199.4276"
       x2="23.204165"
       y2="1041.7751" />
    <linearGradient
       inkscape:collect="always"
       xlink:href="#linearGradient3822"
       id="linearGradient3906"
       gradientUnits="userSpaceOnUse"
       gradientTransform="matrix(0.5912039,0,0,0.19890524,56.565088,804.55182)"
       x1="23.204165"
       y1="1199.4276"
       x2="23.204165"
       y2="1041.7751" />
    <linearGradient
       inkscape:collect="always"
       xlink:href="#linearGradient3786"
       id="linearGradient3908"
       gradientUnits="userSpaceOnUse"
       gradientTransform="translate(56.582137,0)"
       x1="26.184299"
       y1="1053.0715"
       x2="26.184299"
       y2="991.72864" />
    <linearGradient
       inkscape:collect="always"
       xlink:href="#linearGradient3786"
       id="linearGradient3921"
       gradientUnits="userSpaceOnUse"
       gradientTransform="matrix(0.5912039,0,0,0.19890524,19.622213,805.25776)"
       x1="23.204165"
       y1="1199.4276"
       x2="23.204165"
       y2="1041.7751" />
    <linearGradient
       inkscape:collect="always"
       xlink:href="#linearGradient3822"
       id="linearGradient3923"
       gradientUnits="userSpaceOnUse"
       gradientTransform="matrix(0.5912039,0,0,0.19890524,56.565088,804.55182)"
       x1="23.204165"
       y1="1199.4276"
       x2="23.204165"
       y2="1041.7751" />
    <linearGradient
       inkscape:collect="always"
       xlink:href="#linearGradient3786"
       id="linearGradient3925"
       gradientUnits="userSpaceOnUse"
       gradientTransform="translate(56.582137,0)"
       x1="26.184299"
       y1="1053.0715"
       x2="26.184299"
       y2="991.72864" />
    <linearGradient
       inkscape:collect="always"
       xlink:href="#linearGradient3822"
       id="linearGradient3935"
       gradientUnits="userSpaceOnUse"
       gradientTransform="matrix(0.5912039,0,0,0.19890524,56.565088,804.55182)"
       x1="23.204165"
       y1="1199.4276"
       x2="23.204165"
       y2="1041.7751" />
    <linearGradient
       inkscape:collect="always"
       xlink:href="#linearGradient3786"
       id="linearGradient3937"
       gradientUnits="userSpaceOnUse"
       gradientTransform="translate(56.582137,0)"
       x1="26.184299"
       y1="1053.0715"
       x2="26.184299"
       y2="991.72864" />
    <linearGradient
       inkscape:collect="always"
       xlink:href="#linearGradient3822"
       id="linearGradient3945"
       gradientUnits="userSpaceOnUse"
       gradientTransform="matrix(0.5912039,0,0,0.19890524,56.565088,804.55182)"
       x1="23.204165"
       y1="1199.4276"
       x2="23.204165"
       y2="1041.7751" />
    <linearGradient
       inkscape:collect="always"
       xlink:href="#linearGradient3786"
       id="linearGradient3947"
       gradientUnits="userSpaceOnUse"
       gradientTransform="translate(56.582137,0)"
       x1="26.184299"
       y1="1053.0715"
       x2="26.184299"
       y2="991.72864" />
    <linearGradient
       inkscape:collect="always"
       xlink:href="#linearGradient3786"
       id="linearGradient3950"
       gradientUnits="userSpaceOnUse"
       gradientTransform="translate(0.017049,-0.0334048)"
       x1="26.184299"
       y1="1053.0715"
       x2="26.184299"
       y2="991.72864" />
    <linearGradient
       inkscape:collect="always"
       xlink:href="#linearGradient3822"
       id="linearGradient3953"
       gradientUnits="userSpaceOnUse"
       gradientTransform="matrix(0.5912039,0,0,0.19890524,0,804.51842)"
       x1="23.204165"
       y1="1199.4276"
       x2="23.204165"
       y2="1041.7751" />
    <linearGradient
       inkscape:collect="always"
       xlink:href="#linearGradient3822"
       id="linearGradient3834"
       gradientUnits="userSpaceOnUse"
       gradientTransform="matrix(0.5912039,0,0,0.19890524,0,-199.84378)"
       x1="23.204165"
       y1="1199.4276"
       x2="23.204165"
       y2="1041.7751" />
    <linearGradient
       y2="1049.5842"
       x2="24.113745"
       y1="1007.2183"
       x1="24.113745"
       gradientTransform="matrix(0.96799712,0,0,1.0252613,0.76812014,-25.977808)"
       gradientUnits="userSpaceOnUse"
       id="linearGradient3030-5"
       xlink:href="#linearGradient3795-1"
       inkscape:collect="always" />
    <linearGradient
       id="linearGradient3795-1">
      <stop
         style="stop-color:#68b8d8;stop-opacity:1;"
         offset="0"
         id="stop3797-5" />
      <stop
         style="stop-color:#3097bd;stop-opacity:1;"
         offset="1"
         id="stop3799-6" />
    </linearGradient>
    <linearGradient
       y2="1049.5842"
       x2="24.113745"
       y1="1007.2183"
       x1="24.113745"
       gradientTransform="matrix(0.96799712,0,0,1.0252613,0.76812014,-25.977808)"
       gradientUnits="userSpaceOnUse"
       id="linearGradient3030-8"
       xlink:href="#linearGradient3795-0"
       inkscape:collect="always" />
    <linearGradient
       id="linearGradient3795-0">
      <stop
         style="stop-color:#68b8d8;stop-opacity:1;"
         offset="0"
         id="stop3797-3" />
      <stop
         style="stop-color:#3097bd;stop-opacity:1;"
         offset="1"
         id="stop3799-1" />
    </linearGradient>
    <linearGradient
       y2="1049.5842"
       x2="24.113745"
       y1="1007.2183"
       x1="24.113745"
       gradientTransform="matrix(0.96799712,0,0,1.0252613,0.76812014,-25.977808)"
       gradientUnits="userSpaceOnUse"
       id="linearGradient3030-6"
       xlink:href="#linearGradient3795-9"
       inkscape:collect="always" />
    <linearGradient
       id="linearGradient3795-9">
      <stop
         style="stop-color:#68b8d8;stop-opacity:1;"
         offset="0"
         id="stop3797-7" />
      <stop
         style="stop-color:#3097bd;stop-opacity:1;"
         offset="1"
         id="stop3799-8" />
    </linearGradient>
    <linearGradient
       inkscape:collect="always"
       xlink:href="#linearGradient3786"
       id="linearGradient4118"
       x1="25.817127"
       y1="1053.2878"
       x2="25.817127"
       y2="1005.4697"
       gradientUnits="userSpaceOnUse" />
  </defs>
  <sodipodi:namedview
     id="base"
     pagecolor="#ffffff"
     bordercolor="#666666"
     borderopacity="1.0"
     inkscape:pageopacity="0.0"
     inkscape:pageshadow="2"
     inkscape:zoom="8.8437502"
     inkscape:cx="-13.213159"
     inkscape:cy="18.934484"
     inkscape:document-units="px"
     inkscape:current-layer="layer1"
     showgrid="false"
     inkscape:window-width="1366"
     inkscape:window-height="750"
     inkscape:window-x="0"
     inkscape:window-y="0"
     inkscape:window-maximized="1" />
  <metadata
     id="metadata7">
    <rdf:RDF>
      <cc:Work
         rdf:about="">
        <dc:format>image/svg+xml</dc:format>
        <dc:type
           rdf:resource="http://purl.org/dc/dcmitype/StillImage" />
        <dc:title />
      </cc:Work>
    </rdf:RDF>
  </metadata>
  <g
     inkscape:label="Capa 1"
     inkscape:groupmode="layer"
     id="layer1"
     transform="translate(0,-1004.3622)">
    <path
       style="fill:none;stroke:url(#linearGradient4118);stroke-width:1.398;stroke-miterlimit:4;stroke-opacity:1"
       d="m 7.3747792,1006.0615 33.2504418,0 c 3.144247,0 5.675535,2.5313 5.675535,5.6756 l 0,33.2504 c 0,3.1442 -2.531288,5.6755 -5.675535,5.6755 l -33.2504418,0 c -3.1442467,0 -5.6755357,-2.5313 -5.6755357,-5.6755 l 0,-33.2504 c 0,-3.1443 2.531289,-5.6756 5.6755357,-5.6756 z"
       id="rect2992" />
    <path
       style="fill:#c58429;fill-opacity:1;stroke:none"
       d="M 19.71875 1.6875 C 19.653206 1.9052071 19.625 2.1353728 19.625 2.375 L 19.625 7.84375 C 19.625 9.1567756 20.686974 10.21875 22 10.21875 L 45.625 10.21875 C 45.866085 10.21875 46.093633 10.160064 46.3125 10.09375 L 46.3125 7.375 C 46.3125 4.2307532 43.769247 1.6875 40.625 1.6875 L 19.71875 1.6875 z "
       transform="translate(0,1004.3622)"
       id="rect3806" />
    <path
       style="opacity:0.25;fill:#000000;fill-opacity:1;stroke:none"
       d="m 4.8347533,1007.785 37.0541417,0 c 1.281471,0 2.313124,1.0316 2.313124,2.3131 l 0,34.8582 c 0,1.2815 -1.031653,2.3131 -2.313124,2.3131 l -37.0541417,0 c -1.2814706,0 -2.3131237,-1.0316 -2.3131237,-2.3131 l 0,-34.8582 c 0,-1.2815 1.0316531,-2.3131 2.3131237,-2.3131 z"
       id="rect3838" />
    <path
       style="fill:#ffffff;fill-opacity:1;stroke:none"
       d="m 6.0233202,1007.7235 35.9533598,0 c 1.261693,0 2.277425,1.0157 2.277425,2.2774 l 0,36.7225 c 0,1.2617 -1.015732,2.2775 -2.277425,2.2775 l -35.9533598,0 c -1.2616933,0 -2.2774248,-1.0158 -2.2774248,-2.2775 l 0,-36.7225 c 0,-1.2617 1.0157315,-2.2774 2.2774248,-2.2774 z"
       id="rect3050" />
    <path
       style="fill:url(#linearGradient3834);fill-opacity:1;stroke:none;opacity:1"
       d="M 7.375 1.6875 C 4.2307532 1.6875 1.6875 4.2307532 1.6875 7.375 L 1.6875 40.625 C 1.6875 43.769247 4.2307532 46.3125 7.375 46.3125 L 40.625 46.3125 C 43.769247 46.3125 46.3125 43.769247 46.3125 40.625 L 46.3125 7.375 C 46.3125 6.9925916 46.258934 6.6108238 46.1875 6.25 L 27.34375 6.25 L 27.34375 2.40625 C 27.34375 2.1600438 27.319325 1.9106998 27.25 1.6875 L 7.375 1.6875 z "
       transform="translate(0,1004.3622)"
       id="rect3014" />
    <path
       style="opacity:0.18390808;fill:#ffffff;fill-opacity:1;stroke:none"
       d="m 6.1772947,1007.9003 10.3517343,0 10.351735,0 7.47097,0 7.47097,0 c 1.250887,0 2.257919,1.0071 2.257919,2.2579 l 0,36.4079 c 0,1.251 -1.007032,2.258 -2.257919,2.258 l -35.6454093,0 c -1.2508866,0 -2.2579181,-1.007 -2.2579181,-2.258 l 0,-36.4079 c 0,-1.2508 1.0070315,-2.2579 2.2579181,-2.2579 z"
       id="rect4125"
       inkscape:connector-curvature="0"
       sodipodi:nodetypes="scccssssssss" />
    <g
       style="font-size:4.63344955px;font-style:normal;font-variant:normal;font-weight:bold;font-stretch:normal;line-height:125%;letter-spacing:0px;word-spacing:0px;fill:#c88515;fill-opacity:1;stroke:none;font-family:Europe Underground;-inkscape-font-specification:Europe Underground Bold"
       id="text3057">
      <path
         d="m 15.438309,1042.9824 0,1.1213 1.519772,0 0,0.556 -1.519772,0 0,1.8117 -0.556014,0 0,-4.045 2.075786,0.01 0,0.556 -1.519772,-0.01 0,0 z"
         style=""
         id="path96" />
      <path
         d="m 17.27359,1046.4482 0,-2.7986 0.556014,0 0,2.7986 -0.556014,0 z m 0,-3.4797 0.556014,0 0,0.5838 -0.556014,0 0,-0.5838 z"
         style=""
         id="path98" />
      <path
         d="m 18.717126,1046.4482 -0.556014,0 0,-3.7716 0.556014,0 0,3.7716 0,0 0,0 z"
         style=""
         id="path100" />
      <path
         d="m 21.474825,1045.4799 q -0.13437,0.4123 -0.449444,0.6811 -0.166804,0.1436 -0.366043,0.2177 -0.199238,0.07 -0.412377,0.07 -0.259473,0 -0.514313,-0.1158 -0.120469,-0.06 -0.222405,-0.1344 -0.101936,-0.079 -0.189972,-0.1807 -0.176071,-0.2038 -0.273373,-0.4587 -0.09267,-0.2594 -0.09267,-0.5421 0,-0.2826 0.09267,-0.5375 0.0973,-0.2594 0.278007,-0.4679 0.176071,-0.1947 0.412377,-0.3105 0.250206,-0.1205 0.509679,-0.1205 0.25484,0 0.500413,0.102 0.240939,0.1065 0.412377,0.2919 0.185338,0.19 0.28264,0.4402 0.0973,0.2502 0.0973,0.5282 l 0,0.278 -2.010917,0 q 0.0278,0.1436 0.09267,0.2687 0.0695,0.1205 0.16217,0.2132 0.0973,0.088 0.213139,0.139 0.12047,0.051 0.250206,0.051 0.194605,0 0.361409,-0.1065 0.166804,-0.1112 0.264107,-0.3058 l 0.602348,0 z m -1.227864,-1.3437 q -0.222405,0 -0.407743,0.1482 -0.180705,0.1483 -0.26874,0.38 l 1.366867,0 q -0.07414,-0.2363 -0.259473,-0.38 -0.185338,-0.1482 -0.430911,-0.1482 z"
         style=""
         id="path102" />
      <path
         d="m 24.605662,1046.4668 -0.556014,0 0,-3.9848 0.630149,0 1.288099,2.9932 1.204697,-2.9932 0.616249,0 0,3.9848 -0.556014,0 0,-2.6504 -1.065694,2.6504 -0.375309,0 -1.186163,-2.7477 0,2.7477 0,0 z"
         style=""
         id="path104" />
      <path
         d="m 29.886201,1043.9323 q 0.162171,0.1622 0.245573,0.366 0.08804,0.2039 0.08804,0.4309 l 0,1.7422 -0.556014,0 0,-0.2548 q -0.06487,0.056 -0.13437,0.1019 -0.06487,0.046 -0.143637,0.083 -0.24094,0.1158 -0.486512,0.1158 -0.180705,0 -0.347509,-0.06 -0.166804,-0.06 -0.296541,-0.1714 -0.143637,-0.1251 -0.222406,-0.2873 -0.07413,-0.1668 -0.07413,-0.3614 0,-0.1622 0.03707,-0.278 0.0417,-0.1205 0.101936,-0.2039 0.06023,-0.088 0.13437,-0.1436 0.07877,-0.056 0.14827,-0.088 0.157537,-0.07 0.333609,-0.083 0.176071,-0.019 0.352142,-0.019 l 0.0695,0 0.0695,0 q 0.111203,0 0.222406,-0 0.115836,-0.01 0.180704,-0.037 0.0278,-0.01 0.03707,-0.023 0.0046,-0 0.0093,-0.023 0.0046,-0.019 0.0046,-0.06 -0.0093,-0.1065 -0.06023,-0.1992 -0.04633,-0.097 -0.125103,-0.1668 -0.07414,-0.07 -0.176071,-0.1066 -0.0973,-0.042 -0.208505,-0.042 -0.12047,0 -0.227039,0.046 -0.101936,0.042 -0.180705,0.1204 -0.07877,0.079 -0.125103,0.1854 -0.04633,0.1019 -0.04633,0.2177 l -0.556014,0 q 0,-0.227 0.0834,-0.4309 0.08803,-0.2038 0.250206,-0.366 0.162171,-0.1622 0.366043,-0.2456 0.203871,-0.083 0.435544,-0.083 0.227039,0 0.430911,0.083 0.203872,0.083 0.366042,0.2456 z m -0.505046,1.7746 q 0.0556,-0.069 0.101936,-0.1529 0.04633,-0.088 0.07877,-0.1946 -0.08804,0.014 -0.180705,0.018 -0.08804,0 -0.176071,0 l -0.0695,0 -0.0695,0 q -0.12047,0 -0.250207,0.01 -0.125103,0 -0.203871,0.042 -0.03243,0.014 -0.06487,0.051 -0.03243,0.032 -0.03243,0.1575 0,0.079 0.03243,0.139 0.03243,0.06 0.08804,0.1019 0.0556,0.042 0.125103,0.065 0.0695,0.019 0.139004,0.019 0.0417,0 0.0973,-0.01 0.0556,-0.01 0.115836,-0.033 0.06487,-0.028 0.13437,-0.079 0.0695,-0.051 0.13437,-0.1344 z"
         style=""
         id="path106" />
      <path
         d="m 32.64028,1044.0111 q 0.176071,0.2085 0.26874,0.4633 0.0973,0.2548 0.0973,0.5421 l 0,1.4317 -0.556014,0 0,-1.4317 q 0,-0.1807 -0.06023,-0.3429 -0.0556,-0.1621 -0.157537,-0.278 -0.101936,-0.1204 -0.236306,-0.1899 -0.129737,-0.07 -0.282641,-0.07 -0.152903,0 -0.287273,0.07 -0.134371,0.07 -0.236306,0.1899 -0.101936,0.1159 -0.162171,0.278 -0.0556,0.1622 -0.0556,0.3429 l -0.0046,0 0,1.4364 -0.556014,0 0,-2.7616 0.556014,0 0,0.1483 q 0.0973,-0.079 0.227039,-0.139 0.250206,-0.1205 0.518946,-0.1205 0.264107,0 0.514313,0.1205 0.236306,0.1158 0.412377,0.3105 z"
         style=""
         id="path108" />
      <path
         d="m 35.107881,1043.9323 q 0.162171,0.1622 0.245573,0.366 0.08803,0.2039 0.08803,0.4309 l 0,1.7422 -0.556014,0 0,-0.2548 q -0.06487,0.056 -0.13437,0.1019 -0.06487,0.046 -0.143637,0.083 -0.240939,0.1158 -0.486512,0.1158 -0.180704,0 -0.347508,-0.06 -0.166805,-0.06 -0.296541,-0.1714 -0.143637,-0.1251 -0.222406,-0.2873 -0.07413,-0.1668 -0.07413,-0.3614 0,-0.1622 0.03707,-0.278 0.0417,-0.1205 0.101935,-0.2039 0.06023,-0.088 0.13437,-0.1436 0.07877,-0.056 0.148271,-0.088 0.157537,-0.07 0.333608,-0.083 0.176071,-0.019 0.352142,-0.019 l 0.0695,0 0.0695,0 q 0.111203,0 0.222405,-0 0.115837,-0.01 0.180705,-0.037 0.0278,-0.01 0.03707,-0.023 0.0046,-0 0.0093,-0.023 0.0046,-0.019 0.0046,-0.06 -0.0093,-0.1065 -0.06023,-0.1992 -0.04633,-0.097 -0.125103,-0.1668 -0.07413,-0.07 -0.176071,-0.1066 -0.0973,-0.042 -0.208505,-0.042 -0.12047,0 -0.227039,0.046 -0.101936,0.042 -0.180705,0.1204 -0.07877,0.079 -0.125103,0.1854 -0.04633,0.1019 -0.04633,0.2177 l -0.556013,0 q 0,-0.227 0.0834,-0.4309 0.08803,-0.2038 0.250206,-0.366 0.162171,-0.1622 0.366042,-0.2456 0.203872,-0.083 0.435545,-0.083 0.227039,0 0.43091,0.083 0.203872,0.083 0.366043,0.2456 z m -0.505046,1.7746 q 0.0556,-0.069 0.101936,-0.1529 0.04633,-0.088 0.07877,-0.1946 -0.08804,0.014 -0.180705,0.018 -0.08804,0 -0.176071,0 l -0.0695,0 -0.0695,0 q -0.120469,0 -0.250206,0.01 -0.125103,0 -0.203872,0.042 -0.03243,0.014 -0.06487,0.051 -0.03243,0.032 -0.03243,0.1575 0,0.079 0.03243,0.139 0.03243,0.06 0.08804,0.1019 0.0556,0.042 0.125103,0.065 0.0695,0.019 0.139003,0.019 0.0417,0 0.0973,-0.01 0.0556,-0.01 0.115836,-0.033 0.06487,-0.028 0.13437,-0.079 0.0695,-0.051 0.13437,-0.1344 z"
         style=""
         id="path110" />
      <path
         d="m 38.22337,1043.645 0,2.6642 q 0,0.2642 -0.101936,0.4958 -0.0973,0.2363 -0.278007,0.4217 -0.185338,0.1853 -0.421644,0.2826 -0.236306,0.097 -0.495779,0.097 -0.264106,0 -0.500412,-0.097 -0.231673,-0.097 -0.417011,-0.2826 -0.185338,-0.1854 -0.28264,-0.4217 -0.0973,-0.2316 -0.0973,-0.4958 l 0.556014,0 q 0,0.1529 0.0556,0.2873 0.06023,0.1344 0.16217,0.2363 0.101936,0.102 0.236306,0.1576 0.13437,0.06 0.287274,0.06 0.152904,0 0.287274,-0.06 0.13437,-0.056 0.236306,-0.1576 0.101936,-0.1019 0.157537,-0.2363 0.06023,-0.1344 0.06023,-0.2873 l 0,-0.1112 q -0.111203,0.083 -0.231672,0.1437 -0.25484,0.1158 -0.514313,0.1158 -0.259473,0 -0.514313,-0.1158 -0.12047,-0.06 -0.222406,-0.1344 -0.101936,-0.079 -0.189971,-0.1807 -0.176071,-0.2039 -0.273374,-0.4587 -0.09267,-0.2595 -0.09267,-0.5421 0,-0.2873 0.09267,-0.5421 0.0973,-0.2549 0.273374,-0.4634 0.166804,-0.1946 0.412377,-0.3104 0.250206,-0.1205 0.514313,-0.1205 0.264106,0 0.514313,0.1205 0.115836,0.051 0.231672,0.139 l 0,-0.2039 0.556014,0 z m -1.301999,2.2565 q 0.152904,0 0.287274,-0.069 0.13437,-0.07 0.236305,-0.1853 0.101936,-0.1205 0.157538,-0.278 0.06023,-0.1622 0.06023,-0.3429 0,-0.1807 -0.06023,-0.3429 -0.0556,-0.1622 -0.157538,-0.278 -0.101935,-0.1205 -0.236305,-0.19 -0.13437,-0.069 -0.287274,-0.069 -0.152904,0 -0.287274,0.069 -0.13437,0.07 -0.236306,0.19 -0.0973,0.1158 -0.157537,0.278 -0.0556,0.1622 -0.0556,0.3429 0,0.1807 0.0556,0.3429 0.06023,0.1575 0.157537,0.278 0.101936,0.1158 0.236306,0.1853 0.13437,0.069 0.287274,0.069 z"
         style=""
         id="path112" />
      <path
         d="m 40.913594,1045.4799 q -0.13437,0.4123 -0.449445,0.6811 -0.166804,0.1436 -0.366042,0.2177 -0.199239,0.07 -0.412377,0.07 -0.259474,0 -0.514313,-0.1158 -0.12047,-0.06 -0.222406,-0.1344 -0.101936,-0.079 -0.189971,-0.1807 -0.176071,-0.2038 -0.273374,-0.4587 -0.09267,-0.2594 -0.09267,-0.5421 0,-0.2826 0.09267,-0.5375 0.0973,-0.2594 0.278007,-0.4679 0.176071,-0.1947 0.412377,-0.3105 0.250206,-0.1205 0.50968,-0.1205 0.254839,0 0.500412,0.102 0.24094,0.1065 0.412377,0.2919 0.185338,0.19 0.282641,0.4402 0.0973,0.2502 0.0973,0.5282 l 0,0.278 -2.010917,0 q 0.0278,0.1436 0.09267,0.2687 0.0695,0.1205 0.162171,0.2132 0.0973,0.088 0.213138,0.139 0.12047,0.051 0.250207,0.051 0.194605,0 0.361409,-0.1065 0.166804,-0.1112 0.264106,-0.3058 l 0.602349,0 z m -1.227864,-1.3437 q -0.222406,0 -0.407744,0.1482 -0.180704,0.1483 -0.26874,0.38 l 1.366868,0 q -0.07414,-0.2363 -0.259474,-0.38 -0.185338,-0.1482 -0.43091,-0.1482 z"
         style=""
         id="path114" />
      <path
         d="m 43.080673,1043.9045 q 0.16217,0.1622 0.245572,0.366 0.0834,0.1993 0.0834,0.4263 l -0.556014,0 q 0,-0.1158 -0.04633,-0.2178 -0.0417,-0.1065 -0.12047,-0.1807 -0.07414,-0.079 -0.180704,-0.1204 -0.101936,-0.046 -0.217772,-0.046 -0.115836,0 -0.222406,0.046 -0.101936,0.042 -0.180704,0.1204 -0.07414,0.074 -0.12047,0.1807 -0.0417,0.102 -0.0417,0.2178 l 0,1.7561 -0.556014,0 0,-1.1167 -0.0046,0 0,-1.6958 0.556013,0 0,0.088 q 0.129737,-0.074 0.273374,-0.1112 0.143637,-0.042 0.296541,-0.042 0.463345,0 0.79232,0.329 z"
         style=""
         id="path116" />
    </g>
  </g>
</svg>
