<?xml version="1.0" encoding="UTF-8" standalone="no"?>
<!-- Created with Inkscape (http://www.inkscape.org/) -->

<svg
   xmlns:dc="http://purl.org/dc/elements/1.1/"
   xmlns:cc="http://creativecommons.org/ns#"
   xmlns:rdf="http://www.w3.org/1999/02/22-rdf-syntax-ns#"
   xmlns:svg="http://www.w3.org/2000/svg"
   xmlns="http://www.w3.org/2000/svg"
   xmlns:sodipodi="http://sodipodi.sourceforge.net/DTD/sodipodi-0.dtd"
   xmlns:inkscape="http://www.inkscape.org/namespaces/inkscape"
   width="22"
   height="22"
   id="svg2"
   version="1.1"
   inkscape:version="0.48.3.1 r9886"
   sodipodi:docname="online.svg">
  <defs
     id="defs4">
    <linearGradient
       id="linearGradient3755">
      <stop
         style="stop-color:#0d9d0b;stop-opacity:1;"
         offset="0"
         id="stop3757" />
      <stop
         style="stop-color:#56ec16;stop-opacity:1;"
         offset="1"
         id="stop3759" />
    </linearGradient>
  </defs>
  <sodipodi:namedview
     id="base"
     pagecolor="#ffffff"
     bordercolor="#666666"
     borderopacity="1.0"
     inkscape:pageopacity="0.0"
     inkscape:pageshadow="2"
     inkscape:zoom="11.2"
     inkscape:cx="-7.9391785"
     inkscape:cy="7.6982569"
     inkscape:document-units="px"
     inkscape:current-layer="layer1"
     showgrid="false"
     inkscape:window-width="1776"
     inkscape:window-height="955"
     inkscape:window-x="0"
     inkscape:window-y="26"
     inkscape:window-maximized="1" />
  <metadata
     id="metadata7">
    <rdf:RDF>
      <cc:Work
         rdf:about="">
        <dc:format>image/svg+xml</dc:format>
        <dc:type
           rdf:resource="http://purl.org/dc/dcmitype/StillImage" />
        <dc:title></dc:title>
      </cc:Work>
    </rdf:RDF>
  </metadata>
  <g
     inkscape:label="Capa 1"
     inkscape:groupmode="layer"
     id="layer1"
     transform="translate(0,-1030.3622)">
    <path
       sodipodi:type="arc"
       style="fill:#999999;fill-opacity:1;stroke:none;stroke-width:1.89999998000000003;stroke-linecap:round;stroke-linejoin:round;stroke-miterlimit:4;stroke-opacity:1;stroke-dasharray:none"
       id="path2985"
       sodipodi:cx="24.107143"
       sodipodi:cy="24.428572"
       sodipodi:rx="13.928572"
       sodipodi:ry="13.928572"
       d="m 38.035715,24.428572 c 0,7.692537 -6.236034,13.928571 -13.928572,13.928571 -7.692537,0 -13.928571,-6.236034 -13.928571,-13.928571 0,-7.692538 6.236034,-13.928572 13.928571,-13.928572 7.692538,0 13.928572,6.236034 13.928572,13.928572 z"
       transform="matrix(0.45820088,0,0,0.45846032,-0.05337393,1030.3378)" />
    <rect
       style="fill:none;stroke:none"
       id="rect3763"
       width="21.993641"
       height="22.006096"
       x="0"
       y="1030.3561"
       ry="0.88100785" />
  </g>
</svg>
