<?xml version="1.0" encoding="UTF-8" standalone="no"?>
<!-- Created with Inkscape (http://www.inkscape.org/) -->

<svg
   xmlns:dc="http://purl.org/dc/elements/1.1/"
   xmlns:cc="http://creativecommons.org/ns#"
   xmlns:rdf="http://www.w3.org/1999/02/22-rdf-syntax-ns#"
   xmlns:svg="http://www.w3.org/2000/svg"
   xmlns="http://www.w3.org/2000/svg"
   xmlns:xlink="http://www.w3.org/1999/xlink"
   xmlns:sodipodi="http://sodipodi.sourceforge.net/DTD/sodipodi-0.dtd"
   xmlns:inkscape="http://www.inkscape.org/namespaces/inkscape"
   width="48"
   height="48"
   id="svg3022"
   version="1.1"
   inkscape:version="0.48.2 r9819"
   sodipodi:docname="start-here.svg">
  <defs
     id="defs3024">
    <linearGradient
       inkscape:collect="always"
       xlink:href="#linearGradient3755-9"
       id="linearGradient3819"
       gradientUnits="userSpaceOnUse"
       x1="30.372152"
       y1="7.2212749"
       x2="30.872379"
       y2="25.747164" />
    <linearGradient
       id="linearGradient3755-9">
      <stop
         style="stop-color:#ffdc64;stop-opacity:1;"
         offset="0"
         id="stop3757-1" />
      <stop
         style="stop-color:#c88109;stop-opacity:1;"
         offset="1"
         id="stop3759-4" />
    </linearGradient>
    <filter
       inkscape:collect="always"
       id="filter3808">
      <feGaussianBlur
         inkscape:collect="always"
         stdDeviation="3.7837732"
         id="feGaussianBlur3810" />
    </filter>
  </defs>
  <sodipodi:namedview
     id="base"
     pagecolor="#ffffff"
     bordercolor="#666666"
     borderopacity="1.0"
     inkscape:pageopacity="0.0"
     inkscape:pageshadow="2"
     inkscape:zoom="7.9195959"
     inkscape:cx="32.771523"
     inkscape:cy="36.514745"
     inkscape:document-units="px"
     inkscape:current-layer="layer1"
     showgrid="false"
     inkscape:window-width="1280"
     inkscape:window-height="747"
     inkscape:window-x="0"
     inkscape:window-y="0"
     inkscape:window-maximized="1" />
  <metadata
     id="metadata3027">
    <rdf:RDF>
      <cc:Work
         rdf:about="">
        <dc:format>image/svg+xml</dc:format>
        <dc:type
           rdf:resource="http://purl.org/dc/dcmitype/StillImage" />
        <dc:title></dc:title>
      </cc:Work>
    </rdf:RDF>
  </metadata>
  <g
     inkscape:label="Capa 1"
     inkscape:groupmode="layer"
     id="layer1"
     transform="translate(0,-1004.3622)">
    <rect
       style="opacity:1;fill:#000000;stroke:none"
       id="rect3047"
       width="48"
       height="48"
       x="0"
       y="1004.3622" />
    <g
       id="g3843"
       transform="matrix(0.19341149,0,0,0.19341149,-130.09623,875.48414)"
       inkscape:export-xdpi="300"
       inkscape:export-ydpi="300">
      <path
         transform="translate(196.81168,300.86471)"
         id="path3841"
         d="m 598.03125,570.8125 c 30.33653,-31.93283 -27.8125,-119.09375 -27.8125,-119.09375 0,0 28.81203,75.51306 27.8125,119.09375 z"
         style="fill:#5fbcd3;fill-opacity:1;stroke:none"
         inkscape:connector-curvature="0" />
      <path
         transform="translate(196.81168,300.86471)"
         id="path3839"
         d="m 597.09375,571.71875 0.90625,0.5 c 0.0179,-0.46317 0.0204,-0.93545 0.0312,-1.40625 -0.2959,0.31147 -0.62462,0.60543 -0.9375,0.90625 z"
         style="fill:#b3b3b3;fill-opacity:1;stroke:none"
         inkscape:connector-curvature="0" />
      <path
         transform="translate(196.81168,300.86471)"
         id="path3837"
         d="m 535.5,535.78125 c -43.68879,-11.3234 53.3125,62.03125 53.3125,62.03125 6.17377,-4.56682 8.7373,-13.92018 9.1875,-25.59375 l -0.90625,-0.5 c -2.73634,2.63091 -6.05101,4.907 -10.1875,6.625 0,0 -30.7949,-16.4676 -51.40625,-42.5625 z"
         style="fill:#ffffff;fill-opacity:1;stroke:none"
         inkscape:connector-curvature="0" />
      <path
         transform="translate(196.81168,300.86471)"
         id="path3835"
         d="m 535.625,535.8125 -0.15625,-0.0625 c 0.009,0.0115 0.0222,0.0198 0.0312,0.0312 0.0365,0.009 0.0883,0.0217 0.125,0.0312 z"
         style="fill:#b3b3b3;fill-opacity:1;stroke:none"
         inkscape:connector-curvature="0" />
      <path
         transform="translate(196.81168,300.86471)"
         id="path3017"
         d="M 584.90625,410 C 518.46931,425.54248 517.75,483.3125 517.75,483.3125 c -2.37719,19.80135 6.0468,37.64901 17.71875,52.4375 l 0.15625,0.0625 c 5.44214,1.42053 12.64266,3.91734 22.875,8.25 C 541.10267,478.13654 536.36038,430.59382 584.90625,410 z"
         style="fill:#ffffff;fill-opacity:1;stroke:none"
         inkscape:connector-curvature="0" />
      <path
         style="fill:#5fbcd3;fill-opacity:1;stroke:none"
         d="m 837.70318,771.99445 c 29.20079,55.84018 -45.96641,131.67599 -45.96641,131.67599 28.10075,-37.30046 39.47375,-113.45985 15.40666,-115.39582 -39.84576,-21.23059 72.15276,-111.08711 72.15276,-111.08711 0,0 -67.99507,62.35439 -41.59301,94.80694 z"
         id="path3027"
         inkscape:connector-curvature="0" />
    </g>
  </g>
</svg>
