<?xml version="1.0" encoding="UTF-8" standalone="no"?>
<!-- Created with Inkscape (http://www.inkscape.org/) -->

<svg
   xmlns:dc="http://purl.org/dc/elements/1.1/"
   xmlns:cc="http://creativecommons.org/ns#"
   xmlns:rdf="http://www.w3.org/1999/02/22-rdf-syntax-ns#"
   xmlns:svg="http://www.w3.org/2000/svg"
   xmlns="http://www.w3.org/2000/svg"
   xmlns:xlink="http://www.w3.org/1999/xlink"
   xmlns:sodipodi="http://sodipodi.sourceforge.net/DTD/sodipodi-0.dtd"
   xmlns:inkscape="http://www.inkscape.org/namespaces/inkscape"
   width="48"
   height="48"
   id="svg859"
   version="1.1"
   inkscape:version="0.48+devel r11772"
   sodipodi:docname="desktop.svg">
  <defs
     id="defs861">
    <linearGradient
       id="linearGradient3700-46-1">
      <stop
         offset="0"
         style="stop-color:#2276c5;stop-opacity:1"
         id="stop3702-4-1" />
      <stop
         offset="1"
         style="stop-color:#68baf4;stop-opacity:1"
         id="stop3704-2-4" />
    </linearGradient>
    <linearGradient
       inkscape:collect="always"
       xlink:href="#linearGradient1217"
       id="linearGradient1215"
       gradientUnits="userSpaceOnUse"
       x1="290.28574"
       y1="747.18365"
       x2="290.28574"
       y2="699.50507"
       gradientTransform="matrix(1,0,0,-0.17410715,-264.57144,169.8386)" />
    <linearGradient
       id="linearGradient1217">
      <stop
         id="stop1219"
         style="stop-color:#b3b3b3;stop-opacity:0"
         offset="0" />
      <stop
         id="stop1221"
         style="stop-color:#1a1a1a;stop-opacity:1"
         offset="1" />
    </linearGradient>
    <linearGradient
       inkscape:collect="always"
       xlink:href="#linearGradient1233"
       id="linearGradient1231"
       x1="7.3660717"
       y1="45.053574"
       x2="7.3660717"
       y2="39.785717"
       gradientUnits="userSpaceOnUse" />
    <linearGradient
       id="linearGradient1233">
      <stop
         style="stop-color:#e38141;stop-opacity:1"
         offset="0"
         id="stop1235" />
      <stop
         style="stop-color:#ffcf00;stop-opacity:1"
         offset="1"
         id="stop1237" />
    </linearGradient>
    <linearGradient
       inkscape:collect="always"
       xlink:href="#linearGradient1271"
       id="linearGradient1265"
       gradientUnits="userSpaceOnUse"
       x1="7.3660717"
       y1="45.053574"
       x2="7.3660717"
       y2="39.785717"
       gradientTransform="translate(275.17805,699.79076)" />
    <linearGradient
       id="linearGradient1271">
      <stop
         id="stop1273"
         offset="0"
         style="stop-color:#88aa00;stop-opacity:1" />
      <stop
         id="stop1275"
         offset="1"
         style="stop-color:#66ff00;stop-opacity:1" />
    </linearGradient>
    <linearGradient
       inkscape:collect="always"
       xlink:href="#linearGradient1293"
       id="linearGradient1285"
       gradientUnits="userSpaceOnUse"
       gradientTransform="translate(284.82091,699.79076)"
       x1="7.3660717"
       y1="45.053574"
       x2="7.3660717"
       y2="39.785717" />
    <linearGradient
       id="linearGradient1293">
      <stop
         style="stop-color:#0088aa;stop-opacity:1"
         offset="0"
         id="stop1295" />
      <stop
         style="stop-color:#00ccff;stop-opacity:1"
         offset="1"
         id="stop1297" />
    </linearGradient>
    <linearGradient
       inkscape:collect="always"
       xlink:href="#linearGradient1299"
       id="linearGradient1291"
       gradientUnits="userSpaceOnUse"
       gradientTransform="translate(296.7852,699.79076)"
       x1="7.3660717"
       y1="45.053574"
       x2="7.3660717"
       y2="39.785717" />
    <linearGradient
       id="linearGradient1299">
      <stop
         style="stop-color:#aa00d4;stop-opacity:1"
         offset="0"
         id="stop1301" />
      <stop
         style="stop-color:#bc5fd3;stop-opacity:1"
         offset="1"
         id="stop1303" />
    </linearGradient>
    <linearGradient
       inkscape:collect="always"
       xlink:href="#linearGradient1367"
       id="linearGradient1365"
       x1="274.54669"
       y1="698.57471"
       x2="302.72244"
       y2="728.87933"
       gradientUnits="userSpaceOnUse"
       gradientTransform="translate(-264.57144,304.57143)" />
    <linearGradient
       id="linearGradient1367">
      <stop
         offset="0"
         style="stop-color:#b3b3b3;stop-opacity:0"
         id="stop1369" />
      <stop
         offset="1"
         style="stop-color:#1a1a1a;stop-opacity:0.22872341"
         id="stop1371" />
    </linearGradient>
    <linearGradient
       inkscape:collect="always"
       xlink:href="#linearGradient1378"
       id="linearGradient1384"
       x1="310.04129"
       y1="733.65088"
       x2="260.49445"
       y2="695.97229"
       gradientUnits="userSpaceOnUse"
       gradientTransform="matrix(1.0624126,0,0,1.0624126,-280.03229,261.30852)" />
    <linearGradient
       inkscape:collect="always"
       id="linearGradient1378">
      <stop
         style="stop-color:#ffffff;stop-opacity:0.26595744"
         offset="0"
         id="stop1380" />
      <stop
         style="stop-color:#ffffff;stop-opacity:0;"
         offset="1"
         id="stop1382" />
    </linearGradient>
    <linearGradient
       inkscape:collect="always"
       xlink:href="#linearGradient1181"
       id="linearGradient1179"
       x1="288.14285"
       y1="699.52289"
       x2="288.14285"
       y2="705.23718"
       gradientUnits="userSpaceOnUse"
       gradientTransform="matrix(0.55081967,0,0,0.65714286,-135.30494,-459.86251)" />
    <linearGradient
       id="linearGradient1181">
      <stop
         id="stop1183"
         style="stop-color:#ffffff;stop-opacity:1"
         offset="0" />
      <stop
         id="stop1185"
         style="stop-color:#aaaaaa;stop-opacity:1"
         offset="1" />
    </linearGradient>
    <linearGradient
       inkscape:collect="always"
       xlink:href="#linearGradient1191"
       id="linearGradient1189"
       gradientUnits="userSpaceOnUse"
       gradientTransform="matrix(0.1055047,0,0,0.65714286,-25.91648,-459.86251)"
       x1="288.14285"
       y1="699.52289"
       x2="288.14285"
       y2="705.23718" />
    <linearGradient
       id="linearGradient1191">
      <stop
         offset="0"
         style="stop-color:#b3b3b3;stop-opacity:1"
         id="stop1193" />
      <stop
         offset="1"
         style="stop-color:#1a1a1a;stop-opacity:1"
         id="stop1195" />
    </linearGradient>
    <linearGradient
       inkscape:collect="always"
       xlink:href="#linearGradient3700-46-1"
       id="linearGradient1654"
       gradientUnits="userSpaceOnUse"
       x1="290.28574"
       y1="747.18365"
       x2="290.28574"
       y2="699.50507"
       gradientTransform="translate(-264.57144,304.57143)" />
  </defs>
  <sodipodi:namedview
     id="base"
     pagecolor="#ffffff"
     bordercolor="#666666"
     borderopacity="1.0"
     inkscape:pageopacity="0.0"
     inkscape:pageshadow="2"
     inkscape:zoom="5.6"
     inkscape:cx="-6.5129444"
     inkscape:cy="4.5035215"
     inkscape:document-units="px"
     inkscape:current-layer="layer1"
     showgrid="false"
     width="0px"
     height="0px"
     fit-margin-top="0"
     fit-margin-left="0"
     fit-margin-right="0"
     fit-margin-bottom="0"
     inkscape:window-width="1366"
     inkscape:window-height="712"
     inkscape:window-x="0"
     inkscape:window-y="0"
     inkscape:window-maximized="1" />
  <metadata
     id="metadata864">
    <rdf:RDF>
      <cc:Work
         rdf:about="">
        <dc:format>image/svg+xml</dc:format>
        <dc:type
           rdf:resource="http://purl.org/dc/dcmitype/StillImage" />
        <dc:title></dc:title>
      </cc:Work>
    </rdf:RDF>
  </metadata>
  <g
     inkscape:label="Capa 1"
     inkscape:groupmode="layer"
     id="layer1"
     transform="translate(0,-1004.3622)">
    <rect
       rx="3.1567266"
       ry="2.9041655"
       style="fill:url(#linearGradient1654);fill-opacity:1;stroke:none"
       id="rect1197"
       width="48"
       height="48"
       x="1.6503907e-06"
       y="1004.3622" />
    <path
       style="fill:url(#linearGradient1215);fill-opacity:1;stroke:none"
       d="M 0 39.65625 L 0 45.09375 C 0 46.702658 1.4074235 48 3.15625 48 L 44.84375 48 C 46.592577 48 48 46.702658 48 45.09375 L 48 39.65625 L 0 39.65625 z "
       transform="translate(0,1004.3622)"
       id="rect1213" />
    <rect
       y="1043.3265"
       x="3.8214433"
       height="7"
       width="7"
       id="rect1267"
       style="opacity:0.28300003;fill:#ffffff;fill-opacity:1;stroke:none" />
    <g
       id="g1317"
       transform="translate(-264.57144,304.57143)">
      <rect
         transform="translate(264.57144,699.79077)"
         y="39.964287"
         x="4.8214288"
         height="5"
         width="5"
         id="rect1223"
         style="fill:url(#linearGradient1231);fill-opacity:1;stroke:none" />
      <path
         transform="matrix(0.65306123,0,0,0.65306123,265.19288,714.35088)"
         d="m 11.806157,42.728268 c 0,0.854272 -0.692524,1.546796 -1.546796,1.546796 -0.8542716,0 -1.5467958,-0.692524 -1.5467958,-1.546796 0,-0.854272 0.6925242,-1.546796 1.5467958,-1.546796 C 11.113633,41.181472 11.806157,41.873996 11.806157,42.728268 Z"
         sodipodi:ry="1.5467961"
         sodipodi:rx="1.5467961"
         sodipodi:cy="42.728268"
         sodipodi:cx="10.259361"
         id="path1277"
         style="fill:#ffffff;fill-opacity:1;stroke:none"
         sodipodi:type="arc" />
    </g>
    <g
       id="g1313"
       transform="translate(-264.44013,304.57143)">
      <rect
         style="fill:url(#linearGradient1265);fill-opacity:1;stroke:none"
         id="rect1255"
         width="5"
         height="5"
         x="279.99948"
         y="739.75507" />
      <path
         sodipodi:type="arc"
         style="fill:#ffffff;fill-opacity:1;stroke:none"
         id="path1279"
         sodipodi:cx="10.259361"
         sodipodi:cy="42.728268"
         sodipodi:rx="1.5467961"
         sodipodi:ry="1.5467961"
         d="m 11.806157,42.728268 c 0,0.854272 -0.692524,1.546796 -1.546796,1.546796 -0.8542716,0 -1.5467958,-0.692524 -1.5467958,-1.546796 0,-0.854272 0.6925242,-1.546796 1.5467958,-1.546796 C 11.113633,41.181472 11.806157,41.873996 11.806157,42.728268 Z"
         transform="matrix(0.65306123,0,0,0.65306123,275.79948,714.35088)" />
    </g>
    <g
       id="g1309"
       transform="translate(-263.34506,304.57143)">
      <rect
         y="739.75507"
         x="289.64233"
         height="5"
         width="5"
         id="rect1281"
         style="fill:url(#linearGradient1285);fill-opacity:1;stroke:none" />
      <path
         transform="matrix(0.65306123,0,0,0.65306123,285.44234,714.35088)"
         d="m 11.806157,42.728268 c 0,0.854272 -0.692524,1.546796 -1.546796,1.546796 -0.8542716,0 -1.5467958,-0.692524 -1.5467958,-1.546796 0,-0.854272 0.6925242,-1.546796 1.5467958,-1.546796 C 11.113633,41.181472 11.806157,41.873996 11.806157,42.728268 Z"
         sodipodi:ry="1.5467961"
         sodipodi:rx="1.5467961"
         sodipodi:cy="42.728268"
         sodipodi:cx="10.259361"
         id="path1283"
         style="fill:#ffffff;fill-opacity:1;stroke:none"
         sodipodi:type="arc" />
    </g>
    <g
       id="g1305"
       transform="translate(-264.57144,304.57143)">
      <rect
         style="fill:url(#linearGradient1291);fill-opacity:1;stroke:none"
         id="rect1287"
         width="5"
         height="5"
         x="301.60663"
         y="739.75507" />
      <path
         sodipodi:type="arc"
         style="fill:#ffffff;fill-opacity:1;stroke:none"
         id="path1289"
         sodipodi:cx="10.259361"
         sodipodi:cy="42.728268"
         sodipodi:rx="1.5467961"
         sodipodi:ry="1.5467961"
         d="m 11.806157,42.728268 c 0,0.854272 -0.692524,1.546796 -1.546796,1.546796 -0.8542716,0 -1.5467958,-0.692524 -1.5467958,-1.546796 0,-0.854272 0.6925242,-1.546796 1.5467958,-1.546796 C 11.113633,41.181472 11.806157,41.873996 11.806157,42.728268 Z"
         transform="matrix(0.65306123,0,0,0.65306123,297.40663,714.35088)" />
    </g>
    <path
       style="opacity:0.5;fill:url(#linearGradient1365);fill-opacity:1;stroke:none"
       d="m 0,1016.3935 0,23.5312 c 10.235217,-7.2102 24.386968,-12.2183 35.375,-15.3437 C 24.040743,1020.9508 10.867954,1018.2489 0,1016.3935 Z"
       id="path1357"
       inkscape:connector-curvature="0" />
    <path
       style="fill:#ffffff;fill-opacity:0.15204677;stroke:none"
       d="m 0,1004.3622 0,28.125 c 15.025834,-10.5849 38.513348,-16.4778 48,-18.5312 l 0,-9.5938 L 0,1004.3622 Z"
       id="rect1340"
       inkscape:connector-curvature="0" />
    <path
       style="fill:url(#linearGradient1384);fill-opacity:1;stroke:none"
       d="m 0,1004.3622 0,25.3438 c 18.843965,1.4063 37.998652,6.7127 48,9.8437 L 48,1024.5185 13.0625,1004.3622 0,1004.3622 Z"
       id="path1376"
       inkscape:connector-curvature="0" />
    <path
       style="fill:url(#linearGradient1179);fill-opacity:1;stroke:none"
       d="M 3.15625 0 C 1.4074235 0 0 1.2973423 0 2.90625 L 0 4.09375 L 48 4.09375 L 48 2.90625 C 48 1.2973423 46.592577 0 44.84375 0 L 3.15625 0 z "
       transform="translate(0,1004.3622)"
       id="rect1171" />
    <path
       style="fill:url(#linearGradient1189);fill-opacity:1;stroke:none"
       d="M 3.15625 0 C 1.4074235 0 0 1.2973423 0 2.90625 L 0 4.09375 L 9.1875 4.09375 L 9.1875 0 L 3.15625 0 z "
       transform="translate(0,1004.3622)"
       id="rect1187" />
    <g
       id="g1250"
       transform="matrix(0.69852942,0,0,0.69852942,-182.98529,527.77083)">
      <path
         transform="translate(264.57144,699.79077)"
         d="m 5.8928572,39.785713 c 0,0.83829 -0.6795678,1.517857 -1.5178572,1.517857 -0.8382894,0 -1.5178572,-0.679567 -1.5178572,-1.517857 0,-0.838289 0.6795678,-1.517857 1.5178572,-1.517857 C 5.2132894,38.267856 5.8928572,38.947424 5.8928572,39.785713 Z"
         sodipodi:ry="1.5178572"
         sodipodi:rx="1.5178572"
         sodipodi:cy="39.785713"
         sodipodi:cx="4.375"
         id="path1239"
         style="fill:#ffffff;fill-opacity:1;stroke:none"
         sodipodi:type="arc" />
      <path
         sodipodi:type="arc"
         style="fill:#000000;fill-opacity:1;stroke:none"
         id="path1241"
         sodipodi:cx="4.375"
         sodipodi:cy="39.785713"
         sodipodi:rx="1.5178572"
         sodipodi:ry="1.5178572"
         d="m 5.8928572,39.785713 c 0,0.83829 -0.6795678,1.517857 -1.5178572,1.517857 -0.8382894,0 -1.5178572,-0.679567 -1.5178572,-1.517857 0,-0.838289 0.6795678,-1.517857 1.5178572,-1.517857 C 5.2132894,38.267856 5.8928572,38.947424 5.8928572,39.785713 Z"
         transform="matrix(0.85294118,0,0,0.85294118,265.21482,705.64161)" />
      <path
         inkscape:connector-curvature="0"
         id="rect1243"
         d="m 268.66519,738.88898 -0.40625,0.40625 0.28125,0.28125 -0.28125,0.28125 0.40625,0.40625 0.28125,-0.28125 0.28125,0.28125 0.40625,-0.40625 -0.28125,-0.28125 0.28125,-0.28125 -0.40625,-0.40625 -0.28125,0.28125 L 268.66519,738.88898 Z"
         style="fill:#ffffff;fill-opacity:1;stroke:none" />
    </g>
    <path
       inkscape:connector-curvature="0"
       style="opacity:0.15;fill:#ffffff;fill-opacity:1;stroke:none"
       d="m 0,1004.3622 0,48 16.78125,0 12.84375,-48 L 0,1004.3622 Z"
       id="rect3790" />
  </g>
</svg>
