<?xml version="1.0" encoding="UTF-8" standalone="no"?>
<!-- Created with Inkscape (http://www.inkscape.org/) -->

<svg
   xmlns:dc="http://purl.org/dc/elements/1.1/"
   xmlns:cc="http://creativecommons.org/ns#"
   xmlns:rdf="http://www.w3.org/1999/02/22-rdf-syntax-ns#"
   xmlns:svg="http://www.w3.org/2000/svg"
   xmlns="http://www.w3.org/2000/svg"
   xmlns:xlink="http://www.w3.org/1999/xlink"
   xmlns:sodipodi="http://sodipodi.sourceforge.net/DTD/sodipodi-0.dtd"
   xmlns:inkscape="http://www.inkscape.org/namespaces/inkscape"
   width="48"
   height="48"
   id="svg2"
   version="1.1"
   inkscape:version="0.48+devel r11521"
   sodipodi:docname="applications-development.svg.2012_07_09_02_04_33.0.svg">
  <defs
     id="defs4">
    <linearGradient
       id="linearGradient3795">
      <stop
         style="stop-color:#4793db;stop-opacity:1;"
         offset="0"
         id="stop3797" />
      <stop
         style="stop-color:#306497;stop-opacity:1;"
         offset="1"
         id="stop3799" />
    </linearGradient>
    <linearGradient
       id="linearGradient3698">
      <stop
         id="stop3700"
         offset="0"
         style="stop-color:#96d0e1;stop-opacity:1" />
      <stop
         style="stop-color:#89b7e1;stop-opacity:1"
         offset="0.67819428"
         id="stop3706" />
      <stop
         id="stop3702"
         offset="1"
         style="stop-color:#699dd3;stop-opacity:1" />
    </linearGradient>
    <linearGradient
       id="linearGradient3708">
      <stop
         id="stop3710"
         offset="0"
         style="stop-color:#658db6;stop-opacity:1" />
      <stop
         style="stop-color:#527fab;stop-opacity:1;"
         offset="0.76777935"
         id="stop3716" />
      <stop
         id="stop3712"
         offset="1"
         style="stop-color:#4071a0;stop-opacity:1" />
    </linearGradient>
    <linearGradient
       id="linearGradient3750">
      <stop
         style="stop-color:#d0e2f1;stop-opacity:1"
         offset="0"
         id="stop3752" />
      <stop
         id="stop3756"
         offset="0.85580856"
         style="stop-color:#cadef0;stop-opacity:1" />
      <stop
         style="stop-color:#95bee3;stop-opacity:1"
         offset="1"
         id="stop3754" />
    </linearGradient>
    <linearGradient
       id="linearGradient3803">
      <stop
         id="stop3805"
         offset="0"
         style="stop-color:#d7def0;stop-opacity:1;" />
      <stop
         style="stop-color:#ffffff;stop-opacity:1"
         offset="0.5"
         id="stop3811" />
      <stop
         id="stop3807"
         offset="1"
         style="stop-color:#d5def0;stop-opacity:1" />
    </linearGradient>
    <linearGradient
       inkscape:collect="always"
       xlink:href="#linearGradient3795"
       id="linearGradient3859"
       x1="26.192217"
       y1="1024.0002"
       x2="28.641211"
       y2="1024.0002"
       gradientUnits="userSpaceOnUse" />
    <linearGradient
       inkscape:collect="always"
       xlink:href="#linearGradient3795"
       id="linearGradient3867"
       gradientUnits="userSpaceOnUse"
       x1="26.192217"
       y1="1024.0002"
       x2="28.641211"
       y2="1024.0002" />
    <linearGradient
       inkscape:collect="always"
       xlink:href="#linearGradient3795"
       id="linearGradient3869"
       gradientUnits="userSpaceOnUse"
       x1="26.192217"
       y1="1024.0002"
       x2="28.641211"
       y2="1024.0002" />
    <linearGradient
       inkscape:collect="always"
       xlink:href="#linearGradient3795"
       id="linearGradient3871"
       gradientUnits="userSpaceOnUse"
       x1="26.192217"
       y1="1024.0002"
       x2="28.641211"
       y2="1024.0002" />
    <linearGradient
       inkscape:collect="always"
       xlink:href="#linearGradient3795"
       id="linearGradient3877"
       gradientUnits="userSpaceOnUse"
       x1="29.718235"
       y1="1027.8575"
       x2="22.811094"
       y2="1015.5485" />
    <linearGradient
       inkscape:collect="always"
       xlink:href="#linearGradient3795"
       id="linearGradient3879"
       gradientUnits="userSpaceOnUse"
       x1="17.196316"
       y1="1006.2238"
       x2="31.448042"
       y2="1030.9086" />
    <linearGradient
       inkscape:collect="always"
       xlink:href="#linearGradient3795"
       id="linearGradient3895"
       x1="21.973417"
       y1="34.43922"
       x2="42.475323"
       y2="24.798252"
       gradientUnits="userSpaceOnUse" />
    <linearGradient
       y2="1012.6596"
       x2="25"
       y1="1050.3623"
       x1="25"
       gradientUnits="userSpaceOnUse"
       id="linearGradient1025"
       xlink:href="#linearGradient3803-9"
       inkscape:collect="always"
       gradientTransform="translate(-2.3730774e-8,-2.0859253e-4)" />
    <linearGradient
       id="linearGradient3795-81">
      <stop
         style="stop-color:#68b89c;stop-opacity:1;"
         offset="0"
         id="stop3797-6" />
      <stop
         style="stop-color:#309784;stop-opacity:1;"
         offset="1"
         id="stop3799-9" />
    </linearGradient>
    <linearGradient
       id="linearGradient3698-0">
      <stop
         id="stop3700-3"
         offset="0"
         style="stop-color:#96d0e1;stop-opacity:1" />
      <stop
         style="stop-color:#89b7e1;stop-opacity:1"
         offset="0.67819428"
         id="stop3706-9" />
      <stop
         id="stop3702-8"
         offset="1"
         style="stop-color:#699dd3;stop-opacity:1" />
    </linearGradient>
    <linearGradient
       id="linearGradient3708-6">
      <stop
         id="stop3710-5"
         offset="0"
         style="stop-color:#658db6;stop-opacity:1" />
      <stop
         style="stop-color:#527fab;stop-opacity:1;"
         offset="0.76777935"
         id="stop3716-5" />
      <stop
         id="stop3712-0"
         offset="1"
         style="stop-color:#4071a0;stop-opacity:1" />
    </linearGradient>
    <linearGradient
       id="linearGradient3750-1">
      <stop
         style="stop-color:#d0e2f1;stop-opacity:1"
         offset="0"
         id="stop3752-3" />
      <stop
         id="stop3756-5"
         offset="0.85580856"
         style="stop-color:#cadef0;stop-opacity:1" />
      <stop
         style="stop-color:#95bee3;stop-opacity:1"
         offset="1"
         id="stop3754-6" />
    </linearGradient>
    <linearGradient
       id="linearGradient3803-1">
      <stop
         id="stop3805-2"
         offset="0"
         style="stop-color:#b0b0b0;stop-opacity:1" />
      <stop
         id="stop3807-4"
         offset="1"
         style="stop-color:#fbfbfb;stop-opacity:1" />
    </linearGradient>
    <linearGradient
       inkscape:collect="always"
       xlink:href="#linearGradient3795-81"
       id="linearGradient3859-1"
       x1="26.192217"
       y1="1024.0002"
       x2="28.641211"
       y2="1024.0002"
       gradientUnits="userSpaceOnUse" />
    <linearGradient
       inkscape:collect="always"
       xlink:href="#linearGradient3795-81"
       id="linearGradient3867-4"
       gradientUnits="userSpaceOnUse"
       x1="26.192217"
       y1="1024.0002"
       x2="28.641211"
       y2="1024.0002" />
    <linearGradient
       inkscape:collect="always"
       xlink:href="#linearGradient3795-81"
       id="linearGradient3869-3"
       gradientUnits="userSpaceOnUse"
       x1="26.192217"
       y1="1024.0002"
       x2="28.641211"
       y2="1024.0002" />
    <linearGradient
       inkscape:collect="always"
       xlink:href="#linearGradient3795-81"
       id="linearGradient3871-2"
       gradientUnits="userSpaceOnUse"
       x1="26.192217"
       y1="1024.0002"
       x2="28.641211"
       y2="1024.0002" />
    <linearGradient
       inkscape:collect="always"
       xlink:href="#linearGradient3795-81"
       id="linearGradient3877-5"
       gradientUnits="userSpaceOnUse"
       x1="29.718235"
       y1="1027.8575"
       x2="22.811094"
       y2="1015.5485" />
    <linearGradient
       inkscape:collect="always"
       xlink:href="#linearGradient3795-81"
       id="linearGradient3879-6"
       gradientUnits="userSpaceOnUse"
       x1="17.196316"
       y1="1006.2238"
       x2="31.448042"
       y2="1030.9086" />
    <linearGradient
       inkscape:collect="always"
       xlink:href="#linearGradient3795-81"
       id="linearGradient3895-83"
       x1="21.973417"
       y1="34.43922"
       x2="42.475323"
       y2="24.798252"
       gradientUnits="userSpaceOnUse" />
    <linearGradient
       id="linearGradient3895-8">
      <stop
         style="stop-color:#e0880b;stop-opacity:1;"
         offset="0"
         id="stop3897" />
      <stop
         style="stop-color:#f7ce50;stop-opacity:1;"
         offset="1"
         id="stop3899" />
    </linearGradient>
    <linearGradient
       y2="1007.5135"
       x2="24.113745"
       y1="1049.2139"
       x1="24.113745"
       gradientTransform="matrix(0.96799712,0,0,1.0252613,604.84439,-419.13965)"
       gradientUnits="userSpaceOnUse"
       id="linearGradient3857"
       xlink:href="#linearGradient3895-8"
       inkscape:collect="always" />
    <linearGradient
       gradientUnits="userSpaceOnUse"
       y2="24.798252"
       x2="42.475323"
       y1="34.43922"
       x1="21.973417"
       id="linearGradient3895-0"
       xlink:href="#linearGradient3795-8"
       inkscape:collect="always" />
    <linearGradient
       y2="1030.9086"
       x2="31.448042"
       y1="1006.2238"
       x1="17.196316"
       gradientUnits="userSpaceOnUse"
       id="linearGradient3879-3"
       xlink:href="#linearGradient3795-8"
       inkscape:collect="always" />
    <linearGradient
       y2="1015.5485"
       x2="22.811094"
       y1="1027.8575"
       x1="29.718235"
       gradientUnits="userSpaceOnUse"
       id="linearGradient3877-9"
       xlink:href="#linearGradient3795-8"
       inkscape:collect="always" />
    <linearGradient
       y2="1024.0002"
       x2="28.641211"
       y1="1024.0002"
       x1="26.192217"
       gradientUnits="userSpaceOnUse"
       id="linearGradient3871-8"
       xlink:href="#linearGradient3795-8"
       inkscape:collect="always" />
    <linearGradient
       y2="1024.0002"
       x2="28.641211"
       y1="1024.0002"
       x1="26.192217"
       gradientUnits="userSpaceOnUse"
       id="linearGradient3869-1"
       xlink:href="#linearGradient3795-8"
       inkscape:collect="always" />
    <linearGradient
       y2="1024.0002"
       x2="28.641211"
       y1="1024.0002"
       x1="26.192217"
       gradientUnits="userSpaceOnUse"
       id="linearGradient3867-7"
       xlink:href="#linearGradient3795-8"
       inkscape:collect="always" />
    <linearGradient
       gradientUnits="userSpaceOnUse"
       y2="1024.0002"
       x2="28.641211"
       y1="1024.0002"
       x1="26.192217"
       id="linearGradient3859-3"
       xlink:href="#linearGradient3795-8"
       inkscape:collect="always" />
    <linearGradient
       gradientTransform="translate(0,-2056.7244)"
       gradientUnits="userSpaceOnUse"
       y2="1004.8474"
       x2="23.204165"
       y1="1053.158"
       x1="23.204165"
       id="linearGradient3801-4"
       xlink:href="#linearGradient3795-8"
       inkscape:collect="always" />
    <linearGradient
       id="linearGradient3803-6">
      <stop
         style="stop-color:#d7def0;stop-opacity:1;"
         offset="0"
         id="stop3805-4" />
      <stop
         id="stop3811-0"
         offset="0.5"
         style="stop-color:#ffffff;stop-opacity:1" />
      <stop
         style="stop-color:#d5def0;stop-opacity:1"
         offset="1"
         id="stop3807-5" />
    </linearGradient>
    <linearGradient
       id="linearGradient3750-8">
      <stop
         id="stop3752-0"
         offset="0"
         style="stop-color:#d0e2f1;stop-opacity:1" />
      <stop
         style="stop-color:#cadef0;stop-opacity:1"
         offset="0.85580856"
         id="stop3756-3" />
      <stop
         id="stop3754-3"
         offset="1"
         style="stop-color:#95bee3;stop-opacity:1" />
    </linearGradient>
    <linearGradient
       id="linearGradient3708-1">
      <stop
         style="stop-color:#69acef;stop-opacity:1"
         offset="0"
         id="stop3710-0" />
      <stop
         style="stop-color:#2b4c6b;stop-opacity:1"
         offset="1"
         id="stop3712-7" />
    </linearGradient>
    <linearGradient
       id="linearGradient3698-2">
      <stop
         style="stop-color:#96d0e1;stop-opacity:1"
         offset="0"
         id="stop3700-6" />
      <stop
         id="stop3706-1"
         offset="0.67819428"
         style="stop-color:#89b7e1;stop-opacity:1" />
      <stop
         style="stop-color:#699dd3;stop-opacity:1"
         offset="1"
         id="stop3702-6" />
    </linearGradient>
    <linearGradient
       id="linearGradient3795-8">
      <stop
         id="stop3797-7"
         offset="0"
         style="stop-color:#68b8d8;stop-opacity:1;" />
      <stop
         id="stop3799-1"
         offset="1"
         style="stop-color:#3097bd;stop-opacity:1;" />
    </linearGradient>
    <linearGradient
       gradientUnits="userSpaceOnUse"
       y2="24.798252"
       x2="42.475323"
       y1="34.43922"
       x1="21.973417"
       id="linearGradient3895-9"
       xlink:href="#linearGradient3795-5"
       inkscape:collect="always" />
    <linearGradient
       y2="1030.9086"
       x2="31.448042"
       y1="1006.2238"
       x1="17.196316"
       gradientUnits="userSpaceOnUse"
       id="linearGradient3879-5"
       xlink:href="#linearGradient3795-5"
       inkscape:collect="always" />
    <linearGradient
       y2="1015.5485"
       x2="22.811094"
       y1="1027.8575"
       x1="29.718235"
       gradientUnits="userSpaceOnUse"
       id="linearGradient3877-0"
       xlink:href="#linearGradient3795-5"
       inkscape:collect="always" />
    <linearGradient
       y2="1024.0002"
       x2="28.641211"
       y1="1024.0002"
       x1="26.192217"
       gradientUnits="userSpaceOnUse"
       id="linearGradient3871-1"
       xlink:href="#linearGradient3795-5"
       inkscape:collect="always" />
    <linearGradient
       y2="1024.0002"
       x2="28.641211"
       y1="1024.0002"
       x1="26.192217"
       gradientUnits="userSpaceOnUse"
       id="linearGradient3869-0"
       xlink:href="#linearGradient3795-5"
       inkscape:collect="always" />
    <linearGradient
       y2="1024.0002"
       x2="28.641211"
       y1="1024.0002"
       x1="26.192217"
       gradientUnits="userSpaceOnUse"
       id="linearGradient3867-79"
       xlink:href="#linearGradient3795-5"
       inkscape:collect="always" />
    <linearGradient
       gradientUnits="userSpaceOnUse"
       y2="1024.0002"
       x2="28.641211"
       y1="1024.0002"
       x1="26.192217"
       id="linearGradient3859-7"
       xlink:href="#linearGradient3795-5"
       inkscape:collect="always" />
    <linearGradient
       id="linearGradient3803-9">
      <stop
         style="stop-color:#d3d3d3;stop-opacity:1"
         offset="0"
         id="stop3805-8" />
      <stop
         id="stop3811-2"
         offset="0.5"
         style="stop-color:#ffffff;stop-opacity:1" />
      <stop
         style="stop-color:#ffffff;stop-opacity:1"
         offset="1"
         id="stop3807-3" />
    </linearGradient>
    <linearGradient
       id="linearGradient3750-7">
      <stop
         id="stop3752-1"
         offset="0"
         style="stop-color:#d0e2f1;stop-opacity:1" />
      <stop
         style="stop-color:#cadef0;stop-opacity:1"
         offset="0.85580856"
         id="stop3756-9" />
      <stop
         id="stop3754-1"
         offset="1"
         style="stop-color:#95bee3;stop-opacity:1" />
    </linearGradient>
    <linearGradient
       id="linearGradient3708-5">
      <stop
         style="stop-color:#658db6;stop-opacity:1"
         offset="0"
         id="stop3710-3" />
      <stop
         id="stop3716-0"
         offset="0.76777935"
         style="stop-color:#527fab;stop-opacity:1;" />
      <stop
         style="stop-color:#4071a0;stop-opacity:1"
         offset="1"
         id="stop3712-3" />
    </linearGradient>
    <linearGradient
       id="linearGradient3698-9">
      <stop
         style="stop-color:#96d0e1;stop-opacity:1"
         offset="0"
         id="stop3700-5" />
      <stop
         id="stop3706-91"
         offset="0.67819428"
         style="stop-color:#89b7e1;stop-opacity:1" />
      <stop
         style="stop-color:#699dd3;stop-opacity:1"
         offset="1"
         id="stop3702-7" />
    </linearGradient>
    <linearGradient
       id="linearGradient3795-5">
      <stop
         id="stop3797-76"
         offset="0"
         style="stop-color:#6891b8;stop-opacity:1;" />
      <stop
         id="stop3799-2"
         offset="1"
         style="stop-color:#304a97;stop-opacity:1;" />
    </linearGradient>
    <linearGradient
       inkscape:collect="always"
       xlink:href="#linearGradient3803-9"
       id="linearGradient931"
       gradientUnits="userSpaceOnUse"
       gradientTransform="translate(-2.3730774e-8,-1004.3623)"
       x1="25"
       y1="1050.3623"
       x2="25"
       y2="1012.6596" />
  </defs>
  <sodipodi:namedview
     id="base"
     pagecolor="#ffffff"
     bordercolor="#666666"
     borderopacity="1.0"
     inkscape:pageopacity="0.0"
     inkscape:pageshadow="2"
     inkscape:zoom="5.2687574"
     inkscape:cx="53.93247"
     inkscape:cy="66.161886"
     inkscape:document-units="px"
     inkscape:current-layer="layer1"
     showgrid="false"
     inkscape:window-width="1920"
     inkscape:window-height="1035"
     inkscape:window-x="0"
     inkscape:window-y="26"
     inkscape:window-maximized="1">
    <inkscape:grid
       type="xygrid"
       id="grid3850" />
  </sodipodi:namedview>
  <metadata
     id="metadata7">
    <rdf:RDF>
      <cc:Work
         rdf:about="">
        <dc:format>image/svg+xml</dc:format>
        <dc:type
           rdf:resource="http://purl.org/dc/dcmitype/StillImage" />
        <dc:title />
      </cc:Work>
    </rdf:RDF>
  </metadata>
  <g
     inkscape:label="Capa 1"
     inkscape:groupmode="layer"
     id="layer1"
     transform="translate(0,-1004.3622)">
    <rect
       style="fill:url(#linearGradient1025);fill-opacity:1;stroke:#7d7d7d;stroke-width:0.39848712;stroke-miterlimit:4;stroke-opacity:1;stroke-dasharray:none"
       id="rect929"
       width="44.601513"
       height="44.601513"
       x="1.6992435"
       y="1006.0615"
       ry="5.6755357" />
    <g
       id="g1206"
       transform="matrix(0.14431097,-0.14431097,0.14431097,0.14431097,-90.142477,884.15209)">
      <path
         inkscape:connector-curvature="0"
         id="rect1160"
         d="m -120.92187,798.76845 c -11.76997,5.75777 -19.875,17.82669 -19.875,31.8125 0,11.72861 5.71362,22.14261 14.5,28.59375 l 0,22.78125 0,66.78125 0,26.53125 c 0,10.03443 8.05932,18.125 18.09375,18.125 l 5.625,0 c 10.03442,0 18.125,-8.09057 18.125,-18.125 l 0,-26.53125 0,-66.78125 0,-22.78125 c 8.78922,-6.44998 14.5,-16.85586 14.5,-28.59375 0,-13.98581 -8.10503,-26.05473 -19.875,-31.8125 l 0,25.90625 c 0,5.72881 -3.07661,10.70479 -7.65625,13.40625 -4.60857,0 -11.22232,-0.0312 -15.8125,-0.0312 -4.56839,-2.70645 -7.625,-7.66161 -7.625,-13.375 z m 15.53125,162.09375 c 6.55838,0 11.875,5.31662 11.875,11.875 0,6.55838 -5.31662,11.875 -11.875,11.875 -6.55838,0 -11.875,-5.31662 -11.875,-11.875 0,-6.55838 5.31662,-11.875 11.875,-11.875 z"
         style="fill:#6cbdec;fill-opacity:1;stroke:none"
         sodipodi:nodetypes="cscccsssscccscsccscsssss" />
      <g
         transform="translate(235,-41.40625)"
         id="g1202">
        <path
           style="fill:#69696b;fill-opacity:1;stroke:none"
           d="m -412,924.6122 -34.625,6.75 -0.125,0 0,11.5 0.21875,0 35.90625,7.5 6.9375,-6.9375 0.0625,-0.5625 35.625,0 0,-11.5 -34.625,0 z"
           id="rect1178"
           inkscape:connector-curvature="0"
           sodipodi:nodetypes="cccccccccccc" />
        <path
           style="fill:#2e74a5;fill-opacity:1;stroke:none"
           d="m -310.75,918.8622 0,7 c 0.14667,-0.0154 0.28661,-0.0625 0.4375,-0.0625 l 57.25,0 c 2.31987,0 4.1875,1.86762 4.1875,4.1875 0,2.31988 -1.86763,4.1875 -4.1875,4.1875 l -57.25,0 c -0.15089,0 -0.29083,-0.0471 -0.4375,-0.0625 l 0,6.75 c 0.14667,-0.0154 0.28661,-0.0625 0.4375,-0.0625 l 57.25,0 c 2.31987,0 4.1875,1.86762 4.1875,4.1875 0,2.31988 -1.86763,4.1875 -4.1875,4.1875 l -57.25,0 c -0.15089,0 -0.29083,-0.0471 -0.4375,-0.0625 l 0,7 16.0625,0 25.0625,0 20.3125,0 c 8.47548,0 15.3125,-6.80577 15.3125,-15.28125 l 0,-6.6875 c 0,-8.47548 -6.83702,-15.28125 -15.3125,-15.28125 l -20.3125,0 -25.0625,0 -16.0625,0 z"
           id="rect1183"
           inkscape:connector-curvature="0" />
      </g>
    </g>
    <path
       style="fill:url(#linearGradient931);fill-opacity:1;stroke:#7d7d7d;stroke-width:0.39848712;stroke-miterlimit:4;stroke-opacity:1;stroke-dasharray:none"
       d="M 7.375 1.6875 C 4.2307532 1.6875 1.6875 4.2307532 1.6875 7.375 L 1.6875 40.625 C 1.6875 43.769247 4.2307532 46.3125 7.375 46.3125 L 40.625 46.3125 C 43.769247 46.3125 46.3125 43.769247 46.3125 40.625 L 46.3125 7.375 C 46.3125 4.2307532 43.769247 1.6875 40.625 1.6875 L 7.375 1.6875 z M 10.34375 5.21875 L 37.65625 5.21875 C 40.303707 5.21875 42.4375 7.3525432 42.4375 10 L 42.4375 38 C 42.4375 40.647457 40.303707 42.78125 37.65625 42.78125 L 10.34375 42.78125 C 7.6962932 42.78125 5.5625 40.647457 5.5625 38 L 5.5625 10 C 5.5625 7.3525432 7.6962932 5.21875 10.34375 5.21875 z "
       id="rect2992"
       transform="translate(0,1004.3622)" />
    <path
       style="fill:#000000;fill-opacity:1;stroke:none"
       d="m 1.6875,31.03125 0,9.125 c 0.099534,3.171545 1.3416137,5.68803 6.15625,6.15625 l 9.09375,0 -3.53125,-3.53125 -3.0625,0 C 7.6962932,42.78125 5.5625,40.647457 5.5625,38 l 0,-3.09375 z"
       transform="translate(0,1004.3622)"
       id="rect934"
       inkscape:connector-curvature="0"
       sodipodi:nodetypes="cccccsscc" />
    <path
       style="fill:#ffcc00;fill-opacity:1;stroke:none"
       d="M 1.6875 21.96875 L 1.6875 31.03125 L 5.5625 34.90625 L 5.5625 25.84375 L 1.6875 21.96875 z M 13.40625 42.78125 L 16.9375 46.3125 L 26.0625 46.3125 L 22.53125 42.78125 L 13.40625 42.78125 z "
       transform="translate(0,1004.3622)"
       id="rect938" />
    <path
       style="fill:#000000;fill-opacity:1;stroke:none"
       d="M 1.6875 12.84375 L 1.6875 21.96875 L 5.5625 25.84375 L 5.5625 16.71875 L 1.6875 12.84375 z M 22.53125 42.78125 L 26.0625 46.3125 L 35.15625 46.3125 L 31.625 42.78125 L 22.53125 42.78125 z "
       transform="translate(0,1004.3622)"
       id="rect940" />
    <path
       style="fill:#ffcc00;fill-opacity:1;stroke:none"
       d="M 2.7039625,4.4309437 C 2.1580072,5.2771189 1.6875,6.083336 1.6875,7.09375 c -0.00438,0.091731 0,0.1884209 0,0.28125 l 0,5.46875 3.875,3.875 0,-6.71875 c 0,-0.6967791 0.3414901,-1.4397714 0.6075613,-2.0358538 z M 40.181124,42.089413 c -0.705605,0.409776 -1.647448,0.691837 -2.524874,0.691837 l -6.03125,0 3.53125,3.53125 5.765342,0 c 0.845975,-0.259039 1.788651,-0.36612 2.431498,-0.944361 z"
       transform="translate(0,1004.3622)"
       id="rect927"
       inkscape:connector-curvature="0"
       sodipodi:nodetypes="ccsccscccsccccc" />
    <path
       style="fill:#000000;fill-opacity:1;stroke:none"
       d="M 7.0625,1.6875 C 5.2551828,2.1510095 3.4464526,2.8894402 2.6783077,4.4481403 L 6.03125,7.9375 C 6.7979451,6.3240287 8.4333002,5.21875 10.34375,5.21875 l 2.09375,0 -3.53125,-3.53125 -1.53125,0 c -0.1031435,0 -0.2107186,-0.00541 -0.3125,0 z m 35.375,33.5625 0,2.75 c 0,1.729803 -0.911289,3.223184 -2.28125,4.0625 l 3.255001,3.361762 c 2.07178,-0.784191 3.071381,-3.894779 2.870517,-6.25882 z"
       transform="translate(0,1004.3622)"
       id="rect930"
       inkscape:connector-curvature="0"
       sodipodi:nodetypes="cccsccsccscccc" />
    <path
       style="fill:#ffcc00;fill-opacity:1;stroke:none"
       d="m 8.90625,1.6875 3.53125,3.53125 9.0625,0 -3.53125,-3.53125 z m 33.53125,24.46875 0,9.09375 3.856131,3.90358 0.01887,-1.46608 0,-7.65625 z"
       transform="translate(0,1004.3622)"
       id="rect932"
       inkscape:connector-curvature="0"
       sodipodi:nodetypes="ccccccccccc" />
    <path
       style="fill:#000000;fill-opacity:1;stroke:none"
       d="M 17.96875 1.6875 L 21.5 5.21875 L 30.625 5.21875 L 27.09375 1.6875 L 17.96875 1.6875 z M 42.4375 17.0625 L 42.4375 26.15625 L 46.3125 30.03125 L 46.3125 20.9375 L 42.4375 17.0625 z "
       transform="translate(0,1004.3622)"
       id="rect935" />
    <path
       style="fill:#ffcc00;fill-opacity:1;stroke:none"
       d="M 27.09375 1.6875 L 30.625 5.21875 L 37.65625 5.21875 C 40.303707 5.21875 42.4375 7.3525432 42.4375 10 L 42.4375 17.0625 L 46.3125 20.9375 L 46.3125 11.8125 L 36.15625 1.6875 L 27.09375 1.6875 z "
       transform="translate(0,1004.3622)"
       id="rect937" />
    <path
       style="fill:#000000;fill-opacity:1;stroke:none"
       d="M 36.3125 1.6875 L 46.3125 11.65625 L 46.3125 7.375 C 46.3125 4.2307532 43.769247 1.6875 40.625 1.6875 L 36.3125 1.6875 z "
       transform="translate(0,1004.3622)"
       id="rect949" />
    <path
       transform="translate(0,1004.3622)"
       id="path980"
       d="M 7.375 1.6875 C 4.2307532 1.6875 1.6875 4.2307532 1.6875 7.375 L 1.6875 40.625 C 1.6875 43.769247 4.2307532 46.3125 7.375 46.3125 L 40.625 46.3125 C 43.769247 46.3125 46.3125 43.769247 46.3125 40.625 L 46.3125 7.375 C 46.3125 4.2307532 43.769247 1.6875 40.625 1.6875 L 7.375 1.6875 z M 10.34375 5.21875 L 37.65625 5.21875 C 40.303707 5.21875 42.4375 7.3525432 42.4375 10 L 42.4375 38 C 42.4375 40.647457 40.303707 42.78125 37.65625 42.78125 L 10.34375 42.78125 C 7.6962932 42.78125 5.5625 40.647457 5.5625 38 L 5.5625 10 C 5.5625 7.3525432 7.6962932 5.21875 10.34375 5.21875 z "
       style="fill:none;fill-opacity:1;stroke:#7d7d7d;stroke-width:0.39848712;stroke-miterlimit:4;stroke-opacity:1;stroke-dasharray:none" />
  </g>
</svg>
