<?xml version="1.0" encoding="UTF-8" standalone="no"?>
<!-- Created with Inkscape (http://www.inkscape.org/) -->

<svg
   xmlns:dc="http://purl.org/dc/elements/1.1/"
   xmlns:cc="http://creativecommons.org/ns#"
   xmlns:rdf="http://www.w3.org/1999/02/22-rdf-syntax-ns#"
   xmlns:svg="http://www.w3.org/2000/svg"
   xmlns="http://www.w3.org/2000/svg"
   xmlns:xlink="http://www.w3.org/1999/xlink"
   xmlns:sodipodi="http://sodipodi.sourceforge.net/DTD/sodipodi-0.dtd"
   xmlns:inkscape="http://www.inkscape.org/namespaces/inkscape"
   width="48"
   height="48"
   id="svg2"
   version="1.1"
   inkscape:version="0.48+devel r11556"
   sodipodi:docname="covergloobus.svg">
  <defs
     id="defs4">
    <linearGradient
       id="linearGradient861">
      <stop
         offset="0"
         style="stop-color:#005693;stop-opacity:1"
         id="stop863" />
      <stop
         offset="0.64838707"
         style="stop-color:#1d96dc;stop-opacity:1"
         id="stop865" />
      <stop
         offset="1"
         style="stop-color:#3cc1ff;stop-opacity:1"
         id="stop867" />
    </linearGradient>
    <linearGradient
       id="linearGradient3795">
      <stop
         style="stop-color:#52a2cc;stop-opacity:1;"
         offset="0"
         id="stop3797" />
      <stop
         style="stop-color:#59b3e1;stop-opacity:1;"
         offset="1"
         id="stop3799" />
    </linearGradient>
    <linearGradient
       inkscape:collect="always"
       id="linearGradient3914">
      <stop
         style="stop-color:#59b3e1;stop-opacity:1;"
         offset="0"
         id="stop3916" />
      <stop
         style="stop-color:#59b3e1;stop-opacity:0;"
         offset="1"
         id="stop3918" />
    </linearGradient>
    <linearGradient
       id="linearGradient3698">
      <stop
         id="stop3700"
         offset="0"
         style="stop-color:#96d0e1;stop-opacity:1" />
      <stop
         style="stop-color:#89b7e1;stop-opacity:1"
         offset="0.67819428"
         id="stop3706" />
      <stop
         id="stop3702"
         offset="1"
         style="stop-color:#699dd3;stop-opacity:1" />
    </linearGradient>
    <linearGradient
       id="linearGradient3708">
      <stop
         id="stop3710"
         offset="0"
         style="stop-color:#658db6;stop-opacity:1" />
      <stop
         style="stop-color:#527fab;stop-opacity:1;"
         offset="0.76777935"
         id="stop3716" />
      <stop
         id="stop3712"
         offset="1"
         style="stop-color:#4071a0;stop-opacity:1" />
    </linearGradient>
    <linearGradient
       id="linearGradient3750">
      <stop
         style="stop-color:#d0e2f1;stop-opacity:1"
         offset="0"
         id="stop3752" />
      <stop
         id="stop3756"
         offset="0.85580856"
         style="stop-color:#cadef0;stop-opacity:1" />
      <stop
         style="stop-color:#95bee3;stop-opacity:1"
         offset="1"
         id="stop3754" />
    </linearGradient>
    <linearGradient
       id="linearGradient3803">
      <stop
         id="stop3805"
         offset="0"
         style="stop-color:#d7def0;stop-opacity:1;" />
      <stop
         style="stop-color:#ffffff;stop-opacity:1"
         offset="0.5"
         id="stop3811" />
      <stop
         id="stop3807"
         offset="1"
         style="stop-color:#d5def0;stop-opacity:1" />
    </linearGradient>
    <linearGradient
       inkscape:collect="always"
       xlink:href="#linearGradient3914"
       id="linearGradient3920"
       x1="6.8000002"
       y1="25.0625"
       x2="45.325001"
       y2="25.0625"
       gradientUnits="userSpaceOnUse" />
    <linearGradient
       inkscape:collect="always"
       xlink:href="#linearGradient3176"
       id="linearGradient3801"
       x1="23.204165"
       y1="1053.158"
       x2="23.204165"
       y2="1004.8474"
       gradientUnits="userSpaceOnUse" />
    <linearGradient
       x1="23.999987"
       y1="42.956509"
       x2="20.56768"
       y2="7.429738"
       id="linearGradient3241"
       xlink:href="#linearGradient3176"
       gradientUnits="userSpaceOnUse"
       gradientTransform="matrix(1.6748685,0,0,1.6760154,7.8316773,8.0709351)" />
    <linearGradient
       id="linearGradient3176">
      <stop
         id="stop3178"
         style="stop-color:#005693;stop-opacity:1"
         offset="0" />
      <stop
         id="stop3365"
         style="stop-color:#1d96dc;stop-opacity:1"
         offset="0.64838707" />
      <stop
         id="stop3180"
         style="stop-color:#3cc1ff;stop-opacity:0.75539571"
         offset="1" />
    </linearGradient>
    <linearGradient
       x1="32.792847"
       y1="50.015823"
       x2="32.368599"
       y2="15.582076"
       id="linearGradient3761"
       xlink:href="#linearGradient3172"
       gradientUnits="userSpaceOnUse"
       gradientTransform="matrix(1.9087179,0,0,1.8427207,-17.397346,-14.21658)" />
    <linearGradient
       id="linearGradient3172">
      <stop
         id="stop3174"
         style="stop-color:#005c9b;stop-opacity:1"
         offset="0" />
      <stop
         id="stop3176"
         style="stop-color:#55baff;stop-opacity:1"
         offset="1" />
    </linearGradient>
    <linearGradient
       x1="25.726885"
       y1="18.172169"
       x2="37.437656"
       y2="51.406189"
       id="linearGradient3178"
       xlink:href="#linearGradient3172"
       gradientUnits="userSpaceOnUse"
       gradientTransform="matrix(1.1727762,0,0,1.1735792,8.0691619,9.6574641)" />
    <linearGradient
       id="linearGradient3071">
      <stop
         id="stop3073"
         style="stop-color:#005c9b;stop-opacity:1"
         offset="0" />
      <stop
         id="stop3075"
         style="stop-color:#55baff;stop-opacity:1"
         offset="1" />
    </linearGradient>
    <linearGradient
       x1="34.100719"
       y1="45.622128"
       x2="34.100719"
       y2="20.249283"
       id="linearGradient3221"
       xlink:href="#linearGradient3223"
       gradientUnits="userSpaceOnUse"
       gradientTransform="matrix(1.1766195,0,0,1.1571627,7.9685872,10.019723)" />
    <linearGradient
       id="linearGradient3223">
      <stop
         id="stop3225"
         style="stop-color:#003e69;stop-opacity:1"
         offset="0" />
      <stop
         id="stop3227"
         style="stop-color:#17a3ff;stop-opacity:1"
         offset="1" />
    </linearGradient>
    <linearGradient
       inkscape:collect="always"
       xlink:href="#linearGradient3223"
       id="linearGradient3081"
       gradientUnits="userSpaceOnUse"
       gradientTransform="matrix(1.1766195,0,0,1.1571627,44.94815,981.15721)"
       x1="34.100719"
       y1="45.622128"
       x2="34.100719"
       y2="20.249283" />
    <linearGradient
       inkscape:collect="always"
       xlink:href="#linearGradient3172"
       id="linearGradient3085"
       gradientUnits="userSpaceOnUse"
       gradientTransform="matrix(1.1727762,0,0,1.1735792,45.048725,980.79495)"
       x1="25.726885"
       y1="18.172169"
       x2="37.437656"
       y2="51.406189" />
    <linearGradient
       inkscape:collect="always"
       xlink:href="#linearGradient3172"
       id="linearGradient3089"
       gradientUnits="userSpaceOnUse"
       gradientTransform="matrix(1.9087179,0,0,1.8427207,120.58221,960.17091)"
       x1="32.792847"
       y1="50.015823"
       x2="32.368599"
       y2="15.582076" />
    <linearGradient
       y2="1049.5842"
       x2="24.113745"
       y1="1007.2183"
       x1="24.113745"
       gradientTransform="matrix(0.96799712,0,0,1.0252613,0.7681216,-2082.7023)"
       gradientUnits="userSpaceOnUse"
       id="linearGradient3036"
       xlink:href="#linearGradient3795-8"
       inkscape:collect="always" />
    <linearGradient
       id="linearGradient3795-8">
      <stop
         style="stop-color:#52a2cc;stop-opacity:1;"
         offset="0"
         id="stop3797-7" />
      <stop
         style="stop-color:#59b3e1;stop-opacity:1;"
         offset="1"
         id="stop3799-3" />
    </linearGradient>
  </defs>
  <sodipodi:namedview
     id="base"
     pagecolor="#ffffff"
     bordercolor="#666666"
     borderopacity="1.0"
     inkscape:pageopacity="0.0"
     inkscape:pageshadow="2"
     inkscape:zoom="2.2652536"
     inkscape:cx="-13.969058"
     inkscape:cy="-40.075122"
     inkscape:document-units="px"
     inkscape:current-layer="layer1"
     showgrid="false"
     inkscape:window-width="888"
     inkscape:window-height="768"
     inkscape:window-x="0"
     inkscape:window-y="0"
     inkscape:window-maximized="0" />
  <metadata
     id="metadata7">
    <rdf:RDF>
      <cc:Work
         rdf:about="">
        <dc:format>image/svg+xml</dc:format>
        <dc:type
           rdf:resource="http://purl.org/dc/dcmitype/StillImage" />
        <dc:title></dc:title>
      </cc:Work>
    </rdf:RDF>
  </metadata>
  <g
     inkscape:label="Capa 1"
     inkscape:groupmode="layer"
     id="layer1"
     transform="translate(0,-1004.3622)">
    <path
       style="fill:#4d4d4d;fill-opacity:1;fill-rule:evenodd;stroke:none"
       id="path3239"
       inkscape:connector-curvature="0"
       d="m 24.379974,1029.1294 c -0.215762,-0.9396 0.914489,-1.4839 1.684078,-1.3834 1.504337,0.1965 2.217616,1.8811 1.871212,3.231 -0.526754,2.0526 -2.860317,2.9763 -4.773508,2.3615 -2.5997,-0.8355 -3.739235,-3.8481 -2.848653,-6.3225 1.134431,-3.1519 4.832715,-4.5112 7.862919,-3.3397 3.700862,1.4308 5.279155,5.825 3.826101,9.4141 -1.722866,4.2555 -6.80994,6.0557 -10.952338,4.3178 -4.804905,-2.0159 -6.824897,-7.8047 -4.803542,-12.5057 2.305221,-5.3611 8.789002,-7.604 14.041765,-5.2958 5.910307,2.5971 8.373222,9.7856 5.780992,15.5971 -2.884925,6.4678 -10.768952,9.1543 -17.131181,6.274 -7.016431,-3.1763 -9.9229469,-11.7672 -6.758453,-18.6887 2.481305,-5.4272 8.153625,-8.8421 14.089547,-8.6883" />
  </g>
</svg>
