<?xml version="1.0" encoding="UTF-8" standalone="no"?>
<!-- Created with Inkscape (http://www.inkscape.org/) -->

<svg
   xmlns:dc="http://purl.org/dc/elements/1.1/"
   xmlns:cc="http://creativecommons.org/ns#"
   xmlns:rdf="http://www.w3.org/1999/02/22-rdf-syntax-ns#"
   xmlns:svg="http://www.w3.org/2000/svg"
   xmlns="http://www.w3.org/2000/svg"
   xmlns:sodipodi="http://sodipodi.sourceforge.net/DTD/sodipodi-0.dtd"
   xmlns:inkscape="http://www.inkscape.org/namespaces/inkscape"
   width="48"
   height="48"
   id="svg2"
   version="1.1"
   inkscape:version="0.48+devel r11731"
   sodipodi:docname="dialog-warning.svg">
  <defs
     id="defs4" />
  <sodipodi:namedview
     id="base"
     pagecolor="#ffffff"
     bordercolor="#666666"
     borderopacity="1.0"
     inkscape:pageopacity="0.0"
     inkscape:pageshadow="2"
     inkscape:zoom="7.9195959"
     inkscape:cx="5.6338233"
     inkscape:cy="20.71209"
     inkscape:document-units="px"
     inkscape:current-layer="layer1"
     showgrid="false"
     inkscape:window-width="1366"
     inkscape:window-height="746"
     inkscape:window-x="0"
     inkscape:window-y="0"
     inkscape:window-maximized="1" />
  <metadata
     id="metadata7">
    <rdf:RDF>
      <cc:Work
         rdf:about="">
        <dc:format>image/svg+xml</dc:format>
        <dc:type
           rdf:resource="http://purl.org/dc/dcmitype/StillImage" />
        <dc:title />
      </cc:Work>
    </rdf:RDF>
  </metadata>
  <g
     inkscape:label="Capa 1"
     inkscape:groupmode="layer"
     id="layer1"
     transform="translate(0,-1004.3622)">
    <path
       sodipodi:type="star"
       style="fill:#ff7000;fill-opacity:1;stroke:none"
       id="path2985"
       sodipodi:sides="3"
       sodipodi:cx="6.8185296"
       sodipodi:cy="25.1453"
       sodipodi:r1="24.599146"
       sodipodi:r2="12.299573"
       sodipodi:arg1="-0.26179939"
       sodipodi:arg2="0.78539816"
       inkscape:flatsided="false"
       inkscape:rounded="0"
       inkscape:randomized="0"
       d="M 30.57948,18.778572 15.515641,33.842411 0.45180221,48.90625 -5.0619455,28.328664 -10.575693,7.7510771 10.001893,13.264825 Z"
       transform="matrix(0.70710678,0.70710678,-0.70710678,0.70710678,36.958984,1011.9101)"
       inkscape:transform-center-y="-6.1497458" />
    <rect
       style="fill:none;stroke:none"
       id="rect2993"
       width="48"
       height="48"
       x="0"
       y="1004.3622"
       ry="0.75172919" />
    <path
       inkscape:connector-curvature="0"
       d="m 26.964442,1020.8841 -0.881404,16.2792 -4.166634,0 L 21.035,1020.8841 26.964442,1020.8841 z m -0.440702,17.2942 0,4.3269 -5.048038,0 0,-4.3269 L 26.52374,1038.1783 Z"
       style="font-size:27.35021591px;font-style:normal;font-variant:normal;font-weight:bold;font-stretch:normal;line-height:125%;letter-spacing:0px;word-spacing:0px;fill:#ffffff;fill-opacity:1;stroke:none;font-family:Impact;-inkscape-font-specification:Impact Bold"
       id="path812" />
  </g>
</svg>
