<?xml version="1.0" encoding="UTF-8" standalone="no"?>
<!-- Created with Inkscape (http://www.inkscape.org/) -->

<svg
   xmlns:dc="http://purl.org/dc/elements/1.1/"
   xmlns:cc="http://creativecommons.org/ns#"
   xmlns:rdf="http://www.w3.org/1999/02/22-rdf-syntax-ns#"
   xmlns:svg="http://www.w3.org/2000/svg"
   xmlns="http://www.w3.org/2000/svg"
   xmlns:xlink="http://www.w3.org/1999/xlink"
   xmlns:sodipodi="http://sodipodi.sourceforge.net/DTD/sodipodi-0.dtd"
   xmlns:inkscape="http://www.inkscape.org/namespaces/inkscape"
   width="48px"
   height="48px"
   id="svg3409"
   version="1.1"
   inkscape:version="0.48+devel r11556"
   sodipodi:docname="dropboxstatus-busy.svg">
  <defs
     id="defs3411">
    <linearGradient
       inkscape:collect="always"
       xlink:href="#linearGradient3013"
       id="linearGradient6033"
       gradientUnits="userSpaceOnUse"
       gradientTransform="matrix(3.3589345,0,0,3.3589345,-2641.2294,-790.72793)"
       x1="564.77899"
       y1="347.72147"
       x2="564.77899"
       y2="279.56357" />
    <linearGradient
       id="linearGradient3013">
      <stop
         style="stop-color:#60b5cc;stop-opacity:1;"
         offset="0"
         id="stop3015" />
      <stop
         style="stop-color:#ffffff;stop-opacity:1;"
         offset="1"
         id="stop3017" />
    </linearGradient>
    <linearGradient
       inkscape:collect="always"
       xlink:href="#linearGradient3013"
       id="linearGradient6035"
       gradientUnits="userSpaceOnUse"
       gradientTransform="matrix(-1.001916,0,0,1,-560.92501,142.24199)"
       x1="136.74812"
       y1="89.953423"
       x2="175.71454"
       y2="165.946" />
    <linearGradient
       id="linearGradient3432">
      <stop
         style="stop-color:#60b5cc;stop-opacity:1;"
         offset="0"
         id="stop3434" />
      <stop
         style="stop-color:#ffffff;stop-opacity:1;"
         offset="1"
         id="stop3436" />
    </linearGradient>
    <linearGradient
       inkscape:collect="always"
       xlink:href="#linearGradient3013"
       id="linearGradient6037"
       gradientUnits="userSpaceOnUse"
       gradientTransform="matrix(1.001916,0,0,1,-927.00055,142.24199)"
       x1="136.74812"
       y1="89.953423"
       x2="175.71454"
       y2="165.946" />
    <linearGradient
       id="linearGradient3439">
      <stop
         style="stop-color:#60b5cc;stop-opacity:1;"
         offset="0"
         id="stop3441" />
      <stop
         style="stop-color:#ffffff;stop-opacity:1;"
         offset="1"
         id="stop3443" />
    </linearGradient>
    <radialGradient
       inkscape:collect="always"
       xlink:href="#linearGradient4946"
       id="radialGradient6039"
       gradientUnits="userSpaceOnUse"
       gradientTransform="matrix(0.95680016,-1.6552999,3.6467302,2.1078912,-473.81245,-460.15034)"
       cx="-194.82173"
       cy="138.28575"
       fx="-194.82173"
       fy="138.28575"
       r="57.093296" />
    <linearGradient
       id="linearGradient4946">
      <stop
         style="stop-color:#4baa23;stop-opacity:1;"
         offset="0"
         id="stop4948" />
      <stop
         style="stop-color:#c9c9c9;stop-opacity:1;"
         offset="1"
         id="stop4950" />
    </linearGradient>
    <radialGradient
       inkscape:collect="always"
       xlink:href="#linearGradient4946"
       id="radialGradient3042"
       gradientUnits="userSpaceOnUse"
       gradientTransform="matrix(0.95680016,-1.6552999,3.6467302,2.1078912,-473.81245,-460.15034)"
       cx="-194.82173"
       cy="138.28575"
       fx="-194.82173"
       fy="138.28575"
       r="57.093296" />
    <linearGradient
       inkscape:collect="always"
       xlink:href="#linearGradient3013"
       id="linearGradient3051"
       gradientUnits="userSpaceOnUse"
       gradientTransform="matrix(3.3589345,0,0,3.3589345,-2641.2294,-790.72793)"
       x1="564.77899"
       y1="347.72147"
       x2="564.77899"
       y2="279.56357" />
    <linearGradient
       inkscape:collect="always"
       xlink:href="#linearGradient3013"
       id="linearGradient3053"
       gradientUnits="userSpaceOnUse"
       gradientTransform="matrix(-1.001916,0,0,1,-560.92501,142.24199)"
       x1="136.74812"
       y1="89.953423"
       x2="175.71454"
       y2="165.946" />
    <linearGradient
       inkscape:collect="always"
       xlink:href="#linearGradient3013"
       id="linearGradient3055"
       gradientUnits="userSpaceOnUse"
       gradientTransform="matrix(1.001916,0,0,1,-927.00055,142.24199)"
       x1="136.74812"
       y1="89.953423"
       x2="175.71454"
       y2="165.946" />
    <linearGradient
       inkscape:collect="always"
       xlink:href="#linearGradient3013"
       id="linearGradient3060"
       gradientUnits="userSpaceOnUse"
       gradientTransform="matrix(0.21258284,0,0,0.23162758,-14.858626,-12.612251)"
       x1="136.74812"
       y1="89.953423"
       x2="175.71454"
       y2="165.946" />
    <linearGradient
       inkscape:collect="always"
       xlink:href="#linearGradient3013"
       id="linearGradient3063"
       gradientUnits="userSpaceOnUse"
       gradientTransform="matrix(-0.21258284,0,0,0.23162758,62.813931,-12.612251)"
       x1="136.74812"
       y1="89.953423"
       x2="175.71454"
       y2="165.946" />
    <linearGradient
       inkscape:collect="always"
       xlink:href="#linearGradient3013"
       id="linearGradient3072"
       gradientUnits="userSpaceOnUse"
       gradientTransform="matrix(0.71268633,0,0,0.77802187,-378.57738,-228.71382)"
       x1="564.77899"
       y1="347.72147"
       x2="564.77899"
       y2="279.56357" />
    <radialGradient
       inkscape:collect="always"
       xlink:href="#linearGradient4946"
       id="radialGradient3076"
       gradientUnits="userSpaceOnUse"
       gradientTransform="matrix(0.95680016,-1.6552999,3.6467302,2.1078912,-473.81245,-460.15034)"
       cx="-194.82173"
       cy="138.28575"
       fx="-194.82173"
       fy="138.28575"
       r="57.093296" />
    <linearGradient
       inkscape:collect="always"
       xlink:href="#linearGradient3795"
       id="linearGradient3801"
       x1="23.204165"
       y1="1053.158"
       x2="23.204165"
       y2="1004.8474"
       gradientUnits="userSpaceOnUse"
       gradientTransform="translate(0,-2056.7244)" />
    <linearGradient
       id="linearGradient3795">
      <stop
         style="stop-color:#b4ea76;stop-opacity:1;"
         offset="0"
         id="stop3797" />
      <stop
         style="stop-color:#6aa229;stop-opacity:1;"
         offset="1"
         id="stop3799" />
    </linearGradient>
    <linearGradient
       id="linearGradient3013-3">
      <stop
         style="stop-color:#414141;stop-opacity:0;"
         offset="0"
         id="stop3015-0" />
      <stop
         style="stop-color:#ffffff;stop-opacity:1;"
         offset="1"
         id="stop3017-7" />
    </linearGradient>
    <linearGradient
       id="linearGradient3053-0">
      <stop
         style="stop-color:#414141;stop-opacity:0;"
         offset="0"
         id="stop3055" />
      <stop
         style="stop-color:#ffffff;stop-opacity:1;"
         offset="1"
         id="stop3057" />
    </linearGradient>
    <linearGradient
       id="linearGradient3795-8">
      <stop
         id="stop3797-6"
         offset="0"
         style="stop-color:#90d5ee;stop-opacity:1;" />
      <stop
         id="stop3799-4"
         offset="1"
         style="stop-color:#3094bd;stop-opacity:1;" />
    </linearGradient>
    <linearGradient
       inkscape:collect="always"
       xlink:href="#linearGradient3795-8"
       id="linearGradient3205"
       gradientUnits="userSpaceOnUse"
       gradientTransform="matrix(0.96799712,0,0,1.0252613,0.76814969,-2082.7028)"
       x1="24.113745"
       y1="1049.2139"
       x2="24.113745"
       y2="1007.5135" />
    <linearGradient
       id="linearGradient3053-0-8">
      <stop
         id="stop3055-5"
         offset="0"
         style="stop-color:#414141;stop-opacity:0;" />
      <stop
         id="stop3057-6"
         offset="1"
         style="stop-color:#ffffff;stop-opacity:1;" />
    </linearGradient>
    <linearGradient
       id="linearGradient3013-3-6">
      <stop
         id="stop3015-0-6"
         offset="0"
         style="stop-color:#414141;stop-opacity:0;" />
      <stop
         id="stop3017-7-0"
         offset="1"
         style="stop-color:#ffffff;stop-opacity:1;" />
    </linearGradient>
    <linearGradient
       id="linearGradient3795-3">
      <stop
         id="stop3797-4"
         offset="0"
         style="stop-color:#b4ea76;stop-opacity:1;" />
      <stop
         id="stop3799-42"
         offset="1"
         style="stop-color:#6aa229;stop-opacity:1;" />
    </linearGradient>
    <linearGradient
       gradientTransform="translate(0,-2056.7244)"
       gradientUnits="userSpaceOnUse"
       y2="1004.8474"
       x2="23.204165"
       y1="1053.158"
       x1="23.204165"
       id="linearGradient3801-9"
       xlink:href="#linearGradient3795-3"
       inkscape:collect="always" />
    <radialGradient
       r="57.093296"
       fy="138.28575"
       fx="-194.82173"
       cy="138.28575"
       cx="-194.82173"
       gradientTransform="matrix(0.95680016,-1.6552999,3.6467302,2.1078912,-473.81245,-460.15034)"
       gradientUnits="userSpaceOnUse"
       id="radialGradient3076-9"
       xlink:href="#linearGradient4946-8"
       inkscape:collect="always" />
    <linearGradient
       y2="279.56357"
       x2="564.77899"
       y1="347.72147"
       x1="564.77899"
       gradientTransform="matrix(0.71268633,0,0,0.77802187,-378.57738,-228.71382)"
       gradientUnits="userSpaceOnUse"
       id="linearGradient3072-2"
       xlink:href="#linearGradient3013-2"
       inkscape:collect="always" />
    <linearGradient
       y2="165.946"
       x2="175.71454"
       y1="89.953423"
       x1="136.74812"
       gradientTransform="matrix(-0.21258284,0,0,0.23162758,62.813931,-12.612251)"
       gradientUnits="userSpaceOnUse"
       id="linearGradient3063-5"
       xlink:href="#linearGradient3013-2"
       inkscape:collect="always" />
    <linearGradient
       y2="165.946"
       x2="175.71454"
       y1="89.953423"
       x1="136.74812"
       gradientTransform="matrix(0.21258284,0,0,0.23162758,-14.858626,-12.612251)"
       gradientUnits="userSpaceOnUse"
       id="linearGradient3060-3"
       xlink:href="#linearGradient3013-2"
       inkscape:collect="always" />
    <linearGradient
       y2="165.946"
       x2="175.71454"
       y1="89.953423"
       x1="136.74812"
       gradientTransform="matrix(1.001916,0,0,1,-927.00055,142.24199)"
       gradientUnits="userSpaceOnUse"
       id="linearGradient3055-6"
       xlink:href="#linearGradient3013-2"
       inkscape:collect="always" />
    <linearGradient
       y2="165.946"
       x2="175.71454"
       y1="89.953423"
       x1="136.74812"
       gradientTransform="matrix(-1.001916,0,0,1,-560.92501,142.24199)"
       gradientUnits="userSpaceOnUse"
       id="linearGradient3053-1"
       xlink:href="#linearGradient3013-2"
       inkscape:collect="always" />
    <linearGradient
       y2="279.56357"
       x2="564.77899"
       y1="347.72147"
       x1="564.77899"
       gradientTransform="matrix(3.3589345,0,0,3.3589345,-2641.2294,-790.72793)"
       gradientUnits="userSpaceOnUse"
       id="linearGradient3051-4"
       xlink:href="#linearGradient3013-2"
       inkscape:collect="always" />
    <radialGradient
       r="57.093296"
       fy="138.28575"
       fx="-194.82173"
       cy="138.28575"
       cx="-194.82173"
       gradientTransform="matrix(0.95680016,-1.6552999,3.6467302,2.1078912,-473.81245,-460.15034)"
       gradientUnits="userSpaceOnUse"
       id="radialGradient3042-1"
       xlink:href="#linearGradient4946-8"
       inkscape:collect="always" />
    <linearGradient
       id="linearGradient4946-8">
      <stop
         id="stop4948-6"
         offset="0"
         style="stop-color:#4baa23;stop-opacity:1;" />
      <stop
         id="stop4950-2"
         offset="1"
         style="stop-color:#c9c9c9;stop-opacity:1;" />
    </linearGradient>
    <radialGradient
       r="57.093296"
       fy="138.28575"
       fx="-194.82173"
       cy="138.28575"
       cx="-194.82173"
       gradientTransform="matrix(0.95680016,-1.6552999,3.6467302,2.1078912,-473.81245,-460.15034)"
       gradientUnits="userSpaceOnUse"
       id="radialGradient6039-9"
       xlink:href="#linearGradient4946-8"
       inkscape:collect="always" />
    <linearGradient
       id="linearGradient3439-7">
      <stop
         id="stop3441-7"
         offset="0"
         style="stop-color:#60b5cc;stop-opacity:1;" />
      <stop
         id="stop3443-7"
         offset="1"
         style="stop-color:#ffffff;stop-opacity:1;" />
    </linearGradient>
    <linearGradient
       y2="165.946"
       x2="175.71454"
       y1="89.953423"
       x1="136.74812"
       gradientTransform="matrix(1.001916,0,0,1,-927.00055,142.24199)"
       gradientUnits="userSpaceOnUse"
       id="linearGradient6037-0"
       xlink:href="#linearGradient3013-2"
       inkscape:collect="always" />
    <linearGradient
       id="linearGradient3432-1">
      <stop
         id="stop3434-4"
         offset="0"
         style="stop-color:#60b5cc;stop-opacity:1;" />
      <stop
         id="stop3436-5"
         offset="1"
         style="stop-color:#ffffff;stop-opacity:1;" />
    </linearGradient>
    <linearGradient
       y2="165.946"
       x2="175.71454"
       y1="89.953423"
       x1="136.74812"
       gradientTransform="matrix(-1.001916,0,0,1,-560.92501,142.24199)"
       gradientUnits="userSpaceOnUse"
       id="linearGradient6035-5"
       xlink:href="#linearGradient3013-2"
       inkscape:collect="always" />
    <linearGradient
       id="linearGradient3013-2">
      <stop
         id="stop3015-8"
         offset="0"
         style="stop-color:#60b5cc;stop-opacity:1;" />
      <stop
         id="stop3017-6"
         offset="1"
         style="stop-color:#ffffff;stop-opacity:1;" />
    </linearGradient>
    <linearGradient
       y2="279.56357"
       x2="564.77899"
       y1="347.72147"
       x1="564.77899"
       gradientTransform="matrix(3.3589345,0,0,3.3589345,-2641.2294,-790.72793)"
       gradientUnits="userSpaceOnUse"
       id="linearGradient6033-6"
       xlink:href="#linearGradient3013-2"
       inkscape:collect="always" />
  </defs>
  <sodipodi:namedview
     id="base"
     pagecolor="#ffffff"
     bordercolor="#666666"
     borderopacity="1.0"
     inkscape:pageopacity="0.0"
     inkscape:pageshadow="2"
     inkscape:zoom="2.6053846"
     inkscape:cx="-52.954131"
     inkscape:cy="5.5999809"
     inkscape:current-layer="layer1"
     showgrid="true"
     inkscape:grid-bbox="true"
     inkscape:document-units="px"
     inkscape:window-width="1366"
     inkscape:window-height="748"
     inkscape:window-x="0"
     inkscape:window-y="0"
     inkscape:window-maximized="1" />
  <metadata
     id="metadata3414">
    <rdf:RDF>
      <cc:Work
         rdf:about="">
        <dc:format>image/svg+xml</dc:format>
        <dc:type
           rdf:resource="http://purl.org/dc/dcmitype/StillImage" />
        <dc:title />
      </cc:Work>
    </rdf:RDF>
  </metadata>
  <g
     id="layer1"
     inkscape:label="Layer 1"
     inkscape:groupmode="layer">
    <g
       id="g3863"
       transform="matrix(0.15384139,0,0,0.15384139,17.231749,-143.75568)"
       style="fill:#4d4d4d;stroke:none">
      <path
         transform="translate(0,1004.3622)"
         inkscape:connector-curvature="0"
         id="path3851"
         d="m 36.415998,203.00939 0,-107.633238 29.698483,36.415998 82.024379,-44.547725 0.35356,60.104075 z"
         style="fill:#4d4d4d;stroke:none"
         sodipodi:nodetypes="cccccc" />
      <path
         sodipodi:nodetypes="cccccc"
         style="fill:#4d4d4d;stroke:none"
         d="m 35.001787,1207.3716 0,-107.6333 -29.6984803,36.416 -69.6500137,-42.7799 -2.47488,55.1542 z"
         id="path3853"
         inkscape:connector-curvature="0" />
      <path
         transform="translate(0,1004.3622)"
         inkscape:connector-curvature="0"
         id="path3855"
         d="M 34.694405,90.303727 4.9800759,127.31864 -87.450362,68.060192 -64.346714,31.736545 z"
         style="fill:#4d4d4d;stroke:none"
         sodipodi:nodetypes="ccccc" />
      <path
         sodipodi:nodetypes="ccccc"
         style="fill:#4d4d4d;stroke:none"
         d="m 168.81382,1077.9262 -25.18276,-34.668 -108.982829,49.4091 32.80396,39.5056 z"
         id="path3857"
         inkscape:connector-curvature="0" />
      <path
         transform="translate(0,1004.3622)"
         inkscape:connector-curvature="0"
         id="path3859"
         d="M 144.95688,38.630836 181.95075,12.53783 82.524384,-30.842403 40.835415,-5.9168897 z"
         style="fill:#4d4d4d;stroke:none"
         sodipodi:nodetypes="ccccc" />
      <path
         sodipodi:nodetypes="ccccc"
         style="fill:#4d4d4d;stroke:none"
         d="m 7.9325418,973.5198 31.4886592,25.10232 -103.060809,37.83018 -30.321158,-26.4769 z"
         id="path3861"
         inkscape:connector-curvature="0" />
    </g>
    <g
       id="g18160"
       transform="matrix(0,0.44929332,-0.44929332,0,504.87115,30.225205)"
       style="fill:#4d4d4d;stroke:none">
      <path
         sodipodi:nodetypes="cccccccc"
         inkscape:connector-curvature="0"
         id="path5583"
         d="m 25.441692,1039.9526 0,-6.5677 14.119981,0 0,-9.4056 -14.119981,0 0,-7.1132 -17.3793266,11.7146 z"
         style="fill:#4d4d4d;stroke:none" />
      <path
         style="fill:#4d4d4d;fill-opacity:1;stroke:none"
         d="m 23.718676,1037.7888 0,-5.7705 14.34475,0 0,-6.9296 -14.34475,0 0,-6.0587 -14.1580633,9.4488 z"
         id="path5599"
         inkscape:connector-curvature="0"
         sodipodi:nodetypes="cccccccc" />
    </g>
  </g>
</svg>
