<?xml version="1.0" encoding="UTF-8" standalone="no"?>
<!-- Created with Inkscape (http://www.inkscape.org/) -->

<svg
   xmlns:dc="http://purl.org/dc/elements/1.1/"
   xmlns:cc="http://creativecommons.org/ns#"
   xmlns:rdf="http://www.w3.org/1999/02/22-rdf-syntax-ns#"
   xmlns:svg="http://www.w3.org/2000/svg"
   xmlns="http://www.w3.org/2000/svg"
   xmlns:sodipodi="http://sodipodi.sourceforge.net/DTD/sodipodi-0.dtd"
   xmlns:inkscape="http://www.inkscape.org/namespaces/inkscape"
   width="48"
   height="48"
   id="svg2"
   version="1.1"
   inkscape:version="0.48+devel r11731"
   sodipodi:docname="locked.svg">
  <defs
     id="defs4" />
  <sodipodi:namedview
     id="base"
     pagecolor="#ffffff"
     bordercolor="#666666"
     borderopacity="1.0"
     inkscape:pageopacity="0.0"
     inkscape:pageshadow="2"
     inkscape:zoom="7.9195959"
     inkscape:cx="-7.0408626"
     inkscape:cy="22.218606"
     inkscape:document-units="px"
     inkscape:current-layer="layer1"
     showgrid="true"
     inkscape:window-width="1366"
     inkscape:window-height="746"
     inkscape:window-x="0"
     inkscape:window-y="0"
     inkscape:window-maximized="1" />
  <metadata
     id="metadata7">
    <rdf:RDF>
      <cc:Work
         rdf:about="">
        <dc:format>image/svg+xml</dc:format>
        <dc:type
           rdf:resource="http://purl.org/dc/dcmitype/StillImage" />
        <dc:title />
      </cc:Work>
    </rdf:RDF>
  </metadata>
  <g
     inkscape:label="Capa 1"
     inkscape:groupmode="layer"
     id="layer1"
     transform="translate(0,-1004.3622)">
    <g
       id="g3047"
       transform="translate(-1.9276796,1.0424124)">
      <g
         transform="matrix(1.4724199,0,0,1.4724199,-4.5633792,-487.57197)"
         id="g3043">
        <path
           style="fill:none;stroke:#4d4d4d;stroke-width:0.9431169"
           d="m 12.296335,1029.7092 c -0.0043,-0.1862 -0.0064,-0.3733 -0.0064,-0.5613 0,-7.8898 2.365047,-14.2857 8.418193,-14.2857 6.109301,0 8.418192,6.3959 8.418192,14.2857 l 0,0 0,0 c 0,0.1881 -0.0021,0.3754 -0.0064,0.5617"
           id="path3031"
           inkscape:connector-curvature="0"
           sodipodi:nodetypes="csscccc" />
        <path
           style="fill:#4d4d4d;stroke:none"
           d="M 7.71875 24.6875 C 7.71875 31.576392 8.6542242 37.522292 12.8125 41.75 C 15.554427 44.537712 19.932976 45.294649 24 45.28125 C 28.067024 45.267802 32.137232 45.121861 35.1875 41.6875 C 38.237768 38.253141 40.28125 31.522601 40.28125 24.6875 L 24 24.6875 L 7.71875 24.6875 z M 24 31.96875 C 25.668572 31.96875 27.03125 33.331428 27.03125 35 C 27.03125 36.668572 25.668572 38 24 38 C 22.331428 38 20.96875 36.668572 20.96875 35 C 20.96875 33.331428 22.331428 31.96875 24 31.96875 z "
           transform="matrix(0.67915409,0,0,0.67915409,4.4084291,1012.5452)"
           id="path3035" />
      </g>
    </g>
    <rect
       style="fill:none;stroke:none"
       id="rect3053"
       width="48"
       height="48"
       x="0"
       y="1004.3622"
       ry="0" />
  </g>
</svg>
