<?xml version="1.0" encoding="UTF-8" standalone="no"?>
<!-- Created with Inkscape (http://www.inkscape.org/) -->

<svg
   xmlns:dc="http://purl.org/dc/elements/1.1/"
   xmlns:cc="http://creativecommons.org/ns#"
   xmlns:rdf="http://www.w3.org/1999/02/22-rdf-syntax-ns#"
   xmlns:svg="http://www.w3.org/2000/svg"
   xmlns="http://www.w3.org/2000/svg"
   xmlns:sodipodi="http://sodipodi.sourceforge.net/DTD/sodipodi-0.dtd"
   xmlns:inkscape="http://www.inkscape.org/namespaces/inkscape"
   width="48"
   height="48"
   id="svg2"
   version="1.1"
   inkscape:version="0.48+devel r11731"
   sodipodi:docname="unlocked.svg">
  <defs
     id="defs4" />
  <sodipodi:namedview
     id="base"
     pagecolor="#ffffff"
     bordercolor="#666666"
     borderopacity="1.0"
     inkscape:pageopacity="0.0"
     inkscape:pageshadow="2"
     inkscape:zoom="7.9195959"
     inkscape:cx="14.317134"
     inkscape:cy="29.252652"
     inkscape:document-units="px"
     inkscape:current-layer="layer1"
     showgrid="true"
     inkscape:window-width="1366"
     inkscape:window-height="746"
     inkscape:window-x="0"
     inkscape:window-y="0"
     inkscape:window-maximized="1" />
  <metadata
     id="metadata7">
    <rdf:RDF>
      <cc:Work
         rdf:about="">
        <dc:format>image/svg+xml</dc:format>
        <dc:type
           rdf:resource="http://purl.org/dc/dcmitype/StillImage" />
        <dc:title />
      </cc:Work>
    </rdf:RDF>
  </metadata>
  <g
     inkscape:label="Capa 1"
     inkscape:groupmode="layer"
     id="layer1"
     transform="translate(0,-1004.3622)">
    <path
       style="fill:#4d4d4d;stroke:none"
       d="M 24 2.71875 C 17.428503 2.71875 12.889143 7.6110215 11.46875 16.96875 C 11.256252 18.446526 11.063452 19.984134 10.96875 21.71875 C 10.96535 21.78154 10.968226 21.843565 10.96875 21.90625 C 10.91229 22.846092 10.90224 23.636723 10.90625 24.53125 C 10.910733 24.58579 10.931716 24.633816 10.9375 24.6875 L 7.71875 24.6875 C 7.71875 31.5764 8.6542242 37.5223 12.8125 41.75 C 15.554427 44.5377 19.932976 45.29425 24 45.28125 C 28.067024 45.26775 32.137232 45.1218 35.1875 41.6875 C 38.237768 38.2531 40.28125 31.5226 40.28125 24.6875 L 24 24.6875 L 12.3125 24.6875 C 12.304219 24.563256 12.28125 24.439788 12.28125 24.3125 C 12.28125 24.094842 12.28895 23.896004 12.3125 23.6875 C 12.305 23.554577 12.3125 23.417582 12.3125 23.28125 C 12.3187 22.740791 12.34077 22.411524 12.34375 22 C 12.40612 21.348416 12.40916 21.043212 12.4375 20.5625 C 12.4654 20.210841 12.48299 19.887719 12.53125 19.5625 C 12.53345 19.54168 12.52905 19.5208 12.53125 19.5 C 12.55933 19.322335 12.5839 19.135818 12.625 18.96875 C 12.71282 18.232852 12.791751 17.496902 12.90625 16.78125 C 13.324221 14.139775 14.036154 11.819393 15.09375 9.90625 C 15.311223 9.5128514 15.537573 9.13345 15.78125 8.78125 C 15.843258 8.6869234 15.90507 8.5921677 15.96875 8.5 C 17.986779 5.5792073 20.825215 3.75 24 3.75 C 29.471618 3.75 33.989327 9.1609481 34.90625 16.28125 L 36.28125 15.1875 C 35.123564 8.0878417 30.070894 2.71875 24 2.71875 z M 24 31.96875 C 25.668573 31.96875 27.03125 33.3315 27.03125 35 C 27.03125 36.6686 25.668573 38 24 38 C 22.331429 38 20.96875 36.6686 20.96875 35 C 20.96875 33.3315 22.331429 31.96875 24 31.96875 z "
       transform="translate(0,1004.3622)"
       id="path3035" />
    <rect
       style="fill:none;stroke:none"
       id="rect3053"
       width="48"
       height="48"
       x="0"
       y="1004.3622"
       ry="0" />
  </g>
</svg>
