<?xml version="1.0" encoding="UTF-8" standalone="no"?>
<!-- Created with Inkscape (http://www.inkscape.org/) -->

<svg
   xmlns:dc="http://purl.org/dc/elements/1.1/"
   xmlns:cc="http://creativecommons.org/ns#"
   xmlns:rdf="http://www.w3.org/1999/02/22-rdf-syntax-ns#"
   xmlns:svg="http://www.w3.org/2000/svg"
   xmlns="http://www.w3.org/2000/svg"
   xmlns:sodipodi="http://sodipodi.sourceforge.net/DTD/sodipodi-0.dtd"
   xmlns:inkscape="http://www.inkscape.org/namespaces/inkscape"
   id="svg3215"
   height="48"
   width="48"
   version="1.0"
   inkscape:version="0.48+devel r11556"
   sodipodi:docname="ubuntuone-client-offline.svg">
  <defs
     id="defs8" />
  <sodipodi:namedview
     pagecolor="#ffffff"
     bordercolor="#666666"
     borderopacity="1"
     objecttolerance="10"
     gridtolerance="10"
     guidetolerance="10"
     inkscape:pageopacity="0"
     inkscape:pageshadow="2"
     inkscape:window-width="1097"
     inkscape:window-height="683"
     id="namedview6"
     showgrid="false"
     width="0px"
     height="0px"
     fit-margin-top="0"
     fit-margin-left="0"
     fit-margin-right="0"
     fit-margin-bottom="0"
     inkscape:zoom="4.7918294"
     inkscape:cx="-8.0502175"
     inkscape:cy="9.7367109"
     inkscape:window-x="0"
     inkscape:window-y="0"
     inkscape:window-maximized="0"
     inkscape:current-layer="svg3215" />
  <metadata
     id="metadata8">
    <rdf:RDF>
      <cc:Work
         rdf:about="">
        <dc:format>image/svg+xml</dc:format>
        <dc:type
           rdf:resource="http://purl.org/dc/dcmitype/StillImage" />
        <dc:title></dc:title>
      </cc:Work>
    </rdf:RDF>
  </metadata>
  <path
     id="rect3193-5"
     style="opacity:0.3;fill:#ffffff;fill-rule:evenodd"
     d="M 13.5,30 C 11.8105,30 10.3632,31.0625 9.5938,32.5938 9.1605,32.2333 8.6072,32 8,32 c -1.38,0 -2.5,1.12 -2.5,2.5 0,0.30993 0.05301,0.60104 0.15625,0.875 -1.5695,0.701 -2.6562,2.289 -2.6562,4.125 0,2.493 2.007,4.5 4.5,4.5 l 9,0 c 2.493,0 4.5,-2.007 4.5,-4.5 0,-1.9747 -1.2687,-3.641 -3.0312,-4.25 0.0039,-0.08543 0.03125,-0.1635 0.03125,-0.25 0,-2.76 -2.016,-5 -4.5,-5 z M 12,33 c 0.554,0 1,0.446 1,1 l 0,5 c 0,0.554 -0.446,1 -1,1 -0.554,0 -1,-0.446 -1,-1 l 0,-5 c 0,-0.554 0.446,-1 1,-1 z m -0.5,8 0.5,0 0.5,0 c 0.277,0 0.5,0.223 0.5,0.5 l 0,0.5 0,0.5 C 13,42.777 12.777,43 12.5,43 L 12,43 11.5,43 C 11.223,43 11,42.777 11,42.5 L 11,42 11,41.5 C 11,41.223 11.223,41 11.5,41 z"
     inkscape:connector-curvature="0" />
  <path
     id="rect3193"
     style="fill:#3c3c3c;fill-rule:evenodd"
     d="m 26.9999,10.0008 c -3.379,0 -6.2736,2.124939 -7.8124,5.187452 -0.8666,-0.72098 -1.9732,-1.187566 -3.1876,-1.187566 -2.76,0 -5,2.239936 -5,4.999857 0,0.619842 0.10602,1.202045 0.3125,1.74995 C 8.1734,22.152453 6,25.328362 6,29.000257 6,33.986115 10.014,38 15,38 l 18,0 c 4.986,0 9,-4.013885 9,-8.999743 0,-3.949287 -2.5374,-7.281792 -6.0624,-8.499757 0.008,-0.171995 0.062,-0.327991 0.062,-0.500786 0,-5.519842 -4.032,-9.999714 -9,-9.999714 z m -3,5.999829 c 1.108,0 2,0.891974 2,1.999942 l 0,9.999715 c 0,1.107968 -0.892,1.999943 -2,1.999943 -1.108,0 -2,-0.891975 -2,-1.999943 l 0,-9.999715 c 0,-1.107968 0.892,-1.999942 2,-1.999942 z m -1,15.999542 1,0 1,0 c 0.554,0 1,0.445988 1,0.999972 l 0,0.999971 0,0.999972 c 0,0.553984 -0.446,0.999971 -1,0.999971 l -1,0 -1,0 c -0.554,0 -1,-0.445987 -1,-0.999971 l 0,-0.999972 0,-0.999971 c 0,-0.553984 0.446,-0.999972 1,-0.999972 z"
     inkscape:connector-curvature="0" />
</svg>
