<?xml version="1.0" encoding="UTF-8" standalone="no"?>
<!-- Created with Inkscape (http://www.inkscape.org/) -->

<svg
   xmlns:dc="http://purl.org/dc/elements/1.1/"
   xmlns:cc="http://creativecommons.org/ns#"
   xmlns:rdf="http://www.w3.org/1999/02/22-rdf-syntax-ns#"
   xmlns:svg="http://www.w3.org/2000/svg"
   xmlns="http://www.w3.org/2000/svg"
   xmlns:sodipodi="http://sodipodi.sourceforge.net/DTD/sodipodi-0.dtd"
   xmlns:inkscape="http://www.inkscape.org/namespaces/inkscape"
   width="48"
   height="48"
   id="svg2"
   version="1.1"
   inkscape:version="0.48.3.1 r9886"
   sodipodi:docname="audio-volume-high-panel.svg">
  <defs
     id="defs4" />
  <sodipodi:namedview
     id="base"
     pagecolor="#ffffff"
     bordercolor="#666666"
     borderopacity="1.0"
     inkscape:pageopacity="0.0"
     inkscape:pageshadow="2"
     inkscape:zoom="5.656854"
     inkscape:cx="31.860495"
     inkscape:cy="27.117948"
     inkscape:document-units="px"
     inkscape:current-layer="layer1"
     showgrid="false"
     showguides="false"
     inkscape:window-width="1280"
     inkscape:window-height="653"
     inkscape:window-x="0"
     inkscape:window-y="19"
     inkscape:window-maximized="1" />
  <metadata
     id="metadata7">
    <rdf:RDF>
      <cc:Work
         rdf:about="">
        <dc:format>image/svg+xml</dc:format>
        <dc:type
           rdf:resource="http://purl.org/dc/dcmitype/StillImage" />
        <dc:title></dc:title>
      </cc:Work>
    </rdf:RDF>
  </metadata>
  <g
     inkscape:label="Capa 1"
     inkscape:groupmode="layer"
     id="layer1"
     transform="translate(0,-1004.3622)">
    <rect
       style="fill:none;stroke:none"
       id="rect2985"
       width="48"
       height="48"
       x="0"
       y="1004.3622" />
    <g
       id="g3830"
       transform="translate(0.7911167,-5.13e-5)"
       style="stroke:#4d4d4d;fill:#4d4d4d">
      <rect
         ry="1.1044494"
         y="1022.7479"
         x="2.7522085"
         height="11.228569"
         width="4.6018724"
         id="rect2987"
         style="fill:#4d4d4d;stroke:#4d4d4d" />
      <path
         sodipodi:nodetypes="cccccccc"
         inkscape:connector-curvature="0"
         id="path2989"
         d="m 6.8938942,1023.2662 13.6215408,-11.7859 0,14.9433 1.656675,2.4228 -1.656675,1.8175 0,14.5802 -13.6727209,-11.3792 z"
         style="fill:#4d4d4d;stroke:#4d4d4d;stroke-width:0.72889936000000000px;stroke-linecap:round;stroke-linejoin:round;stroke-opacity:1" />
    </g>
    <path
       style="fill:none;stroke:#4d4d4d;stroke-width:3.34400010000000014;stroke-linecap:butt;stroke-linejoin:round;stroke-miterlimit:4;stroke-opacity:1;stroke-dasharray:none"
       d="m 25.758158,1021.5425 c 3.766399,3.7665 3.766404,9.873 3e-6,13.6393 l 0,0 0,0"
       id="path3769"
       inkscape:connector-curvature="0"
       sodipodi:nodetypes="cccc" />
    <path
       sodipodi:nodetypes="cccc"
       inkscape:connector-curvature="0"
       id="path3771"
       d="m 30.730881,1016.7826 c 6.395167,6.3951 6.395177,16.7639 5e-6,23.1592 l 0,0 0,0"
       style="fill:none;stroke:#4d4d4d;stroke-width:3.34400010000000014;stroke-linecap:butt;stroke-linejoin:round;stroke-miterlimit:4;stroke-opacity:1;stroke-dasharray:none" />
    <path
       style="fill:none;stroke:#4d4d4d;stroke-width:3.34400010000000014;stroke-linecap:butt;stroke-linejoin:round;stroke-miterlimit:4;stroke-opacity:1;stroke-dasharray:none"
       d="m 35.902655,1011.7475 c 9.176019,9.176 9.176032,24.0533 6e-6,33.2294 l 0,0 0,0"
       id="path3773"
       inkscape:connector-curvature="0"
       sodipodi:nodetypes="cccc" />
  </g>
</svg>
