<?xml version="1.0" encoding="UTF-8" standalone="no"?>
<!-- Created with Inkscape (http://www.inkscape.org/) -->

<svg
   xmlns:dc="http://purl.org/dc/elements/1.1/"
   xmlns:cc="http://creativecommons.org/ns#"
   xmlns:rdf="http://www.w3.org/1999/02/22-rdf-syntax-ns#"
   xmlns:svg="http://www.w3.org/2000/svg"
   xmlns="http://www.w3.org/2000/svg"
   xmlns:xlink="http://www.w3.org/1999/xlink"
   xmlns:sodipodi="http://sodipodi.sourceforge.net/DTD/sodipodi-0.dtd"
   xmlns:inkscape="http://www.inkscape.org/namespaces/inkscape"
   width="48"
   height="48"
   id="svg2"
   version="1.1"
   inkscape:version="0.48+devel r11772"
   sodipodi:docname="7z.svg">
  <defs
     id="defs4">
    <linearGradient
       inkscape:collect="always"
       id="linearGradient901">
      <stop
         style="stop-color:#000000;stop-opacity:1;"
         offset="0"
         id="stop903" />
      <stop
         style="stop-color:#333333;stop-opacity:1"
         offset="1"
         id="stop905" />
    </linearGradient>
    <linearGradient
       inkscape:collect="always"
       id="linearGradient893">
      <stop
         style="stop-color:#e6e6e6;stop-opacity:1"
         offset="0"
         id="stop895" />
      <stop
         style="stop-color:#ffffff;stop-opacity:1"
         offset="1"
         id="stop897" />
    </linearGradient>
    <linearGradient
       id="linearGradient3795">
      <stop
         style="stop-color:#d09917;stop-opacity:1;"
         offset="0"
         id="stop3797" />
      <stop
         style="stop-color:#dfab0f;stop-opacity:1;"
         offset="1"
         id="stop3799" />
    </linearGradient>
    <linearGradient
       id="linearGradient3698">
      <stop
         id="stop3700"
         offset="0"
         style="stop-color:#96d0e1;stop-opacity:1" />
      <stop
         style="stop-color:#89b7e1;stop-opacity:1"
         offset="0.67819428"
         id="stop3706" />
      <stop
         id="stop3702"
         offset="1"
         style="stop-color:#699dd3;stop-opacity:1" />
    </linearGradient>
    <linearGradient
       id="linearGradient3708">
      <stop
         id="stop3710"
         offset="0"
         style="stop-color:#658db6;stop-opacity:1" />
      <stop
         style="stop-color:#527fab;stop-opacity:1;"
         offset="0.76777935"
         id="stop3716" />
      <stop
         id="stop3712"
         offset="1"
         style="stop-color:#4071a0;stop-opacity:1" />
    </linearGradient>
    <linearGradient
       id="linearGradient3750">
      <stop
         style="stop-color:#d0e2f1;stop-opacity:1"
         offset="0"
         id="stop3752" />
      <stop
         id="stop3756"
         offset="0.85580856"
         style="stop-color:#cadef0;stop-opacity:1" />
      <stop
         style="stop-color:#95bee3;stop-opacity:1"
         offset="1"
         id="stop3754" />
    </linearGradient>
    <linearGradient
       id="linearGradient3803">
      <stop
         id="stop3805"
         offset="0"
         style="stop-color:#d7def0;stop-opacity:1;" />
      <stop
         style="stop-color:#ffffff;stop-opacity:1"
         offset="0.5"
         id="stop3811" />
      <stop
         id="stop3807"
         offset="1"
         style="stop-color:#d5def0;stop-opacity:1" />
    </linearGradient>
    <linearGradient
       inkscape:collect="always"
       xlink:href="#linearGradient3795"
       id="linearGradient3832"
       gradientUnits="userSpaceOnUse"
       x1="21.424297"
       y1="4.1364279"
       x2="30.480757"
       y2="11.095446" />
    <linearGradient
       inkscape:collect="always"
       xlink:href="#linearGradient3795"
       id="linearGradient3834"
       gradientUnits="userSpaceOnUse"
       gradientTransform="matrix(1,0,0,0.7051282,0,1008.7244)"
       x1="24.6875"
       y1="14.6875"
       x2="29.625"
       y2="14.6875" />
    <linearGradient
       inkscape:collect="always"
       xlink:href="#linearGradient3795"
       id="linearGradient4082"
       gradientUnits="userSpaceOnUse"
       x1="21.424297"
       y1="4.1364279"
       x2="30.480757"
       y2="11.095446" />
    <linearGradient
       inkscape:collect="always"
       xlink:href="#linearGradient3795"
       id="linearGradient4084"
       gradientUnits="userSpaceOnUse"
       gradientTransform="matrix(1,0,0,0.7051282,0,1008.7244)"
       x1="24.6875"
       y1="14.6875"
       x2="29.625"
       y2="14.6875" />
    <linearGradient
       inkscape:collect="always"
       xlink:href="#linearGradient3795"
       id="linearGradient4090"
       gradientUnits="userSpaceOnUse"
       x1="21.424297"
       y1="4.1364279"
       x2="30.480757"
       y2="11.095446" />
    <linearGradient
       inkscape:collect="always"
       xlink:href="#linearGradient3795"
       id="linearGradient4092"
       gradientUnits="userSpaceOnUse"
       gradientTransform="matrix(1,0,0,0.7051282,0,1008.7244)"
       x1="24.6875"
       y1="14.6875"
       x2="29.625"
       y2="14.6875" />
    <linearGradient
       inkscape:collect="always"
       xlink:href="#linearGradient3795"
       id="linearGradient4095"
       gradientUnits="userSpaceOnUse"
       gradientTransform="matrix(1,0,0,0.7051282,-513.45427,887.43594)"
       x1="24.6875"
       y1="14.6875"
       x2="29.625"
       y2="14.6875" />
    <linearGradient
       inkscape:collect="always"
       xlink:href="#linearGradient893"
       id="linearGradient899"
       x1="24.748735"
       y1="1051.8735"
       x2="24.748735"
       y2="1004.4973"
       gradientUnits="userSpaceOnUse" />
    <linearGradient
       inkscape:collect="always"
       xlink:href="#linearGradient901"
       id="linearGradient907"
       x1="12.374368"
       y1="47.864853"
       x2="12.374368"
       y2="0.48870096"
       gradientUnits="userSpaceOnUse" />
  </defs>
  <sodipodi:namedview
     id="base"
     pagecolor="#ffffff"
     bordercolor="#666666"
     borderopacity="1.0"
     inkscape:pageopacity="0.0"
     inkscape:pageshadow="2"
     inkscape:zoom="5.6568546"
     inkscape:cx="0.65451683"
     inkscape:cy="23.813646"
     inkscape:document-units="px"
     inkscape:current-layer="layer1"
     showgrid="false"
     inkscape:window-width="1366"
     inkscape:window-height="712"
     inkscape:window-x="0"
     inkscape:window-y="0"
     inkscape:window-maximized="1" />
  <metadata
     id="metadata7">
    <rdf:RDF>
      <cc:Work
         rdf:about="">
        <dc:format>image/svg+xml</dc:format>
        <dc:type
           rdf:resource="http://purl.org/dc/dcmitype/StillImage" />
        <dc:title />
      </cc:Work>
    </rdf:RDF>
  </metadata>
  <g
     inkscape:label="Capa 1"
     inkscape:groupmode="layer"
     id="layer1"
     transform="translate(0,-1004.3622)">
    <rect
       style="fill:url(#linearGradient899);fill-opacity:1;stroke:none"
       id="rect2991"
       width="48"
       height="48"
       x="0"
       y="1004.3622"
       ry="1.9445436" />
    <path
       style="fill:url(#linearGradient907);fill-opacity:1;stroke:none"
       d="M 1.0625 0 L 1.0625 0.21875 C 0.43009106 0.53895988 0 1.1775736 0 1.9375 L 0 46.0625 C 0 46.822426 0.43009106 47.46104 1.0625 47.78125 L 1.0625 48 L 1.9375 48 L 19 48 L 22 48 L 22 0 L 19 0 L 1.9375 0 L 1.0625 0 z "
       transform="translate(0,1004.3622)"
       id="rect900" />
    <path
       style="fill:#ffffff;stroke:none;fill-opacity:1;opacity:0.15"
       d="M 0 0 L 0 48 L 16.78125 48 L 29.625 0 L 0 0 z "
       transform="translate(0,1004.3622)"
       id="rect3790" />
    <path
       style="fill:#000000;fill-opacity:1;stroke:none"
       d="M 38.53125 6.34375 L 38.53125 8 L 40.125 8 L 40.125 9.59375 L 41.78125 9.59375 L 41.78125 7.96875 L 40.1875 7.96875 L 40.1875 6.34375 L 38.53125 6.34375 z M 38.53125 9.625 L 38.53125 11.28125 L 40.125 11.28125 L 40.125 12.90625 L 38.9375 12.90625 L 39 12.375 L 36.125 11.125 L 34.0625 13.46875 L 27.96875 17.0625 C 27.698484 17.2217 27.590844 17.57345 27.75 17.84375 L 28.78125 19.5625 C 28.940406 19.8328 29.260984 19.9092 29.53125 19.75 L 35.6875 16.125 L 38.6875 15.5 L 38.78125 14.5625 L 40.125 14.5625 L 40.125 16.1875 L 38.53125 16.1875 L 38.53125 17.84375 L 40.125 17.84375 L 40.125 19.46875 L 38.53125 19.46875 L 38.53125 21.125 L 40.125 21.125 L 40.125 22.75 L 38.53125 22.75 L 38.53125 24.40625 L 40.125 24.40625 L 40.125 26.03125 L 38.53125 26.03125 L 38.53125 27.6875 L 40.125 27.6875 L 40.125 29.3125 L 38.53125 29.3125 L 38.53125 30.96875 L 40.125 30.96875 L 40.125 32.59375 L 38.53125 32.59375 L 38.53125 34.25 L 40.125 34.25 L 40.125 35.84375 L 41.78125 35.84375 L 41.78125 34.1875 L 40.1875 34.1875 L 40.1875 32.59375 L 41.78125 32.59375 L 41.78125 30.9375 L 40.1875 30.9375 L 40.1875 29.3125 L 41.78125 29.3125 L 41.78125 27.65625 L 40.1875 27.65625 L 40.1875 26.03125 L 41.78125 26.03125 L 41.78125 24.375 L 40.1875 24.375 L 40.1875 22.75 L 41.78125 22.75 L 41.78125 21.09375 L 40.1875 21.09375 L 40.1875 19.46875 L 41.78125 19.46875 L 41.78125 17.8125 L 40.1875 17.8125 L 40.1875 16.1875 L 41.78125 16.1875 L 41.78125 14.53125 L 40.1875 14.53125 L 40.1875 12.90625 L 41.78125 12.90625 L 41.78125 11.25 L 40.1875 11.25 L 40.1875 9.625 L 38.53125 9.625 z M 30.78125 15.9375 C 30.99996 15.9085 31.224383 16.01545 31.34375 16.21875 L 31.875 17.125 C 32.034156 17.3953 31.95777 17.74705 31.6875 17.90625 L 29.9375 18.9375 C 29.667234 19.0967 29.315406 18.98845 29.15625 18.71875 L 28.625 17.8125 C 28.465844 17.5422 28.57348 17.19035 28.84375 17.03125 L 30.5625 16.03125 C 30.630067 15.99145 30.708347 15.9473 30.78125 15.9375 z M 38.53125 35.875 L 38.53125 37.53125 L 40.125 37.53125 L 40.125 39.125 L 38.53125 39.125 L 38.53125 40.78125 L 40.125 40.78125 L 40.125 42.40625 L 41.78125 42.40625 L 41.78125 40.75 L 40.1875 40.75 L 40.1875 39.15625 L 41.78125 39.15625 L 41.78125 37.5 L 40.1875 37.5 L 40.1875 35.875 L 38.53125 35.875 z "
       transform="translate(0,1004.3622)"
       id="path3798" />
    <g
       style="fill:#000000"
       id="g4098"
       transform="matrix(1.817774,-0.01565008,0.01565008,1.817774,-34.284591,-834.10997)" />
  </g>
</svg>
