<?xml version="1.0" encoding="UTF-8" standalone="no"?>
<!-- Created with Inkscape (http://www.inkscape.org/) -->

<svg
   xmlns:dc="http://purl.org/dc/elements/1.1/"
   xmlns:cc="http://creativecommons.org/ns#"
   xmlns:rdf="http://www.w3.org/1999/02/22-rdf-syntax-ns#"
   xmlns:svg="http://www.w3.org/2000/svg"
   xmlns="http://www.w3.org/2000/svg"
   xmlns:xlink="http://www.w3.org/1999/xlink"
   xmlns:sodipodi="http://sodipodi.sourceforge.net/DTD/sodipodi-0.dtd"
   xmlns:inkscape="http://www.inkscape.org/namespaces/inkscape"
   width="48"
   height="48"
   id="svg2"
   version="1.1"
   inkscape:version="0.48.2 r9819"
   sodipodi:docname="abiword_48.svg">
  <defs
     id="defs4">
    <linearGradient
       id="linearGradient3795">
      <stop
         style="stop-color:#3b819d;stop-opacity:1;"
         offset="0"
         id="stop3797" />
      <stop
         style="stop-color:#2e5b6c;stop-opacity:1;"
         offset="1"
         id="stop3799" />
    </linearGradient>
    <linearGradient
       id="linearGradient3698">
      <stop
         id="stop3700"
         offset="0"
         style="stop-color:#96d0e1;stop-opacity:1" />
      <stop
         style="stop-color:#89b7e1;stop-opacity:1"
         offset="0.67819428"
         id="stop3706" />
      <stop
         id="stop3702"
         offset="1"
         style="stop-color:#699dd3;stop-opacity:1" />
    </linearGradient>
    <linearGradient
       id="linearGradient3708">
      <stop
         id="stop3710"
         offset="0"
         style="stop-color:#658db6;stop-opacity:1" />
      <stop
         style="stop-color:#527fab;stop-opacity:1;"
         offset="0.76777935"
         id="stop3716" />
      <stop
         id="stop3712"
         offset="1"
         style="stop-color:#4071a0;stop-opacity:1" />
    </linearGradient>
    <linearGradient
       id="linearGradient3750">
      <stop
         style="stop-color:#d0e2f1;stop-opacity:1"
         offset="0"
         id="stop3752" />
      <stop
         id="stop3756"
         offset="0.85580856"
         style="stop-color:#cadef0;stop-opacity:1" />
      <stop
         style="stop-color:#95bee3;stop-opacity:1"
         offset="1"
         id="stop3754" />
    </linearGradient>
    <linearGradient
       id="linearGradient3803">
      <stop
         id="stop3805"
         offset="0"
         style="stop-color:#d7def0;stop-opacity:1;" />
      <stop
         style="stop-color:#ffffff;stop-opacity:1"
         offset="0.5"
         id="stop3811" />
      <stop
         id="stop3807"
         offset="1"
         style="stop-color:#d5def0;stop-opacity:1" />
    </linearGradient>
    <linearGradient
       inkscape:collect="always"
       xlink:href="#linearGradient3795"
       id="linearGradient3801"
       x1="23.204165"
       y1="1053.158"
       x2="23.204165"
       y2="1004.8474"
       gradientUnits="userSpaceOnUse"
       gradientTransform="translate(0,-2056.7244)" />
    <linearGradient
       inkscape:collect="always"
       xlink:href="#linearGradient3795"
       id="linearGradient3859"
       x1="26.192217"
       y1="1024.0002"
       x2="28.641211"
       y2="1024.0002"
       gradientUnits="userSpaceOnUse" />
    <linearGradient
       inkscape:collect="always"
       xlink:href="#linearGradient3795"
       id="linearGradient3867"
       gradientUnits="userSpaceOnUse"
       x1="26.192217"
       y1="1024.0002"
       x2="28.641211"
       y2="1024.0002" />
    <linearGradient
       inkscape:collect="always"
       xlink:href="#linearGradient3795"
       id="linearGradient3869"
       gradientUnits="userSpaceOnUse"
       x1="26.192217"
       y1="1024.0002"
       x2="28.641211"
       y2="1024.0002" />
    <linearGradient
       inkscape:collect="always"
       xlink:href="#linearGradient3795"
       id="linearGradient3871"
       gradientUnits="userSpaceOnUse"
       x1="26.192217"
       y1="1024.0002"
       x2="28.641211"
       y2="1024.0002" />
    <linearGradient
       inkscape:collect="always"
       xlink:href="#linearGradient3795"
       id="linearGradient3877"
       gradientUnits="userSpaceOnUse"
       x1="29.718235"
       y1="1027.8575"
       x2="22.811094"
       y2="1015.5485" />
    <linearGradient
       inkscape:collect="always"
       xlink:href="#linearGradient3795"
       id="linearGradient3879"
       gradientUnits="userSpaceOnUse"
       x1="17.196316"
       y1="1006.2238"
       x2="31.448042"
       y2="1030.9086" />
    <linearGradient
       inkscape:collect="always"
       xlink:href="#linearGradient3795"
       id="linearGradient3895"
       x1="21.973417"
       y1="34.43922"
       x2="42.475323"
       y2="24.798252"
       gradientUnits="userSpaceOnUse" />
    <linearGradient
       inkscape:collect="always"
       xlink:href="#linearGradient3635"
       id="linearGradient4043"
       gradientUnits="userSpaceOnUse"
       x1="24"
       y1="2.84375"
       x2="24"
       y2="42.84375" />
    <linearGradient
       id="linearGradient3635">
      <stop
         style="stop-color:#ffffff;stop-opacity:1;"
         offset="0"
         id="stop3637" />
      <stop
         style="stop-color:#dcdcdc;stop-opacity:1;"
         offset="1"
         id="stop3639" />
    </linearGradient>
  </defs>
  <sodipodi:namedview
     id="base"
     pagecolor="#ffffff"
     bordercolor="#666666"
     borderopacity="1.0"
     inkscape:pageopacity="0.0"
     inkscape:pageshadow="2"
     inkscape:zoom="11.313709"
     inkscape:cx="26.532917"
     inkscape:cy="27.848829"
     inkscape:document-units="px"
     inkscape:current-layer="layer1"
     showgrid="false"
     inkscape:window-width="1280"
     inkscape:window-height="747"
     inkscape:window-x="0"
     inkscape:window-y="0"
     inkscape:window-maximized="1">
    <inkscape:grid
       type="xygrid"
       id="grid3850" />
  </sodipodi:namedview>
  <metadata
     id="metadata7">
    <rdf:RDF>
      <cc:Work
         rdf:about="">
        <dc:format>image/svg+xml</dc:format>
        <dc:type
           rdf:resource="http://purl.org/dc/dcmitype/StillImage" />
        <dc:title></dc:title>
      </cc:Work>
    </rdf:RDF>
  </metadata>
  <g
     inkscape:label="Capa 1"
     inkscape:groupmode="layer"
     id="layer1"
     transform="translate(0,-1004.3622)">
    <rect
       style="fill:url(#linearGradient3801);fill-opacity:1;stroke:none"
       id="rect2991"
       width="48"
       height="48"
       x="0"
       y="-1052.3622"
       ry="1.9445436"
       transform="scale(1,-1)" />
    <path
       inkscape:connector-curvature="0"
       id="path58"
       d="m 24.000001,1015.5572 c -7.07196,0 -12.804916,5.733 -12.804916,12.8049 0,7.072 5.732956,12.805 12.804916,12.805 7.071958,0 12.804914,-5.733 12.804914,-12.805 0,-7.0719 -5.732956,-12.8049 -12.804914,-12.8049 z m 0,1.6007 c 6.187964,0 11.2043,5.0163 11.2043,11.2042 0,5.2935 -3.668385,9.7323 -8.603302,10.9043 -0.05023,-0.1004 -0.109568,-0.208 -0.100038,-0.3602 0.0277,-0.4444 0.04448,-1.0208 0.100038,-1.5206 0.0556,-0.4999 0.258216,-4.6913 0.980376,-5.8022 0.722067,-1.1108 2.779215,-2.4421 3.501343,-2.581 0.722161,-0.1389 0.600231,-0.4304 0.600231,-0.6802 0,-0.25 -0.125669,-0.7971 -0.320123,-0.8804 -0.194392,-0.083 -0.950505,0.4047 -1.20046,0.4602 -0.249955,0.055 -1.453935,0.1576 -1.620622,-0.1201 -0.166627,-0.2779 1.346168,-3.108 1.540591,-3.4413 0.194454,-0.3333 0.281049,-0.7884 -0.08003,-1.2604 -0.360925,-0.4723 -0.601424,-0.9405 -0.740284,-0.9405 -0.458013,0 -1.347362,1.0539 -1.680645,1.2205 -0.333284,0.1667 -2.971282,2.0476 -3.221236,2.381 -0.249955,0.3333 -0.579344,0.4678 -0.940361,0.4401 -0.361019,-0.028 -1.511915,-0.042 -1.900729,0.1801 -0.388878,0.2222 -2.176628,2.0386 -2.621007,2.2609 -0.444346,0.2221 -1.022747,0.3524 -1.300499,0.3801 -0.27769,0.028 -1.190598,1.046 -1.440553,1.2405 -0.249955,0.1945 -2.22324,1.0539 -2.50096,1.2204 -0.277751,0.1667 2.027623,2.5056 2.360906,2.5611 0.316129,0.053 -0.181774,1.1838 -0.780299,1.3004 -1.522426,-1.9132 -2.440937,-4.3276 -2.440937,-6.9627 0,-6.1879 5.016336,-11.2042 11.204301,-11.2042 z m -0.920354,10.2039 c 0.354437,-0.038 0.640246,0.02 0.640246,0.02 0.127049,0.2962 -0.470114,1.2135 -1.020391,1.3405 -0.550154,0.1269 -1.818448,2.0039 -1.860714,1.5806 -0.04245,-0.4232 0.505532,-1.826 1.140437,-2.4609 0.317437,-0.3175 0.745986,-0.4431 1.100422,-0.4802 z"
       style="fill:#ffffff;fill-opacity:1" />
    <path
       style="fill:#ffffff;stroke:none;fill-opacity:1;opacity:0.15"
       d="M 0 0 L 0 48 L 16.78125 48 L 29.625 0 L 0 0 z "
       transform="translate(0,1004.3622)"
       id="rect3790" />
  </g>
</svg>
