<?xml version="1.0" encoding="UTF-8" standalone="no"?>
<!-- Created with Inkscape (http://www.inkscape.org/) -->

<svg
   xmlns:dc="http://purl.org/dc/elements/1.1/"
   xmlns:cc="http://creativecommons.org/ns#"
   xmlns:rdf="http://www.w3.org/1999/02/22-rdf-syntax-ns#"
   xmlns:svg="http://www.w3.org/2000/svg"
   xmlns="http://www.w3.org/2000/svg"
   xmlns:xlink="http://www.w3.org/1999/xlink"
   xmlns:sodipodi="http://sodipodi.sourceforge.net/DTD/sodipodi-0.dtd"
   xmlns:inkscape="http://www.inkscape.org/namespaces/inkscape"
   width="48"
   height="48"
   id="svg2"
   version="1.1"
   inkscape:version="0.48.2 r9819"
   sodipodi:docname="applications-graphics.svg">
  <defs
     id="defs4">
    <linearGradient
       id="linearGradient3795">
      <stop
         style="stop-color:#4fa44e;stop-opacity:1;"
         offset="0"
         id="stop3797" />
      <stop
         style="stop-color:#3b862b;stop-opacity:1;"
         offset="1"
         id="stop3799" />
    </linearGradient>
    <linearGradient
       id="linearGradient3698">
      <stop
         id="stop3700"
         offset="0"
         style="stop-color:#96d0e1;stop-opacity:1" />
      <stop
         style="stop-color:#89b7e1;stop-opacity:1"
         offset="0.67819428"
         id="stop3706" />
      <stop
         id="stop3702"
         offset="1"
         style="stop-color:#699dd3;stop-opacity:1" />
    </linearGradient>
    <linearGradient
       id="linearGradient3708">
      <stop
         id="stop3710"
         offset="0"
         style="stop-color:#658db6;stop-opacity:1" />
      <stop
         style="stop-color:#527fab;stop-opacity:1;"
         offset="0.76777935"
         id="stop3716" />
      <stop
         id="stop3712"
         offset="1"
         style="stop-color:#4071a0;stop-opacity:1" />
    </linearGradient>
    <linearGradient
       id="linearGradient3750">
      <stop
         style="stop-color:#d0e2f1;stop-opacity:1"
         offset="0"
         id="stop3752" />
      <stop
         id="stop3756"
         offset="0.85580856"
         style="stop-color:#cadef0;stop-opacity:1" />
      <stop
         style="stop-color:#95bee3;stop-opacity:1"
         offset="1"
         id="stop3754" />
    </linearGradient>
    <linearGradient
       id="linearGradient3803">
      <stop
         id="stop3805"
         offset="0"
         style="stop-color:#d7def0;stop-opacity:1;" />
      <stop
         style="stop-color:#ffffff;stop-opacity:1"
         offset="0.5"
         id="stop3811" />
      <stop
         id="stop3807"
         offset="1"
         style="stop-color:#d5def0;stop-opacity:1" />
    </linearGradient>
    <linearGradient
       inkscape:collect="always"
       xlink:href="#linearGradient3795"
       id="linearGradient3801"
       x1="23.204165"
       y1="1053.158"
       x2="23.204165"
       y2="1004.8474"
       gradientUnits="userSpaceOnUse"
       gradientTransform="translate(0,-2056.7244)" />
    <linearGradient
       inkscape:collect="always"
       xlink:href="#linearGradient3795"
       id="linearGradient3859"
       x1="26.192217"
       y1="1024.0002"
       x2="28.641211"
       y2="1024.0002"
       gradientUnits="userSpaceOnUse" />
    <linearGradient
       inkscape:collect="always"
       xlink:href="#linearGradient3795"
       id="linearGradient3867"
       gradientUnits="userSpaceOnUse"
       x1="26.192217"
       y1="1024.0002"
       x2="28.641211"
       y2="1024.0002" />
    <linearGradient
       inkscape:collect="always"
       xlink:href="#linearGradient3795"
       id="linearGradient3869"
       gradientUnits="userSpaceOnUse"
       x1="26.192217"
       y1="1024.0002"
       x2="28.641211"
       y2="1024.0002" />
    <linearGradient
       inkscape:collect="always"
       xlink:href="#linearGradient3795"
       id="linearGradient3871"
       gradientUnits="userSpaceOnUse"
       x1="26.192217"
       y1="1024.0002"
       x2="28.641211"
       y2="1024.0002" />
    <linearGradient
       inkscape:collect="always"
       xlink:href="#linearGradient3795"
       id="linearGradient3877"
       gradientUnits="userSpaceOnUse"
       x1="29.718235"
       y1="1027.8575"
       x2="22.811094"
       y2="1015.5485" />
    <linearGradient
       inkscape:collect="always"
       xlink:href="#linearGradient3795"
       id="linearGradient3879"
       gradientUnits="userSpaceOnUse"
       x1="17.196316"
       y1="1006.2238"
       x2="31.448042"
       y2="1030.9086" />
    <linearGradient
       inkscape:collect="always"
       xlink:href="#linearGradient3795"
       id="linearGradient3895"
       x1="21.973417"
       y1="34.43922"
       x2="42.475323"
       y2="24.798252"
       gradientUnits="userSpaceOnUse" />
  </defs>
  <sodipodi:namedview
     id="base"
     pagecolor="#ffffff"
     bordercolor="#666666"
     borderopacity="1.0"
     inkscape:pageopacity="0.0"
     inkscape:pageshadow="2"
     inkscape:zoom="5.6568545"
     inkscape:cx="41.678869"
     inkscape:cy="32.022449"
     inkscape:document-units="px"
     inkscape:current-layer="layer1"
     showgrid="false"
     inkscape:window-width="1280"
     inkscape:window-height="747"
     inkscape:window-x="0"
     inkscape:window-y="0"
     inkscape:window-maximized="1">
    <inkscape:grid
       type="xygrid"
       id="grid3850" />
  </sodipodi:namedview>
  <metadata
     id="metadata7">
    <rdf:RDF>
      <cc:Work
         rdf:about="">
        <dc:format>image/svg+xml</dc:format>
        <dc:type
           rdf:resource="http://purl.org/dc/dcmitype/StillImage" />
        <dc:title />
      </cc:Work>
    </rdf:RDF>
  </metadata>
  <g
     inkscape:label="Capa 1"
     inkscape:groupmode="layer"
     id="layer1"
     transform="translate(0,-1004.3622)">
    <rect
       style="fill:url(#linearGradient3801);fill-opacity:1.0;stroke:none"
       id="rect2991"
       width="48"
       height="48"
       x="0"
       y="-1052.3622"
       ry="1.9445436"
       transform="scale(1,-1)" />
    <g
       id="g3812"
       transform="translate(-1.1925193,-1.7197326)">
      <path
         inkscape:connector-curvature="0"
         id="path3790"
         d="m 20.126236,1022.7415 c -7.032526,0.3221 -13.8737751,3.8741 -10.9687501,11.0625 4.2376691,-1.6501 10.1383721,0.8115 7.6875001,2.0312 4.828344,4.1146 16.75,-2.5329 15.5625,-8.1875 -1.230684,-3.4448 -6.811507,-5.1567 -12.28125,-4.9062 z m -0.1875,2.0312 c 1.467006,0 2.65625,0.4058 2.65625,0.9063 0,0.5005 -1.189244,0.9062 -2.65625,0.9062 -1.467006,0 -2.65625,-0.4057 -2.65625,-0.9062 0,-0.5005 1.189244,-0.9063 2.65625,-0.9063 z m 6.5625,1.5 c 1.467006,0 2.65625,0.4058 2.65625,0.9063 0,0.5005 -1.189244,0.9062 -2.65625,0.9062 -1.467006,0 -2.65625,-0.4057 -2.65625,-0.9062 0,-0.5005 1.189244,-0.9063 2.65625,-0.9063 z m -12.0625,1.375 c 1.467006,0 2.65625,0.4058 2.65625,0.9063 0,0.5005 -1.189244,0.9062 -2.65625,0.9062 -1.467006,0 -2.65625,-0.4057 -2.65625,-0.9062 0,-0.5005 1.189244,-0.9063 2.65625,-0.9063 z m 12,2.375 c 1.467006,0 2.65625,0.4058 2.65625,0.9063 0,0.5005 -1.189244,0.9062 -2.65625,0.9062 -1.467006,0 -2.65625,-0.4057 -2.65625,-0.9062 0,-0.5005 1.189244,-0.9063 2.65625,-0.9063 z m -4.625,3.4375 c 1.467006,0 2.65625,0.4058 2.65625,0.9063 0,0.5005 -1.189244,0.9062 -2.65625,0.9062 -1.467006,0 -2.65625,-0.4057 -2.65625,-0.9062 0,-0.5005 1.189244,-0.9063 2.65625,-0.9063 z"
         style="fill:#ffffff;stroke:none" />
      <g
         transform="translate(10.253048,-5.5684657)"
         id="g3808">
        <path
           style="fill:#ffffff;stroke:none"
           d="m 31.659627,1026.0475 -8.531249,14.7765 c -0.665693,-0.013 -1.284197,-0.3405 -1.732051,-1 l 9.140671,-14.4247 c 0.614351,-0.1505 0.98856,0.066 1.122629,0.6482 z"
           id="path3804"
           inkscape:connector-curvature="0"
           sodipodi:nodetypes="ccccc" />
        <path
           style="fill:#ffffff;stroke:none"
           d="m 21.34725,1043.9583 c 0.956382,-0.1329 2.437915,-1.3967 1.746093,-3.2262 -1.658601,-0.4914 -1.281938,-0.7401 -1.281938,-0.7401 -2.278309,0.5652 -4.009757,3.2625 -3.532988,4.9772 0.302281,1.0872 0.251668,0.9753 0.251668,0.9753 0.631891,-2.101 0.643322,-1.7162 2.817165,-1.9862 z"
           id="path3806"
           inkscape:connector-curvature="0"
           sodipodi:nodetypes="cccscc" />
      </g>
    </g>
    <path
       style="fill:#ffffff;stroke:none;fill-opacity:1;opacity:0.15"
       d="M 0 0 L 0 48 L 16.78125 48 L 29.625 0 L 0 0 z "
       transform="translate(0,1004.3622)"
       id="rect3790" />
  </g>
</svg>
