<?xml version="1.0" encoding="UTF-8" standalone="no"?>
<!-- Created with Inkscape (http://www.inkscape.org/) -->

<svg
   xmlns:dc="http://purl.org/dc/elements/1.1/"
   xmlns:cc="http://creativecommons.org/ns#"
   xmlns:rdf="http://www.w3.org/1999/02/22-rdf-syntax-ns#"
   xmlns:svg="http://www.w3.org/2000/svg"
   xmlns="http://www.w3.org/2000/svg"
   xmlns:xlink="http://www.w3.org/1999/xlink"
   xmlns:sodipodi="http://sodipodi.sourceforge.net/DTD/sodipodi-0.dtd"
   xmlns:inkscape="http://www.inkscape.org/namespaces/inkscape"
   width="48"
   height="48"
   id="svg2"
   version="1.1"
   inkscape:version="0.48.3.1 r9886"
   sodipodi:docname="application-x-clementine.svg">
  <defs
     id="defs4">
    <linearGradient
       id="linearGradient3846">
      <stop
         id="stop3848"
         offset="0"
         style="stop-color:#ff6500;stop-opacity:1;" />
      <stop
         id="stop3850"
         offset="1"
         style="stop-color:#f08a4f;stop-opacity:1;" />
    </linearGradient>
    <linearGradient
       id="linearGradient3795">
      <stop
         style="stop-color:#000000;stop-opacity:1;"
         offset="0"
         id="stop3797" />
      <stop
         style="stop-color:#6d6d6d;stop-opacity:1;"
         offset="1"
         id="stop3799" />
    </linearGradient>
    <linearGradient
       id="linearGradient3698">
      <stop
         id="stop3700"
         offset="0"
         style="stop-color:#96d0e1;stop-opacity:1" />
      <stop
         style="stop-color:#89b7e1;stop-opacity:1"
         offset="0.67819428"
         id="stop3706" />
      <stop
         id="stop3702"
         offset="1"
         style="stop-color:#699dd3;stop-opacity:1" />
    </linearGradient>
    <linearGradient
       id="linearGradient3708">
      <stop
         id="stop3710"
         offset="0"
         style="stop-color:#658db6;stop-opacity:1" />
      <stop
         style="stop-color:#527fab;stop-opacity:1;"
         offset="0.76777935"
         id="stop3716" />
      <stop
         id="stop3712"
         offset="1"
         style="stop-color:#4071a0;stop-opacity:1" />
    </linearGradient>
    <linearGradient
       id="linearGradient3750">
      <stop
         style="stop-color:#d0e2f1;stop-opacity:1"
         offset="0"
         id="stop3752" />
      <stop
         id="stop3756"
         offset="0.85580856"
         style="stop-color:#cadef0;stop-opacity:1" />
      <stop
         style="stop-color:#95bee3;stop-opacity:1"
         offset="1"
         id="stop3754" />
    </linearGradient>
    <linearGradient
       id="linearGradient3803">
      <stop
         id="stop3805"
         offset="0"
         style="stop-color:#d7def0;stop-opacity:1;" />
      <stop
         style="stop-color:#ffffff;stop-opacity:1"
         offset="0.5"
         id="stop3811" />
      <stop
         id="stop3807"
         offset="1"
         style="stop-color:#d5def0;stop-opacity:1" />
    </linearGradient>
    <linearGradient
       inkscape:collect="always"
       xlink:href="#linearGradient3846"
       id="linearGradient3801"
       x1="23.204165"
       y1="1053.158"
       x2="23.204165"
       y2="1004.8474"
       gradientUnits="userSpaceOnUse"
       gradientTransform="matrix(0.92447917,0,0,1,3.6250004,0)" />
    <radialGradient
       inkscape:collect="always"
       xlink:href="#linearGradient3763"
       id="radialGradient4338"
       gradientUnits="userSpaceOnUse"
       gradientTransform="matrix(1.98696,0,0,1.3025427,-22.470963,-7.9579534)"
       cx="22.767857"
       cy="26.303572"
       fx="22.767857"
       fy="26.303572"
       r="20.267857" />
    <linearGradient
       id="linearGradient3763">
      <stop
         id="stop3765"
         offset="0"
         style="stop-color:#ffffff;stop-opacity:1;" />
      <stop
         id="stop3767"
         offset="1"
         style="stop-color:#c1c1c1;stop-opacity:1;" />
    </linearGradient>
    <linearGradient
       inkscape:collect="always"
       xlink:href="#linearGradient3795"
       id="linearGradient3056"
       gradientUnits="userSpaceOnUse"
       x1="23.204165"
       y1="1058.2919"
       x2="23.204165"
       y2="988.18079"
       gradientTransform="scale(0.09401944,1)" />
    <linearGradient
       inkscape:collect="always"
       xlink:href="#linearGradient3883"
       id="linearGradient3974"
       gradientUnits="userSpaceOnUse"
       gradientTransform="matrix(0.90633037,0.42256981,-0.42256981,0.90633037,12.603256,995.40747)"
       x1="14.889573"
       y1="31.294256"
       x2="15.601078"
       y2="18.919888" />
    <linearGradient
       id="linearGradient3883">
      <stop
         style="stop-color:#ff00b7;stop-opacity:0.18085106;"
         offset="0"
         id="stop3885" />
      <stop
         style="stop-color:#999999;stop-opacity:0;"
         offset="1"
         id="stop3887" />
    </linearGradient>
    <linearGradient
       inkscape:collect="always"
       xlink:href="#linearGradient3789"
       id="linearGradient3976"
       gradientUnits="userSpaceOnUse"
       gradientTransform="translate(0,1004.3622)"
       x1="14.889573"
       y1="31.294256"
       x2="15.601078"
       y2="18.919888" />
    <linearGradient
       id="linearGradient3789">
      <stop
         style="stop-color:#ff0013;stop-opacity:0.18085106;"
         offset="0"
         id="stop3791" />
      <stop
         style="stop-color:#ffffff;stop-opacity:0"
         offset="1"
         id="stop3793" />
    </linearGradient>
    <linearGradient
       inkscape:collect="always"
       xlink:href="#linearGradient3802"
       id="linearGradient3978"
       gradientUnits="userSpaceOnUse"
       x1="8.837532"
       y1="1029.6663"
       x2="19.113844"
       y2="1029.6663" />
    <linearGradient
       id="linearGradient3802">
      <stop
         id="stop3804"
         offset="0"
         style="stop-color:#ffc300;stop-opacity:0.18039216;" />
      <stop
         id="stop3806"
         offset="1"
         style="stop-color:#ffffff;stop-opacity:0" />
    </linearGradient>
    <linearGradient
       inkscape:collect="always"
       xlink:href="#linearGradient3823"
       id="linearGradient3980"
       gradientUnits="userSpaceOnUse"
       x1="8.8624401"
       y1="1028.451"
       x2="19.059441"
       y2="1028.451" />
    <linearGradient
       id="linearGradient3823">
      <stop
         style="stop-color:#4d9600;stop-opacity:0.18039216;"
         offset="0"
         id="stop3825" />
      <stop
         style="stop-color:#ffffff;stop-opacity:0"
         offset="1"
         id="stop3827" />
    </linearGradient>
    <linearGradient
       inkscape:collect="always"
       xlink:href="#linearGradient3802"
       id="linearGradient3982"
       gradientUnits="userSpaceOnUse"
       x1="8.8729076"
       y1="1027.5348"
       x2="19.17152"
       y2="1027.5348" />
    <linearGradient
       id="linearGradient4063">
      <stop
         id="stop4065"
         offset="0"
         style="stop-color:#ffc300;stop-opacity:0.18039216;" />
      <stop
         id="stop4067"
         offset="1"
         style="stop-color:#ffffff;stop-opacity:0" />
    </linearGradient>
    <linearGradient
       inkscape:collect="always"
       xlink:href="#linearGradient3877"
       id="linearGradient3984"
       gradientUnits="userSpaceOnUse"
       x1="8.8799152"
       y1="1027.0327"
       x2="19.235598"
       y2="1027.0327" />
    <linearGradient
       id="linearGradient3877">
      <stop
         style="stop-color:#00dfff;stop-opacity:0.18039216;"
         offset="0"
         id="stop3879" />
      <stop
         style="stop-color:#ffffff;stop-opacity:0"
         offset="1"
         id="stop3881" />
    </linearGradient>
    <linearGradient
       inkscape:collect="always"
       xlink:href="#linearGradient3877"
       id="linearGradient3986"
       gradientUnits="userSpaceOnUse"
       x1="8.8905392"
       y1="1026.2065"
       x2="19.3482"
       y2="1026.2065" />
    <linearGradient
       id="linearGradient4074">
      <stop
         style="stop-color:#00dfff;stop-opacity:0.18039216;"
         offset="0"
         id="stop4076" />
      <stop
         style="stop-color:#ffffff;stop-opacity:0"
         offset="1"
         id="stop4078" />
    </linearGradient>
    <linearGradient
       inkscape:collect="always"
       xlink:href="#linearGradient3883"
       id="linearGradient4004"
       gradientUnits="userSpaceOnUse"
       gradientTransform="matrix(0.90633037,0.42256981,-0.42256981,0.90633037,12.603256,995.40747)"
       x1="14.889573"
       y1="31.294256"
       x2="15.601078"
       y2="18.919888" />
    <linearGradient
       id="linearGradient4081">
      <stop
         style="stop-color:#ff00b7;stop-opacity:0.18085106;"
         offset="0"
         id="stop4083" />
      <stop
         style="stop-color:#999999;stop-opacity:0;"
         offset="1"
         id="stop4085" />
    </linearGradient>
    <linearGradient
       inkscape:collect="always"
       xlink:href="#linearGradient3789"
       id="linearGradient4006"
       gradientUnits="userSpaceOnUse"
       gradientTransform="translate(0,1004.3622)"
       x1="14.889573"
       y1="31.294256"
       x2="15.601078"
       y2="18.919888" />
    <linearGradient
       id="linearGradient4088">
      <stop
         style="stop-color:#ff0013;stop-opacity:0.18085106;"
         offset="0"
         id="stop4090" />
      <stop
         style="stop-color:#ffffff;stop-opacity:0"
         offset="1"
         id="stop4092" />
    </linearGradient>
    <linearGradient
       inkscape:collect="always"
       xlink:href="#linearGradient3802"
       id="linearGradient4008"
       gradientUnits="userSpaceOnUse"
       x1="8.837532"
       y1="1029.6663"
       x2="19.113844"
       y2="1029.6663" />
    <linearGradient
       id="linearGradient4095">
      <stop
         id="stop4097"
         offset="0"
         style="stop-color:#ffc300;stop-opacity:0.18039216;" />
      <stop
         id="stop4099"
         offset="1"
         style="stop-color:#ffffff;stop-opacity:0" />
    </linearGradient>
    <linearGradient
       inkscape:collect="always"
       xlink:href="#linearGradient3823"
       id="linearGradient4010"
       gradientUnits="userSpaceOnUse"
       x1="8.8624401"
       y1="1028.451"
       x2="19.059441"
       y2="1028.451" />
    <linearGradient
       id="linearGradient4102">
      <stop
         style="stop-color:#4d9600;stop-opacity:0.18039216;"
         offset="0"
         id="stop4104" />
      <stop
         style="stop-color:#ffffff;stop-opacity:0"
         offset="1"
         id="stop4106" />
    </linearGradient>
    <linearGradient
       inkscape:collect="always"
       xlink:href="#linearGradient3802"
       id="linearGradient4012"
       gradientUnits="userSpaceOnUse"
       x1="8.8729076"
       y1="1027.5348"
       x2="19.17152"
       y2="1027.5348" />
    <linearGradient
       id="linearGradient4109">
      <stop
         id="stop4111"
         offset="0"
         style="stop-color:#ffc300;stop-opacity:0.18039216;" />
      <stop
         id="stop4113"
         offset="1"
         style="stop-color:#ffffff;stop-opacity:0" />
    </linearGradient>
    <linearGradient
       inkscape:collect="always"
       xlink:href="#linearGradient3877"
       id="linearGradient4014"
       gradientUnits="userSpaceOnUse"
       x1="8.8799152"
       y1="1027.0327"
       x2="19.235598"
       y2="1027.0327" />
    <linearGradient
       id="linearGradient4116">
      <stop
         style="stop-color:#00dfff;stop-opacity:0.18039216;"
         offset="0"
         id="stop4118" />
      <stop
         style="stop-color:#ffffff;stop-opacity:0"
         offset="1"
         id="stop4120" />
    </linearGradient>
    <linearGradient
       inkscape:collect="always"
       xlink:href="#linearGradient3877"
       id="linearGradient4016"
       gradientUnits="userSpaceOnUse"
       x1="8.8905392"
       y1="1026.2065"
       x2="19.3482"
       y2="1026.2065" />
    <linearGradient
       id="linearGradient4123">
      <stop
         style="stop-color:#00dfff;stop-opacity:0.18039216;"
         offset="0"
         id="stop4125" />
      <stop
         style="stop-color:#ffffff;stop-opacity:0"
         offset="1"
         id="stop4127" />
    </linearGradient>
    <linearGradient
       inkscape:collect="always"
       xlink:href="#linearGradient3883-4"
       id="linearGradient3161"
       gradientUnits="userSpaceOnUse"
       gradientTransform="matrix(-0.28915731,-0.95728159,0.95728159,-0.28915731,10.288649,1059.9179)"
       x1="14.889573"
       y1="31.294256"
       x2="15.601078"
       y2="18.919888" />
    <linearGradient
       id="linearGradient3883-4">
      <stop
         style="stop-color:#ff00b7;stop-opacity:0.18085106;"
         offset="0"
         id="stop3885-4" />
      <stop
         style="stop-color:#999999;stop-opacity:0;"
         offset="1"
         id="stop3887-3" />
    </linearGradient>
    <linearGradient
       inkscape:collect="always"
       xlink:href="#linearGradient3789-0"
       id="linearGradient3158"
       gradientUnits="userSpaceOnUse"
       gradientTransform="matrix(-0.66659036,-0.74542424,0.74542424,-0.66659036,25.29864,1063.1446)"
       x1="14.889573"
       y1="31.294256"
       x2="15.601078"
       y2="18.919888" />
    <linearGradient
       id="linearGradient3789-0">
      <stop
         style="stop-color:#ff0013;stop-opacity:0.18085106;"
         offset="0"
         id="stop3791-7" />
      <stop
         style="stop-color:#ffffff;stop-opacity:0"
         offset="1"
         id="stop3793-8" />
    </linearGradient>
    <linearGradient
       inkscape:collect="always"
       xlink:href="#linearGradient3802-6"
       id="linearGradient3155"
       gradientUnits="userSpaceOnUse"
       x1="8.837532"
       y1="1029.6663"
       x2="19.113844"
       y2="1029.6663"
       gradientTransform="matrix(-0.66659036,-0.74542424,0.74542424,-0.66659036,-723.37729,1732.6428)" />
    <linearGradient
       id="linearGradient3802-6">
      <stop
         id="stop3804-8"
         offset="0"
         style="stop-color:#ffc300;stop-opacity:0.18039216;" />
      <stop
         id="stop3806-8"
         offset="1"
         style="stop-color:#ffffff;stop-opacity:0" />
    </linearGradient>
    <linearGradient
       inkscape:collect="always"
       xlink:href="#linearGradient3823-4"
       id="linearGradient3152"
       gradientUnits="userSpaceOnUse"
       x1="8.8624401"
       y1="1028.451"
       x2="19.059441"
       y2="1028.451"
       gradientTransform="matrix(-0.66659036,-0.74542424,0.74542424,-0.66659036,-723.37729,1732.6428)" />
    <linearGradient
       id="linearGradient3823-4">
      <stop
         style="stop-color:#4d9600;stop-opacity:0.18039216;"
         offset="0"
         id="stop3825-3" />
      <stop
         style="stop-color:#ffffff;stop-opacity:0"
         offset="1"
         id="stop3827-1" />
    </linearGradient>
    <linearGradient
       inkscape:collect="always"
       xlink:href="#linearGradient3802-6"
       id="linearGradient3149"
       gradientUnits="userSpaceOnUse"
       x1="8.8729076"
       y1="1027.5348"
       x2="19.17152"
       y2="1027.5348"
       gradientTransform="matrix(-0.66659036,-0.74542424,0.74542424,-0.66659036,-723.37729,1732.6428)" />
    <linearGradient
       id="linearGradient4219">
      <stop
         id="stop4221"
         offset="0"
         style="stop-color:#ffc300;stop-opacity:0.18039216;" />
      <stop
         id="stop4223"
         offset="1"
         style="stop-color:#ffffff;stop-opacity:0" />
    </linearGradient>
    <linearGradient
       inkscape:collect="always"
       xlink:href="#linearGradient3877-4"
       id="linearGradient3146"
       gradientUnits="userSpaceOnUse"
       x1="8.8799152"
       y1="1027.0327"
       x2="19.235598"
       y2="1027.0327"
       gradientTransform="matrix(-0.66659036,-0.74542424,0.74542424,-0.66659036,-723.37729,1732.6428)" />
    <linearGradient
       id="linearGradient3877-4">
      <stop
         style="stop-color:#00dfff;stop-opacity:0.18039216;"
         offset="0"
         id="stop3879-9" />
      <stop
         style="stop-color:#ffffff;stop-opacity:0"
         offset="1"
         id="stop3881-2" />
    </linearGradient>
    <linearGradient
       inkscape:collect="always"
       xlink:href="#linearGradient3877-4"
       id="linearGradient3143"
       gradientUnits="userSpaceOnUse"
       x1="8.8905392"
       y1="1026.2065"
       x2="19.3482"
       y2="1026.2065"
       gradientTransform="matrix(-0.66659036,-0.74542424,0.74542424,-0.66659036,-723.09003,1732.9301)" />
    <linearGradient
       id="linearGradient4230">
      <stop
         style="stop-color:#00dfff;stop-opacity:0.18039216;"
         offset="0"
         id="stop4232" />
      <stop
         style="stop-color:#ffffff;stop-opacity:0"
         offset="1"
         id="stop4234" />
    </linearGradient>
    <linearGradient
       inkscape:collect="always"
       xlink:href="#linearGradient3981"
       id="linearGradient3200"
       gradientUnits="userSpaceOnUse"
       gradientTransform="matrix(-0.54749825,0.83680683,-0.83680683,-0.54749825,900.00556,1569.8524)"
       x1="8.8905392"
       y1="1026.2065"
       x2="19.3482"
       y2="1026.2065" />
    <linearGradient
       id="linearGradient3981">
      <stop
         id="stop3983"
         offset="0"
         style="stop-color:#9a9a9a;stop-opacity:0.18039216;" />
      <stop
         id="stop3985"
         offset="1"
         style="stop-color:#ffffff;stop-opacity:0" />
    </linearGradient>
    <linearGradient
       inkscape:collect="always"
       xlink:href="#linearGradient3883-4"
       id="linearGradient3196"
       gradientUnits="userSpaceOnUse"
       gradientTransform="matrix(0.28915731,0.95728159,-0.95728159,0.28915731,41.368212,996.47239)"
       x1="14.889573"
       y1="31.294256"
       x2="15.601078"
       y2="18.919888" />
    <linearGradient
       id="linearGradient4241">
      <stop
         style="stop-color:#ff00b7;stop-opacity:0.18085106;"
         offset="0"
         id="stop4243" />
      <stop
         style="stop-color:#999999;stop-opacity:0;"
         offset="1"
         id="stop4245" />
    </linearGradient>
    <linearGradient
       inkscape:collect="always"
       xlink:href="#linearGradient3789-0"
       id="linearGradient3193"
       gradientUnits="userSpaceOnUse"
       gradientTransform="matrix(0.66659036,0.74542424,-0.74542424,0.66659036,26.29193,993.04675)"
       x1="14.889573"
       y1="31.294256"
       x2="15.601078"
       y2="18.919888" />
    <linearGradient
       id="linearGradient4248">
      <stop
         style="stop-color:#ff0013;stop-opacity:0.18085106;"
         offset="0"
         id="stop4250" />
      <stop
         style="stop-color:#ffffff;stop-opacity:0"
         offset="1"
         id="stop4252" />
    </linearGradient>
    <linearGradient
       inkscape:collect="always"
       xlink:href="#linearGradient3802-6"
       id="linearGradient3190"
       gradientUnits="userSpaceOnUse"
       x1="8.837532"
       y1="1029.6663"
       x2="19.113844"
       y2="1029.6663"
       gradientTransform="matrix(0.66659036,0.74542424,-0.74542424,0.66659036,774.96786,323.54859)" />
    <linearGradient
       id="linearGradient4255">
      <stop
         id="stop4257"
         offset="0"
         style="stop-color:#ffc300;stop-opacity:0.18039216;" />
      <stop
         id="stop4259"
         offset="1"
         style="stop-color:#ffffff;stop-opacity:0" />
    </linearGradient>
    <linearGradient
       inkscape:collect="always"
       xlink:href="#linearGradient3823-4"
       id="linearGradient3187"
       gradientUnits="userSpaceOnUse"
       x1="8.8624401"
       y1="1028.451"
       x2="19.059441"
       y2="1028.451"
       gradientTransform="matrix(0.66659036,0.74542424,-0.74542424,0.66659036,774.96786,323.54859)" />
    <linearGradient
       id="linearGradient4262">
      <stop
         style="stop-color:#4d9600;stop-opacity:0.18039216;"
         offset="0"
         id="stop4264" />
      <stop
         style="stop-color:#ffffff;stop-opacity:0"
         offset="1"
         id="stop4266" />
    </linearGradient>
    <linearGradient
       inkscape:collect="always"
       xlink:href="#linearGradient3802-6"
       id="linearGradient3184"
       gradientUnits="userSpaceOnUse"
       x1="8.8729076"
       y1="1027.5348"
       x2="19.17152"
       y2="1027.5348"
       gradientTransform="matrix(0.66659036,0.74542424,-0.74542424,0.66659036,774.96786,323.54859)" />
    <linearGradient
       id="linearGradient4269">
      <stop
         id="stop4271"
         offset="0"
         style="stop-color:#ffc300;stop-opacity:0.18039216;" />
      <stop
         id="stop4273"
         offset="1"
         style="stop-color:#ffffff;stop-opacity:0" />
    </linearGradient>
    <linearGradient
       inkscape:collect="always"
       xlink:href="#linearGradient3877-4"
       id="linearGradient3181"
       gradientUnits="userSpaceOnUse"
       x1="8.8799152"
       y1="1027.0327"
       x2="19.235598"
       y2="1027.0327"
       gradientTransform="matrix(0.66659036,0.74542424,-0.74542424,0.66659036,774.96786,323.54859)" />
    <linearGradient
       id="linearGradient4276">
      <stop
         style="stop-color:#00dfff;stop-opacity:0.18039216;"
         offset="0"
         id="stop4278" />
      <stop
         style="stop-color:#ffffff;stop-opacity:0"
         offset="1"
         id="stop4280" />
    </linearGradient>
    <linearGradient
       inkscape:collect="always"
       xlink:href="#linearGradient3877-4"
       id="linearGradient3178"
       gradientUnits="userSpaceOnUse"
       x1="8.8905392"
       y1="1026.2065"
       x2="19.3482"
       y2="1026.2065"
       gradientTransform="matrix(0.66659036,0.74542424,-0.74542424,0.66659036,774.96786,323.54859)" />
    <linearGradient
       id="linearGradient4283">
      <stop
         style="stop-color:#00dfff;stop-opacity:0.18039216;"
         offset="0"
         id="stop4285" />
      <stop
         style="stop-color:#ffffff;stop-opacity:0"
         offset="1"
         id="stop4287" />
    </linearGradient>
    <linearGradient
       inkscape:collect="always"
       xlink:href="#linearGradient3993"
       id="linearGradient3991"
       gradientUnits="userSpaceOnUse"
       gradientTransform="matrix(0.48753066,-0.87310587,0.87310587,0.48753066,-884.25024,549.87747)"
       x1="8.8905392"
       y1="1026.2065"
       x2="19.3482"
       y2="1026.2065" />
    <linearGradient
       id="linearGradient3993">
      <stop
         style="stop-color:#000000;stop-opacity:0.43617022;"
         offset="0"
         id="stop3995" />
      <stop
         style="stop-color:#ffffff;stop-opacity:0"
         offset="1"
         id="stop3997" />
    </linearGradient>
    <linearGradient
       inkscape:collect="always"
       xlink:href="#linearGradient3993"
       id="linearGradient4001"
       gradientUnits="userSpaceOnUse"
       gradientTransform="matrix(0.57986909,-0.81470967,0.81470967,0.57986909,-826.68967,453.47007)"
       x1="8.8905392"
       y1="1026.2065"
       x2="19.3482"
       y2="1026.2065" />
    <linearGradient
       id="linearGradient4294">
      <stop
         style="stop-color:#000000;stop-opacity:0.43617022;"
         offset="0"
         id="stop4296" />
      <stop
         style="stop-color:#ffffff;stop-opacity:0"
         offset="1"
         id="stop4298" />
    </linearGradient>
    <linearGradient
       inkscape:collect="always"
       xlink:href="#linearGradient4009"
       id="linearGradient4007"
       gradientUnits="userSpaceOnUse"
       gradientTransform="matrix(0.71504921,-0.69907413,0.69907413,0.71504921,-711.31797,311.40924)"
       x1="8.8905392"
       y1="1026.2065"
       x2="19.3482"
       y2="1026.2065" />
    <linearGradient
       id="linearGradient4009">
      <stop
         style="stop-color:#9a9a9a;stop-opacity:0.64361703;"
         offset="0"
         id="stop4011" />
      <stop
         style="stop-color:#ffffff;stop-opacity:0"
         offset="1"
         id="stop4013" />
    </linearGradient>
    <linearGradient
       inkscape:collect="always"
       xlink:href="#linearGradient3846"
       id="linearGradient3941"
       x1="17.286188"
       y1="27.0625"
       x2="34.053097"
       y2="27.0625"
       gradientUnits="userSpaceOnUse" />
  </defs>
  <sodipodi:namedview
     id="base"
     pagecolor="#ffffff"
     bordercolor="#666666"
     borderopacity="1.0"
     inkscape:pageopacity="0.0"
     inkscape:pageshadow="2"
     inkscape:zoom="4"
     inkscape:cx="-23.470139"
     inkscape:cy="49.072293"
     inkscape:document-units="px"
     inkscape:current-layer="layer1"
     showgrid="false"
     inkscape:window-width="1301"
     inkscape:window-height="744"
     inkscape:window-x="65"
     inkscape:window-y="24"
     inkscape:window-maximized="1" />
  <metadata
     id="metadata7">
    <rdf:RDF>
      <cc:Work
         rdf:about="">
        <dc:format>image/svg+xml</dc:format>
        <dc:type
           rdf:resource="http://purl.org/dc/dcmitype/StillImage" />
        <dc:title />
      </cc:Work>
    </rdf:RDF>
  </metadata>
  <g
     inkscape:label="Capa 1"
     inkscape:groupmode="layer"
     id="layer1"
     transform="translate(0,-1004.3622)">
    <path
       style="fill:url(#linearGradient3801);fill-opacity:1;stroke:none"
       d="m 4.444544,1004.3622 41.610912,0 c 1.077278,0 1.944544,0.8672 1.944544,1.9445 l 0,44.1109 c 0,1.0773 -0.867266,1.9446 -1.944544,1.9446 l -41.548412,0 c -1.0772772,0 -0.8820436,-0.8673 -0.8820436,-1.9446 l 0,-44.1109 c 0,-1.0773 -0.2577336,-1.9445 0.8195436,-1.9445 z"
       id="rect2991"
       inkscape:connector-curvature="0"
       sodipodi:nodetypes="sssssssss" />
    <path
       style="fill:#ffffff;stroke:none;fill-opacity:1;opacity:0.15"
       d="M 0 0 L 0 48 L 16.78125 48 L 29.625 0 L 0 0 z "
       id="rect3790"
       transform="translate(0,1004.3622)" />
    <path
       style="fill:url(#linearGradient3056);fill-opacity:1;stroke:none"
       d="m 2.2564666,1004.3622 c 2.2002572,0 2.2564667,-0.1868 2.2564667,1.0632 l 0,46.0945 c 0,1.2501 -0.078307,0.8423 -2.2564667,0.8423 C 1.0063841,1052.3622 0,1051.3558 0,1050.1057 l 0,-43.4871 c 0,-1.25 1.0063841,-2.2564 2.2564666,-2.2564 z"
       id="rect3054"
       inkscape:connector-curvature="0"
       sodipodi:nodetypes="sssssss" />
    <path
       style="fill:#ffffff"
       d="m 9.944196,1022.9545 c 0.146483,2.6951 0.790801,5.3965 1.967331,8.2481 0.964676,2.3379 1.985006,3.8593 3.79809,5.6617 0.673227,0.67 1.028907,0.963 1.747607,1.4407 2.078054,1.3808 3.854277,2.123 6.240488,2.6076 2.308203,0.4688 3.690767,0.6164 5.767721,0.616 1.646837,0 2.665469,-0.076 3.9871,-0.298 2.550081,-0.428 4.054502,-1.0804 5.696352,-2.4724 1.225901,-1.0397 2.588425,-2.5601 2.957521,-3.3011 0.120563,-0.2424 0.09754,-0.2286 -0.370416,0.2358 -0.577771,0.5734 -0.888213,0.793 -0.984656,0.6968 -0.03576,-0.034 -0.163343,-0.4138 -0.283562,-0.84 -0.348596,-1.2356 -0.528029,-1.524 -1.296892,-2.0816 -0.246452,-0.176 -0.494259,-0.4598 -0.834129,-0.9462 -0.521605,-0.7468 -1.134813,-1.8609 -1.134813,-2.0617 0,-0.104 -0.251336,-0.8846 -0.414563,-1.2872 -0.08064,-0.198 -1.372408,-0.7898 -5.24133,-2.3984 -3.662279,-1.5222 -4.44563,-1.9179 -4.962691,-2.5075 -0.272857,-0.3118 -1.34326,-1.7002 -1.908881,-2.4782 -0.926504,-1.2742 -2.588101,-3.5825 -2.836102,-3.9401 -0.467101,-0.6736 -0.486153,-0.6916 -0.64094,-0.6088 -0.08958,0.048 -0.137023,0.048 -0.137023,0 0,-0.034 -0.02704,-0.066 -0.05964,-0.066 -0.03292,0 -0.154343,-0.086 -0.270084,-0.194 -0.241597,-0.2218 -1.393771,-0.8008 -2.062681,-1.0372 -0.249778,-0.086 -0.796884,-0.2322 -1.215789,-0.3222 -0.8839,-0.188 -1.202351,-0.2876 -1.857059,-0.5864 -0.571065,-0.2598 -1.334536,-0.7716 -1.334536,-0.8932 0,-0.1 0.263776,-0.6352 0.489877,-0.9936 0.08514,-0.136 0.139763,-0.2598 0.121383,-0.2806 -0.0525,-0.052 -0.891422,0.394 -1.361074,0.7242 -0.579233,0.4072 -1.691212,1.5416 -2.074738,2.1162 -0.978904,2.0392 -1.26749,2.402 -1.491887,7.2337 z m 20.807488,15.007 c -0.419422,-0.034 -0.821285,-0.048 -0.893024,-0.052 -0.101042,0 -0.146303,-0.076 -0.200847,-0.3118 -0.03874,-0.166 -0.130882,-0.5164 -0.204762,-0.7786 -0.09834,-0.349 -0.133163,-0.647 -0.129883,-1.112 0.0024,-0.3498 0.0046,-0.6918 0.0046,-0.7606 -4e-6,-0.066 0.0201,-0.138 0.04474,-0.156 0.0246,-0.034 0.07554,-0.09 0.113183,-0.16 0.111382,-0.201 0.37587,-0.2356 0.564426,-0.076 0.08884,0.076 0.161524,0.16 0.161524,0.186 0,0.034 0.02842,0.084 0.06262,0.124 0.08884,0.108 0.572535,0.8092 0.996912,1.4432 0.379656,0.5674 0.656319,1.2112 0.656319,1.5278 0,0.174 -0.0176,0.188 -0.206529,0.174 -0.113583,0 -0.549704,-0.034 -0.969129,-0.056 z m 2.106758,-0.108 c -0.017,-0.062 -0.05018,-0.253 -0.07394,-0.429 -0.06206,-0.456 -0.284324,-0.9616 -0.654786,-1.489 -0.37773,-0.5378 -0.519283,-0.9204 -0.54599,-1.4762 -0.0253,-0.5308 0.02598,-0.6462 0.380708,-0.8542 0.2723,-0.16 0.304561,-0.166 0.375029,-0.07 0.04238,0.058 0.0957,0.086 0.118482,0.066 0.02286,-0.034 0.0414,0 0.0414,0.066 0,0.062 0.204139,0.3014 0.453692,0.535 1.671421,1.5684 1.712116,1.6356 1.756371,2.91 l 0.02668,0.7686 -0.492469,0.042 c -0.270846,0.034 -0.686407,0.042 -0.923447,0.042 -0.356384,0 -0.436293,-0.034 -0.46169,-0.11 z m -4.489857,-0.114 c -0.05242,0 -0.431336,-0.084 -0.842025,-0.156 l -0.746706,-0.138 0,-0.4982 c 0,-0.5504 0.09352,-1.0868 0.232105,-1.331 0.04958,-0.086 0.140383,-0.3014 0.201746,-0.4764 0.104243,-0.298 0.127063,-0.3188 0.347258,-0.3362 0.179604,0 0.235673,0 0.235673,0.08 0,0.056 0.02876,0.1 0.06356,0.1 0.03492,0 0.06356,0.046 0.06356,0.1 0,0.056 0.103502,0.3476 0.230059,0.6516 0.169444,0.4068 0.589565,1.8386 0.595575,2.0298 7.82e-4,0.034 -0.259757,0 -0.380798,-0.034 z m 7.323602,-0.122 c 0.04918,-0.2566 -0.170424,-1.5954 -0.33166,-2.0206 -0.07666,-0.201 -0.241911,-0.5018 -0.367238,-0.6664 -0.223995,-0.2946 -0.708917,-0.772 -0.785379,-0.7754 -0.02148,0 -0.112423,-0.166 -0.202199,-0.367 -0.121702,-0.2704 -0.169003,-0.4998 -0.186084,-0.894 l -0.02286,-0.5282 0.28377,-0.2634 c 0.258924,-0.239 0.287964,-0.2494 0.331799,-0.138 0.02668,0.066 0.05008,0.098 0.05254,0.066 0.0046,-0.056 0.512859,0.6978 0.512859,0.7598 0,0.034 0.06992,0.138 0.155383,0.2668 0.08548,0.132 0.225693,0.4518 0.311561,0.7138 0.35143,1.0726 0.78655,1.9552 1.258094,2.5514 0.105102,0.132 0.139963,0.2876 0.165684,0.74 l 0.03258,0.5714 -0.183164,0.034 c -0.100742,0.034 -0.380272,0.056 -0.621149,0.08 l -0.437968,0.046 z m 2.018148,-0.7594 c 0,-0.3644 -0.03014,-0.7422 -0.06706,-0.8392 -0.03686,-0.096 -0.221189,-0.3776 -0.409615,-0.6238 -0.400003,-0.5224 -0.567327,-0.8808 -0.988904,-2.1174 -0.37654,-1.1044 -0.504449,-1.6977 -0.504449,-2.3391 l 0,-0.4872 0.206528,0.156 c 0.113603,0.086 0.234774,0.2184 0.269286,0.2946 0.03466,0.076 0.08456,0.138 0.111243,0.138 0.02668,0 0.04848,0.034 0.04848,0.066 0,0.034 0.05984,0.128 0.133003,0.208 0.07314,0.08 0.252755,0.3833 0.399149,0.6803 0.256187,0.52 1.09971,1.6982 1.434935,2.0046 0.08902,0.084 0.290529,0.2426 0.447804,0.3582 0.3511,0.26 0.560553,0.6582 0.863925,1.6464 0.122423,0.3988 0.238029,0.772 0.25688,0.8292 0.02702,0.084 -0.06882,0.138 -0.46385,0.2668 -0.418612,0.138 -1.528654,0.4144 -1.68962,0.4194 -0.02634,0 -0.04768,-0.298 -0.04768,-0.662 z m -12.466221,0.2496 c -0.674105,-0.184 -1.643222,-0.543 -2.265186,-0.8366 -0.34791,-0.162 -0.448302,-0.239 -0.399733,-0.298 0.03566,-0.046 0.179504,-0.3048 0.319603,-0.5828 0.140103,-0.2772 0.391183,-0.648 0.557948,-0.823 0.166784,-0.176 0.303489,-0.3084 0.303869,-0.298 2.6e-4,0 0.05194,0 0.114663,-0.034 0.06272,-0.034 0.37728,0.034 0.699041,0.118 0.321749,0.09 0.679895,0.18 0.795854,0.2044 0.115942,0.034 0.228257,0.09 0.249569,0.15 0.02114,0.058 0.06018,0.118 0.08646,0.138 0.06934,0.046 0.116263,0.4828 0.162564,1.5084 0.0239,0.5274 0.017,0.9038 -0.0166,0.9006 -0.03154,0 -0.305186,-0.072 -0.608107,-0.156 z m -4.156276,-1.8608 c -0.998222,-0.6266 -1.361956,-0.8996 -1.361956,-1.0226 0,-0.2702 0.597911,-0.7696 1.112087,-0.9246 0.349069,-0.104 1.140599,-0.072 1.334965,0.056 0.08792,0.058 0.132103,0.142 0.121763,0.239 -0.009,0.084 -0.02218,0.15 -0.0298,0.15 -0.0072,0 -0.02114,0.058 -0.0305,0.128 -0.0843,0.6282 -0.280584,1.373 -0.409797,1.5542 -0.07564,0.104 -0.142743,0.194 -0.149083,0.19 -0.0066,0 -0.27088,-0.166 -0.587857,-0.3656 z m -2.698881,-2.2178 c -0.295795,-0.3118 -0.660223,-0.7256 -0.809878,-0.9202 -0.243746,-0.3188 -0.264538,-0.3712 -0.199485,-0.5141 0.09196,-0.201 0.26194,-0.2842 0.662265,-0.3292 0.309067,-0.034 0.490889,-0.062 1.016784,-0.156 0.402665,-0.072 0.618122,0 0.926623,0.3396 0.358468,0.3873 0.412533,0.4797 0.280236,0.4797 -0.0562,0 -0.08566,0.034 -0.06536,0.058 0.0201,0.034 -0.0024,0.084 -0.05032,0.11 -0.04792,0.034 -0.198424,0.2114 -0.334431,0.401 -0.136003,0.194 -0.322791,0.4352 -0.415063,0.5402 -0.09228,0.104 -0.236573,0.2702 -0.320675,0.3718 l -0.152884,0.18 z m -1.890088,-2.4173 c -0.183544,-0.2634 -0.713044,-1.2582 -0.713044,-1.3394 0,-0.096 0.567929,-0.2494 1.10449,-0.2944 0.240456,-0.034 0.455524,-0.048 0.477899,-0.066 0.07042,-0.044 0.978762,0.166 1.056237,0.2426 0.174444,0.176 0.235952,0.3698 0.160784,0.5102 -0.109043,0.2044 -0.638064,0.5404 -1.105723,0.704 -0.227009,0.08 -0.498035,0.2044 -0.602297,0.2808 -0.237821,0.17 -0.232277,0.17 -0.378366,-0.042 z m -1.490975,-3.1458 c -0.193804,-0.498 -0.37306,-0.9744 -0.398341,-1.0586 l -0.04598,-0.152 0.404587,0.042 c 0.234737,0.034 0.471272,0.09 0.563456,0.156 0.615074,0.4526 0.752039,0.5182 1.366307,0.654 0.349523,0.08 0.639092,0.142 0.643488,0.146 0.0046,0 0.02772,0.07 0.05194,0.15 0.03326,0.108 0.0184,0.142 -0.05978,0.142 -0.05704,0 -0.366398,0.138 -0.687438,0.3118 -0.48926,0.2634 -1.185274,0.5132 -1.425263,0.5132 -0.03326,0 -0.219179,-0.4074 -0.412991,-0.9058 z m 1.476972,-1.6532 c -0.08736,-0.046 -0.242015,-0.138 -0.343615,-0.208 -0.151083,-0.1 -0.33426,-0.124 -1.005386,-0.146 -0.802704,-0.034 -0.821922,-0.034 -0.880008,-0.18 -0.07512,-0.1981 -0.440043,-1.6389 -0.440043,-1.7383 0,-0.08 0.37137,-0.062 1.684057,0.062 0.872515,0.084 1.078756,0.136 1.414065,0.3466 0.147103,0.094 0.296626,0.17 0.332283,0.17 0.03566,0 0.0648,0.034 0.0648,0.066 0,0.034 0.0429,0.066 0.09532,0.066 0.07894,0 0.09498,0.118 0.09332,0.683 -0.0019,0.6609 -0.0072,0.6873 -0.166444,0.8033 -0.211762,0.156 -0.642672,0.198 -0.848375,0.084 z m -1.112112,-3.1001 c -0.174744,-0.034 -0.550096,-0.052 -0.834087,-0.056 -0.890001,0 -0.886539,0 -0.969189,-0.5364 -0.03906,-0.2496 -0.09016,-0.6258 -0.113582,-0.8354 l -0.04256,-0.3808 0.238965,0.18 c 0.293334,0.2254 0.891034,0.3328 2.330169,0.417 0.707318,0.046 1.06661,0.094 1.2551,0.176 0.145223,0.062 0.264088,0.138 0.264088,0.164 0,0.034 0.0449,0.048 0.09986,0.048 0.247802,0 0.368552,0.365 0.197945,0.5984 -0.06636,0.09 -0.193605,0.118 -0.619606,0.138 -0.294861,0 -0.690139,0.052 -0.878408,0.086 -0.375562,0.072 -0.459914,0.072 -0.92868,0 z m -0.469138,-2.1914 c -0.554717,-0.104 -0.715362,-0.198 -0.932589,-0.544 -0.08916,-0.138 -0.263984,-0.3154 -0.388531,-0.3902 l -0.226455,-0.136 0.02702,-0.7498 c 0.0146,-0.4125 0.04006,-0.7635 0.05628,-0.7797 0.0162,-0.034 0.445578,-0.038 0.954061,-0.048 0.896118,-0.034 0.933165,0 1.206263,0.15 0.311319,0.184 0.500567,0.3552 0.797206,0.7271 0.156843,0.194 0.334225,0.305 0.857916,0.526 1.027129,0.4328 1.519148,0.7334 1.465333,0.8948 -0.0431,0.128 -0.178364,0.2564 -0.224099,0.2114 -0.02078,-0.034 -0.0746,0 -0.119663,0.034 -0.114002,0.096 -0.472052,0.128 -1.827706,0.162 -0.866507,0.034 -1.299025,0 -1.644796,-0.058 z m 4.557006,-1.9052 c -0.0174,-0.034 -0.384194,-0.048 -0.815702,-0.066 -0.922306,-0.042 -1.120949,-0.1101 -1.556336,-0.5329 -0.417119,-0.4056 -1.297985,-0.997 -1.609696,-1.0808 -0.168383,-0.048 -0.35406,-0.048 -0.582505,0 -0.184464,0.034 -0.576442,0.066 -0.871125,0.066 -0.479592,0 -0.532554,0 -0.505059,-0.11 0.017,-0.062 0.04844,-0.2528 0.07006,-0.4286 0.06072,-0.4902 0.239033,-1.3028 0.285918,-1.3028 0.02322,0 0.140523,0.072 0.2609,0.162 0.535893,0.4012 1.930354,0.957 2.951499,1.1764 1.560382,0.3362 2.227713,0.6504 2.474288,1.1698 0.173124,0.365 0.282315,0.9635 0.162284,0.8893 -0.0376,-0.034 -0.105522,0 -0.150883,0.034 -0.04536,0.038 -0.0965,0.056 -0.113663,0.038 z"
       id="path3956"
       inkscape:connector-curvature="0"
       sodipodi:nodetypes="csssscsssscssssssssscsssssssccsccccsssccssscssccssssscccssscssccscssssssssccssscssccscssscscccccscssscccsssscsssccccscsscccsccsccssscssccccscscsssccccscccsccscccssccscscsssssccsssscsssssccsssccscssssccscsscscsssscccsccssccsssscsscsc" />
  </g>
</svg>
