<?xml version="1.0" encoding="UTF-8" standalone="no"?>
<!-- Created with Inkscape (http://www.inkscape.org/) -->

<svg
   xmlns:dc="http://purl.org/dc/elements/1.1/"
   xmlns:cc="http://creativecommons.org/ns#"
   xmlns:rdf="http://www.w3.org/1999/02/22-rdf-syntax-ns#"
   xmlns:svg="http://www.w3.org/2000/svg"
   xmlns="http://www.w3.org/2000/svg"
   xmlns:xlink="http://www.w3.org/1999/xlink"
   xmlns:sodipodi="http://sodipodi.sourceforge.net/DTD/sodipodi-0.dtd"
   xmlns:inkscape="http://www.inkscape.org/namespaces/inkscape"
   width="48"
   height="48"
   id="svg2"
   version="1.1"
   inkscape:version="0.48+devel r11717"
   sodipodi:docname="darktable.svg">
  <defs
     id="defs4">
    <linearGradient
       id="linearGradient4133">
      <stop
         offset="0"
         style="stop-color:#a1a1a1;stop-opacity:1"
         id="stop4135" />
      <stop
         offset="1"
         style="stop-color:#ffffff;stop-opacity:1"
         id="stop4137" />
    </linearGradient>
    <linearGradient
       id="linearGradient4119">
      <stop
         style="stop-color:#b35807;stop-opacity:1"
         offset="0"
         id="stop4121" />
      <stop
         id="stop4123"
         offset="1"
         style="stop-color:#f47413;stop-opacity:1" />
    </linearGradient>
    <linearGradient
       id="linearGradient4105">
      <stop
         id="stop4107"
         offset="0"
         style="stop-color:#8c071a;stop-opacity:1" />
      <stop
         style="stop-color:#d61125;stop-opacity:1"
         offset="1"
         id="stop4109" />
    </linearGradient>
    <linearGradient
       id="linearGradient4091">
      <stop
         style="stop-color:#770d72;stop-opacity:1"
         offset="0"
         id="stop4093" />
      <stop
         id="stop4095"
         offset="1"
         style="stop-color:#c71ccd;stop-opacity:1" />
    </linearGradient>
    <linearGradient
       id="linearGradient4077">
      <stop
         id="stop4079"
         offset="0"
         style="stop-color:#0044aa;stop-opacity:1" />
      <stop
         style="stop-color:#257dec;stop-opacity:1"
         offset="1"
         id="stop4081" />
    </linearGradient>
    <linearGradient
       id="linearGradient905">
      <stop
         id="stop907"
         offset="0"
         style="stop-color:#d6a525;stop-opacity:1" />
      <stop
         style="stop-color:#f3eb28;stop-opacity:1"
         offset="1"
         id="stop909" />
    </linearGradient>
    <linearGradient
       id="linearGradient3795">
      <stop
         style="stop-color:#cccccc;stop-opacity:1"
         offset="0"
         id="stop3797" />
      <stop
         style="stop-color:#ffffff;stop-opacity:1"
         offset="1"
         id="stop3799" />
    </linearGradient>
    <linearGradient
       inkscape:collect="always"
       id="linearGradient3914">
      <stop
         style="stop-color:#59b3e1;stop-opacity:1;"
         offset="0"
         id="stop3916" />
      <stop
         style="stop-color:#59b3e1;stop-opacity:0;"
         offset="1"
         id="stop3918" />
    </linearGradient>
    <linearGradient
       id="linearGradient3698">
      <stop
         id="stop3700"
         offset="0"
         style="stop-color:#96d0e1;stop-opacity:1" />
      <stop
         style="stop-color:#89b7e1;stop-opacity:1"
         offset="0.67819428"
         id="stop3706" />
      <stop
         id="stop3702"
         offset="1"
         style="stop-color:#699dd3;stop-opacity:1" />
    </linearGradient>
    <linearGradient
       id="linearGradient3708">
      <stop
         style="stop-color:#447821;stop-opacity:1"
         offset="0"
         id="stop3716" />
      <stop
         id="stop3712"
         offset="1"
         style="stop-color:#71c837;stop-opacity:1" />
    </linearGradient>
    <linearGradient
       id="linearGradient3750">
      <stop
         style="stop-color:#d0e2f1;stop-opacity:1"
         offset="0"
         id="stop3752" />
      <stop
         id="stop3756"
         offset="0.85580856"
         style="stop-color:#cadef0;stop-opacity:1" />
      <stop
         style="stop-color:#95bee3;stop-opacity:1"
         offset="1"
         id="stop3754" />
    </linearGradient>
    <linearGradient
       id="linearGradient3803">
      <stop
         id="stop3805"
         offset="0"
         style="stop-color:#d7def0;stop-opacity:1;" />
      <stop
         style="stop-color:#ffffff;stop-opacity:1"
         offset="0.5"
         id="stop3811" />
      <stop
         id="stop3807"
         offset="1"
         style="stop-color:#d5def0;stop-opacity:1" />
    </linearGradient>
    <linearGradient
       inkscape:collect="always"
       xlink:href="#linearGradient3914"
       id="linearGradient3920"
       x1="6.8000002"
       y1="25.0625"
       x2="45.325001"
       y2="25.0625"
       gradientUnits="userSpaceOnUse" />
    <linearGradient
       inkscape:collect="always"
       xlink:href="#linearGradient3795"
       id="linearGradient3801"
       x1="23.204165"
       y1="1053.158"
       x2="23.204165"
       y2="1004.8474"
       gradientUnits="userSpaceOnUse"
       gradientTransform="translate(0,1.7382813e-5)" />
    <linearGradient
       x1="62.336792"
       y1="79.015236"
       x2="62.336792"
       y2="12.797539"
       id="linearGradient2936"
       xlink:href="#linearGradient3694"
       gradientUnits="userSpaceOnUse"
       gradientTransform="matrix(0.87485882,0,0,0.90698611,2.762671,6.33428)" />
    <linearGradient
       id="linearGradient3694">
      <stop
         id="stop3696"
         style="stop-color:#e6e6e6;stop-opacity:1"
         offset="0" />
      <stop
         id="stop3698"
         style="stop-color:#f5f5f5;stop-opacity:1"
         offset="1" />
    </linearGradient>
    <linearGradient
       x1="55"
       y1="18"
       x2="55"
       y2="112"
       id="linearGradient3831"
       xlink:href="#linearGradient3825"
       gradientUnits="userSpaceOnUse" />
    <linearGradient
       id="linearGradient3825">
      <stop
         id="stop3827"
         style="stop-color:#501616;stop-opacity:1"
         offset="0" />
      <stop
         id="stop3829"
         style="stop-color:#501616;stop-opacity:0"
         offset="1" />
    </linearGradient>
    <linearGradient
       inkscape:collect="always"
       xlink:href="#linearGradient3708"
       id="linearGradient895"
       x1="-32.370098"
       y1="1071.1001"
       x2="-33.375"
       y2="1048.1001"
       gradientUnits="userSpaceOnUse" />
    <linearGradient
       inkscape:collect="always"
       xlink:href="#linearGradient905"
       id="linearGradient903"
       x1="-12.531251"
       y1="50.828125"
       x2="-19.75"
       y2="30.578125"
       gradientUnits="userSpaceOnUse" />
    <linearGradient
       inkscape:collect="always"
       xlink:href="#linearGradient4077"
       id="linearGradient4075"
       x1="-51.675957"
       y1="1070.7874"
       x2="-54.622658"
       y2="1056.7874"
       gradientUnits="userSpaceOnUse" />
    <linearGradient
       inkscape:collect="always"
       xlink:href="#linearGradient4091"
       id="linearGradient4089"
       x1="-62.647186"
       y1="1050.5925"
       x2="-65.365929"
       y2="1030.8425"
       gradientUnits="userSpaceOnUse" />
    <linearGradient
       inkscape:collect="always"
       xlink:href="#linearGradient4105"
       id="linearGradient4103"
       x1="-49.772186"
       y1="1040.1826"
       x2="-50.777084"
       y2="1016.4327"
       gradientUnits="userSpaceOnUse" />
    <linearGradient
       inkscape:collect="always"
       xlink:href="#linearGradient4119"
       id="linearGradient4117"
       x1="-41.024529"
       y1="1033.9955"
       x2="-27.221226"
       y2="1019.2455"
       gradientUnits="userSpaceOnUse" />
    <linearGradient
       inkscape:collect="always"
       xlink:href="#linearGradient4133"
       id="linearGradient4131"
       x1="-42.249996"
       y1="39.875"
       x2="-42.249996"
       y2="32.875"
       gradientUnits="userSpaceOnUse" />
  </defs>
  <sodipodi:namedview
     id="base"
     pagecolor="#ffffff"
     bordercolor="#666666"
     borderopacity="1.0"
     inkscape:pageopacity="0.0"
     inkscape:pageshadow="2"
     inkscape:zoom="2.8284273"
     inkscape:cx="-13.98651"
     inkscape:cy="31.849589"
     inkscape:document-units="px"
     inkscape:current-layer="layer1"
     showgrid="false"
     inkscape:window-width="1366"
     inkscape:window-height="746"
     inkscape:window-x="0"
     inkscape:window-y="0"
     inkscape:window-maximized="1"
     showguides="true"
     inkscape:guide-bbox="true" />
  <metadata
     id="metadata7">
    <rdf:RDF>
      <cc:Work
         rdf:about="">
        <dc:format>image/svg+xml</dc:format>
        <dc:type
           rdf:resource="http://purl.org/dc/dcmitype/StillImage" />
        <dc:title></dc:title>
      </cc:Work>
    </rdf:RDF>
  </metadata>
  <g
     inkscape:label="Capa 1"
     inkscape:groupmode="layer"
     id="layer1"
     transform="translate(0,-1004.3622)">
    <rect
       style="fill:url(#linearGradient3801);fill-opacity:1;stroke:none"
       id="rect2991"
       width="48"
       height="48"
       x="0"
       y="1004.3622"
       ry="1.9445436" />
    <g
       id="g4139"
       transform="matrix(0.51439504,0,0,0.51439504,45.835345,492.41842)">
      <path
         sodipodi:type="arc"
         style="fill:#1a1a1a;fill-opacity:1;stroke:none"
         id="path887"
         sodipodi:cx="-42.624996"
         sodipodi:cy="36.625"
         sodipodi:rx="4.375"
         sodipodi:ry="4.375"
         d="m -38.249996,36.625 c 0,2.416246 -1.958754,4.375 -4.375,4.375 -2.416246,0 -4.375,-1.958754 -4.375,-4.375 0,-2.416246 1.958754,-4.375 4.375,-4.375 C -40.20875,32.25 -38.249996,34.208754 -38.249996,36.625 Z"
         transform="matrix(6.9428564,0,0,6.9428564,253.25182,787.51752)" />
      <path
         transform="translate(0,1004.3622)"
         id="path868"
         d="m -11.125,27.15625 -24.40625,4.75 L -15.15625,56 C -11.57783,50.703242 -9.5,44.310855 -9.5,37.4375 -9.5,33.849705 -10.071773,30.392688 -11.125,27.15625 Z"
         style="fill:url(#linearGradient903);fill-opacity:1;stroke:none"
         inkscape:connector-curvature="0" />
      <path
         inkscape:connector-curvature="0"
         style="fill:url(#linearGradient4117);fill-opacity:1;stroke:none"
         d="m -35.935023,1009.7398 -8.089504,23.5114 31.0533,-5.5983 c -2.797917,-5.7474 -7.294972,-10.7431 -13.247472,-14.1797 C -29.325821,1011.6793 -32.605572,1010.4459 -35.935023,1009.7398 Z"
         id="path875" />
      <path
         id="path877"
         d="m -67.022184,1020.0584 16.316718,18.7614 10.67838,-29.6921 c -6.376353,-0.4506 -12.951284,0.9461 -18.903717,4.3828 C -62.037927,1015.3044 -64.745958,1017.5281 -67.022184,1020.0584 Z"
         style="fill:url(#linearGradient4103);fill-opacity:1;stroke:none"
         inkscape:connector-curvature="0" />
      <path
         inkscape:connector-curvature="0"
         style="fill:url(#linearGradient4089);fill-opacity:1;stroke:none"
         d="m -73.772184,1052.2644 24.40625,-4.75 -20.375,-24.0938 c -3.57842,5.2968 -5.65625,11.6892 -5.65625,18.5625 C -75.397184,1045.5709 -74.825411,1049.0279 -73.772184,1052.2644 Z"
         id="path879" />
      <path
         id="path881"
         d="m -48.962161,1074.043 8.089504,-23.5114 -31.0533,5.5983 c 2.797917,5.7474 7.294972,10.7431 13.247472,14.1797 C -55.571363,1072.1035 -52.291612,1073.3369 -48.962161,1074.043 Z"
         style="fill:url(#linearGradient4075);fill-opacity:1;stroke:none"
         inkscape:connector-curvature="0" />
      <path
         inkscape:connector-curvature="0"
         style="fill:url(#linearGradient895);fill-opacity:1;stroke:none"
         d="m -17.875,1063.7244 -16.316718,-18.7614 -10.67838,29.6921 c 6.376353,0.4506 12.951284,-0.9461 18.903717,-4.3828 C -22.859257,1068.4784 -20.151226,1066.2547 -17.875,1063.7244 Z"
         id="path883" />
      <path
         transform="translate(-0.0625,1005.1747)"
         d="m -38.249996,36.625 c 0,2.416246 -1.958754,4.375 -4.375,4.375 -2.416246,0 -4.375,-1.958754 -4.375,-4.375 0,-2.416246 1.958754,-4.375 4.375,-4.375 C -40.20875,32.25 -38.249996,34.208754 -38.249996,36.625 Z"
         sodipodi:ry="4.375"
         sodipodi:rx="4.375"
         sodipodi:cy="36.625"
         sodipodi:cx="-42.624996"
         id="path885"
         style="fill:url(#linearGradient4131);fill-opacity:1;stroke:none"
         sodipodi:type="arc" />
    </g>
    <path
       style="fill:#ffffff;stroke:none;fill-opacity:1;opacity:0.15"
       d="M 0 0 L 0 48 L 16.78125 48 L 29.625 0 L 0 0 z "
       id="rect3790"
       transform="translate(0,1004.3622)" />
  </g>
</svg>
