<?xml version="1.0" encoding="UTF-8" standalone="no"?>
<!-- Created with Inkscape (http://www.inkscape.org/) -->

<svg
   xmlns:dc="http://purl.org/dc/elements/1.1/"
   xmlns:cc="http://creativecommons.org/ns#"
   xmlns:rdf="http://www.w3.org/1999/02/22-rdf-syntax-ns#"
   xmlns:svg="http://www.w3.org/2000/svg"
   xmlns="http://www.w3.org/2000/svg"
   xmlns:xlink="http://www.w3.org/1999/xlink"
   xmlns:sodipodi="http://sodipodi.sourceforge.net/DTD/sodipodi-0.dtd"
   xmlns:inkscape="http://www.inkscape.org/namespaces/inkscape"
   width="48"
   height="48"
   id="svg944"
   version="1.1"
   inkscape:version="0.48+devel r11556"
   sodipodi:docname="defcon.svg">
  <defs
     id="defs946">
    <linearGradient
       inkscape:collect="always"
       id="linearGradient1827">
      <stop
         style="stop-color:#ffba00;stop-opacity:1;"
         offset="0"
         id="stop1829" />
      <stop
         style="stop-color:#ff6500;stop-opacity:1"
         offset="1"
         id="stop1831" />
    </linearGradient>
    <linearGradient
       inkscape:collect="always"
       id="linearGradient1815">
      <stop
         style="stop-color:#ff1919;stop-opacity:1"
         offset="0"
         id="stop1817" />
      <stop
         style="stop-color:#390000;stop-opacity:1"
         offset="1"
         id="stop1819" />
    </linearGradient>
    <linearGradient
       id="linearGradient1528">
      <stop
         id="stop1530"
         offset="0"
         style="stop-color:#b4b4b4;stop-opacity:1" />
      <stop
         id="stop1532"
         offset="1"
         style="stop-color:#040802;stop-opacity:1" />
    </linearGradient>
    <linearGradient
       y2="1049.5842"
       x2="24.113745"
       y1="1007.2183"
       x1="24.113745"
       gradientTransform="matrix(0.96799712,0,0,1.0252613,0.76812014,-25.977808)"
       gradientUnits="userSpaceOnUse"
       id="linearGradient3030"
       xlink:href="#linearGradient3795"
       inkscape:collect="always" />
    <linearGradient
       id="linearGradient3795">
      <stop
         style="stop-color:#68b8d8;stop-opacity:1;"
         offset="0"
         id="stop3797" />
      <stop
         style="stop-color:#3097bd;stop-opacity:1;"
         offset="1"
         id="stop3799" />
    </linearGradient>
    <linearGradient
       x1="-128"
       y1="64"
       x2="-67.417709"
       y2="38.740906"
       id="linearGradient4357"
       xlink:href="#linearGradient4335"
       gradientUnits="userSpaceOnUse"
       gradientTransform="matrix(0.706098,0,0,0.706098,130.63254,20.2435)" />
    <linearGradient
       id="linearGradient4335">
      <stop
         id="stop4337"
         style="stop-color:#000000;stop-opacity:1"
         offset="0" />
      <stop
         id="stop4339"
         style="stop-color:#19007b;stop-opacity:0.84705883"
         offset="1" />
    </linearGradient>
    <linearGradient
       inkscape:collect="always"
       xlink:href="#linearGradient1815"
       id="linearGradient1821"
       x1="23.157747"
       y1="6.5458651"
       x2="23.157747"
       y2="37.305012"
       gradientUnits="userSpaceOnUse" />
    <linearGradient
       inkscape:collect="always"
       xlink:href="#linearGradient1827"
       id="linearGradient1833"
       x1="25.957132"
       y1="14.554969"
       x2="25.328697"
       y2="26.978655"
       gradientUnits="userSpaceOnUse"
       gradientTransform="matrix(0.86241364,0,0,-0.86241364,1643.0507,415.0097)" />
    <radialGradient
       inkscape:collect="always"
       xlink:href="#linearGradient1827"
       id="radialGradient1847"
       cx="23.246136"
       cy="21.748661"
       fx="23.246136"
       fy="21.748661"
       r="16.528622"
       gradientUnits="userSpaceOnUse" />
    <linearGradient
       inkscape:collect="always"
       xlink:href="#linearGradient1827"
       id="linearGradient1871"
       gradientUnits="userSpaceOnUse"
       gradientTransform="matrix(-0.60981853,-0.60981853,-0.60981853,0.60981853,1699.1776,384.95881)"
       x1="25.957132"
       y1="14.554969"
       x2="25.328697"
       y2="26.978655" />
    <linearGradient
       inkscape:collect="always"
       xlink:href="#linearGradient1827"
       id="linearGradient1875"
       gradientUnits="userSpaceOnUse"
       gradientTransform="matrix(-0.60981853,0.60981853,0.60981853,0.60981853,1660.599,354.54507)"
       x1="25.957132"
       y1="14.554969"
       x2="25.328697"
       y2="26.978655" />
    <linearGradient
       inkscape:collect="always"
       xlink:href="#linearGradient3795-8"
       id="linearGradient3801"
       x1="23.204165"
       y1="1053.158"
       x2="23.204165"
       y2="1004.8474"
       gradientUnits="userSpaceOnUse"
       gradientTransform="translate(0,-2056.7244)" />
    <linearGradient
       id="linearGradient3795-8">
      <stop
         style="stop-color:#2c89a0;stop-opacity:1;"
         offset="0"
         id="stop3797-3" />
      <stop
         style="stop-color:#2c89a0;stop-opacity:1;"
         offset="1"
         id="stop3799-0" />
    </linearGradient>
    <linearGradient
       y2="1004.8474"
       x2="23.204165"
       y1="1053.158"
       x1="23.204165"
       gradientTransform="translate(1640.5564,-1416.7093)"
       gradientUnits="userSpaceOnUse"
       id="linearGradient900"
       xlink:href="#linearGradient1815"
       inkscape:collect="always" />
  </defs>
  <sodipodi:namedview
     id="base"
     pagecolor="#ffffff"
     bordercolor="#666666"
     borderopacity="1.0"
     inkscape:pageopacity="0.0"
     inkscape:pageshadow="2"
     inkscape:zoom="2.8284271"
     inkscape:cx="28.839498"
     inkscape:cy="27.197065"
     inkscape:document-units="px"
     inkscape:current-layer="layer1"
     showgrid="false"
     width="0px"
     height="0px"
     fit-margin-top="0"
     fit-margin-left="0"
     fit-margin-right="0"
     fit-margin-bottom="0"
     inkscape:window-width="1016"
     inkscape:window-height="672"
     inkscape:window-x="306"
     inkscape:window-y="14"
     inkscape:window-maximized="0">
    <inkscape:grid
       type="xygrid"
       id="grid1823"
       empspacing="5"
       visible="true"
       enabled="true"
       snapvisiblegridlinesonly="true" />
  </sodipodi:namedview>
  <metadata
     id="metadata949">
    <rdf:RDF>
      <cc:Work
         rdf:about="">
        <dc:format>image/svg+xml</dc:format>
        <dc:type
           rdf:resource="http://purl.org/dc/dcmitype/StillImage" />
        <dc:title />
      </cc:Work>
    </rdf:RDF>
  </metadata>
  <g
     inkscape:label="Capa 1"
     inkscape:groupmode="layer"
     id="layer1"
     transform="translate(-1640.5564,-364.34714)">
    <rect
       style="fill:url(#linearGradient900);fill-opacity:1.0;stroke:none"
       id="rect2991"
       width="48"
       height="48"
       x="1640.5564"
       y="-412.34714"
       ry="1.9445436"
       transform="scale(1,-1)" />
    <rect
       style="fill:none;stroke:none"
       id="rect1526"
       width="48"
       height="48"
       x="1640.5564"
       y="364.34714"
       ry="0" />
    <path
       sodipodi:type="arc"
       style="fill:url(#linearGradient1821);fill-opacity:1;stroke:none"
       id="path1813"
       sodipodi:cx="23.246136"
       sodipodi:cy="21.748661"
       sodipodi:rx="16.528622"
       sodipodi:ry="16.528622"
       d="m 39.774757,21.748661 c 0,9.128506 -7.400116,16.528622 -16.528621,16.528622 -9.128506,0 -16.528622,-7.400116 -16.528622,-16.528622 0,-9.128506 7.400116,-16.5286216 16.528622,-16.5286216 9.128505,0 16.528621,7.4001156 16.528621,16.5286216 z"
       transform="matrix(0.95084285,0,0,0.95084285,1642.453,367.66758)" />
    <path
       style="fill:url(#linearGradient1833);fill-opacity:1;stroke:none"
       d="m 1666.7064,390.86212 c -0.9913,1.07087 -3.0786,0.86242 -4.2464,0 l -6.4731,8.62413 c 4.312,4.31208 12.9362,4.31208 17.1391,0 z"
       id="path1825"
       inkscape:connector-curvature="0"
       sodipodi:nodetypes="ccccc" />
    <path
       transform="matrix(0.14438506,0,0,0.14438506,1661.2,385.20696)"
       d="m 39.774757,21.748661 c 0,9.128506 -7.400116,16.528622 -16.528621,16.528622 -9.128506,0 -16.528622,-7.400116 -16.528622,-16.528622 0,-9.128506 7.400116,-16.5286216 16.528622,-16.5286216 9.128505,0 16.528621,7.4001156 16.528621,16.5286216 z"
       sodipodi:ry="16.528622"
       sodipodi:rx="16.528622"
       sodipodi:cy="21.748661"
       sodipodi:cx="23.246136"
       id="path1843"
       style="fill:url(#radialGradient1847);fill-opacity:1;stroke:none"
       sodipodi:type="arc" />
    <path
       sodipodi:nodetypes="ccccc"
       inkscape:connector-curvature="0"
       id="path1849"
       d="m 1665.3756,385.30662 c 1.4581,-0.0563 2.7867,1.56708 3.0026,3.00266 l 10.6754,-1.52101 c 0,-6.09815 -6.0982,-12.19638 -12.1192,-12.11917 z"
       style="fill:url(#linearGradient1871);fill-opacity:1;stroke:none"
       inkscape:transform-center-y="-6.8023878"
       inkscape:transform-center-x="-6.78315" />
    <path
       inkscape:transform-center-x="6.8024127"
       inkscape:transform-center-y="-6.783145"
       style="fill:url(#linearGradient1875);fill-opacity:1;stroke:none"
       d="m 1660.9469,388.34707 c -0.056,-1.4581 1.567,-2.7867 3.0026,-3.0026 l -1.521,-10.6754 c -6.0981,0 -12.1964,6.0982 -12.1192,12.1192 z"
       id="path1873"
       inkscape:connector-curvature="0"
       sodipodi:nodetypes="ccccc" />
    <path
       inkscape:connector-curvature="0"
       style="opacity:0.15;fill:#ffffff;fill-opacity:1;stroke:none"
       d="m 1640.5564,364.34714 0,48 16.7813,0 12.8437,-48 -29.625,0 z"
       id="rect3790" />
  </g>
</svg>
