<?xml version="1.0" encoding="UTF-8" standalone="no"?>
<!-- Created with Inkscape (http://www.inkscape.org/) -->

<svg
   xmlns:dc="http://purl.org/dc/elements/1.1/"
   xmlns:cc="http://creativecommons.org/ns#"
   xmlns:rdf="http://www.w3.org/1999/02/22-rdf-syntax-ns#"
   xmlns:svg="http://www.w3.org/2000/svg"
   xmlns="http://www.w3.org/2000/svg"
   xmlns:xlink="http://www.w3.org/1999/xlink"
   xmlns:sodipodi="http://sodipodi.sourceforge.net/DTD/sodipodi-0.dtd"
   xmlns:inkscape="http://www.inkscape.org/namespaces/inkscape"
   width="48"
   height="48"
   id="svg2"
   version="1.1"
   inkscape:version="0.48+devel r11772"
   sodipodi:docname="web-browser.svg">
  <defs
     id="defs4">
    <linearGradient
       id="linearGradient3795">
      <stop
         style="stop-color:#52a2cc;stop-opacity:1;"
         offset="0"
         id="stop3797" />
      <stop
         style="stop-color:#59b3e1;stop-opacity:1;"
         offset="1"
         id="stop3799" />
    </linearGradient>
    <linearGradient
       inkscape:collect="always"
       id="linearGradient3914">
      <stop
         style="stop-color:#59b3e1;stop-opacity:1;"
         offset="0"
         id="stop3916" />
      <stop
         style="stop-color:#59b3e1;stop-opacity:0;"
         offset="1"
         id="stop3918" />
    </linearGradient>
    <linearGradient
       id="linearGradient3698">
      <stop
         id="stop3700"
         offset="0"
         style="stop-color:#96d0e1;stop-opacity:1" />
      <stop
         style="stop-color:#89b7e1;stop-opacity:1"
         offset="0.67819428"
         id="stop3706" />
      <stop
         id="stop3702"
         offset="1"
         style="stop-color:#699dd3;stop-opacity:1" />
    </linearGradient>
    <linearGradient
       id="linearGradient3708">
      <stop
         id="stop3710"
         offset="0"
         style="stop-color:#658db6;stop-opacity:1" />
      <stop
         style="stop-color:#527fab;stop-opacity:1;"
         offset="0.76777935"
         id="stop3716" />
      <stop
         id="stop3712"
         offset="1"
         style="stop-color:#4071a0;stop-opacity:1" />
    </linearGradient>
    <linearGradient
       id="linearGradient3750">
      <stop
         style="stop-color:#d0e2f1;stop-opacity:1"
         offset="0"
         id="stop3752" />
      <stop
         id="stop3756"
         offset="0.85580856"
         style="stop-color:#cadef0;stop-opacity:1" />
      <stop
         style="stop-color:#95bee3;stop-opacity:1"
         offset="1"
         id="stop3754" />
    </linearGradient>
    <linearGradient
       id="linearGradient3803">
      <stop
         id="stop3805"
         offset="0"
         style="stop-color:#d7def0;stop-opacity:1;" />
      <stop
         style="stop-color:#ffffff;stop-opacity:1"
         offset="0.5"
         id="stop3811" />
      <stop
         id="stop3807"
         offset="1"
         style="stop-color:#d5def0;stop-opacity:1" />
    </linearGradient>
    <linearGradient
       inkscape:collect="always"
       xlink:href="#linearGradient3914"
       id="linearGradient3920"
       x1="6.8000002"
       y1="25.0625"
       x2="45.325001"
       y2="25.0625"
       gradientUnits="userSpaceOnUse" />
    <linearGradient
       y2="1049.5842"
       x2="24.113745"
       y1="1007.2183"
       x1="24.113745"
       gradientTransform="matrix(0.96799712,0,0,1.0252613,0.76812381,-2082.7024)"
       gradientUnits="userSpaceOnUse"
       id="linearGradient3151"
       xlink:href="#linearGradient1210"
       inkscape:collect="always" />
    <linearGradient
       id="linearGradient1210">
      <stop
         id="stop1212"
         offset="0"
         style="stop-color:#892ca0;stop-opacity:1" />
      <stop
         id="stop1214"
         offset="1"
         style="stop-color:#bc5fd3;stop-opacity:1" />
    </linearGradient>
    <linearGradient
       id="linearGradient3795-1">
      <stop
         id="stop3797-1"
         offset="0"
         style="stop-color:#68b8d8;stop-opacity:1;" />
      <stop
         id="stop3799-7"
         offset="1"
         style="stop-color:#3097bd;stop-opacity:1;" />
    </linearGradient>
    <linearGradient
       id="linearGradient3698-8">
      <stop
         style="stop-color:#96d0e1;stop-opacity:1"
         offset="0"
         id="stop3700-0" />
      <stop
         id="stop3706-1"
         offset="0.67819428"
         style="stop-color:#89b7e1;stop-opacity:1" />
      <stop
         style="stop-color:#699dd3;stop-opacity:1"
         offset="1"
         id="stop3702-2" />
    </linearGradient>
    <linearGradient
       id="linearGradient3708-6">
      <stop
         style="stop-color:#658db6;stop-opacity:1"
         offset="0"
         id="stop3710-7" />
      <stop
         id="stop3716-7"
         offset="0.76777935"
         style="stop-color:#527fab;stop-opacity:1;" />
      <stop
         style="stop-color:#4071a0;stop-opacity:1"
         offset="1"
         id="stop3712-7" />
    </linearGradient>
    <linearGradient
       id="linearGradient3750-5">
      <stop
         id="stop3752-8"
         offset="0"
         style="stop-color:#d0e2f1;stop-opacity:1" />
      <stop
         style="stop-color:#cadef0;stop-opacity:1"
         offset="0.85580856"
         id="stop3756-3" />
      <stop
         id="stop3754-0"
         offset="1"
         style="stop-color:#95bee3;stop-opacity:1" />
    </linearGradient>
    <linearGradient
       id="linearGradient3803-4">
      <stop
         style="stop-color:#d7def0;stop-opacity:1;"
         offset="0"
         id="stop3805-0" />
      <stop
         id="stop3811-9"
         offset="0.5"
         style="stop-color:#ffffff;stop-opacity:1" />
      <stop
         style="stop-color:#d5def0;stop-opacity:1"
         offset="1"
         id="stop3807-7" />
    </linearGradient>
    <linearGradient
       gradientTransform="translate(2.2570801e-7,-3.4765625e-5)"
       gradientUnits="userSpaceOnUse"
       y2="1004.8474"
       x2="23.204165"
       y1="1053.158"
       x1="23.204165"
       id="linearGradient3801"
       xlink:href="#linearGradient1210"
       inkscape:collect="always" />
    <linearGradient
       gradientUnits="userSpaceOnUse"
       y2="1024.0002"
       x2="28.641211"
       y1="1024.0002"
       x1="26.192217"
       id="linearGradient3859"
       xlink:href="#linearGradient3795-1"
       inkscape:collect="always" />
    <linearGradient
       y2="1024.0002"
       x2="28.641211"
       y1="1024.0002"
       x1="26.192217"
       gradientUnits="userSpaceOnUse"
       id="linearGradient3867"
       xlink:href="#linearGradient3795-1"
       inkscape:collect="always" />
    <linearGradient
       y2="1024.0002"
       x2="28.641211"
       y1="1024.0002"
       x1="26.192217"
       gradientUnits="userSpaceOnUse"
       id="linearGradient3869"
       xlink:href="#linearGradient3795-1"
       inkscape:collect="always" />
    <linearGradient
       y2="1024.0002"
       x2="28.641211"
       y1="1024.0002"
       x1="26.192217"
       gradientUnits="userSpaceOnUse"
       id="linearGradient3871"
       xlink:href="#linearGradient3795-1"
       inkscape:collect="always" />
    <linearGradient
       y2="1015.5485"
       x2="22.811094"
       y1="1027.8575"
       x1="29.718235"
       gradientUnits="userSpaceOnUse"
       id="linearGradient3877"
       xlink:href="#linearGradient3795-1"
       inkscape:collect="always" />
    <linearGradient
       y2="1030.9086"
       x2="31.448042"
       y1="1006.2238"
       x1="17.196316"
       gradientUnits="userSpaceOnUse"
       id="linearGradient3879"
       xlink:href="#linearGradient3795-1"
       inkscape:collect="always" />
    <linearGradient
       gradientUnits="userSpaceOnUse"
       y2="24.798252"
       x2="42.475323"
       y1="34.43922"
       x1="21.973417"
       id="linearGradient3895"
       xlink:href="#linearGradient3795-1"
       inkscape:collect="always" />
  </defs>
  <sodipodi:namedview
     id="base"
     pagecolor="#ffffff"
     bordercolor="#666666"
     borderopacity="1.0"
     inkscape:pageopacity="0.0"
     inkscape:pageshadow="2"
     inkscape:zoom="2.8284273"
     inkscape:cx="6.8492715"
     inkscape:cy="16.574561"
     inkscape:document-units="px"
     inkscape:current-layer="layer1"
     showgrid="false"
     inkscape:window-width="1366"
     inkscape:window-height="712"
     inkscape:window-x="0"
     inkscape:window-y="0"
     inkscape:window-maximized="1"
     showguides="false" />
  <metadata
     id="metadata7">
    <rdf:RDF>
      <cc:Work
         rdf:about="">
        <dc:format>image/svg+xml</dc:format>
        <dc:type
           rdf:resource="http://purl.org/dc/dcmitype/StillImage" />
        <dc:title />
      </cc:Work>
    </rdf:RDF>
  </metadata>
  <g
     inkscape:label="Capa 1"
     inkscape:groupmode="layer"
     id="layer1"
     transform="translate(0,-1004.3622)">
    <rect
       style="fill:url(#linearGradient3801);fill-opacity:1;stroke:none"
       id="rect2991"
       width="48"
       height="48"
       x="0"
       y="1004.3622"
       ry="1.9445436" />
    <path
       inkscape:connector-curvature="0"
       style="fill:#ffffff;stroke:none"
       d="m 24,1013.956 c -7.95361,0 -14.40625,6.4527 -14.40625,14.4063 0,7.9536 6.45264,14.4062 14.40625,14.4062 7.95361,0 14.40625,-6.4526 14.40625,-14.4062 C 38.40625,1020.4087 31.95361,1013.956 24,1013.956 z m 0,0.9351 c 7.437173,0 13.471159,6.034 13.471159,13.4712 0,7.4372 -6.033986,13.4711 -13.471159,13.4711 -7.437173,0 -13.471159,-6.0339 -13.471159,-13.4711 C 10.528841,1020.9251 16.562827,1014.8911 24,1014.8911 Z"
       id="path3012-6" />
    <path
       style="fill:#ffffff;fill-opacity:1;stroke:none"
       d="m 24.013621,1015.5049 c -1.094436,0 -2.145489,0.1513 -3.159896,0.4086 l -1.906834,2.1519 2.778529,2.2883 -0.871695,0.9534 -1.68891,-0.2997 0.217924,-1.0351 -0.57205,0 -0.272404,0.7355 0.190682,0.5993 -1.253061,-0.109 -0.681012,0.899 0.463088,0.3541 0.898936,0.2724 0.844454,0.9534 0.299646,-0.9534 -0.190684,-0.1907 0,-0.9534 1.988556,0.3269 1.607189,1.9069 -2.26096,1.2802 0,0.7082 -0.381368,-0.054 -0.381367,0.3541 0.08172,0.5176 -0.898936,0.7627 0.245163,0.8444 -0.435847,0 -0.381367,-0.572 -1.416504,0 -0.517569,0.9535 0.517569,0.5174 0.245164,0 0.517569,-0.3268 0.326887,0.1906 -0.136204,0.7083 0.51757,0.054 0.136202,0.7899 0.898936,0 0.898935,-0.3813 0.626532,0.2451 1.198581,0.027 0.08172,0.79 0.953417,0 0.108961,0.8989 0.681013,0 1.68891,1.1441 -0.490329,0.5993 -0.136203,1.1441 -3.895388,4.1677 c 0.140369,0.2387 0.19235,0.5086 0.136203,0.8173 l -0.517571,0.5176 0.272406,0.3269 c 0.973236,0.2355 1.978065,0.3813 3.023693,0.3813 3.626918,0 6.896986,-1.507 9.234523,-3.9226 l -1.035138,-2.8057 0.354127,-0.4632 0,-0.7627 -0.926177,-1.0624 0.381367,-0.2724 -0.898936,-0.572 -1.77063,-0.054 -1.03514,-0.899 -0.05448,-1.9886 2.288201,-1.9885 1.280302,-0.109 0.326886,0.3814 -0.05448,0.2996 1.007899,0.3269 0.517569,-0.4358 0.381367,0.3269 1.389265,0.054 0.272404,-0.2724 0,-0.7628 -0.572049,0.7628 -0.762735,-1.0079 0.136203,1.0079 -0.735494,-0.5176 -0.108961,-0.7355 -0.871696,-1.0079 -0.136202,0.1635 0.681012,0.9534 -0.463088,0.6265 -0.163442,-0.7355 -0.789975,-0.5993 -0.435847,0.4087 -0.245165,-0.1363 -1.470987,1.3621 -0.517569,-1.4438 1.035139,0.081 0.163443,-0.463 -0.381368,-0.3815 0.653772,-0.5175 0.381367,-0.054 0.708252,-0.6538 -0.190682,-0.4903 0.381367,-0.1908 0.245164,0.3815 1.307543,-0.054 0.05448,-0.3813 1.389265,-0.5176 -0.245164,-0.3269 -0.898936,0.3269 -0.245165,-0.5721 0.626532,-0.5176 -0.381367,-0.3813 -0.817214,1.0896 0.299645,0.2451 -0.05448,0.6539 -0.844455,0.2452 -0.190683,-0.5176 -0.871696,0.1089 0.05448,-0.7355 1.443746,-1.9886 0.572049,-0.1361 c -1.31042,-1.4033 -2.945433,-2.5076 -4.767085,-3.2144 l -0.626529,0.5448 -0.163444,1.6072 -1.144099,1.7706 -1.825113,0.5721 -0.463089,1.0895 -0.817214,-0.054 -0.953416,-1.471 -0.381367,-1.9885 -0.789974,-0.5721 -0.817215,0.2724 -0.435847,-0.5993 1.389263,-1.7161 2.533366,-0.3269 C 24.103732,1015.5044 24.059827,1015.5049 24.013621,1015.5049 z m -3.023694,25.3337 c -0.369295,-0.09 -0.733544,-0.1792 -1.089619,-0.2998 C 20.256383,1040.6594 20.620632,1040.7492 20.989927,1040.8386 z m -1.089619,-0.2998 -0.136203,-0.1634 0,-1.8523 0.626532,-3.6502 -0.844456,-0.3814 -0.871695,-2.2337 0.381368,-0.5721 0,-0.6537 -0.898936,0 -0.381367,-0.7628 -0.517569,0.054 -1.797873,-1.0081 -0.57205,-0.7082 -0.681012,0 -1.934074,-2.5607 0.08172,-1.253 -0.463089,-0.681 c -0.468183,1.3334 -0.735494,2.7562 -0.735494,4.2495 C 11.156113,1034.021 14.822013,1038.8204 19.900308,1040.5388 z m -8.008701,-16.4259 c 0.176858,-0.5038 0.390965,-0.9983 0.626531,-1.471 C 12.282285,1023.115 12.068618,1023.6088 11.891607,1024.1129 z m 0.626531,-1.471 c 0.108437,-0.2176 0.206692,-0.4162 0.326885,-0.6265 C 12.728454,1022.2201 12.623588,1022.4303 12.518138,1022.6419 z m 13.974367,-6.8918 c 0.370932,0.074 0.730811,0.1673 1.089619,0.2724 C 27.223999,1015.9187 26.862784,1015.8228 26.492505,1015.7501 z m 1.089619,0.2724 c 0.342249,0.1 0.6779,0.2279 1.007898,0.3541 C 28.258148,1016.2493 27.926579,1016.1223 27.582124,1016.0225 z m -6.810121,-0.081 c -0.230114,0.06 -0.456108,0.1183 -0.681012,0.1906 C 20.318124,1016.0583 20.539544,1016.0014 20.772003,1015.9407 z m -1.443745,0.463 c -0.250345,0.098 -0.493087,0.2138 -0.735493,0.327 C 18.832531,1016.6189 19.080713,1016.501 19.328258,1016.4038 z m -0.735493,0.327 c -0.410584,0.1916 -0.812979,0.3942 -1.198581,0.6265 C 17.781065,1017.124 18.180693,1016.9229 18.592765,1016.7307 z m -3.268859,2.1791 c -0.345485,0.3178 -0.671656,0.6544 -0.980656,1.0079 C 14.654033,1019.5627 14.976271,1019.2289 15.323906,1018.91 z m 13.129914,1.5256 0.57205,0.5175 -1.171341,0.8173 -0.681012,-1.008 L 28.45382,1020.4354 z m 1.525468,1.8523 0.272403,0.6265 0.54481,0.4359 -0.05448,0.5448 -0.898936,0 0.272404,-0.5448 -0.572049,-0.6265 L 29.979288,1022.2878 z m -0.762734,0.7082 0.463088,0.5721 -0.408607,0.4358 -0.435848,-0.3813 L 29.216554,1022.996 z m 5.992906,1.689 -0.572051,0.7355 0.108963,0.4358 0.490328,-0.3814 0.408608,0 0.898936,0.054 c -0.04366,-0.1935 -0.08393,-0.3818 -0.136203,-0.572 l -0.02724,-0.027 -0.05448,-0.1089 -0.435848,-0.081 0.02724,0.327 -0.381367,0.054 L 35.20946,1024.685 z m -2.724048,1.2803 0.163442,0.5174 -0.408606,-0.1361 L 32.485412,1025.9652 z m 4.303996,0.9533 c 0.02369,0.2 0.04037,0.3967 0.05448,0.5993 C 36.830702,1027.3165 36.811763,1027.1174 36.789408,1026.9186 z m -1.116859,0.5993 -0.05448,0.5177 0.926176,1.9068 0.190683,0.1362 c 0.04601,-0.3424 0.09047,-0.6848 0.108963,-1.0351 L 36.053916,1027.5187 35.672549,1027.5179 z m -16.180848,0.327 0.517569,0.7081 -0.517569,-0.2723 L 19.491701,1027.8448 z m -0.871694,0.6809 1.007896,0.2725 -0.136202,0.4086 -0.980658,-0.218 L 18.620007,1028.5258 z m 1.443744,0.4631 1.797872,0.7628 -0.299645,0.1362 -1.607188,-0.572 L 20.063751,1028.9889 Z"
       id="path1335"
       inkscape:connector-curvature="0" />
    <path
       style="fill:#ffffff;stroke:none;fill-opacity:1;opacity:0.15"
       d="M 0 0 L 0 48 L 16.78125 48 L 29.625 0 L 0 0 z "
       id="rect3790"
       transform="translate(0,1004.3622)" />
  </g>
</svg>
