<?xml version="1.0" encoding="UTF-8" standalone="no"?>
<!-- Created with Inkscape (http://www.inkscape.org/) -->

<svg
   xmlns:dc="http://purl.org/dc/elements/1.1/"
   xmlns:cc="http://creativecommons.org/ns#"
   xmlns:rdf="http://www.w3.org/1999/02/22-rdf-syntax-ns#"
   xmlns:svg="http://www.w3.org/2000/svg"
   xmlns="http://www.w3.org/2000/svg"
   xmlns:xlink="http://www.w3.org/1999/xlink"
   xmlns:sodipodi="http://sodipodi.sourceforge.net/DTD/sodipodi-0.dtd"
   xmlns:inkscape="http://www.inkscape.org/namespaces/inkscape"
   width="48"
   height="48"
   id="svg2"
   version="1.1"
   inkscape:version="0.48+devel r11556"
   sodipodi:docname="firefox.svg">
  <defs
     id="defs4">
    <linearGradient
       id="linearGradient840">
      <stop
         style="stop-color:#dd5d13;stop-opacity:1"
         offset="0"
         id="stop842" />
      <stop
         style="stop-color:#f3974c;stop-opacity:1"
         offset="1"
         id="stop844" />
    </linearGradient>
    <linearGradient
       id="linearGradient3795">
      <stop
         style="stop-color:#270948;stop-opacity:1"
         offset="0"
         id="stop3797" />
      <stop
         style="stop-color:#3d1990;stop-opacity:1"
         offset="1"
         id="stop3799" />
    </linearGradient>
    <linearGradient
       inkscape:collect="always"
       id="linearGradient3914">
      <stop
         style="stop-color:#59b3e1;stop-opacity:1;"
         offset="0"
         id="stop3916" />
      <stop
         style="stop-color:#59b3e1;stop-opacity:0;"
         offset="1"
         id="stop3918" />
    </linearGradient>
    <linearGradient
       id="linearGradient3698">
      <stop
         id="stop3700"
         offset="0"
         style="stop-color:#96d0e1;stop-opacity:1" />
      <stop
         style="stop-color:#89b7e1;stop-opacity:1"
         offset="0.67819428"
         id="stop3706" />
      <stop
         id="stop3702"
         offset="1"
         style="stop-color:#699dd3;stop-opacity:1" />
    </linearGradient>
    <linearGradient
       id="linearGradient3708">
      <stop
         id="stop3710"
         offset="0"
         style="stop-color:#658db6;stop-opacity:1" />
      <stop
         style="stop-color:#527fab;stop-opacity:1;"
         offset="0.76777935"
         id="stop3716" />
      <stop
         id="stop3712"
         offset="1"
         style="stop-color:#4071a0;stop-opacity:1" />
    </linearGradient>
    <linearGradient
       id="linearGradient3750">
      <stop
         style="stop-color:#d0e2f1;stop-opacity:1"
         offset="0"
         id="stop3752" />
      <stop
         id="stop3756"
         offset="0.85580856"
         style="stop-color:#cadef0;stop-opacity:1" />
      <stop
         style="stop-color:#95bee3;stop-opacity:1"
         offset="1"
         id="stop3754" />
    </linearGradient>
    <linearGradient
       id="linearGradient3803">
      <stop
         id="stop3805"
         offset="0"
         style="stop-color:#d7def0;stop-opacity:1;" />
      <stop
         style="stop-color:#ffffff;stop-opacity:1"
         offset="0.5"
         id="stop3811" />
      <stop
         id="stop3807"
         offset="1"
         style="stop-color:#d5def0;stop-opacity:1" />
    </linearGradient>
    <linearGradient
       inkscape:collect="always"
       xlink:href="#linearGradient3914"
       id="linearGradient3920"
       x1="6.8000002"
       y1="25.0625"
       x2="45.325001"
       y2="25.0625"
       gradientUnits="userSpaceOnUse" />
    <linearGradient
       y2="1049.5842"
       x2="24.113745"
       y1="1007.2183"
       x1="24.113745"
       gradientTransform="matrix(0.96799712,0,0,1.0252613,0.76812038,-2082.7022)"
       gradientUnits="userSpaceOnUse"
       id="linearGradient856"
       xlink:href="#linearGradient923"
       inkscape:collect="always" />
    <linearGradient
       id="linearGradient923">
      <stop
         id="stop925"
         offset="0"
         style="stop-color:#ad7f13;stop-opacity:1" />
      <stop
         id="stop927"
         offset="1"
         style="stop-color:#df8f0f;stop-opacity:1" />
    </linearGradient>
    <linearGradient
       inkscape:collect="always"
       xlink:href="#linearGradient1258"
       id="linearGradient1256"
       x1="64.952202"
       y1="1023.3066"
       x2="64.952202"
       y2="1047.6541"
       gradientUnits="userSpaceOnUse"
       gradientTransform="matrix(0.60559867,0,0,0.60559867,-16.554618,407.43676)" />
    <linearGradient
       id="linearGradient1258">
      <stop
         style="stop-color:#5d5d5d;stop-opacity:1"
         offset="0"
         id="stop1260" />
      <stop
         style="stop-color:#2d2d2d;stop-opacity:1"
         offset="1"
         id="stop1262" />
    </linearGradient>
    <radialGradient
       inkscape:collect="always"
       xlink:href="#linearGradient3755"
       id="radialGradient3783"
       cx="23.936596"
       cy="1028.3622"
       fx="23.936596"
       fy="1028.3622"
       r="22.13007"
       gradientTransform="matrix(1.0844973,0,0,1.0844973,-1.9591717,-86.893864)"
       gradientUnits="userSpaceOnUse" />
    <linearGradient
       id="linearGradient3755">
      <stop
         style="stop-color:#8ebedf;stop-opacity:1;"
         offset="0"
         id="stop3757" />
      <stop
         style="stop-color:#5aade5;stop-opacity:1;"
         offset="1"
         id="stop3759" />
    </linearGradient>
    <linearGradient
       inkscape:collect="always"
       xlink:href="#linearGradient840"
       id="linearGradient863"
       x1="0"
       y1="1028.3622"
       x2="48"
       y2="1028.3622"
       gradientUnits="userSpaceOnUse"
       gradientTransform="translate(-1052.3622,-1004.3622)" />
  </defs>
  <sodipodi:namedview
     id="base"
     pagecolor="#ffffff"
     bordercolor="#666666"
     borderopacity="1.0"
     inkscape:pageopacity="0.0"
     inkscape:pageshadow="2"
     inkscape:zoom="4.5000002"
     inkscape:cx="12.841243"
     inkscape:cy="40.830163"
     inkscape:document-units="px"
     inkscape:current-layer="layer1"
     showgrid="false"
     inkscape:window-width="1366"
     inkscape:window-height="748"
     inkscape:window-x="0"
     inkscape:window-y="0"
     inkscape:window-maximized="1" />
  <metadata
     id="metadata7">
    <rdf:RDF>
      <cc:Work
         rdf:about="">
        <dc:format>image/svg+xml</dc:format>
        <dc:type
           rdf:resource="http://purl.org/dc/dcmitype/StillImage" />
        <dc:title />
      </cc:Work>
    </rdf:RDF>
  </metadata>
  <g
     inkscape:label="Capa 1"
     inkscape:groupmode="layer"
     id="layer1"
     transform="translate(0,-1004.3622)">
    <rect
       style="fill:url(#linearGradient863);fill-opacity:1;stroke:none"
       id="rect2985"
       width="48"
       height="48"
       x="-1052.3622"
       y="6.4436473e-14"
       ry="0"
       transform="matrix(0,-1,1,0,0,0)" />
    <path
       style="fill:#ffffff;fill-opacity:1;fill-rule:nonzero;stroke:none;display:inline"
       d="m 27.356343,1014.6133 c 0.756866,0.1512 1.407667,0.3247 1.926518,0.5628 0.800607,0.3533 1.312832,0.8227 1.55853,1.3637 -0.743271,-0.137 -1.399966,-0.1007 -1.991456,0.1299 4.240724,1.6731 6.248649,3.6738 6.017661,5.9744 -0.310194,-0.4831 -0.729013,-0.794 -1.255483,-0.9525 0.649352,2.5242 0.721288,4.5896 0.194817,6.2341 -0.360437,-1.0962 -0.699721,-1.739 -0.995729,-1.9698 0.411798,3.3827 -0.145214,5.8816 -1.666762,7.5114 0.288324,-0.9951 0.411885,-1.8039 0.34634,-2.4461 -1.788001,2.676 -3.82465,4.0475 -6.104246,4.1344 -0.901095,-0.011 -1.753947,-0.1296 -2.55426,-0.3897 -1.173901,-0.3934 -2.235548,-1.0805 -3.182001,-2.0347 1.476068,0.1215 2.818868,-0.1361 4.004559,-0.736 l 1.948164,-1.2554 c 0.252334,-0.094 0.483275,-0.087 0.714327,0.022 0.475702,-0.065 0.656213,-0.3323 0.497864,-0.7576 -0.230527,-0.3173 -0.591692,-0.592 -1.039021,-0.8443 -0.973731,-0.5051 -1.992089,-0.4326 -3.052123,0.2382 -1.009822,0.5701 -1.977443,0.5408 -2.922245,-0.065 -0.620422,-0.4249 -1.219632,-0.9963 -1.796641,-1.7101 l -0.216462,-0.3247 0,-0.022 c 0.02866,-0.7066 0.303356,-1.0822 0.865851,-1.1689 0.63464,0.057 1.364352,0.1948 2.186271,0.4329 0.137103,-0.7861 -0.04365,-1.6022 -0.541156,-2.446 l 0,-0.022 c 0.771677,-0.7141 1.472326,-1.2269 2.056395,-1.5586 0.259689,-0.1371 0.404066,-0.3465 0.454571,-0.6278 0.0073,-0.011 0.01423,-0.022 0.02164,-0.022 0.0071,-0.012 0.03594,-0.015 0.04329,-0.022 0.151288,-0.2236 0.08625,-0.4042 -0.17317,-0.5627 -0.540885,0.029 -1.082551,-0.022 -1.62347,-0.13 l 0,0.022 c -0.223664,-0.064 -0.49792,-0.2526 -0.844204,-0.5844 l -0.887496,-0.8658 -0.281402,-0.2166 -0.04329,-0.043 c 0.02893,-0.014 0.04333,-0.052 0.06493,-0.065 0.122586,-0.6564 0.339385,-1.2051 0.627742,-1.6884 l 0.06493,-0.065 c 0.288652,-0.4759 0.830027,-0.9888 1.645117,-1.5368 -1.514686,0.1873 -2.872502,0.8662 -4.091144,2.0347 -1.009791,-0.368 -2.215665,-0.2883 -3.59328,0.238 l -0.151524,0.13 c -0.02115,0.011 -0.04396,0.013 -0.06493,0.022 l 0.216463,-0.1514 c -0.856637,-0.4032 -1.430517,-1.5566 -1.710057,-3.3985 -1.103478,1.0817 -1.637847,3.0319 -1.601823,5.8228 -0.07565,0.1052 -0.193557,0.2621 -0.303048,0.4329 -0.03539,0.027 -0.07352,0.058 -0.108225,0.086 -0.0077,0 0,0.014 0,0.022 -0.0077,0 -0.02164,0 -0.02164,0 -0.0079,0.011 -0.02165,0.011 -0.02165,0.022 -0.168495,0.2606 -0.379623,0.6614 -0.671034,1.1907 -0.460103,0.8206 -0.604788,1.4953 -0.627741,2.0779 0.0087,-0.015 0.01295,-0.029 0.02164,-0.043 0.0017,0.1344 0.0092,0.248 0.04329,0.3681 l 0.887496,-0.7145 c -0.324445,0.815 -0.541281,1.6814 -0.649387,2.5976 -0.331769,3.0073 0.520493,5.9834 2.5542592,8.9183 3.050714,3.9453 6.878524,6.0399 11.494167,6.3207 4.616167,0.2742 8.566123,-1.4229 11.81886,-5.0869 2.199339,-2.6973 3.542792,-5.5146 4.047853,-8.4637 0.505254,-2.0266 0.569663,-3.767 0.173169,-5.2384 -0.137068,1.0529 -0.303317,1.5875 -0.454571,1.6235 -0.04314,-1.7525 -0.296472,-3.3199 -0.779266,-4.6972 0,-0.011 -0.01514,-0.029 -0.02164,-0.043 -0.375806,-1.0748 -0.87344,-2.0278 -1.515238,-2.879 0.29737,1.1685 0.446034,2.0857 0.454571,2.7492 -0.629705,-2.2106 -2.376969,-4.0368 -4.913701,-4.8055 -1.255095,-0.3749 -2.757272,-0.5773 -4.480778,-0.6279 z m 9.242956,5.7579 c 0.03945,0.071 0.07143,0.1467 0.108226,0.2164 -0.0019,0.013 0.0022,0.031 0,0.043 -0.0077,-0.015 -0.02164,-0.029 -0.02164,-0.043 -0.03236,-0.073 -0.05213,-0.1449 -0.08658,-0.2164 z"
       id="path28"
       inkscape:connector-curvature="0" />
    <path
       style="opacity:0.15;fill:#ffffff;fill-opacity:1;stroke:none"
       d="m 0,1004.3622 0,48 16.78125,0 12.84375,-48 -29.625,0 z"
       id="rect3790"
       inkscape:connector-curvature="0" />
  </g>
</svg>
