<?xml version="1.0" encoding="UTF-8" standalone="no"?>
<!-- Created with Inkscape (http://www.inkscape.org/) -->

<svg
   xmlns:dc="http://purl.org/dc/elements/1.1/"
   xmlns:cc="http://creativecommons.org/ns#"
   xmlns:rdf="http://www.w3.org/1999/02/22-rdf-syntax-ns#"
   xmlns:svg="http://www.w3.org/2000/svg"
   xmlns="http://www.w3.org/2000/svg"
   xmlns:xlink="http://www.w3.org/1999/xlink"
   xmlns:sodipodi="http://sodipodi.sourceforge.net/DTD/sodipodi-0.dtd"
   xmlns:inkscape="http://www.inkscape.org/namespaces/inkscape"
   width="48"
   height="48"
   id="svg2"
   version="1.1"
   inkscape:version="0.48+devel r11717"
   sodipodi:docname="gnome-documents.svg">
  <defs
     id="defs4">
    <linearGradient
       id="linearGradient3795">
      <stop
         style="stop-color:#68b8d8;stop-opacity:1;"
         offset="0"
         id="stop3797" />
      <stop
         style="stop-color:#3097bd;stop-opacity:1;"
         offset="1"
         id="stop3799" />
    </linearGradient>
    <linearGradient
       id="linearGradient3698">
      <stop
         id="stop3700"
         offset="0"
         style="stop-color:#96d0e1;stop-opacity:1" />
      <stop
         style="stop-color:#89b7e1;stop-opacity:1"
         offset="0.67819428"
         id="stop3706" />
      <stop
         id="stop3702"
         offset="1"
         style="stop-color:#699dd3;stop-opacity:1" />
    </linearGradient>
    <linearGradient
       id="linearGradient3708">
      <stop
         id="stop3710"
         offset="0"
         style="stop-color:#658db6;stop-opacity:1" />
      <stop
         style="stop-color:#527fab;stop-opacity:1;"
         offset="0.76777935"
         id="stop3716" />
      <stop
         id="stop3712"
         offset="1"
         style="stop-color:#4071a0;stop-opacity:1" />
    </linearGradient>
    <linearGradient
       id="linearGradient3750">
      <stop
         style="stop-color:#d0e2f1;stop-opacity:1"
         offset="0"
         id="stop3752" />
      <stop
         id="stop3756"
         offset="0.85580856"
         style="stop-color:#cadef0;stop-opacity:1" />
      <stop
         style="stop-color:#95bee3;stop-opacity:1"
         offset="1"
         id="stop3754" />
    </linearGradient>
    <linearGradient
       id="linearGradient3803">
      <stop
         id="stop3805"
         offset="0"
         style="stop-color:#d7def0;stop-opacity:1;" />
      <stop
         style="stop-color:#ffffff;stop-opacity:1"
         offset="0.5"
         id="stop3811" />
      <stop
         id="stop3807"
         offset="1"
         style="stop-color:#d5def0;stop-opacity:1" />
    </linearGradient>
    <linearGradient
       inkscape:collect="always"
       xlink:href="#linearGradient842"
       id="linearGradient3801"
       x1="23.204165"
       y1="1053.158"
       x2="23.204165"
       y2="1004.8474"
       gradientUnits="userSpaceOnUse"
       gradientTransform="translate(0,-2056.7244)" />
    <linearGradient
       inkscape:collect="always"
       xlink:href="#linearGradient3795"
       id="linearGradient3859"
       x1="26.192217"
       y1="1024.0002"
       x2="28.641211"
       y2="1024.0002"
       gradientUnits="userSpaceOnUse" />
    <linearGradient
       inkscape:collect="always"
       xlink:href="#linearGradient3795"
       id="linearGradient3867"
       gradientUnits="userSpaceOnUse"
       x1="26.192217"
       y1="1024.0002"
       x2="28.641211"
       y2="1024.0002" />
    <linearGradient
       inkscape:collect="always"
       xlink:href="#linearGradient3795"
       id="linearGradient3869"
       gradientUnits="userSpaceOnUse"
       x1="26.192217"
       y1="1024.0002"
       x2="28.641211"
       y2="1024.0002" />
    <linearGradient
       inkscape:collect="always"
       xlink:href="#linearGradient3795"
       id="linearGradient3871"
       gradientUnits="userSpaceOnUse"
       x1="26.192217"
       y1="1024.0002"
       x2="28.641211"
       y2="1024.0002" />
    <linearGradient
       inkscape:collect="always"
       xlink:href="#linearGradient3795"
       id="linearGradient3877"
       gradientUnits="userSpaceOnUse"
       x1="29.718235"
       y1="1027.8575"
       x2="22.811094"
       y2="1015.5485" />
    <linearGradient
       inkscape:collect="always"
       xlink:href="#linearGradient3795"
       id="linearGradient3879"
       gradientUnits="userSpaceOnUse"
       x1="17.196316"
       y1="1006.2238"
       x2="31.448042"
       y2="1030.9086" />
    <linearGradient
       inkscape:collect="always"
       xlink:href="#linearGradient3795"
       id="linearGradient3895"
       x1="21.973417"
       y1="34.43922"
       x2="42.475323"
       y2="24.798252"
       gradientUnits="userSpaceOnUse" />
    <linearGradient
       id="linearGradient842">
      <stop
         id="stop844"
         offset="0"
         style="stop-color:#ffffff;stop-opacity:1" />
      <stop
         id="stop846"
         offset="1"
         style="stop-color:#e6e6e6;stop-opacity:1" />
    </linearGradient>
    <linearGradient
       id="linearGradient25443">
      <stop
         id="stop25445"
         offset="0"
         style="stop-color:#ffffff;stop-opacity:1" />
      <stop
         id="stop25447"
         offset="1"
         style="stop-color:#e6e6e6;stop-opacity:1" />
    </linearGradient>
    <linearGradient
       id="linearGradient25450">
      <stop
         id="stop25452"
         offset="0"
         style="stop-color:#ffffff;stop-opacity:1" />
      <stop
         id="stop25454"
         offset="1"
         style="stop-color:#e6e6e6;stop-opacity:1" />
    </linearGradient>
    <linearGradient
       inkscape:collect="always"
       xlink:href="#linearGradient842"
       id="linearGradient993"
       gradientUnits="userSpaceOnUse"
       gradientTransform="matrix(0.77243217,0,0,0.81812724,0.91599254,191.57657)"
       x1="24.113745"
       y1="1007.2183"
       x2="24.113745"
       y2="1049.5842" />
    <linearGradient
       inkscape:collect="always"
       xlink:href="#linearGradient842"
       id="linearGradient995"
       gradientUnits="userSpaceOnUse"
       gradientTransform="matrix(0.66378497,0,0,0.70305276,513.03032,153.98579)"
       x1="24.113745"
       y1="1007.2183"
       x2="24.113745"
       y2="1049.5842" />
  </defs>
  <sodipodi:namedview
     id="base"
     pagecolor="#ffffff"
     bordercolor="#666666"
     borderopacity="1.0"
     inkscape:pageopacity="0.0"
     inkscape:pageshadow="2"
     inkscape:zoom="5.6568545"
     inkscape:cx="0.87080095"
     inkscape:cy="23.575391"
     inkscape:document-units="px"
     inkscape:current-layer="layer1"
     showgrid="false"
     inkscape:window-width="1366"
     inkscape:window-height="746"
     inkscape:window-x="0"
     inkscape:window-y="0"
     inkscape:window-maximized="1">
    <inkscape:grid
       type="xygrid"
       id="grid3850" />
  </sodipodi:namedview>
  <metadata
     id="metadata7">
    <rdf:RDF>
      <cc:Work
         rdf:about="">
        <dc:format>image/svg+xml</dc:format>
        <dc:type
           rdf:resource="http://purl.org/dc/dcmitype/StillImage" />
        <dc:title></dc:title>
      </cc:Work>
    </rdf:RDF>
  </metadata>
  <g
     inkscape:label="Capa 1"
     inkscape:groupmode="layer"
     id="layer1"
     transform="translate(0,-1004.3622)">
    <rect
       style="fill:url(#linearGradient3801);fill-opacity:1.0;stroke:none"
       id="rect2991"
       width="48"
       height="48"
       x="0"
       y="-1052.3622"
       ry="1.9445436"
       transform="scale(1,-1)" />
    <g
       id="g943"
       transform="translate(-0.79163456,0)">
      <rect
         ry="0"
         y="1011.7213"
         x="6.8298597"
         height="1.0101522"
         width="35.92355"
         id="rect25267"
         style="fill:#4d4d4d;fill-opacity:1;stroke:none" />
      <rect
         style="fill:#4d4d4d;fill-opacity:1;stroke:none"
         id="rect25269"
         width="35.92355"
         height="1.0101522"
         x="6.8298597"
         y="1017.6812"
         ry="0" />
      <rect
         ry="0"
         y="1023.6411"
         x="6.8298597"
         height="1.0101522"
         width="35.92355"
         id="rect25271"
         style="fill:#4d4d4d;fill-opacity:1;stroke:none" />
      <rect
         style="fill:#4d4d4d;fill-opacity:1;stroke:none"
         id="rect25379"
         width="35.92355"
         height="1.0101522"
         x="6.8298597"
         y="1029.601"
         ry="0" />
      <rect
         ry="0"
         y="1035.5608"
         x="6.8298597"
         height="1.0101522"
         width="35.92355"
         id="rect25381"
         style="fill:#4d4d4d;fill-opacity:1;stroke:none" />
      <rect
         style="fill:#4d4d4d;fill-opacity:1;stroke:none"
         id="rect25383"
         width="35.92355"
         height="1.0101522"
         x="6.8298597"
         y="1041.5208"
         ry="0" />
    </g>
    <g
       id="g997"
       transform="translate(0.99041849,2.6647079)">
      <g
         id="g951"
         transform="matrix(0.72222363,-0.41697601,0.41697601,0.72222363,-425.28509,284.27246)">
        <rect
           ry="0"
           y="1015.1127"
           x="1.6589903"
           height="35.590645"
           width="35.590645"
           id="rect953"
           style="fill:url(#linearGradient993);fill-opacity:1;stroke:#7d7d7d;stroke-width:0.31798056;stroke-miterlimit:4;stroke-opacity:1;stroke-dasharray:none" />
        <g
           transform="translate(-0.49620022,-0.26750668)"
           id="g955">
          <rect
             style="fill:#c8c8c8;fill-opacity:1;stroke:none;display:inline"
             id="rect957"
             width="7.9607077"
             height="3.84375"
             x="18.118597"
             y="1019.2535" />
          <rect
             y="1019.2535"
             x="26.091137"
             height="3.84375"
             width="7.828125"
             id="rect959"
             style="fill:#c8c8c8;fill-opacity:1;stroke:none;display:inline" />
          <rect
             style="fill:#c8c8c8;fill-opacity:1;stroke:none;display:inline"
             id="rect961"
             width="4.109375"
             height="3.84375"
             x="5.9661388"
             y="1027.2534" />
          <rect
             style="fill:#c8c8c8;fill-opacity:1;stroke:none;display:inline"
             id="rect963"
             width="4.109375"
             height="3.84375"
             x="5.9661388"
             y="1043.2534" />
          <rect
             y="1039.2534"
             x="5.9661388"
             height="3.84375"
             width="4.109375"
             id="rect965"
             style="fill:#c8c8c8;fill-opacity:1;stroke:none;display:inline" />
          <rect
             style="fill:#c8c8c8;fill-opacity:1;stroke:none;display:inline"
             id="rect967"
             width="4.109375"
             height="3.84375"
             x="5.9661388"
             y="1035.2534" />
          <rect
             y="1031.2534"
             x="5.9661388"
             height="3.84375"
             width="4.109375"
             id="rect969"
             style="fill:#c8c8c8;fill-opacity:1;stroke:none;display:inline" />
          <path
             inkscape:connector-curvature="0"
             style="font-size:xx-small;font-style:normal;font-variant:normal;font-weight:normal;font-stretch:normal;text-indent:0;text-align:start;text-decoration:none;line-height:normal;letter-spacing:normal;word-spacing:normal;text-transform:none;direction:ltr;block-progression:tb;writing-mode:lr-tb;text-anchor:start;color:#000000;fill:#969696;fill-opacity:1;stroke:none;stroke-width:0.2;marker:none;visibility:visible;display:inline;overflow:visible;enable-background:accumulate;font-family:'A.C.M.E. Secret Agent';-inkscape-font-specification:'A.C.M.E. Secret Agent'"
             d="m 5.8567628,1019.066 0,0.125 0,28 0,0.094 0.09375,0 28.0000002,0 0.09375,0 0,-0.094 0,-28 0,-0.125 -0.09375,0 -28.0000002,0 L 5.8567628,1019.066 z m 0.1875,0.2187 3.9375,0 0,3.8125 -3.9375,0 L 6.0442628,1019.2847 z m 4.1250002,0 7.8125,0 0,3.8125 -7.8125,0 L 10.169263,1019.2847 z m 8,0 7.8125,0 0,3.8125 -7.8125,0 L 18.169263,1019.2847 z m 8,0 7.6875,0 0,3.8125 -7.6875,0 L 26.169263,1019.2847 z m -20.1250002,4 3.9375,0 0,3.8126 -3.9375,0 L 6.0442628,1023.2847 z m 4.1250002,0 7.8125,0 0,3.8126 -7.8125,0 L 10.169263,1023.2847 z m 8,0 7.8125,0 0,3.8126 -7.8125,0 L 18.169263,1023.2847 z m 8,0 7.6875,0 0,3.8126 -7.6875,0 L 26.169263,1023.2847 z m -20.1250002,4.0001 3.9375,0 0,3.8125 -3.9375,0 L 6.0442628,1027.2848 z m 4.1250002,0 7.8125,0 0,3.8125 -7.8125,0 L 10.169263,1027.2848 z m 8,0 7.8125,0 0,3.8125 -7.8125,0 L 18.169263,1027.2848 z m 8,0 7.6875,0 0,3.8125 -7.6875,0 L 26.169263,1027.2848 z m -20.1250002,4 3.9375,0 0,3.8125 -3.9375,0 L 6.0442628,1031.2848 z m 4.1250002,0 7.8125,0 0,3.8125 -7.8125,0 L 10.169263,1031.2848 z m 8,0 7.8125,0 0,3.8125 -7.8125,0 L 18.169263,1031.2848 z m 8,0 7.6875,0 0,3.8125 -7.6875,0 L 26.169263,1031.2848 z m -20.1250002,4 3.9375,0 0,3.8125 -3.9375,0 L 6.0442628,1035.2848 z m 4.1250002,0 7.8125,0 0,3.8125 -7.8125,0 L 10.169263,1035.2848 z m 8,0 7.8125,0 0,3.8125 -7.8125,0 L 18.169263,1035.2848 z m 8,0 7.6875,0 0,3.8125 -7.6875,0 L 26.169263,1035.2848 z m -20.1250002,4 3.9375,0 0,3.8125 -3.9375,0 L 6.0442628,1039.2848 z m 4.1250002,0 7.8125,0 0,3.8125 -7.8125,0 L 10.169263,1039.2848 z m 8,0 7.8125,0 0,3.8125 -7.8125,0 L 18.169263,1039.2848 z m 8,0 7.6875,0 0,3.8125 -7.6875,0 L 26.169263,1039.2848 z m -20.1250002,4 3.9375,0 0,3.7812 -3.9375,0 L 6.0442628,1043.2848 z m 4.1250002,0 7.8125,0 0,3.7812 -7.8125,0 L 10.169263,1043.2848 z m 8,0 7.8125,0 0,3.7812 -7.8125,0 L 18.169263,1043.2848 z m 8,0 7.6875,0 0,3.7812 -7.6875,0 L 26.169263,1043.2848 Z"
             id="path971" />
          <path
             inkscape:connector-curvature="0"
             style="fill:none;stroke:#000000;stroke-width:0.2;stroke-linecap:butt;stroke-linejoin:miter;stroke-miterlimit:4;stroke-opacity:1;stroke-dasharray:none;display:inline"
             d="m 18.069697,1022.9988 0,4.2205"
             id="path973" />
          <rect
             y="1019.179"
             x="10.091542"
             height="4.0034757"
             width="7.9737134"
             id="rect975"
             style="fill:#a4c6fa;fill-opacity:1;stroke:#79afff;stroke-width:0.20600247;stroke-miterlimit:4;stroke-opacity:1;stroke-dasharray:none;display:inline" />
          <path
             inkscape:connector-curvature="0"
             style="font-size:xx-small;font-style:normal;font-variant:normal;font-weight:normal;font-stretch:normal;text-indent:0;text-align:start;text-decoration:none;line-height:normal;letter-spacing:normal;word-spacing:normal;text-transform:none;direction:ltr;block-progression:tb;writing-mode:lr-tb;text-anchor:start;color:#000000;fill:#000000;fill-opacity:1;stroke:none;stroke-width:0.2;marker:none;visibility:visible;display:inline;overflow:visible;enable-background:accumulate;font-family:'A.C.M.E. Secret Agent';-inkscape-font-specification:'A.C.M.E. Secret Agent'"
             d="m 10.044263,1027.0868 0,0.1875 8.128791,0.031 0,-0.1876 L 10.044263,1027.0867 Z"
             id="path977" />
          <rect
             style="fill:#a4c6fa;fill-opacity:1;stroke:#79afff;stroke-width:0.20784581;stroke-miterlimit:4;stroke-opacity:1;stroke-dasharray:none;display:inline"
             id="rect979"
             width="4.1000838"
             height="3.9725418"
             x="5.9607334"
             y="1023.2022" />
          <rect
             style="fill:#000000;fill-opacity:1;stroke:none;display:inline"
             id="rect981"
             width="0.75130099"
             height="0.75130099"
             x="18.053123"
             y="1027.1862" />
        </g>
      </g>
      <g
         id="g983"
         transform="matrix(0.81321445,0,0,0.81321445,0.43808003,186.36412)">
        <rect
           transform="matrix(0.8660254,0.5,-0.5,0.8660254,0,0)"
           ry="0"
           y="861.68652"
           x="513.66876"
           height="30.58461"
           width="30.58461"
           id="rect985"
           style="fill:url(#linearGradient995);fill-opacity:1;stroke:#7d7d7d;stroke-width:0.27325469;stroke-miterlimit:4;stroke-opacity:1;stroke-dasharray:none" />
        <rect
           transform="matrix(0.8660254,0.5,-0.5,0.8660254,0,0)"
           ry="0"
           y="874.4386"
           x="531.88788"
           height="12.626906"
           width="5.121789"
           id="rect987"
           style="fill:#2ca02c;fill-opacity:1;stroke:none" />
        <rect
           transform="matrix(0.8660254,0.5,-0.5,0.8660254,0,0)"
           ry="0"
           y="879.48938"
           x="520.34216"
           height="7.5761437"
           width="5.121789"
           id="rect989"
           style="fill:#00aad4;fill-opacity:1;stroke:none" />
        <rect
           transform="matrix(0.8660254,0.5,-0.5,0.8660254,0,0)"
           style="fill:#ff6600;fill-opacity:1;stroke:none"
           id="rect991"
           width="5.121789"
           height="16.28871"
           x="526.11505"
           y="870.77686"
           ry="0" />
      </g>
    </g>
    <path
       style="fill:#333333;fill-opacity:1;stroke:none"
       d="m 6.0103954,1003.876 0,0.875 0,13 3,3 2.9687496,-2.9688 0,-7.8125 -0.9375,0 0,7.3125 -2.0479896,2.1875 -2.00065,-2.2187 0,-12.3125 4.0593596,0 0,0.4374 0.94769,0 L 12.000055,1003.876 Z"
       id="rect1001"
       inkscape:connector-curvature="0"
       sodipodi:nodetypes="cccccccccccccccc" />
    <path
       style="fill:#ffffff;stroke:none;fill-opacity:1;opacity:0.15"
       d="M 0 0 L 0 48 L 16.78125 48 L 29.625 0 L 0 0 z "
       transform="translate(0,1004.3622)"
       id="rect3790" />
  </g>
</svg>
