<?xml version="1.0" encoding="UTF-8" standalone="no"?>
<!-- Created with Inkscape (http://www.inkscape.org/) -->

<svg
   xmlns:dc="http://purl.org/dc/elements/1.1/"
   xmlns:cc="http://creativecommons.org/ns#"
   xmlns:rdf="http://www.w3.org/1999/02/22-rdf-syntax-ns#"
   xmlns:svg="http://www.w3.org/2000/svg"
   xmlns="http://www.w3.org/2000/svg"
   xmlns:xlink="http://www.w3.org/1999/xlink"
   xmlns:sodipodi="http://sodipodi.sourceforge.net/DTD/sodipodi-0.dtd"
   xmlns:inkscape="http://www.inkscape.org/namespaces/inkscape"
   width="48"
   height="48"
   id="svg2"
   version="1.1"
   inkscape:version="0.48+devel r11731"
   sodipodi:docname="system-help.svg">
  <defs
     id="defs4">
    <linearGradient
       id="linearGradient3804">
      <stop
         id="stop3806"
         offset="0"
         style="stop-color:#999999;stop-opacity:1;" />
      <stop
         id="stop3808"
         offset="1"
         style="stop-color:#ffffff;stop-opacity:1;" />
    </linearGradient>
    <linearGradient
       id="linearGradient3795">
      <stop
         id="stop3797"
         offset="0"
         style="stop-color:#2c89a0;stop-opacity:1;" />
      <stop
         id="stop3799"
         offset="1"
         style="stop-color:#2c89a0;stop-opacity:1;" />
    </linearGradient>
    <linearGradient
       id="linearGradient3698">
      <stop
         style="stop-color:#96d0e1;stop-opacity:1"
         offset="0"
         id="stop3700" />
      <stop
         id="stop3706"
         offset="0.67819428"
         style="stop-color:#89b7e1;stop-opacity:1" />
      <stop
         style="stop-color:#699dd3;stop-opacity:1"
         offset="1"
         id="stop3702" />
    </linearGradient>
    <linearGradient
       id="linearGradient3708">
      <stop
         style="stop-color:#658db6;stop-opacity:1"
         offset="0"
         id="stop3710" />
      <stop
         id="stop3716"
         offset="0.76777935"
         style="stop-color:#527fab;stop-opacity:1;" />
      <stop
         style="stop-color:#4071a0;stop-opacity:1"
         offset="1"
         id="stop3712" />
    </linearGradient>
    <linearGradient
       id="linearGradient3750">
      <stop
         id="stop3752"
         offset="0"
         style="stop-color:#d0e2f1;stop-opacity:1" />
      <stop
         style="stop-color:#cadef0;stop-opacity:1"
         offset="0.85580856"
         id="stop3756" />
      <stop
         id="stop3754"
         offset="1"
         style="stop-color:#95bee3;stop-opacity:1" />
    </linearGradient>
    <linearGradient
       id="linearGradient3803">
      <stop
         style="stop-color:#d7def0;stop-opacity:1;"
         offset="0"
         id="stop3805" />
      <stop
         id="stop3811"
         offset="0.5"
         style="stop-color:#ffffff;stop-opacity:1" />
      <stop
         style="stop-color:#d5def0;stop-opacity:1"
         offset="1"
         id="stop3807" />
    </linearGradient>
    <linearGradient
       gradientTransform="translate(1.2904358e-8,-2056.7244)"
       gradientUnits="userSpaceOnUse"
       y2="1004.8474"
       x2="23.204165"
       y1="1053.158"
       x1="23.204165"
       id="linearGradient3801"
       xlink:href="#linearGradient3795"
       inkscape:collect="always" />
    <linearGradient
       gradientUnits="userSpaceOnUse"
       y2="1024.0002"
       x2="28.641211"
       y1="1024.0002"
       x1="26.192217"
       id="linearGradient3859"
       xlink:href="#linearGradient3795"
       inkscape:collect="always" />
    <linearGradient
       y2="1024.0002"
       x2="28.641211"
       y1="1024.0002"
       x1="26.192217"
       gradientUnits="userSpaceOnUse"
       id="linearGradient3867"
       xlink:href="#linearGradient3795"
       inkscape:collect="always" />
    <linearGradient
       y2="1024.0002"
       x2="28.641211"
       y1="1024.0002"
       x1="26.192217"
       gradientUnits="userSpaceOnUse"
       id="linearGradient3869"
       xlink:href="#linearGradient3795"
       inkscape:collect="always" />
    <linearGradient
       y2="1024.0002"
       x2="28.641211"
       y1="1024.0002"
       x1="26.192217"
       gradientUnits="userSpaceOnUse"
       id="linearGradient3871"
       xlink:href="#linearGradient3795"
       inkscape:collect="always" />
    <linearGradient
       y2="1015.5485"
       x2="22.811094"
       y1="1027.8575"
       x1="29.718235"
       gradientUnits="userSpaceOnUse"
       id="linearGradient3877"
       xlink:href="#linearGradient3795"
       inkscape:collect="always" />
    <linearGradient
       y2="1030.9086"
       x2="31.448042"
       y1="1006.2238"
       x1="17.196316"
       gradientUnits="userSpaceOnUse"
       id="linearGradient3879"
       xlink:href="#linearGradient3795"
       inkscape:collect="always" />
    <linearGradient
       gradientUnits="userSpaceOnUse"
       y2="24.798252"
       x2="42.475323"
       y1="34.43922"
       x1="21.973417"
       id="linearGradient3895"
       xlink:href="#linearGradient3795"
       inkscape:collect="always" />
    <linearGradient
       gradientUnits="userSpaceOnUse"
       y2="1024.0713"
       x2="24.428679"
       y1="1037.3021"
       x1="24.428679"
       id="linearGradient3810"
       xlink:href="#linearGradient3804"
       inkscape:collect="always" />
    <linearGradient
       gradientUnits="userSpaceOnUse"
       y2="1023.2142"
       x2="22.973623"
       y1="1037.491"
       x1="22.973623"
       id="linearGradient3818"
       xlink:href="#linearGradient3804"
       inkscape:collect="always" />
  </defs>
  <sodipodi:namedview
     id="base"
     pagecolor="#ffffff"
     bordercolor="#666666"
     borderopacity="1.0"
     inkscape:pageopacity="0.0"
     inkscape:pageshadow="2"
     inkscape:zoom="7.919596"
     inkscape:cx="52.352468"
     inkscape:cy="22.050035"
     inkscape:document-units="px"
     inkscape:current-layer="layer1"
     showgrid="false"
     inkscape:window-width="1366"
     inkscape:window-height="746"
     inkscape:window-x="0"
     inkscape:window-y="0"
     inkscape:window-maximized="1"
     showguides="false" />
  <metadata
     id="metadata7">
    <rdf:RDF>
      <cc:Work
         rdf:about="">
        <dc:format>image/svg+xml</dc:format>
        <dc:type
           rdf:resource="http://purl.org/dc/dcmitype/StillImage" />
        <dc:title />
      </cc:Work>
    </rdf:RDF>
  </metadata>
  <g
     inkscape:label="Capa 1"
     inkscape:groupmode="layer"
     id="layer1"
     transform="translate(0,-1004.3622)">
    <rect
       style="fill:none;stroke:none"
       id="rect3762"
       width="48"
       height="48"
       x="0"
       y="1004.3666" />
    <rect
       style="fill:url(#linearGradient3801);fill-opacity:1;stroke:none"
       id="rect2991"
       width="48"
       height="48"
       x="0"
       y="-1052.3622"
       ry="1.9445436"
       transform="scale(1,-1)" />
    <g
       transform="translate(-14.10488,1010.2681)"
       style="font-size:40px;font-style:normal;font-variant:normal;font-weight:bold;font-stretch:normal;line-height:125%;letter-spacing:0px;word-spacing:0px;fill:#ffffff;fill-opacity:1;stroke:none;font-family:Impact;-inkscape-font-specification:Impact Bold"
       id="text900">
      <path
         d="m 36.679098,12.81089 -7.890625,0 q 0.03906,-4.1601561 0.703125,-6.0742186 0.664063,-1.9140625 2.871094,-3.3398437 2.226562,-1.4453125 5.664062,-1.4453125 2.480469,0 4.335938,0.78125 1.855469,0.78125 2.949219,2.1875 1.09375,1.3867187 1.601562,3.0078125 0.507813,1.6210937 0.507813,5.0781253 l 0,3.867187 q 0,2.636719 -0.488282,4.238281 -0.488281,1.601563 -2.128906,2.8125 -1.640625,1.210938 -3.847656,1.210938 -2.871094,0 -4.277344,-2.246094 l 0,3.398438 -7.363281,0 0,-8.691407 7.1875,0 q 0.03906,1.796875 1.289062,1.796875 0.976563,0 1.230469,-0.78125 0.273438,-0.800781 0.273438,-3.886718 l 0,-5.2539066 q 0,-1.7382812 -0.253907,-2.3242187 -0.234375,-0.6054688 -0.957031,-0.6054688 -0.898437,0 -1.152344,0.8007813 -0.253906,0.78125 -0.253906,3.5546878 L 36.679098,12.81089 z m 0,15.097656 0,6.328125 -7.363281,0 0,-6.328125 L 36.679098,27.908546 Z"
         id="path905"
         inkscape:connector-curvature="0" />
    </g>
    <path
       inkscape:connector-curvature="0"
       style="opacity:0.15;fill:#ffffff;fill-opacity:1;stroke:none"
       d="m 1.5878662,1005.0387 0,48 16.7812498,0 12.84375,-48 L 1.5878662,1005.0387 Z"
       id="rect3790" />
  </g>
</svg>
