<?xml version="1.0" encoding="UTF-8" standalone="no"?>
<!-- Created with Inkscape (http://www.inkscape.org/) -->

<svg
   xmlns:dc="http://purl.org/dc/elements/1.1/"
   xmlns:cc="http://creativecommons.org/ns#"
   xmlns:rdf="http://www.w3.org/1999/02/22-rdf-syntax-ns#"
   xmlns:svg="http://www.w3.org/2000/svg"
   xmlns="http://www.w3.org/2000/svg"
   xmlns:xlink="http://www.w3.org/1999/xlink"
   xmlns:sodipodi="http://sodipodi.sourceforge.net/DTD/sodipodi-0.dtd"
   xmlns:inkscape="http://www.inkscape.org/namespaces/inkscape"
   width="48"
   height="48"
   id="svg2"
   version="1.1"
   inkscape:version="0.48+devel r11772"
   sodipodi:docname="baobab.svg">
  <defs
     id="defs4">
    <linearGradient
       id="linearGradient3795">
      <stop
         style="stop-color:#5276cc;stop-opacity:1;"
         offset="0"
         id="stop3797" />
      <stop
         style="stop-color:#5984e1;stop-opacity:1;"
         offset="1"
         id="stop3799" />
    </linearGradient>
    <linearGradient
       inkscape:collect="always"
       id="linearGradient3914">
      <stop
         style="stop-color:#59b3e1;stop-opacity:1;"
         offset="0"
         id="stop3916" />
      <stop
         style="stop-color:#59b3e1;stop-opacity:0;"
         offset="1"
         id="stop3918" />
    </linearGradient>
    <linearGradient
       id="linearGradient3698">
      <stop
         id="stop3700"
         offset="0"
         style="stop-color:#96d0e1;stop-opacity:1" />
      <stop
         style="stop-color:#89b7e1;stop-opacity:1"
         offset="0.67819428"
         id="stop3706" />
      <stop
         id="stop3702"
         offset="1"
         style="stop-color:#699dd3;stop-opacity:1" />
    </linearGradient>
    <linearGradient
       id="linearGradient3708">
      <stop
         id="stop3710"
         offset="0"
         style="stop-color:#658db6;stop-opacity:1" />
      <stop
         style="stop-color:#527fab;stop-opacity:1;"
         offset="0.76777935"
         id="stop3716" />
      <stop
         id="stop3712"
         offset="1"
         style="stop-color:#4071a0;stop-opacity:1" />
    </linearGradient>
    <linearGradient
       id="linearGradient3750">
      <stop
         style="stop-color:#d0e2f1;stop-opacity:1"
         offset="0"
         id="stop3752" />
      <stop
         id="stop3756"
         offset="0.85580856"
         style="stop-color:#cadef0;stop-opacity:1" />
      <stop
         style="stop-color:#95bee3;stop-opacity:1"
         offset="1"
         id="stop3754" />
    </linearGradient>
    <linearGradient
       id="linearGradient3803">
      <stop
         id="stop3805"
         offset="0"
         style="stop-color:#d7def0;stop-opacity:1;" />
      <stop
         style="stop-color:#ffffff;stop-opacity:1"
         offset="0.5"
         id="stop3811" />
      <stop
         id="stop3807"
         offset="1"
         style="stop-color:#d5def0;stop-opacity:1" />
    </linearGradient>
    <linearGradient
       inkscape:collect="always"
       xlink:href="#linearGradient3914"
       id="linearGradient3920"
       x1="6.8000002"
       y1="25.0625"
       x2="45.325001"
       y2="25.0625"
       gradientUnits="userSpaceOnUse" />
    <linearGradient
       inkscape:collect="always"
       xlink:href="#linearGradient873"
       id="linearGradient3801"
       x1="23.204165"
       y1="1053.158"
       x2="23.204165"
       y2="1004.8474"
       gradientUnits="userSpaceOnUse"
       gradientTransform="translate(0,2.4148533e-6)" />
    <linearGradient
       id="linearGradient886">
      <stop
         style="stop-color:#000000;stop-opacity:1"
         offset="0"
         id="stop888" />
      <stop
         style="stop-color:#808080;stop-opacity:1"
         offset="1"
         id="stop890" />
    </linearGradient>
    <linearGradient
       id="linearGradient870">
      <stop
         id="stop872"
         offset="0"
         style="stop-color:#616161;stop-opacity:1" />
      <stop
         id="stop874"
         offset="1"
         style="stop-color:#d6d6d6;stop-opacity:1" />
    </linearGradient>
    <linearGradient
       y2="1049.5842"
       x2="24.113745"
       y1="1007.2183"
       x1="24.113745"
       gradientTransform="matrix(0.96799712,0,0,1.0252613,-47.23188,-2082.7026)"
       gradientUnits="userSpaceOnUse"
       id="linearGradient3117"
       xlink:href="#linearGradient873"
       inkscape:collect="always" />
    <linearGradient
       id="linearGradient873">
      <stop
         id="stop875"
         offset="0"
         style="stop-color:#e6e6e6;stop-opacity:1" />
      <stop
         id="stop877"
         offset="1"
         style="stop-color:#ffffff;stop-opacity:1" />
    </linearGradient>
    <linearGradient
       inkscape:collect="always"
       xlink:href="#linearGradient870"
       id="linearGradient888"
       gradientUnits="userSpaceOnUse"
       gradientTransform="translate(0,-1004.3622)"
       x1="23.204165"
       y1="1053.158"
       x2="23.204165"
       y2="1043.208" />
    <linearGradient
       inkscape:collect="always"
       xlink:href="#linearGradient886"
       id="linearGradient893"
       gradientUnits="userSpaceOnUse"
       gradientTransform="translate(4.8996338e-6,-2094.647)"
       x1="24.875"
       y1="1046.9716"
       x2="24.875"
       y2="1045.8466" />
  </defs>
  <sodipodi:namedview
     id="base"
     pagecolor="#ffffff"
     bordercolor="#666666"
     borderopacity="1.0"
     inkscape:pageopacity="0.0"
     inkscape:pageshadow="2"
     inkscape:zoom="4"
     inkscape:cx="23.804894"
     inkscape:cy="27.034302"
     inkscape:document-units="px"
     inkscape:current-layer="layer1"
     showgrid="false"
     inkscape:window-width="1366"
     inkscape:window-height="712"
     inkscape:window-x="0"
     inkscape:window-y="0"
     inkscape:window-maximized="1" />
  <metadata
     id="metadata7">
    <rdf:RDF>
      <cc:Work
         rdf:about="">
        <dc:format>image/svg+xml</dc:format>
        <dc:type
           rdf:resource="http://purl.org/dc/dcmitype/StillImage" />
        <dc:title />
      </cc:Work>
    </rdf:RDF>
  </metadata>
  <g
     inkscape:label="Capa 1"
     inkscape:groupmode="layer"
     id="layer1"
     transform="translate(0,-1004.3622)">
    <rect
       style="fill:url(#linearGradient3801);fill-opacity:1.0;stroke:none"
       id="rect2991"
       width="48"
       height="48"
       x="0"
       y="1004.3622"
       ry="1.9445436" />
    <path
       style="fill:#1f1f1f;fill-opacity:0.65714285;stroke:none"
       d="m 24,1014.4875 c -5.954414,0 -10.78125,4.4352 -10.78125,9.9062 0,5.4711 4.826836,9.9063 10.78125,9.9063 5.954414,0 10.78125,-4.4352 10.78125,-9.9063 C 34.78125,1018.9227 29.954414,1014.4875 24,1014.4875 z m 0,6.288 c 2.17479,0 3.937609,1.6196 3.937609,3.6182 0,1.9986 -1.762819,3.6183 -3.937609,3.6183 -2.17479,0 -3.937609,-1.6197 -3.937609,-3.6183 C 20.062391,1022.3951 21.82521,1020.7755 24,1020.7755 z m 0,0.74 c -1.730116,0 -3.132476,1.2888 -3.132476,2.8782 0,1.5895 1.40236,2.8783 3.132476,2.8783 1.730116,0 3.132476,-1.2888 3.132476,-2.8783 C 27.132476,1022.8043 25.730116,1021.5155 24,1021.5155 z m 0,1.8495 c 0.61845,0 1.119638,0.4606 1.119638,1.0287 0,0.5682 -0.501188,1.0288 -1.119638,1.0288 -0.309223,0 -0.589951,-0.1144 -0.792557,-0.3003 -0.05063,-0.044 -0.08556,-0.096 -0.125797,-0.1505 -0.120716,-0.1643 -0.201284,-0.3647 -0.201284,-0.578 0,-0.072 0.01026,-0.1411 0.02517,-0.2081 0.04473,-0.2007 0.149973,-0.3808 0.301928,-0.5203 0.05063,-0.045 0.116557,-0.09 0.176122,-0.1269 C 23.562265,1023.4274 23.768079,1023.365 24,1023.365 z m -4.277272,2.1962 0.402561,0.8554 -4.805643,2.5197 C 14.75797,1028.3676 14.546403,1027.7524 14.451613,1027.1215 z m 1.157378,2.2428 2.239276,0.8783 -0.767388,4.8316 C 20.291999,1033.3186 18.792079,1032.6085 17.584085,1031.6298 Z"
       id="path4076"
       inkscape:connector-curvature="0"
       sodipodi:nodetypes="ssssssssssssssssssccscccscccccccccc" />
    <path
       style="fill:url(#linearGradient888);fill-opacity:1;stroke:none"
       d="M 0 37.84375 L 0 41.1875 L 0 41.625 L 0 46.0625 C 0 47.139777 0.86022285 48 1.9375 48 L 46.0625 48 C 47.139777 48 48 47.139777 48 46.0625 L 48 41.625 L 48 41.1875 L 48 37.84375 L 0 37.84375 z "
       transform="translate(0,1004.3622)"
       id="rect886" />
    <rect
       transform="scale(1,-1)"
       ry="0.59375"
       y="-1048.5817"
       x="9.4375"
       height="1.1875"
       width="29.125"
       id="rect891"
       style="fill:url(#linearGradient893);fill-opacity:1;stroke:none" />
    <path
       id="path900"
       d="m -1.3e-7,1042.206 0,0.4063 48.00000013,0 0,-0.4063 L -1.3e-7,1042.206 Z"
       style="fill:#000000;fill-opacity:0.45142858;stroke:none"
       inkscape:connector-curvature="0" />
    <path
       style="fill:#ffffff;stroke:none;fill-opacity:1;opacity:0.15"
       d="M 0 0 L 0 48 L 16.78125 48 L 29.625 0 L 0 0 z "
       id="rect3790"
       transform="translate(0,1004.3622)" />
  </g>
</svg>
