<?xml version="1.0" encoding="UTF-8" standalone="no"?>
<!-- Created with Inkscape (http://www.inkscape.org/) -->

<svg
   xmlns:i="http://ns.adobe.com/AdobeIllustrator/10.0/"
   xmlns:dc="http://purl.org/dc/elements/1.1/"
   xmlns:cc="http://creativecommons.org/ns#"
   xmlns:rdf="http://www.w3.org/1999/02/22-rdf-syntax-ns#"
   xmlns:svg="http://www.w3.org/2000/svg"
   xmlns="http://www.w3.org/2000/svg"
   xmlns:xlink="http://www.w3.org/1999/xlink"
   xmlns:sodipodi="http://sodipodi.sourceforge.net/DTD/sodipodi-0.dtd"
   xmlns:inkscape="http://www.inkscape.org/namespaces/inkscape"
   width="48"
   height="48"
   id="svg2"
   version="1.1"
   inkscape:version="0.48.2 r9819"
   sodipodi:docname="gnome-display-properties.svg">
  <defs
     id="defs4">
    <linearGradient
       id="linearGradient3795">
      <stop
         style="stop-color:#c2c2c2;stop-opacity:1;"
         offset="0"
         id="stop3797" />
      <stop
         style="stop-color:#d2d0c6;stop-opacity:1;"
         offset="1"
         id="stop3799" />
    </linearGradient>
    <linearGradient
       id="linearGradient3698">
      <stop
         id="stop3700"
         offset="0"
         style="stop-color:#96d0e1;stop-opacity:1" />
      <stop
         style="stop-color:#89b7e1;stop-opacity:1"
         offset="0.67819428"
         id="stop3706" />
      <stop
         id="stop3702"
         offset="1"
         style="stop-color:#699dd3;stop-opacity:1" />
    </linearGradient>
    <linearGradient
       id="linearGradient3708">
      <stop
         id="stop3710"
         offset="0"
         style="stop-color:#658db6;stop-opacity:1" />
      <stop
         style="stop-color:#527fab;stop-opacity:1;"
         offset="0.76777935"
         id="stop3716" />
      <stop
         id="stop3712"
         offset="1"
         style="stop-color:#4071a0;stop-opacity:1" />
    </linearGradient>
    <linearGradient
       id="linearGradient3750">
      <stop
         style="stop-color:#d0e2f1;stop-opacity:1"
         offset="0"
         id="stop3752" />
      <stop
         id="stop3756"
         offset="0.85580856"
         style="stop-color:#cadef0;stop-opacity:1" />
      <stop
         style="stop-color:#95bee3;stop-opacity:1"
         offset="1"
         id="stop3754" />
    </linearGradient>
    <linearGradient
       id="linearGradient3803">
      <stop
         id="stop3805"
         offset="0"
         style="stop-color:#d7def0;stop-opacity:1;" />
      <stop
         style="stop-color:#ffffff;stop-opacity:1"
         offset="0.5"
         id="stop3811" />
      <stop
         id="stop3807"
         offset="1"
         style="stop-color:#d5def0;stop-opacity:1" />
    </linearGradient>
    <linearGradient
       inkscape:collect="always"
       xlink:href="#linearGradient3795"
       id="linearGradient3801"
       x1="23.204165"
       y1="1053.158"
       x2="23.204165"
       y2="1004.8474"
       gradientUnits="userSpaceOnUse"
       gradientTransform="translate(0,-3.4765625e-5)" />
    <linearGradient
       inkscape:collect="always"
       xlink:href="#linearGradient3795"
       id="linearGradient3859"
       x1="26.192217"
       y1="1024.0002"
       x2="28.641211"
       y2="1024.0002"
       gradientUnits="userSpaceOnUse" />
    <linearGradient
       inkscape:collect="always"
       xlink:href="#linearGradient3795"
       id="linearGradient3867"
       gradientUnits="userSpaceOnUse"
       x1="26.192217"
       y1="1024.0002"
       x2="28.641211"
       y2="1024.0002" />
    <linearGradient
       inkscape:collect="always"
       xlink:href="#linearGradient3795"
       id="linearGradient3869"
       gradientUnits="userSpaceOnUse"
       x1="26.192217"
       y1="1024.0002"
       x2="28.641211"
       y2="1024.0002" />
    <linearGradient
       inkscape:collect="always"
       xlink:href="#linearGradient3795"
       id="linearGradient3871"
       gradientUnits="userSpaceOnUse"
       x1="26.192217"
       y1="1024.0002"
       x2="28.641211"
       y2="1024.0002" />
    <linearGradient
       inkscape:collect="always"
       xlink:href="#linearGradient3795"
       id="linearGradient3877"
       gradientUnits="userSpaceOnUse"
       x1="29.718235"
       y1="1027.8575"
       x2="22.811094"
       y2="1015.5485" />
    <linearGradient
       inkscape:collect="always"
       xlink:href="#linearGradient3795"
       id="linearGradient3879"
       gradientUnits="userSpaceOnUse"
       x1="17.196316"
       y1="1006.2238"
       x2="31.448042"
       y2="1030.9086" />
    <linearGradient
       inkscape:collect="always"
       xlink:href="#linearGradient3795"
       id="linearGradient3895"
       x1="21.973417"
       y1="34.43922"
       x2="42.475323"
       y2="24.798252"
       gradientUnits="userSpaceOnUse" />
    <linearGradient
       gradientTransform="matrix(0.49046264,0,0,0.49046264,1.7528597,0.99901873)"
       y2="56.028"
       x2="9.1239996"
       y1="37.779999"
       x1="9.1239996"
       gradientUnits="userSpaceOnUse"
       id="linearGradient3650"
       xlink:href="#linearGradient3216"
       inkscape:collect="always" />
    <foreignObject
       requiredExtensions="http://ns.adobe.com/AdobeIllustrator/10.0/"
       x="0"
       y="0"
       width="1"
       height="1"
       id="foreignObject8">
      <i:pgfRef
         xlink:href="#adobe_illustrator_pgf" />
    </foreignObject>
    <inkscape:perspective
       id="perspective19"
       inkscape:persp3d-origin="60 : 40 : 1"
       inkscape:vp_z="120 : 60 : 1"
       inkscape:vp_y="0 : 1000 : 0"
       inkscape:vp_x="0 : 60 : 1"
       sodipodi:type="inkscape:persp3d" />
    <linearGradient
       id="linearGradient3196">
      <stop
         id="stop3198"
         offset="0"
         style="stop-color:#de220c;stop-opacity:1;" />
      <stop
         id="stop3200"
         offset="1"
         style="stop-color:#700000;stop-opacity:1;" />
    </linearGradient>
    <linearGradient
       id="linearGradient3206">
      <stop
         id="stop3208"
         offset="0"
         style="stop-color:#fd8011;stop-opacity:1;" />
      <stop
         id="stop3210"
         offset="1"
         style="stop-color:#cb4e00;stop-opacity:1;" />
    </linearGradient>
    <linearGradient
       id="linearGradient3216">
      <stop
         id="stop3218"
         offset="0"
         style="stop-color:#e3b216;stop-opacity:1;" />
      <stop
         id="stop3220"
         offset="1"
         style="stop-color:#dc951d;stop-opacity:1;" />
    </linearGradient>
  </defs>
  <sodipodi:namedview
     id="base"
     pagecolor="#ffffff"
     bordercolor="#666666"
     borderopacity="1.0"
     inkscape:pageopacity="0.0"
     inkscape:pageshadow="2"
     inkscape:zoom="8.0000004"
     inkscape:cx="14.518576"
     inkscape:cy="22.885779"
     inkscape:document-units="px"
     inkscape:current-layer="layer1"
     showgrid="false"
     inkscape:window-width="1280"
     inkscape:window-height="747"
     inkscape:window-x="0"
     inkscape:window-y="0"
     inkscape:window-maximized="1">
    <inkscape:grid
       type="xygrid"
       id="grid3850" />
  </sodipodi:namedview>
  <metadata
     id="metadata7">
    <rdf:RDF>
      <cc:Work
         rdf:about="">
        <dc:format>image/svg+xml</dc:format>
        <dc:type
           rdf:resource="http://purl.org/dc/dcmitype/StillImage" />
        <dc:title></dc:title>
      </cc:Work>
    </rdf:RDF>
  </metadata>
  <g
     inkscape:label="Capa 1"
     inkscape:groupmode="layer"
     id="layer1"
     transform="translate(0,-1004.3622)">
    <rect
       style="fill:url(#linearGradient3801);fill-opacity:1;stroke:none"
       id="rect2991"
       width="48"
       height="48"
       x="0"
       y="1004.3622"
       ry="1.9445436" />
    <g
       id="g3086"
       transform="matrix(0.94022761,0,0,0.94022761,-2.6201921,60.468657)">
      <g
         style="fill:#4d4d4d;stroke:#4d4d4d"
         id="g16922"
         transform="translate(-76.845545,455.15523)">
        <rect
           ry="0"
           y="574.11597"
           x="92.722931"
           height="1.6280142"
           width="12.463829"
           id="rect6352"
           style="fill:#4d4d4d;fill-rule:evenodd;stroke:#4d4d4d;stroke-width:0.82801652" />
        <rect
           style="fill:#4d4d4d;fill-rule:evenodd;stroke:#4d4d4d;stroke-width:0.84536654"
           id="rect6350"
           width="13.454902"
           height="3.8828545"
           x="92.31221"
           y="575.78973"
           ry="0" />
        <g
           style="fill:#4d4d4d;stroke:#4d4d4d"
           id="g6336"
           transform="translate(4.956167,-1.8594717)">
          <path
             style="fill:#4d4d4d;stroke:#4d4d4d;stroke-width:1.11787236px;stroke-linecap:round;stroke-linejoin:miter;stroke-opacity:1"
             d="m 87.399681,581.53149 13.524989,0"
             id="path6338"
             inkscape:connector-curvature="0" />
          <path
             style="fill:#4d4d4d;stroke:#4d4d4d;stroke-width:1px;stroke-linecap:round;stroke-linejoin:miter;stroke-opacity:1"
             d="m 91.037015,574.02637 c -5.050763,-0.25254 -3.788072,7.57615 -3.788072,7.57615"
             id="path6340"
             inkscape:connector-curvature="0" />
          <path
             inkscape:connector-curvature="0"
             id="path6342"
             d="m 97.241732,574.02637 c 5.050768,-0.25254 3.788078,7.57615 3.788078,7.57615"
             style="fill:#4d4d4d;stroke:#4d4d4d;stroke-width:1px;stroke-linecap:round;stroke-linejoin:miter;stroke-opacity:1" />
          <path
             style="fill:#4d4d4d;stroke:#4d4d4d;stroke-width:1px;stroke-linecap:round;stroke-linejoin:miter;stroke-opacity:1"
             d="m 90.711003,574.02446 c 2.525382,0 1.578364,-2.11501 1.578364,-2.11501"
             id="path6344"
             inkscape:connector-curvature="0" />
          <path
             inkscape:connector-curvature="0"
             id="path6346"
             d="m 97.465706,574.01888 c -2.525382,0 -1.578364,-2.11501 -1.578364,-2.11501"
             style="fill:#4d4d4d;stroke:#4d4d4d;stroke-width:1px;stroke-linecap:round;stroke-linejoin:miter;stroke-opacity:1" />
          <path
             sodipodi:type="arc"
             style="fill:#4d4d4d;stroke:#4d4d4d;stroke-width:0.89999998;stroke-linecap:round;stroke-linejoin:round;stroke-miterlimit:4;stroke-opacity:1;stroke-dasharray:none"
             id="path6348"
             sodipodi:cx="17.472483"
             sodipodi:cy="21.720249"
             sodipodi:rx="4.4983354"
             sodipodi:ry="4.4983354"
             d="m 21.970818,21.720249 c 0,2.484362 -2.013973,4.498336 -4.498335,4.498336 -2.484362,0 -4.498336,-2.013974 -4.498336,-4.498336 0,-2.484362 2.013974,-4.498335 4.498336,-4.498335 2.484362,0 4.498335,2.013973 4.498335,4.498335 z"
             transform="translate(76.705476,546.00845)" />
        </g>
        <rect
           style="fill:#4d4d4d;fill-rule:evenodd;stroke:#4d4d4d"
           id="rect6354"
           width="7.2406054"
           height="3.1334729"
           x="570.54584"
           y="-100.13096"
           ry="0"
           transform="matrix(0,1,-1,0,0,0)" />
        <rect
           transform="matrix(0,1,-1,0,0,0)"
           ry="0"
           y="-100.99033"
           x="570.54584"
           height="3.1334729"
           width="7.2406054"
           id="rect6356"
           style="fill:#4d4d4d;fill-rule:evenodd;stroke:#4d4d4d" />
        <path
           style="fill:#4d4d4d;stroke:#4d4d4d;stroke-width:1px;stroke-linecap:butt;stroke-linejoin:miter;stroke-opacity:1"
           d="m 94.468236,572.65947 -1.09375,0.66964 0,0.66965 11.138394,0 0,-1.02679 -0.88228,-0.50939 z"
           id="path6358"
           inkscape:connector-curvature="0" />
      </g>
      <g
         transform="translate(-64.720546,462.53023)"
         id="g3060"
         style="fill:#4d4d4d;stroke:#4d4d4d">
        <rect
           style="fill:#4d4d4d;fill-rule:evenodd;stroke:#4d4d4d;stroke-width:0.82801652"
           id="rect3062"
           width="12.463829"
           height="1.6280142"
           x="92.722931"
           y="574.11597"
           ry="0" />
        <rect
           ry="0"
           y="575.78973"
           x="92.31221"
           height="3.8828545"
           width="13.454902"
           id="rect3064"
           style="fill:#4d4d4d;fill-rule:evenodd;stroke:#4d4d4d;stroke-width:0.84536654" />
        <g
           transform="translate(4.956167,-1.8594717)"
           id="g3066"
           style="fill:#4d4d4d;stroke:#4d4d4d">
          <path
             inkscape:connector-curvature="0"
             id="path3068"
             d="m 87.399681,581.53149 13.524989,0"
             style="fill:#4d4d4d;stroke:#4d4d4d;stroke-width:1.11787236px;stroke-linecap:round;stroke-linejoin:miter;stroke-opacity:1" />
          <path
             inkscape:connector-curvature="0"
             id="path3070"
             d="m 91.037015,574.02637 c -5.050763,-0.25254 -3.788072,7.57615 -3.788072,7.57615"
             style="fill:#4d4d4d;stroke:#4d4d4d;stroke-width:1px;stroke-linecap:round;stroke-linejoin:miter;stroke-opacity:1" />
          <path
             style="fill:#4d4d4d;stroke:#4d4d4d;stroke-width:1px;stroke-linecap:round;stroke-linejoin:miter;stroke-opacity:1"
             d="m 97.241732,574.02637 c 5.050768,-0.25254 3.788078,7.57615 3.788078,7.57615"
             id="path3072"
             inkscape:connector-curvature="0" />
          <path
             inkscape:connector-curvature="0"
             id="path3074"
             d="m 90.711003,574.02446 c 2.525382,0 1.578364,-2.11501 1.578364,-2.11501"
             style="fill:#4d4d4d;stroke:#4d4d4d;stroke-width:1px;stroke-linecap:round;stroke-linejoin:miter;stroke-opacity:1" />
          <path
             style="fill:#4d4d4d;stroke:#4d4d4d;stroke-width:1px;stroke-linecap:round;stroke-linejoin:miter;stroke-opacity:1"
             d="m 97.465706,574.01888 c -2.525382,0 -1.578364,-2.11501 -1.578364,-2.11501"
             id="path3076"
             inkscape:connector-curvature="0" />
          <path
             transform="translate(76.705476,546.00845)"
             d="m 21.970818,21.720249 c 0,2.484362 -2.013973,4.498336 -4.498335,4.498336 -2.484362,0 -4.498336,-2.013974 -4.498336,-4.498336 0,-2.484362 2.013974,-4.498335 4.498336,-4.498335 2.484362,0 4.498335,2.013973 4.498335,4.498335 z"
             sodipodi:ry="4.4983354"
             sodipodi:rx="4.4983354"
             sodipodi:cy="21.720249"
             sodipodi:cx="17.472483"
             id="path3078"
             style="fill:#4d4d4d;stroke:#4d4d4d;stroke-width:0.89999998;stroke-linecap:round;stroke-linejoin:round;stroke-miterlimit:4;stroke-opacity:1;stroke-dasharray:none"
             sodipodi:type="arc" />
        </g>
        <rect
           transform="matrix(0,1,-1,0,0,0)"
           ry="0"
           y="-100.13096"
           x="570.54584"
           height="3.1334729"
           width="7.2406054"
           id="rect3080"
           style="fill:#4d4d4d;fill-rule:evenodd;stroke:#4d4d4d" />
        <rect
           style="fill:#4d4d4d;fill-rule:evenodd;stroke:#4d4d4d"
           id="rect3082"
           width="7.2406054"
           height="3.1334729"
           x="570.54584"
           y="-100.99033"
           ry="0"
           transform="matrix(0,1,-1,0,0,0)" />
        <path
           inkscape:connector-curvature="0"
           id="path3084"
           d="m 94.468236,572.65947 -1.09375,0.66964 0,0.66965 11.138394,0 0,-1.02679 -0.88228,-0.50939 z"
           style="fill:#4d4d4d;stroke:#4d4d4d;stroke-width:1px;stroke-linecap:butt;stroke-linejoin:miter;stroke-opacity:1" />
      </g>
    </g>
    <path
       style="fill:#ffffff;stroke:none;fill-opacity:1;opacity:0.15"
       d="M 0 0 L 0 48 L 16.78125 48 L 29.625 0 L 0 0 z "
       transform="translate(0,1004.3622)"
       id="rect3790" />
  </g>
</svg>
