<?xml version="1.0" encoding="UTF-8" standalone="no"?>
<!-- Created with Inkscape (http://www.inkscape.org/) -->

<svg
   xmlns:dc="http://purl.org/dc/elements/1.1/"
   xmlns:cc="http://creativecommons.org/ns#"
   xmlns:rdf="http://www.w3.org/1999/02/22-rdf-syntax-ns#"
   xmlns:svg="http://www.w3.org/2000/svg"
   xmlns="http://www.w3.org/2000/svg"
   xmlns:xlink="http://www.w3.org/1999/xlink"
   xmlns:sodipodi="http://sodipodi.sourceforge.net/DTD/sodipodi-0.dtd"
   xmlns:inkscape="http://www.inkscape.org/namespaces/inkscape"
   width="48"
   height="48"
   id="svg2"
   version="1.1"
   inkscape:version="0.48.2 r9819"
   sodipodi:docname="preferences-desktop-locale.svg">
  <defs
     id="defs4">
    <linearGradient
       id="linearGradient3771">
      <stop
         id="stop3773"
         offset="0"
         style="stop-color:#dfb18e;stop-opacity:1;" />
      <stop
         id="stop3775"
         offset="1"
         style="stop-color:#c97c3b;stop-opacity:1;" />
    </linearGradient>
    <linearGradient
       id="linearGradient3755">
      <stop
         style="stop-color:#8ebedf;stop-opacity:1;"
         offset="0"
         id="stop3757" />
      <stop
         style="stop-color:#5aade5;stop-opacity:1;"
         offset="1"
         id="stop3759" />
    </linearGradient>
    <linearGradient
       inkscape:collect="always"
       xlink:href="#linearGradient3755"
       id="linearGradient3761"
       x1="1.4285715"
       y1="16.080357"
       x2="37.500004"
       y2="16.080357"
       gradientUnits="userSpaceOnUse"
       gradientTransform="matrix(0.91335293,0,0,0.91335293,3.3401952,1007.607)" />
    <linearGradient
       inkscape:collect="always"
       xlink:href="#linearGradient3771"
       id="linearGradient3769"
       gradientUnits="userSpaceOnUse"
       gradientTransform="matrix(0.91335293,0,0,0.91335293,9.9456947,1021.8781)"
       x1="1.4285715"
       y1="16.080357"
       x2="37.500004"
       y2="16.080357" />
    <linearGradient
       inkscape:collect="always"
       xlink:href="#linearGradient3755"
       id="linearGradient3785"
       gradientUnits="userSpaceOnUse"
       gradientTransform="matrix(0.91335293,0,0,0.91335293,3.3401952,1007.607)"
       x1="1.4285715"
       y1="16.080357"
       x2="37.500004"
       y2="16.080357" />
    <linearGradient
       inkscape:collect="always"
       xlink:href="#linearGradient3771"
       id="linearGradient3787"
       gradientUnits="userSpaceOnUse"
       gradientTransform="matrix(0.91335293,0,0,0.91335293,9.9456947,1021.8781)"
       x1="1.4285715"
       y1="16.080357"
       x2="37.500004"
       y2="16.080357" />
    <linearGradient
       inkscape:collect="always"
       xlink:href="#linearGradient3771"
       id="linearGradient3000"
       gradientUnits="userSpaceOnUse"
       gradientTransform="matrix(1.0138316,0,0,1.0138316,7.8691744,1019.98)"
       x1="1.4285715"
       y1="16.080357"
       x2="37.500004"
       y2="16.080357" />
    <radialGradient
       inkscape:collect="always"
       xlink:href="#linearGradient3755"
       id="radialGradient3783"
       cx="23.936596"
       cy="1028.3622"
       fx="23.936596"
       fy="1028.3622"
       r="22.13007"
       gradientTransform="matrix(1.0844973,0,0,1.0844973,-1.9591717,-86.893864)"
       gradientUnits="userSpaceOnUse" />
  </defs>
  <sodipodi:namedview
     id="base"
     pagecolor="#ffffff"
     bordercolor="#666666"
     borderopacity="1.0"
     inkscape:pageopacity="0.0"
     inkscape:pageshadow="2"
     inkscape:zoom="5.6568542"
     inkscape:cx="30.864683"
     inkscape:cy="28.917901"
     inkscape:document-units="px"
     inkscape:current-layer="layer1"
     showgrid="false"
     inkscape:window-width="1280"
     inkscape:window-height="747"
     inkscape:window-x="0"
     inkscape:window-y="0"
     inkscape:window-maximized="1" />
  <metadata
     id="metadata7">
    <rdf:RDF>
      <cc:Work
         rdf:about="">
        <dc:format>image/svg+xml</dc:format>
        <dc:type
           rdf:resource="http://purl.org/dc/dcmitype/StillImage" />
        <dc:title />
      </cc:Work>
    </rdf:RDF>
  </metadata>
  <g
     inkscape:label="Capa 1"
     inkscape:groupmode="layer"
     id="layer1"
     transform="translate(0,-1004.3622)">
    <rect
       style="fill:url(#radialGradient3783);fill-opacity:1;stroke:none"
       id="rect2985"
       width="48"
       height="48"
       x="0"
       y="1004.3622"
       ry="0" />
    <rect
       style="fill:none;stroke:none"
       id="rect3783"
       width="48"
       height="48"
       x="-0.063405097"
       y="1004.3622" />
    <g
       id="g3785"
       transform="translate(-3.949928,1.3913445)">
      <g
         id="g3775">
        <path
           sodipodi:type="arc"
           style="fill:#ffffff;fill-opacity:1;stroke:none"
           id="path2999"
           sodipodi:cx="19.091883"
           sodipodi:cy="23.42804"
           sodipodi:rx="8.7504463"
           sodipodi:ry="6.2755728"
           d="m 27.842329,23.42804 c 0,3.465903 -3.917708,6.275572 -8.750446,6.275572 -4.832738,0 -8.750447,-2.809669 -8.750447,-6.275572 0,-3.465904 3.917709,-6.275573 8.750447,-6.275573 4.832738,0 8.750446,2.809669 8.750446,6.275573 z"
           transform="translate(0,1004.3622)" />
        <path
           style="fill:#ffffff;stroke:none"
           d="m 14.584078,1033.2261 -1.732978,3.0016 6.973627,-2.1337 z"
           id="path3001"
           inkscape:connector-curvature="0"
           sodipodi:nodetypes="cccc" />
      </g>
      <g
         id="g3779">
        <path
           transform="matrix(-1,0,0,1,55.773046,1000.5615)"
           d="m 27.842329,23.42804 c 0,3.465903 -3.917708,6.275572 -8.750446,6.275572 -4.832738,0 -8.750447,-2.809669 -8.750447,-6.275572 0,-3.465904 3.917709,-6.275573 8.750447,-6.275573 4.832738,0 8.750446,2.809669 8.750446,6.275573 z"
           sodipodi:ry="6.2755728"
           sodipodi:rx="8.7504463"
           sodipodi:cy="23.42804"
           sodipodi:cx="19.091883"
           id="path3771"
           style="fill:#ffffff;fill-opacity:1;stroke:none"
           sodipodi:type="arc" />
        <path
           sodipodi:nodetypes="cccc"
           inkscape:connector-curvature="0"
           id="path3773"
           d="m 41.188968,1029.2928 1.732978,3.0016 -6.973627,-2.1337 z"
           style="fill:#ffffff;stroke:none" />
      </g>
    </g>
    <path
       style="opacity:0.15;fill:#ffffff;fill-opacity:1;stroke:none"
       d="m 0,1004.3622 0,48 16.78125,0 12.84375,-48 -29.625,0 z"
       id="rect3790"
       inkscape:connector-curvature="0" />
  </g>
</svg>
