<?xml version="1.0" encoding="UTF-8" standalone="no"?>
<!-- Created with Inkscape (http://www.inkscape.org/) -->

<svg
   xmlns:dc="http://purl.org/dc/elements/1.1/"
   xmlns:cc="http://creativecommons.org/ns#"
   xmlns:rdf="http://www.w3.org/1999/02/22-rdf-syntax-ns#"
   xmlns:svg="http://www.w3.org/2000/svg"
   xmlns="http://www.w3.org/2000/svg"
   xmlns:xlink="http://www.w3.org/1999/xlink"
   xmlns:sodipodi="http://sodipodi.sourceforge.net/DTD/sodipodi-0.dtd"
   xmlns:inkscape="http://www.inkscape.org/namespaces/inkscape"
   width="48"
   height="48"
   id="svg2"
   version="1.1"
   inkscape:version="0.48.2 r9819"
   sodipodi:docname="chromium-browser.svg">
  <defs
     id="defs4">
    <linearGradient
       id="linearGradient3795">
      <stop
         style="stop-color:#a12e2e;stop-opacity:1;"
         offset="0"
         id="stop3797" />
      <stop
         style="stop-color:#eb68b6;stop-opacity:1;"
         offset="1"
         id="stop3799" />
    </linearGradient>
    <linearGradient
       inkscape:collect="always"
       id="linearGradient3914">
      <stop
         style="stop-color:#59b3e1;stop-opacity:1;"
         offset="0"
         id="stop3916" />
      <stop
         style="stop-color:#59b3e1;stop-opacity:0;"
         offset="1"
         id="stop3918" />
    </linearGradient>
    <linearGradient
       id="linearGradient3698">
      <stop
         id="stop3700"
         offset="0"
         style="stop-color:#96d0e1;stop-opacity:1" />
      <stop
         style="stop-color:#89b7e1;stop-opacity:1"
         offset="0.67819428"
         id="stop3706" />
      <stop
         id="stop3702"
         offset="1"
         style="stop-color:#699dd3;stop-opacity:1" />
    </linearGradient>
    <linearGradient
       id="linearGradient3708">
      <stop
         id="stop3710"
         offset="0"
         style="stop-color:#658db6;stop-opacity:1" />
      <stop
         style="stop-color:#527fab;stop-opacity:1;"
         offset="0.76777935"
         id="stop3716" />
      <stop
         id="stop3712"
         offset="1"
         style="stop-color:#4071a0;stop-opacity:1" />
    </linearGradient>
    <linearGradient
       id="linearGradient3750">
      <stop
         style="stop-color:#d0e2f1;stop-opacity:1"
         offset="0"
         id="stop3752" />
      <stop
         id="stop3756"
         offset="0.85580856"
         style="stop-color:#cadef0;stop-opacity:1" />
      <stop
         style="stop-color:#95bee3;stop-opacity:1"
         offset="1"
         id="stop3754" />
    </linearGradient>
    <linearGradient
       id="linearGradient3803">
      <stop
         id="stop3805"
         offset="0"
         style="stop-color:#d7def0;stop-opacity:1;" />
      <stop
         style="stop-color:#ffffff;stop-opacity:1"
         offset="0.5"
         id="stop3811" />
      <stop
         id="stop3807"
         offset="1"
         style="stop-color:#d5def0;stop-opacity:1" />
    </linearGradient>
    <linearGradient
       inkscape:collect="always"
       xlink:href="#linearGradient3914"
       id="linearGradient3920"
       x1="6.8000002"
       y1="25.0625"
       x2="45.325001"
       y2="25.0625"
       gradientUnits="userSpaceOnUse" />
    <linearGradient
       inkscape:collect="always"
       xlink:href="#linearGradient3795"
       id="linearGradient3801"
       x1="23.204165"
       y1="1053.158"
       x2="23.204165"
       y2="1004.8474"
       gradientUnits="userSpaceOnUse" />
  </defs>
  <sodipodi:namedview
     id="base"
     pagecolor="#ffffff"
     bordercolor="#666666"
     borderopacity="1.0"
     inkscape:pageopacity="0.0"
     inkscape:pageshadow="2"
     inkscape:zoom="4.0000002"
     inkscape:cx="31.902199"
     inkscape:cy="37.910266"
     inkscape:document-units="px"
     inkscape:current-layer="layer1"
     showgrid="false"
     inkscape:window-width="1278"
     inkscape:window-height="655"
     inkscape:window-x="0"
     inkscape:window-y="0"
     inkscape:window-maximized="1" />
  <metadata
     id="metadata7">
    <rdf:RDF>
      <cc:Work
         rdf:about="">
        <dc:format>image/svg+xml</dc:format>
        <dc:type
           rdf:resource="http://purl.org/dc/dcmitype/StillImage" />
        <dc:title></dc:title>
      </cc:Work>
    </rdf:RDF>
  </metadata>
  <g
     inkscape:label="Capa 1"
     inkscape:groupmode="layer"
     id="layer1"
     transform="translate(0,-1004.3622)">
    <rect
       style="fill:url(#linearGradient3801);fill-opacity:1;stroke:none"
       id="rect2991"
       width="48"
       height="48"
       x="0"
       y="1004.3622"
       ry="1.9445436" />
    <path
       style="fill:#ffffff;stroke:none;fill-opacity:1;opacity:0.15"
       d="M 0 0 L 0 48 L 16.78125 48 L 29.625 0 L 0 0 z "
       id="rect3790"
       transform="translate(0,1004.3622)" />
    <path
       style="fill:#ffffff"
       d="m 23.435262,1039.0403 c -2.485106,-0.465 -5.739003,-2.9617 -7.274358,-5.5816 -0.823846,-1.4057 -2.007719,-2.6892 -2.630828,-2.8522 -2.742371,-0.7172 -2.528648,-5.7024 0.290417,-6.7742 4.124017,-1.5679 6.863117,3.0462 3.873331,6.5247 -0.797578,0.928 -0.769874,1.1804 0.28603,2.6059 4.144372,5.5948 11.839101,5.5903 15.252989,-0.01 0.933403,-1.5309 1.151091,-2.9209 1.152847,-7.3612 l 0.0021,-5.4739 -2.316279,2.2618 -2.316279,2.2618 -2.237999,-2.1854 c -2.131719,-2.0816 -2.253648,-2.1255 -2.567556,-0.9251 -0.540052,2.0652 -1.853748,0.9965 -1.853748,-1.5079 0,-3.1573 1.495934,-3.3189 4.40723,-0.4761 l 2.252073,2.1991 2.252072,-2.1991 c 1.377895,-1.3454 2.670351,-2.1171 3.329651,-1.9879 0.975886,0.1912 1.077579,0.8385 1.077579,6.8589 0,6.0242 -0.136455,6.8915 -1.454955,9.2462 -2.130297,3.8048 -7.222887,6.1799 -11.524382,5.3751 z m -6.709035,-11.7375 c 0,-1.0613 -0.348448,-1.4971 -1.305496,-1.633 -0.783064,-0.1113 -1.445119,0.1784 -1.654396,0.7238 -0.576561,1.5024 0.23156,2.7443 1.654396,2.5422 0.957048,-0.1359 1.305496,-0.5717 1.305496,-1.633 z m 4.343023,0.5791 c 0,-0.3185 0.260581,-0.5791 0.57907,-0.5791 0.318488,0 0.57907,0.2606 0.57907,0.5791 0,0.3185 -0.260582,0.579 -0.57907,0.579 -0.318489,0 -0.57907,-0.2605 -0.57907,-0.579 z m 5.790698,0 c 0,-0.3185 0.260581,-0.5791 0.579069,-0.5791 0.318489,0 0.57907,0.2606 0.57907,0.5791 0,0.3185 -0.260581,0.579 -0.57907,0.579 -0.318488,0 -0.579069,-0.2605 -0.579069,-0.579 z"
       id="path3811"
       inkscape:connector-curvature="0" />
  </g>
</svg>
