<?xml version="1.0" encoding="UTF-8" standalone="no"?>
<!-- Created with Inkscape (http://www.inkscape.org/) -->

<svg
   xmlns:dc="http://purl.org/dc/elements/1.1/"
   xmlns:cc="http://creativecommons.org/ns#"
   xmlns:rdf="http://www.w3.org/1999/02/22-rdf-syntax-ns#"
   xmlns:svg="http://www.w3.org/2000/svg"
   xmlns="http://www.w3.org/2000/svg"
   xmlns:xlink="http://www.w3.org/1999/xlink"
   xmlns:sodipodi="http://sodipodi.sourceforge.net/DTD/sodipodi-0.dtd"
   xmlns:inkscape="http://www.inkscape.org/namespaces/inkscape"
   width="48"
   height="48"
   id="svg2"
   version="1.1"
   inkscape:version="0.48.3.1 r9886"
   sodipodi:docname="file-manager.svg">
  <defs
     id="defs4">
    <linearGradient
       id="linearGradient3822">
      <stop
         style="stop-color:#df9846;stop-opacity:1;"
         offset="0"
         id="stop3824" />
      <stop
         style="stop-color:#f5be63;stop-opacity:1;"
         offset="1"
         id="stop3826" />
    </linearGradient>
    <linearGradient
       id="linearGradient3797">
      <stop
         style="stop-color:#000000;stop-opacity:0.54255319;"
         offset="0"
         id="stop3800" />
      <stop
         style="stop-color:#000000;stop-opacity:0;"
         offset="1"
         id="stop3802" />
    </linearGradient>
    <linearGradient
       id="linearGradient3786">
      <stop
         id="stop3788"
         offset="0"
         style="stop-color:#bd792b;stop-opacity:1;" />
      <stop
         id="stop3790"
         offset="1"
         style="stop-color:#eba93a;stop-opacity:1;" />
    </linearGradient>
    <linearGradient
       id="linearGradient3795">
      <stop
         style="stop-color:#52a2cc;stop-opacity:1;"
         offset="0"
         id="stop3797" />
      <stop
         style="stop-color:#59b3e1;stop-opacity:1;"
         offset="1"
         id="stop3799" />
    </linearGradient>
    <linearGradient
       inkscape:collect="always"
       id="linearGradient3914">
      <stop
         style="stop-color:#59b3e1;stop-opacity:1;"
         offset="0"
         id="stop3916" />
      <stop
         style="stop-color:#59b3e1;stop-opacity:0;"
         offset="1"
         id="stop3918" />
    </linearGradient>
    <linearGradient
       id="linearGradient3698">
      <stop
         id="stop3700"
         offset="0"
         style="stop-color:#96d0e1;stop-opacity:1" />
      <stop
         style="stop-color:#89b7e1;stop-opacity:1"
         offset="0.67819428"
         id="stop3706" />
      <stop
         id="stop3702"
         offset="1"
         style="stop-color:#699dd3;stop-opacity:1" />
    </linearGradient>
    <linearGradient
       id="linearGradient3708">
      <stop
         id="stop3710"
         offset="0"
         style="stop-color:#658db6;stop-opacity:1" />
      <stop
         style="stop-color:#527fab;stop-opacity:1;"
         offset="0.76777935"
         id="stop3716" />
      <stop
         id="stop3712"
         offset="1"
         style="stop-color:#4071a0;stop-opacity:1" />
    </linearGradient>
    <linearGradient
       id="linearGradient3750">
      <stop
         style="stop-color:#d0e2f1;stop-opacity:1"
         offset="0"
         id="stop3752" />
      <stop
         id="stop3756"
         offset="0.85580856"
         style="stop-color:#cadef0;stop-opacity:1" />
      <stop
         style="stop-color:#95bee3;stop-opacity:1"
         offset="1"
         id="stop3754" />
    </linearGradient>
    <linearGradient
       id="linearGradient3803">
      <stop
         id="stop3805"
         offset="0"
         style="stop-color:#d7def0;stop-opacity:1;" />
      <stop
         style="stop-color:#ffffff;stop-opacity:1"
         offset="0.5"
         id="stop3811" />
      <stop
         id="stop3807"
         offset="1"
         style="stop-color:#d5def0;stop-opacity:1" />
    </linearGradient>
    <linearGradient
       inkscape:collect="always"
       xlink:href="#linearGradient3914"
       id="linearGradient3920"
       x1="6.8000002"
       y1="25.0625"
       x2="45.325001"
       y2="25.0625"
       gradientUnits="userSpaceOnUse" />
    <linearGradient
       inkscape:collect="always"
       xlink:href="#linearGradient3786"
       id="linearGradient3801"
       x1="23.204165"
       y1="1053.158"
       x2="23.204165"
       y2="1004.8474"
       gradientUnits="userSpaceOnUse"
       gradientTransform="matrix(1,0,0,0.87478318,0,131.77345)" />
    <linearGradient
       inkscape:collect="always"
       xlink:href="#linearGradient3786"
       id="linearGradient3016"
       gradientUnits="userSpaceOnUse"
       gradientTransform="matrix(0.5912039,0,0,0.19884592,0,804.66323)"
       x1="23.204165"
       y1="1199.4276"
       x2="23.204165"
       y2="1041.7751" />
    <linearGradient
       inkscape:collect="always"
       xlink:href="#linearGradient3797"
       id="linearGradient3804"
       x1="48.097301"
       y1="1014.7087"
       x2="24.170286"
       y2="1014.7087"
       gradientUnits="userSpaceOnUse"
       gradientTransform="matrix(0.98452226,0,0,1,0.43312775,0)" />
    <linearGradient
       inkscape:collect="always"
       xlink:href="#linearGradient3786"
       id="linearGradient3808"
       gradientUnits="userSpaceOnUse"
       gradientTransform="matrix(0.5912039,0,0,0.19884592,19.622213,805.33142)"
       x1="23.204165"
       y1="1199.4276"
       x2="23.204165"
       y2="1041.7751" />
    <linearGradient
       inkscape:collect="always"
       xlink:href="#linearGradient3786"
       id="linearGradient3817"
       gradientUnits="userSpaceOnUse"
       gradientTransform="matrix(0.5912039,0,0,0.19884592,19.622213,805.33142)"
       x1="23.204165"
       y1="1199.4276"
       x2="23.204165"
       y2="1041.7751" />
    <linearGradient
       inkscape:collect="always"
       xlink:href="#linearGradient3786"
       id="linearGradient3819"
       gradientUnits="userSpaceOnUse"
       gradientTransform="matrix(0.5912039,0,0,0.19884592,0,804.66323)"
       x1="23.204165"
       y1="1199.4276"
       x2="23.204165"
       y2="1041.7751" />
    <linearGradient
       inkscape:collect="always"
       xlink:href="#linearGradient3797"
       id="linearGradient3821"
       gradientUnits="userSpaceOnUse"
       gradientTransform="matrix(0.98452226,0,0,1,0.43312775,0)"
       x1="48.097301"
       y1="1014.7087"
       x2="24.170286"
       y2="1014.7087" />
    <linearGradient
       inkscape:collect="always"
       xlink:href="#linearGradient3786"
       id="linearGradient3823"
       gradientUnits="userSpaceOnUse"
       gradientTransform="matrix(1,0,0,0.87478318,0,131.77345)"
       x1="23.204165"
       y1="1053.158"
       x2="23.204165"
       y2="1004.8474" />
    <linearGradient
       inkscape:collect="always"
       xlink:href="#linearGradient3786"
       id="linearGradient3027"
       gradientUnits="userSpaceOnUse"
       gradientTransform="matrix(1,0,0,0.87504413,0,131.49887)"
       x1="23.204165"
       y1="1053.158"
       x2="23.204165"
       y2="1004.8474" />
    <linearGradient
       inkscape:collect="always"
       xlink:href="#linearGradient3797"
       id="linearGradient3030"
       gradientUnits="userSpaceOnUse"
       gradientTransform="matrix(0.98452226,0,0,1.0002983,0.43312775,-0.31388924)"
       x1="48.097301"
       y1="1014.7087"
       x2="24.170286"
       y2="1014.7087" />
    <linearGradient
       inkscape:collect="always"
       xlink:href="#linearGradient3786"
       id="linearGradient3033"
       gradientUnits="userSpaceOnUse"
       gradientTransform="matrix(0.5912039,0,0,0.19890524,0,804.58937)"
       x1="23.204165"
       y1="1199.4276"
       x2="23.204165"
       y2="1041.7751" />
    <linearGradient
       inkscape:collect="always"
       xlink:href="#linearGradient3786"
       id="linearGradient3037"
       gradientUnits="userSpaceOnUse"
       gradientTransform="matrix(0.5912039,0,0,0.19890524,19.622213,805.25776)"
       x1="23.204165"
       y1="1199.4276"
       x2="23.204165"
       y2="1041.7751" />
    <linearGradient
       inkscape:collect="always"
       xlink:href="#linearGradient3786"
       id="linearGradient3041"
       gradientUnits="userSpaceOnUse"
       gradientTransform="matrix(0.5912039,0,0,0.19890524,0,-199.77283)"
       x1="23.204165"
       y1="1199.4276"
       x2="23.204165"
       y2="1041.7751" />
    <linearGradient
       inkscape:collect="always"
       xlink:href="#linearGradient3822"
       id="linearGradient3828"
       gradientUnits="userSpaceOnUse"
       gradientTransform="matrix(0.5912039,0,0,0.19890524,56.565088,804.55182)"
       x1="23.204165"
       y1="1199.4276"
       x2="23.204165"
       y2="1041.7751" />
    <linearGradient
       inkscape:collect="always"
       xlink:href="#linearGradient3786"
       id="linearGradient3836"
       x1="26.184299"
       y1="1053.0715"
       x2="26.184299"
       y2="991.72864"
       gradientUnits="userSpaceOnUse"
       gradientTransform="translate(56.582137,0)" />
    <filter
       inkscape:collect="always"
       id="filter3840">
      <feGaussianBlur
         inkscape:collect="always"
         stdDeviation="0.21478367"
         id="feGaussianBlur3842" />
    </filter>
    <linearGradient
       inkscape:collect="always"
       xlink:href="#linearGradient3822"
       id="linearGradient3874"
       gradientUnits="userSpaceOnUse"
       gradientTransform="matrix(0.5912039,0,0,0.19890524,56.565088,804.55182)"
       x1="23.204165"
       y1="1199.4276"
       x2="23.204165"
       y2="1041.7751" />
    <linearGradient
       inkscape:collect="always"
       xlink:href="#linearGradient3786"
       id="linearGradient3876"
       gradientUnits="userSpaceOnUse"
       gradientTransform="translate(56.582137,0)"
       x1="26.184299"
       y1="1053.0715"
       x2="26.184299"
       y2="991.72864" />
    <linearGradient
       inkscape:collect="always"
       xlink:href="#linearGradient3822"
       id="linearGradient3888"
       gradientUnits="userSpaceOnUse"
       gradientTransform="matrix(0.5912039,0,0,0.19890524,56.565088,804.55182)"
       x1="23.204165"
       y1="1199.4276"
       x2="23.204165"
       y2="1041.7751" />
    <linearGradient
       inkscape:collect="always"
       xlink:href="#linearGradient3786"
       id="linearGradient3890"
       gradientUnits="userSpaceOnUse"
       gradientTransform="translate(56.582137,0)"
       x1="26.184299"
       y1="1053.0715"
       x2="26.184299"
       y2="991.72864" />
    <linearGradient
       inkscape:collect="always"
       xlink:href="#linearGradient3786"
       id="linearGradient3904"
       gradientUnits="userSpaceOnUse"
       gradientTransform="matrix(0.5912039,0,0,0.19890524,19.622213,805.25776)"
       x1="23.204165"
       y1="1199.4276"
       x2="23.204165"
       y2="1041.7751" />
    <linearGradient
       inkscape:collect="always"
       xlink:href="#linearGradient3822"
       id="linearGradient3906"
       gradientUnits="userSpaceOnUse"
       gradientTransform="matrix(0.5912039,0,0,0.19890524,56.565088,804.55182)"
       x1="23.204165"
       y1="1199.4276"
       x2="23.204165"
       y2="1041.7751" />
    <linearGradient
       inkscape:collect="always"
       xlink:href="#linearGradient3786"
       id="linearGradient3908"
       gradientUnits="userSpaceOnUse"
       gradientTransform="translate(56.582137,0)"
       x1="26.184299"
       y1="1053.0715"
       x2="26.184299"
       y2="991.72864" />
    <linearGradient
       inkscape:collect="always"
       xlink:href="#linearGradient3786"
       id="linearGradient3921"
       gradientUnits="userSpaceOnUse"
       gradientTransform="matrix(0.5912039,0,0,0.19890524,19.622213,805.25776)"
       x1="23.204165"
       y1="1199.4276"
       x2="23.204165"
       y2="1041.7751" />
    <linearGradient
       inkscape:collect="always"
       xlink:href="#linearGradient3822"
       id="linearGradient3923"
       gradientUnits="userSpaceOnUse"
       gradientTransform="matrix(0.5912039,0,0,0.19890524,56.565088,804.55182)"
       x1="23.204165"
       y1="1199.4276"
       x2="23.204165"
       y2="1041.7751" />
    <linearGradient
       inkscape:collect="always"
       xlink:href="#linearGradient3786"
       id="linearGradient3925"
       gradientUnits="userSpaceOnUse"
       gradientTransform="translate(56.582137,0)"
       x1="26.184299"
       y1="1053.0715"
       x2="26.184299"
       y2="991.72864" />
    <linearGradient
       inkscape:collect="always"
       xlink:href="#linearGradient3822"
       id="linearGradient3935"
       gradientUnits="userSpaceOnUse"
       gradientTransform="matrix(0.5912039,0,0,0.19890524,56.565088,804.55182)"
       x1="23.204165"
       y1="1199.4276"
       x2="23.204165"
       y2="1041.7751" />
    <linearGradient
       inkscape:collect="always"
       xlink:href="#linearGradient3786"
       id="linearGradient3937"
       gradientUnits="userSpaceOnUse"
       gradientTransform="translate(56.582137,0)"
       x1="26.184299"
       y1="1053.0715"
       x2="26.184299"
       y2="991.72864" />
    <linearGradient
       inkscape:collect="always"
       xlink:href="#linearGradient3822"
       id="linearGradient3945"
       gradientUnits="userSpaceOnUse"
       gradientTransform="matrix(0.5912039,0,0,0.19890524,56.565088,804.55182)"
       x1="23.204165"
       y1="1199.4276"
       x2="23.204165"
       y2="1041.7751" />
    <linearGradient
       inkscape:collect="always"
       xlink:href="#linearGradient3786"
       id="linearGradient3947"
       gradientUnits="userSpaceOnUse"
       gradientTransform="translate(56.582137,0)"
       x1="26.184299"
       y1="1053.0715"
       x2="26.184299"
       y2="991.72864" />
    <linearGradient
       inkscape:collect="always"
       xlink:href="#linearGradient3786"
       id="linearGradient3950"
       gradientUnits="userSpaceOnUse"
       gradientTransform="translate(0.017049,-0.0334048)"
       x1="26.184299"
       y1="1053.0715"
       x2="26.184299"
       y2="991.72864" />
    <linearGradient
       inkscape:collect="always"
       xlink:href="#linearGradient3822"
       id="linearGradient3953"
       gradientUnits="userSpaceOnUse"
       gradientTransform="matrix(0.5912039,0,0,0.19890524,0,804.51842)"
       x1="23.204165"
       y1="1199.4276"
       x2="23.204165"
       y2="1041.7751" />
    <linearGradient
       inkscape:collect="always"
       xlink:href="#linearGradient3786"
       id="linearGradient3831"
       gradientUnits="userSpaceOnUse"
       gradientTransform="translate(0.017049,-1004.3956)"
       x1="26.184299"
       y1="1053.0715"
       x2="26.184299"
       y2="991.72864" />
    <linearGradient
       inkscape:collect="always"
       xlink:href="#linearGradient3822"
       id="linearGradient3834"
       gradientUnits="userSpaceOnUse"
       gradientTransform="matrix(0.5912039,0,0,0.19890524,0,804.51842)"
       x1="23.204165"
       y1="1199.4276"
       x2="23.204165"
       y2="1041.7751" />
  </defs>
  <sodipodi:namedview
     id="base"
     pagecolor="#ffffff"
     bordercolor="#666666"
     borderopacity="1.0"
     inkscape:pageopacity="0.0"
     inkscape:pageshadow="2"
     inkscape:zoom="8.0000001"
     inkscape:cx="40.267005"
     inkscape:cy="35.313742"
     inkscape:document-units="px"
     inkscape:current-layer="layer1"
     showgrid="false"
     inkscape:window-width="1280"
     inkscape:window-height="654"
     inkscape:window-x="0"
     inkscape:window-y="18"
     inkscape:window-maximized="1" />
  <metadata
     id="metadata7">
    <rdf:RDF>
      <cc:Work
         rdf:about="">
        <dc:format>image/svg+xml</dc:format>
        <dc:type
           rdf:resource="http://purl.org/dc/dcmitype/StillImage" />
        <dc:title />
      </cc:Work>
    </rdf:RDF>
  </metadata>
  <g
     inkscape:label="Capa 1"
     inkscape:groupmode="layer"
     id="layer1"
     transform="translate(0,-1004.3622)">
    <rect
       style="fill:#c58429;fill-opacity:1;stroke:none"
       id="rect3806"
       width="28.377787"
       height="10.210337"
       x="19.622213"
       y="1004.3676"
       ry="2.3700824" />
    <rect
       ry="2.3700824"
       y="1006.8127"
       x="2.5216296"
       height="42.956734"
       width="42.956734"
       id="rect3838"
       style="opacity:0.38990826;fill:#000000;fill-opacity:1;stroke:none;filter:url(#filter3840)" />
    <rect
       style="fill:#ffffff;fill-opacity:1;stroke:none"
       id="rect3050"
       width="41.896072"
       height="42.69157"
       x="3.0519602"
       y="1007.0778"
       ry="2.3554523" />
    <rect
       style="fill:#000000;fill-opacity:0.51052629;stroke:none"
       id="rect3792"
       width="25.554134"
       height="9.3539839"
       x="2.2651651"
       y="1004.5557"
       ry="0.13453899" />
    <path
       style="fill:url(#linearGradient3834);fill-opacity:1;stroke:none"
       d="m 2.375,1004.3796 c -1.313025,0 -2.375,1.0619 -2.375,2.375 l 0,4.7241 c 0,0.055 0.02758,0.102 0.03125,0.1563 7.16e-4,0.01 -8.52e-4,0.021 0,0.031 C 0.01247,1011.7676 0,1011.8713 0,1011.9785 l 0,38.625 c 0,0.9426 0.744835,1.6875 1.6875,1.6875 l 44.624992,0 c 0.94267,0 1.6875,-0.7449 1.6875,-1.6875 l 0,-38.3125 c 0,-0.9427 -0.74483,-1.6875 -1.6875,-1.6875 l -18.953958,0 0,-3.8491 c 0,-1.3131 -1.061974,-2.375 -2.375,-2.375 l -22.608534,0 z"
       id="rect3014"
       inkscape:connector-curvature="0"
       sodipodi:nodetypes="cssccssssssscsscc" />
    <path
       style="fill:none;stroke:url(#linearGradient3831);stroke-width:2.69842076;stroke-miterlimit:4;stroke-dasharray:none"
       d="m 27.35689,1.3629796 -24.048476,0 0,-0.0014 0,0 c -2.0970748,0 -1.942902,0.1212466 -1.942902,2.1819087 l 0,4.4673117 c 0,0.052 0.02641,0.097 0.02993,0.1479 6.85e-4,0.01 -8.17e-4,0.021 0,0.031 -0.01799,0.097 -0.02993,0.1944 -0.02993,0.2958 l 0,36.5642 c 0,1.7541 -0.170611,1.5975 1.284535,1.5975 l 42.336255,0 c 2.0497,0 1.61599,0.024 1.61599,-1.5975 l 0,-38.3142 c 0,-0.1921769 0.0042,-0.3618168 0.0064,-0.5114684"
       id="path3845"
       transform="translate(0,1004.3622)"
       inkscape:connector-curvature="0"
       sodipodi:nodetypes="ccccssccssssssc" />
    <text
       xml:space="preserve"
       style="font-size:4.63344954999999992px;font-style:normal;font-variant:normal;font-weight:bold;font-stretch:normal;line-height:125%;letter-spacing:0px;word-spacing:0px;fill:#c88515;fill-opacity:1;stroke:none;font-family:Europe Underground;-inkscape-font-specification:Europe Underground Bold"
       x="4.4118905"
       y="1012.2629"
       id="text3057"
       sodipodi:linespacing="125%"><tspan
         sodipodi:role="line"
         id="tspan3059"
         x="4.4118905"
         y="1012.2629">FM</tspan></text>
    <path
       style="opacity:0.15;fill:#ffffff;fill-opacity:1;stroke:none"
       d="m 0.01014573,1004.291 0,48 16.78125027,0 12.84375,-48 -29.62500027,0 z"
       id="rect3790"
       inkscape:connector-curvature="0" />
  </g>
</svg>
