<?xml version="1.0" encoding="UTF-8" standalone="no"?>
<!-- Created with Inkscape (http://www.inkscape.org/) -->

<svg
   xmlns:dc="http://purl.org/dc/elements/1.1/"
   xmlns:cc="http://creativecommons.org/ns#"
   xmlns:rdf="http://www.w3.org/1999/02/22-rdf-syntax-ns#"
   xmlns:svg="http://www.w3.org/2000/svg"
   xmlns="http://www.w3.org/2000/svg"
   xmlns:xlink="http://www.w3.org/1999/xlink"
   xmlns:sodipodi="http://sodipodi.sourceforge.net/DTD/sodipodi-0.dtd"
   xmlns:inkscape="http://www.inkscape.org/namespaces/inkscape"
   width="48"
   height="48.000008"
   id="svg5751"
   version="1.1"
   inkscape:version="0.48+devel r11521"
   sodipodi:docname="Nuevo documento 53">
  <defs
     id="defs5753">
    <linearGradient
       id="linearGradient6336">
      <stop
         id="stop6338"
         offset="0"
         style="stop-color:#a3a3a3;stop-opacity:1" />
      <stop
         id="stop6340"
         offset="1"
         style="stop-color:#3b3b3b;stop-opacity:1" />
    </linearGradient>
    <linearGradient
       inkscape:collect="always"
       xlink:href="#linearGradient3795"
       id="linearGradient3801"
       x1="23.204165"
       y1="1053.158"
       x2="23.204165"
       y2="1004.8474"
       gradientUnits="userSpaceOnUse"
       gradientTransform="translate(0,-2056.7244)" />
    <linearGradient
       id="linearGradient3795">
      <stop
         style="stop-color:#68b8d8;stop-opacity:1;"
         offset="0"
         id="stop3797" />
      <stop
         style="stop-color:#3097bd;stop-opacity:1;"
         offset="1"
         id="stop3799" />
    </linearGradient>
    <linearGradient
       y2="1004.8474"
       x2="23.204165"
       y1="1053.158"
       x1="23.204165"
       gradientTransform="translate(326,-1560.7244)"
       gradientUnits="userSpaceOnUse"
       id="linearGradient6315"
       xlink:href="#linearGradient6336"
       inkscape:collect="always" />
  </defs>
  <sodipodi:namedview
     id="base"
     pagecolor="#ffffff"
     bordercolor="#666666"
     borderopacity="1.0"
     inkscape:pageopacity="0.0"
     inkscape:pageshadow="2"
     inkscape:zoom="11.2"
     inkscape:cx="18.729518"
     inkscape:cy="27.41887"
     inkscape:document-units="px"
     inkscape:current-layer="layer1"
     showgrid="false"
     width="0px"
     height="0px"
     fit-margin-top="0"
     fit-margin-left="0"
     fit-margin-right="0"
     fit-margin-bottom="0"
     inkscape:window-width="955"
     inkscape:window-height="806"
     inkscape:window-x="356"
     inkscape:window-y="174"
     inkscape:window-maximized="0" />
  <metadata
     id="metadata5756">
    <rdf:RDF>
      <cc:Work
         rdf:about="">
        <dc:format>image/svg+xml</dc:format>
        <dc:type
           rdf:resource="http://purl.org/dc/dcmitype/StillImage" />
        <cc:license
           rdf:resource="" />
        <dc:title></dc:title>
      </cc:Work>
    </rdf:RDF>
  </metadata>
  <g
     inkscape:label="Capa 1"
     inkscape:groupmode="layer"
     id="layer1"
     transform="translate(-326,-508.36218)">
    <rect
       style="fill:url(#linearGradient6315);fill-opacity:1;stroke:none"
       id="rect2991"
       width="48"
       height="48"
       x="326"
       y="-556.36218"
       ry="1.9445436"
       transform="scale(1,-1)" />
    <path
       inkscape:connector-curvature="0"
       style="opacity:0.15;fill:#ffffff;fill-opacity:1;stroke:none"
       d="m 326,508.36219 0,48 16.78125,0 12.84375,-48 -29.625,0 z"
       id="rect3790" />
    <g
       id="g6356">
      <path
         sodipodi:nodetypes="ccsscccsscccccc"
         inkscape:connector-curvature="0"
         id="rect6342"
         d="m 336.75398,530.16796 0,5.01786 c -0.0179,0.17752 0,0.34885 0,0.53125 l 0,9.625 c 0,0.1824 -0.0179,0.38498 0,0.5625 l 0,0.34375 0.0625,0 c 0.42546,2.48571 2.57678,4.375 5.1875,4.375 l 16,0 c 2.61112,0 4.76251,-1.88873 5.1875,-4.375 l 0.0625,0 0,-0.90625 0,-9.625 0,-5.54911 z"
         style="fill:#ffffff;fill-opacity:1;stroke:none" />
      <rect
         ry="4.3498807"
         y="515.1048"
         x="340.93057"
         height="22.010393"
         width="18.138859"
         id="rect6347"
         style="fill:none;stroke:#ffffff;stroke-width:2.00746274;stroke-miterlimit:4;stroke-dasharray:none" />
    </g>
  </g>
</svg>
