<?xml version="1.0" encoding="UTF-8" standalone="no"?>
<!-- Created with Inkscape (http://www.inkscape.org/) -->

<svg
   xmlns:dc="http://purl.org/dc/elements/1.1/"
   xmlns:cc="http://creativecommons.org/ns#"
   xmlns:rdf="http://www.w3.org/1999/02/22-rdf-syntax-ns#"
   xmlns:svg="http://www.w3.org/2000/svg"
   xmlns="http://www.w3.org/2000/svg"
   xmlns:xlink="http://www.w3.org/1999/xlink"
   xmlns:sodipodi="http://sodipodi.sourceforge.net/DTD/sodipodi-0.dtd"
   xmlns:inkscape="http://www.inkscape.org/namespaces/inkscape"
   width="48"
   height="48"
   id="svg2"
   version="1.1"
   inkscape:version="0.48.2 r9819"
   sodipodi:docname="tomboy.svg">
  <defs
     id="defs4">
    <linearGradient
       inkscape:collect="always"
       id="linearGradient3901">
      <stop
         style="stop-color:#ffffff;stop-opacity:1;"
         offset="0"
         id="stop3903" />
      <stop
         style="stop-color:#000000;stop-opacity:0;"
         offset="1"
         id="stop3905" />
    </linearGradient>
    <linearGradient
       id="linearGradient3868">
      <stop
         style="stop-color:#d6d6d6;stop-opacity:1;"
         offset="0"
         id="stop3870" />
      <stop
         id="stop3872"
         offset="0.67819428"
         style="stop-color:#e1e1e1;stop-opacity:1;" />
      <stop
         style="stop-color:#dedede;stop-opacity:1;"
         offset="1"
         id="stop3874" />
    </linearGradient>
    <linearGradient
       id="linearGradient3858">
      <stop
         id="stop3860"
         offset="0"
         style="stop-color:#e1a796;stop-opacity:1;" />
      <stop
         style="stop-color:#e19889;stop-opacity:1;"
         offset="0.67819428"
         id="stop3862" />
      <stop
         id="stop3864"
         offset="1"
         style="stop-color:#d37069;stop-opacity:1;" />
    </linearGradient>
    <linearGradient
       id="linearGradient3850">
      <stop
         style="stop-color:#e1a796;stop-opacity:1;"
         offset="0"
         id="stop3852" />
      <stop
         id="stop3854"
         offset="0.67819428"
         style="stop-color:#e19889;stop-opacity:1;" />
      <stop
         style="stop-color:#d37069;stop-opacity:1;"
         offset="1"
         id="stop3856" />
    </linearGradient>
    <linearGradient
       id="linearGradient3795">
      <stop
         style="stop-color:#e5c96d;stop-opacity:1;"
         offset="0"
         id="stop3797" />
      <stop
         style="stop-color:#ebdf7b;stop-opacity:1;"
         offset="1"
         id="stop3799" />
    </linearGradient>
    <linearGradient
       inkscape:collect="always"
       id="linearGradient3914">
      <stop
         style="stop-color:#59b3e1;stop-opacity:1;"
         offset="0"
         id="stop3916" />
      <stop
         style="stop-color:#59b3e1;stop-opacity:0;"
         offset="1"
         id="stop3918" />
    </linearGradient>
    <linearGradient
       id="linearGradient3698">
      <stop
         id="stop3700"
         offset="0"
         style="stop-color:#96d0e1;stop-opacity:1" />
      <stop
         style="stop-color:#89b7e1;stop-opacity:1"
         offset="0.67819428"
         id="stop3706" />
      <stop
         id="stop3702"
         offset="1"
         style="stop-color:#699dd3;stop-opacity:1" />
    </linearGradient>
    <linearGradient
       id="linearGradient3708">
      <stop
         id="stop3710"
         offset="0"
         style="stop-color:#658db6;stop-opacity:1" />
      <stop
         style="stop-color:#527fab;stop-opacity:1;"
         offset="0.76777935"
         id="stop3716" />
      <stop
         id="stop3712"
         offset="1"
         style="stop-color:#4071a0;stop-opacity:1" />
    </linearGradient>
    <linearGradient
       id="linearGradient3750">
      <stop
         style="stop-color:#d0e2f1;stop-opacity:1"
         offset="0"
         id="stop3752" />
      <stop
         id="stop3756"
         offset="0.85580856"
         style="stop-color:#cadef0;stop-opacity:1" />
      <stop
         style="stop-color:#95bee3;stop-opacity:1"
         offset="1"
         id="stop3754" />
    </linearGradient>
    <linearGradient
       id="linearGradient3803">
      <stop
         id="stop3805"
         offset="0"
         style="stop-color:#d7def0;stop-opacity:1;" />
      <stop
         style="stop-color:#ffffff;stop-opacity:1"
         offset="0.5"
         id="stop3811" />
      <stop
         id="stop3807"
         offset="1"
         style="stop-color:#d5def0;stop-opacity:1" />
    </linearGradient>
    <linearGradient
       inkscape:collect="always"
       xlink:href="#linearGradient3914"
       id="linearGradient3920"
       x1="6.8000002"
       y1="25.0625"
       x2="45.325001"
       y2="25.0625"
       gradientUnits="userSpaceOnUse" />
    <linearGradient
       inkscape:collect="always"
       xlink:href="#linearGradient3795"
       id="linearGradient3801"
       x1="23.204165"
       y1="1053.158"
       x2="23.204165"
       y2="1004.8474"
       gradientUnits="userSpaceOnUse" />
    <linearGradient
       inkscape:collect="always"
       xlink:href="#linearGradient3795"
       id="linearGradient3794"
       x1="21.563122"
       y1="1040.8531"
       x2="41.125"
       y2="1040.8531"
       gradientUnits="userSpaceOnUse" />
    <linearGradient
       inkscape:collect="always"
       xlink:href="#linearGradient3795"
       id="linearGradient3816"
       x1="12.581475"
       y1="1025.9341"
       x2="36.385666"
       y2="1025.9341"
       gradientUnits="userSpaceOnUse" />
    <linearGradient
       inkscape:collect="always"
       xlink:href="#linearGradient3795"
       id="linearGradient3840"
       gradientUnits="userSpaceOnUse"
       x1="23.204165"
       y1="1053.158"
       x2="23.204165"
       y2="1004.8474"
       gradientTransform="scale(0.65381232,1)" />
    <linearGradient
       inkscape:collect="always"
       xlink:href="#linearGradient3698"
       id="linearGradient3844"
       gradientUnits="userSpaceOnUse"
       gradientTransform="matrix(0.65381232,0,0,1,6.1249997,0)"
       x1="23.777723"
       y1="1003.8292"
       x2="23.777723"
       y2="1052.5974" />
    <linearGradient
       inkscape:collect="always"
       xlink:href="#linearGradient3858"
       id="linearGradient3848"
       gradientUnits="userSpaceOnUse"
       gradientTransform="matrix(0.65381232,0,0,1,11.624999,0)"
       x1="27.219078"
       y1="1003.8976"
       x2="27.219078"
       y2="1052.2588" />
    <linearGradient
       inkscape:collect="always"
       xlink:href="#linearGradient3868"
       id="linearGradient3876"
       gradientUnits="userSpaceOnUse"
       gradientTransform="matrix(0.65381232,0,0,1,16.249999,0)"
       x1="27.219078"
       y1="1003.8976"
       x2="27.219078"
       y2="1052.2588" />
    <radialGradient
       inkscape:collect="always"
       xlink:href="#linearGradient3901"
       id="radialGradient3927"
       gradientUnits="userSpaceOnUse"
       gradientTransform="matrix(1.0735459,0,0,2.1162239,-1.1721382,-1148.5801)"
       cx="15.937499"
       cy="1028.9872"
       fx="15.937499"
       fy="1028.9872"
       r="12.5625" />
    <radialGradient
       inkscape:collect="always"
       xlink:href="#linearGradient3901"
       id="radialGradient3929"
       gradientUnits="userSpaceOnUse"
       gradientTransform="matrix(1.0735459,0,0,2.1162239,-1.1721382,-1148.5801)"
       cx="15.937499"
       cy="1028.9872"
       fx="15.937499"
       fy="1028.9872"
       r="12.5625" />
    <radialGradient
       inkscape:collect="always"
       xlink:href="#linearGradient3901"
       id="radialGradient3931"
       gradientUnits="userSpaceOnUse"
       gradientTransform="matrix(1.0735459,0,0,2.1162239,-1.1721382,-1148.5801)"
       cx="15.937499"
       cy="1028.9872"
       fx="15.937499"
       fy="1028.9872"
       r="12.5625" />
    <radialGradient
       inkscape:collect="always"
       xlink:href="#linearGradient3901"
       id="radialGradient3933"
       gradientUnits="userSpaceOnUse"
       gradientTransform="matrix(1.0735459,0,0,2.1162239,-1.1721382,-1148.5801)"
       cx="15.937499"
       cy="1028.9872"
       fx="15.937499"
       fy="1028.9872"
       r="12.5625" />
    <radialGradient
       inkscape:collect="always"
       xlink:href="#linearGradient3901"
       id="radialGradient3935"
       gradientUnits="userSpaceOnUse"
       gradientTransform="matrix(1.0735459,0,0,2.1162239,-1.1721382,-1148.5801)"
       cx="15.937499"
       cy="1028.9872"
       fx="15.937499"
       fy="1028.9872"
       r="12.5625" />
    <radialGradient
       inkscape:collect="always"
       xlink:href="#linearGradient3901"
       id="radialGradient3937"
       gradientUnits="userSpaceOnUse"
       gradientTransform="matrix(1.0735459,0,0,2.1162239,-1.1721382,-1148.5801)"
       cx="15.937499"
       cy="1028.9872"
       fx="15.937499"
       fy="1028.9872"
       r="12.5625" />
    <radialGradient
       inkscape:collect="always"
       xlink:href="#linearGradient3901"
       id="radialGradient3939"
       gradientUnits="userSpaceOnUse"
       gradientTransform="matrix(1.0735459,0,0,2.1162239,-1.1721382,-1148.5801)"
       cx="15.937499"
       cy="1028.9872"
       fx="15.937499"
       fy="1028.9872"
       r="12.5625" />
    <radialGradient
       inkscape:collect="always"
       xlink:href="#linearGradient3901"
       id="radialGradient3941"
       gradientUnits="userSpaceOnUse"
       gradientTransform="matrix(1.0735459,0,0,2.1162239,-1.1721382,-1148.5801)"
       cx="15.937499"
       cy="1028.9872"
       fx="15.937499"
       fy="1028.9872"
       r="12.5625" />
    <filter
       inkscape:collect="always"
       id="filter3820">
      <feGaussianBlur
         inkscape:collect="always"
         stdDeviation="0.19845748"
         id="feGaussianBlur3822" />
    </filter>
  </defs>
  <sodipodi:namedview
     id="base"
     pagecolor="#ffffff"
     bordercolor="#666666"
     borderopacity="1.0"
     inkscape:pageopacity="0.0"
     inkscape:pageshadow="2"
     inkscape:zoom="8.0000004"
     inkscape:cx="27.477257"
     inkscape:cy="24.009921"
     inkscape:document-units="px"
     inkscape:current-layer="layer1"
     showgrid="false"
     inkscape:window-width="1278"
     inkscape:window-height="655"
     inkscape:window-x="0"
     inkscape:window-y="0"
     inkscape:window-maximized="1" />
  <metadata
     id="metadata7">
    <rdf:RDF>
      <cc:Work
         rdf:about="">
        <dc:format>image/svg+xml</dc:format>
        <dc:type
           rdf:resource="http://purl.org/dc/dcmitype/StillImage" />
        <dc:title />
      </cc:Work>
    </rdf:RDF>
  </metadata>
  <g
     inkscape:label="Capa 1"
     inkscape:groupmode="layer"
     id="layer1"
     transform="translate(0,-1004.3622)">
    <rect
       ry="1.9445436"
       y="1004.3622"
       x="16.249998"
       height="48"
       width="31.382992"
       id="rect3866"
       style="fill:url(#linearGradient3876);fill-opacity:1;stroke:none" />
    <rect
       ry="1.9445436"
       y="1004.3622"
       x="12.437498"
       height="48"
       width="31.382992"
       id="rect3048"
       style="opacity:0.1;fill:#000000;fill-opacity:1;stroke:none;filter:url(#filter3820)" />
    <rect
       style="fill:url(#linearGradient3848);fill-opacity:1;stroke:none"
       id="rect3846"
       width="31.382992"
       height="48"
       x="11.624998"
       y="1004.3622"
       ry="1.9445436" />
    <rect
       style="opacity:0.1;fill:#000000;fill-opacity:1;stroke:none;filter:url(#filter3820)"
       id="rect3824"
       width="31.382992"
       height="48"
       x="7.0312486"
       y="1004.3622"
       ry="1.9445436" />
    <rect
       ry="1.9445436"
       y="1004.3622"
       x="6.1249995"
       height="48"
       width="31.382992"
       id="rect3842"
       style="fill:url(#linearGradient3844);fill-opacity:1;stroke:none" />
    <rect
       ry="1.9445436"
       y="1004.3622"
       x="0.90624887"
       height="48"
       width="31.382992"
       id="rect3826"
       style="opacity:0.1;fill:#000000;fill-opacity:1;stroke:none;filter:url(#filter3820)" />
    <rect
       style="fill:url(#linearGradient3840);fill-opacity:1;stroke:none"
       id="rect2991"
       width="31.382992"
       height="48"
       x="0"
       y="1004.3622"
       ry="1.9445436" />
    <g
       id="g3892"
       style="stroke:#000000;stroke-width:0.40000000000000002;stroke-miterlimit:4;stroke-dasharray:none;stroke-opacity:0.12777779">
      <path
         transform="translate(0,1004.3622)"
         inkscape:connector-curvature="0"
         id="path3878"
         d="m 3.8749998,9.6250019 24.1249992,0"
         style="fill:none;stroke:#000000;stroke-width:0.40000000000000002;stroke-linecap:butt;stroke-linejoin:miter;stroke-opacity:0.12777779;opacity:1;stroke-miterlimit:4;stroke-dasharray:none" />
      <path
         style="fill:none;stroke:#000000;stroke-width:0.40000000000000002;stroke-linecap:butt;stroke-linejoin:miter;stroke-opacity:0.12777779;stroke-miterlimit:4;stroke-dasharray:none"
         d="m 3.8749998,1023.9872 24.1249992,0"
         id="path3880"
         inkscape:connector-curvature="0" />
      <path
         inkscape:connector-curvature="0"
         id="path3882"
         d="m 3.8749998,1033.9872 24.1249992,0"
         style="fill:none;stroke:#000000;stroke-width:0.40000000000000002;stroke-linecap:butt;stroke-linejoin:miter;stroke-opacity:0.12777779;stroke-miterlimit:4;stroke-dasharray:none" />
      <path
         style="fill:none;stroke:#000000;stroke-width:0.40000000000000002;stroke-linecap:butt;stroke-linejoin:miter;stroke-opacity:0.12777779;stroke-miterlimit:4;stroke-dasharray:none"
         d="m 3.8749998,1038.9872 24.1249992,0"
         id="path3884"
         inkscape:connector-curvature="0" />
      <path
         style="fill:none;stroke:#000000;stroke-width:0.40000000000000002;stroke-linecap:butt;stroke-linejoin:miter;stroke-opacity:0.12777779;stroke-miterlimit:4;stroke-dasharray:none"
         d="m 3.8749998,1018.9872 24.1249992,0"
         id="path3886"
         inkscape:connector-curvature="0" />
      <path
         inkscape:connector-curvature="0"
         id="path3888"
         d="m 3.8749998,1028.9872 24.1249992,0"
         style="fill:none;stroke:#000000;stroke-width:0.40000000000000002;stroke-linecap:butt;stroke-linejoin:miter;stroke-opacity:0.12777779;stroke-miterlimit:4;stroke-dasharray:none" />
      <path
         inkscape:connector-curvature="0"
         id="path3890"
         d="m 3.8749998,1043.9872 24.1249992,0"
         style="fill:none;stroke:#000000;stroke-width:0.40000000000000002;stroke-linecap:butt;stroke-linejoin:miter;stroke-opacity:0.12777779;opacity:1;stroke-miterlimit:4;stroke-dasharray:none" />
    </g>
    <path
       style="fill:#ffffff;stroke:none;fill-opacity:1;opacity:0.15"
       d="M 0 0 L 0 48 L 16.78125 48 L 29.625 0 L 0 0 z "
       id="rect3790"
       transform="translate(0,1004.3622)" />
  </g>
</svg>
