<?xml version="1.0" encoding="UTF-8" standalone="no"?>
<!-- Created with Inkscape (http://www.inkscape.org/) -->

<svg
   xmlns:i="http://ns.adobe.com/AdobeIllustrator/10.0/"
   xmlns:dc="http://purl.org/dc/elements/1.1/"
   xmlns:cc="http://creativecommons.org/ns#"
   xmlns:rdf="http://www.w3.org/1999/02/22-rdf-syntax-ns#"
   xmlns:svg="http://www.w3.org/2000/svg"
   xmlns="http://www.w3.org/2000/svg"
   xmlns:xlink="http://www.w3.org/1999/xlink"
   xmlns:sodipodi="http://sodipodi.sourceforge.net/DTD/sodipodi-0.dtd"
   xmlns:inkscape="http://www.inkscape.org/namespaces/inkscape"
   width="48"
   height="48"
   id="svg2"
   version="1.1"
   inkscape:version="0.48.2 r9819"
   sodipodi:docname="preferences-desktop-remote-desktop.svg">
  <defs
     id="defs4">
    <linearGradient
       id="linearGradient3795">
      <stop
         style="stop-color:#d0d868;stop-opacity:1;"
         offset="0"
         id="stop3797" />
      <stop
         style="stop-color:#87bd30;stop-opacity:1;"
         offset="1"
         id="stop3799" />
    </linearGradient>
    <linearGradient
       id="linearGradient3698">
      <stop
         id="stop3700"
         offset="0"
         style="stop-color:#96d0e1;stop-opacity:1" />
      <stop
         style="stop-color:#89b7e1;stop-opacity:1"
         offset="0.67819428"
         id="stop3706" />
      <stop
         id="stop3702"
         offset="1"
         style="stop-color:#699dd3;stop-opacity:1" />
    </linearGradient>
    <linearGradient
       id="linearGradient3708">
      <stop
         id="stop3710"
         offset="0"
         style="stop-color:#658db6;stop-opacity:1" />
      <stop
         style="stop-color:#527fab;stop-opacity:1;"
         offset="0.76777935"
         id="stop3716" />
      <stop
         id="stop3712"
         offset="1"
         style="stop-color:#4071a0;stop-opacity:1" />
    </linearGradient>
    <linearGradient
       id="linearGradient3750">
      <stop
         style="stop-color:#d0e2f1;stop-opacity:1"
         offset="0"
         id="stop3752" />
      <stop
         id="stop3756"
         offset="0.85580856"
         style="stop-color:#cadef0;stop-opacity:1" />
      <stop
         style="stop-color:#95bee3;stop-opacity:1"
         offset="1"
         id="stop3754" />
    </linearGradient>
    <linearGradient
       id="linearGradient3803">
      <stop
         id="stop3805"
         offset="0"
         style="stop-color:#d7def0;stop-opacity:1;" />
      <stop
         style="stop-color:#ffffff;stop-opacity:1"
         offset="0.5"
         id="stop3811" />
      <stop
         id="stop3807"
         offset="1"
         style="stop-color:#d5def0;stop-opacity:1" />
    </linearGradient>
    <linearGradient
       inkscape:collect="always"
       xlink:href="#linearGradient3795"
       id="linearGradient3801"
       x1="23.204165"
       y1="1053.158"
       x2="23.204165"
       y2="1004.8474"
       gradientUnits="userSpaceOnUse"
       gradientTransform="translate(0,-2056.7244)" />
    <linearGradient
       inkscape:collect="always"
       xlink:href="#linearGradient3795"
       id="linearGradient3859"
       x1="26.192217"
       y1="1024.0002"
       x2="28.641211"
       y2="1024.0002"
       gradientUnits="userSpaceOnUse" />
    <linearGradient
       inkscape:collect="always"
       xlink:href="#linearGradient3795"
       id="linearGradient3867"
       gradientUnits="userSpaceOnUse"
       x1="26.192217"
       y1="1024.0002"
       x2="28.641211"
       y2="1024.0002" />
    <linearGradient
       inkscape:collect="always"
       xlink:href="#linearGradient3795"
       id="linearGradient3869"
       gradientUnits="userSpaceOnUse"
       x1="26.192217"
       y1="1024.0002"
       x2="28.641211"
       y2="1024.0002" />
    <linearGradient
       inkscape:collect="always"
       xlink:href="#linearGradient3795"
       id="linearGradient3871"
       gradientUnits="userSpaceOnUse"
       x1="26.192217"
       y1="1024.0002"
       x2="28.641211"
       y2="1024.0002" />
    <linearGradient
       inkscape:collect="always"
       xlink:href="#linearGradient3795"
       id="linearGradient3877"
       gradientUnits="userSpaceOnUse"
       x1="29.718235"
       y1="1027.8575"
       x2="22.811094"
       y2="1015.5485" />
    <linearGradient
       inkscape:collect="always"
       xlink:href="#linearGradient3795"
       id="linearGradient3879"
       gradientUnits="userSpaceOnUse"
       x1="17.196316"
       y1="1006.2238"
       x2="31.448042"
       y2="1030.9086" />
    <linearGradient
       inkscape:collect="always"
       xlink:href="#linearGradient3795"
       id="linearGradient3895"
       x1="21.973417"
       y1="34.43922"
       x2="42.475323"
       y2="24.798252"
       gradientUnits="userSpaceOnUse" />
    <linearGradient
       gradientTransform="matrix(0.49046264,0,0,0.49046264,1.7528597,0.99901873)"
       y2="56.028"
       x2="9.1239996"
       y1="37.779999"
       x1="9.1239996"
       gradientUnits="userSpaceOnUse"
       id="linearGradient3650"
       xlink:href="#linearGradient3216"
       inkscape:collect="always" />
    <foreignObject
       requiredExtensions="http://ns.adobe.com/AdobeIllustrator/10.0/"
       x="0"
       y="0"
       width="1"
       height="1"
       id="foreignObject8">
      <i:pgfRef
         xlink:href="#adobe_illustrator_pgf" />
    </foreignObject>
    <inkscape:perspective
       id="perspective19"
       inkscape:persp3d-origin="60 : 40 : 1"
       inkscape:vp_z="120 : 60 : 1"
       inkscape:vp_y="0 : 1000 : 0"
       inkscape:vp_x="0 : 60 : 1"
       sodipodi:type="inkscape:persp3d" />
    <linearGradient
       id="linearGradient3196">
      <stop
         id="stop3198"
         offset="0"
         style="stop-color:#de220c;stop-opacity:1;" />
      <stop
         id="stop3200"
         offset="1"
         style="stop-color:#700000;stop-opacity:1;" />
    </linearGradient>
    <linearGradient
       id="linearGradient3206">
      <stop
         id="stop3208"
         offset="0"
         style="stop-color:#fd8011;stop-opacity:1;" />
      <stop
         id="stop3210"
         offset="1"
         style="stop-color:#cb4e00;stop-opacity:1;" />
    </linearGradient>
    <linearGradient
       id="linearGradient3216">
      <stop
         id="stop3218"
         offset="0"
         style="stop-color:#e3b216;stop-opacity:1;" />
      <stop
         id="stop3220"
         offset="1"
         style="stop-color:#dc951d;stop-opacity:1;" />
    </linearGradient>
  </defs>
  <sodipodi:namedview
     id="base"
     pagecolor="#ffffff"
     bordercolor="#666666"
     borderopacity="1.0"
     inkscape:pageopacity="0.0"
     inkscape:pageshadow="2"
     inkscape:zoom="11.313709"
     inkscape:cx="20.300252"
     inkscape:cy="22.839284"
     inkscape:document-units="px"
     inkscape:current-layer="layer1"
     showgrid="false"
     inkscape:window-width="1280"
     inkscape:window-height="747"
     inkscape:window-x="0"
     inkscape:window-y="0"
     inkscape:window-maximized="1">
    <inkscape:grid
       type="xygrid"
       id="grid3850" />
  </sodipodi:namedview>
  <metadata
     id="metadata7">
    <rdf:RDF>
      <cc:Work
         rdf:about="">
        <dc:format>image/svg+xml</dc:format>
        <dc:type
           rdf:resource="http://purl.org/dc/dcmitype/StillImage" />
        <dc:title />
      </cc:Work>
    </rdf:RDF>
  </metadata>
  <g
     inkscape:label="Capa 1"
     inkscape:groupmode="layer"
     id="layer1"
     transform="translate(0,-1004.3622)">
    <path
       style="fill:#ffffff;stroke:none;fill-opacity:1;opacity:0.15"
       d="M 0 0 L 0 48 L 16.78125 48 L 29.625 0 L 0 0 z "
       transform="translate(0,1004.3622)"
       id="rect3790" />
    <rect
       style="fill:url(#linearGradient3801);fill-opacity:1;stroke:none"
       id="rect2991"
       width="48"
       height="48"
       x="0"
       y="-1052.3622"
       ry="1.9445436"
       transform="scale(1,-1)" />
    <rect
       style="fill:#000000;stroke:#ececec;stroke-width:0.75083089000000003"
       id="rect3013"
       width="21.741602"
       height="12.850859"
       x="7.9533129"
       y="1015.0037"
       ry="0.56702334" />
    <rect
       ry="0.51975554"
       y="1029.9724"
       x="20.148788"
       height="11.779594"
       width="19.929193"
       id="rect3799"
       style="fill:#000000;stroke:#ffffff;stroke-width:0.68824059000000004" />
    <path
       style="fill:none;stroke:#ffffff;stroke-width:1px;stroke-linecap:butt;stroke-linejoin:miter;stroke-opacity:1"
       d="m 14.318912,1028.0112 0,6.1872 5.745242,0"
       id="path3879"
       inkscape:connector-curvature="0" />
    <g
       id="g3843"
       transform="matrix(0.04839331,0,0,0.04839331,-8.4428905,997.61073)"
       inkscape:export-xdpi="300"
       inkscape:export-ydpi="300">
      <path
         transform="translate(196.81168,300.86471)"
         id="path3841"
         d="m 598.03125,570.8125 c 30.33653,-31.93283 -27.8125,-119.09375 -27.8125,-119.09375 0,0 28.81203,75.51306 27.8125,119.09375 z"
         style="fill:#5fbcd3;fill-opacity:1;stroke:none"
         inkscape:connector-curvature="0" />
      <path
         transform="translate(196.81168,300.86471)"
         id="path3839"
         d="m 597.09375,571.71875 0.90625,0.5 c 0.0179,-0.46317 0.0204,-0.93545 0.0312,-1.40625 -0.2959,0.31147 -0.62462,0.60543 -0.9375,0.90625 z"
         style="fill:#b3b3b3;fill-opacity:1;stroke:none"
         inkscape:connector-curvature="0" />
      <path
         transform="translate(196.81168,300.86471)"
         id="path3837"
         d="m 535.5,535.78125 c -43.68879,-11.3234 53.3125,62.03125 53.3125,62.03125 6.17377,-4.56682 8.7373,-13.92018 9.1875,-25.59375 l -0.90625,-0.5 c -2.73634,2.63091 -6.05101,4.907 -10.1875,6.625 0,0 -30.7949,-16.4676 -51.40625,-42.5625 z"
         style="fill:#ffffff;fill-opacity:1;stroke:none"
         inkscape:connector-curvature="0" />
      <path
         transform="translate(196.81168,300.86471)"
         id="path3835"
         d="m 535.625,535.8125 -0.15625,-0.0625 c 0.009,0.0115 0.0222,0.0198 0.0312,0.0312 0.0365,0.009 0.0883,0.0217 0.125,0.0312 z"
         style="fill:#b3b3b3;fill-opacity:1;stroke:none"
         inkscape:connector-curvature="0" />
      <path
         transform="translate(196.81168,300.86471)"
         id="path3017"
         d="M 584.90625,410 C 518.46931,425.54248 517.75,483.3125 517.75,483.3125 c -2.37719,19.80135 6.0468,37.64901 17.71875,52.4375 l 0.15625,0.0625 c 5.44214,1.42053 12.64266,3.91734 22.875,8.25 C 541.10267,478.13654 536.36038,430.59382 584.90625,410 z"
         style="fill:#ffffff;fill-opacity:1;stroke:none"
         inkscape:connector-curvature="0" />
      <path
         style="fill:#5fbcd3;fill-opacity:1;stroke:none"
         d="m 837.70318,771.99445 c 29.20079,55.84018 -45.96641,131.67599 -45.96641,131.67599 28.10075,-37.30046 39.47375,-113.45985 15.40666,-115.39582 -39.84576,-21.23059 72.15276,-111.08711 72.15276,-111.08711 0,0 -67.99507,62.35439 -41.59301,94.80694 z"
         id="path3027"
         inkscape:connector-curvature="0" />
    </g>
    <g
       id="g3844"
       transform="translate(-26.010873,1.4778535)">
      <path
         transform="translate(0,1004.3622)"
         inkscape:connector-curvature="0"
         id="path3067"
         d="m 39.863143,11.992799 0,3.413999 3.999572,0 0,-3.922232 z"
         style="fill:#01afee;fill-opacity:1;stroke:none" />
      <path
         transform="translate(0,1004.3622)"
         inkscape:connector-curvature="0"
         id="path3838"
         d="m 44.370948,11.351983 0,4.010621 5.446932,0 0,-4.761922 z"
         style="fill:#00adec;fill-opacity:1;stroke:none" />
      <path
         transform="translate(0,1004.3622)"
         inkscape:connector-curvature="0"
         id="path3840"
         d="m 39.852094,15.804546 0,3.347708 4.010621,0.596622 0,-3.86699 z"
         style="fill:#01afee;fill-opacity:1;stroke:none" />
      <path
         transform="translate(0,1004.3622)"
         inkscape:connector-curvature="0"
         id="path3842"
         d="m 44.348851,15.7714 0,3.999573 5.402738,0.806543 0,-4.684582 z"
         style="fill:#00aeed;fill-opacity:1;stroke:none" />
    </g>
  </g>
</svg>
