<?xml version="1.0" encoding="UTF-8" standalone="no"?>
<!-- Created with Inkscape (http://www.inkscape.org/) -->

<svg
   xmlns:dc="http://purl.org/dc/elements/1.1/"
   xmlns:cc="http://creativecommons.org/ns#"
   xmlns:rdf="http://www.w3.org/1999/02/22-rdf-syntax-ns#"
   xmlns:svg="http://www.w3.org/2000/svg"
   xmlns="http://www.w3.org/2000/svg"
   xmlns:xlink="http://www.w3.org/1999/xlink"
   xmlns:sodipodi="http://sodipodi.sourceforge.net/DTD/sodipodi-0.dtd"
   xmlns:inkscape="http://www.inkscape.org/namespaces/inkscape"
   width="48"
   height="48"
   id="svg2"
   version="1.1"
   inkscape:version="0.48.2 r9819"
   sodipodi:docname="utilities-system-monitor.svg">
  <defs
     id="defs4">
    <linearGradient
       inkscape:collect="always"
       id="linearGradient3994">
      <stop
         style="stop-color:#ffffff;stop-opacity:1;"
         offset="0"
         id="stop3996" />
      <stop
         style="stop-color:#ffffff;stop-opacity:0;"
         offset="1"
         id="stop3998" />
    </linearGradient>
    <linearGradient
       inkscape:collect="always"
       id="linearGradient3986">
      <stop
         style="stop-color:#ffffff;stop-opacity:1;"
         offset="0"
         id="stop3988" />
      <stop
         style="stop-color:#ffffff;stop-opacity:0;"
         offset="1"
         id="stop3990" />
    </linearGradient>
    <linearGradient
       id="linearGradient3913">
      <stop
         style="stop-color:#ffffff;stop-opacity:1;"
         offset="0"
         id="stop3915" />
      <stop
         style="stop-color:#ffffff;stop-opacity:0;"
         offset="1"
         id="stop3917" />
    </linearGradient>
    <linearGradient
       inkscape:collect="always"
       id="linearGradient3821">
      <stop
         style="stop-color:#000000;stop-opacity:1;"
         offset="0"
         id="stop3823" />
      <stop
         style="stop-color:#000000;stop-opacity:0"
         offset="1"
         id="stop3825" />
    </linearGradient>
    <linearGradient
       id="linearGradient3810">
      <stop
         id="stop3812"
         offset="0"
         style="stop-color:#a6a6a6;stop-opacity:1;" />
      <stop
         id="stop3815"
         offset="1"
         style="stop-color:#ededed;stop-opacity:1;" />
    </linearGradient>
    <linearGradient
       id="linearGradient3802">
      <stop
         style="stop-color:#78b7e0;stop-opacity:0.18085106;"
         offset="0"
         id="stop3804" />
      <stop
         style="stop-color:#29789d;stop-opacity:1;"
         offset="1"
         id="stop3808" />
    </linearGradient>
    <linearGradient
       id="linearGradient3812">
      <stop
         style="stop-color:#ffffff;stop-opacity:1;"
         offset="0"
         id="stop3814" />
      <stop
         style="stop-color:#ffffff;stop-opacity:0;"
         offset="1"
         id="stop3816" />
    </linearGradient>
    <linearGradient
       id="linearGradient3795">
      <stop
         style="stop-color:#546a74;stop-opacity:1;"
         offset="0"
         id="stop3797" />
      <stop
         style="stop-color:#507081;stop-opacity:1;"
         offset="1"
         id="stop3799" />
    </linearGradient>
    <linearGradient
       id="linearGradient3698">
      <stop
         id="stop3700"
         offset="0"
         style="stop-color:#96d0e1;stop-opacity:1" />
      <stop
         style="stop-color:#89b7e1;stop-opacity:1"
         offset="0.67819428"
         id="stop3706" />
      <stop
         id="stop3702"
         offset="1"
         style="stop-color:#699dd3;stop-opacity:1" />
    </linearGradient>
    <linearGradient
       id="linearGradient3708">
      <stop
         id="stop3710"
         offset="0"
         style="stop-color:#658db6;stop-opacity:1" />
      <stop
         style="stop-color:#527fab;stop-opacity:1;"
         offset="0.76777935"
         id="stop3716" />
      <stop
         id="stop3712"
         offset="1"
         style="stop-color:#4071a0;stop-opacity:1" />
    </linearGradient>
    <linearGradient
       id="linearGradient3750">
      <stop
         style="stop-color:#d0e2f1;stop-opacity:1"
         offset="0"
         id="stop3752" />
      <stop
         id="stop3756"
         offset="0.85580856"
         style="stop-color:#cadef0;stop-opacity:1" />
      <stop
         style="stop-color:#95bee3;stop-opacity:1"
         offset="1"
         id="stop3754" />
    </linearGradient>
    <linearGradient
       id="linearGradient3803">
      <stop
         id="stop3805"
         offset="0"
         style="stop-color:#ff0010;stop-opacity:1;" />
      <stop
         id="stop3807"
         offset="1"
         style="stop-color:#7a0d00;stop-opacity:1;" />
    </linearGradient>
    <linearGradient
       inkscape:collect="always"
       xlink:href="#linearGradient3802"
       id="linearGradient3031"
       gradientUnits="userSpaceOnUse"
       x1="23.204165"
       y1="1067.9232"
       x2="23.204165"
       y2="1016.5837"
       gradientTransform="matrix(0.97916667,0,0,0.69791667,-58.312499,330.18281)" />
    <linearGradient
       inkscape:collect="always"
       xlink:href="#linearGradient3810"
       id="linearGradient3817"
       gradientUnits="userSpaceOnUse"
       gradientTransform="translate(-58.812499,25.749974)"
       x1="23.204165"
       y1="1053.158"
       x2="23.204165"
       y2="1028.1819" />
    <linearGradient
       inkscape:collect="always"
       xlink:href="#linearGradient3821"
       id="linearGradient3827"
       x1="-20.660851"
       y1="58.254581"
       x2="-20.660851"
       y2="70.740143"
       gradientUnits="userSpaceOnUse" />
    <linearGradient
       inkscape:collect="always"
       xlink:href="#linearGradient3803"
       id="linearGradient3833"
       gradientUnits="userSpaceOnUse"
       x1="-20.660851"
       y1="65.772278"
       x2="-20.660851"
       y2="68.609917" />
    <linearGradient
       inkscape:collect="always"
       xlink:href="#linearGradient3913"
       id="linearGradient3919"
       x1="-37.537502"
       y1="1069.4266"
       x2="-37.537502"
       y2="1114.5458"
       gradientUnits="userSpaceOnUse" />
    <linearGradient
       inkscape:collect="always"
       xlink:href="#linearGradient3913"
       id="linearGradient3921"
       gradientUnits="userSpaceOnUse"
       x1="-37.537502"
       y1="1069.4266"
       x2="-37.537502"
       y2="1136.6122" />
    <linearGradient
       inkscape:collect="always"
       xlink:href="#linearGradient3913"
       id="linearGradient3923"
       gradientUnits="userSpaceOnUse"
       x1="-37.537502"
       y1="1069.4266"
       x2="-37.537502"
       y2="1136.6122" />
    <linearGradient
       inkscape:collect="always"
       xlink:href="#linearGradient3913"
       id="linearGradient3925"
       gradientUnits="userSpaceOnUse"
       x1="-37.537502"
       y1="1069.4266"
       x2="-37.537502"
       y2="1136.6122" />
    <linearGradient
       inkscape:collect="always"
       xlink:href="#linearGradient3913"
       id="linearGradient3927"
       gradientUnits="userSpaceOnUse"
       x1="-37.537502"
       y1="1069.4266"
       x2="-37.537502"
       y2="1136.6122" />
    <linearGradient
       inkscape:collect="always"
       xlink:href="#linearGradient3913"
       id="linearGradient3929"
       gradientUnits="userSpaceOnUse"
       x1="-37.537502"
       y1="1069.4266"
       x2="-37.537502"
       y2="1136.6122" />
    <linearGradient
       inkscape:collect="always"
       xlink:href="#linearGradient3913"
       id="linearGradient3931"
       gradientUnits="userSpaceOnUse"
       x1="-37.537502"
       y1="1069.4266"
       x2="-37.537502"
       y2="1136.6122" />
    <linearGradient
       inkscape:collect="always"
       xlink:href="#linearGradient3913"
       id="linearGradient3933"
       gradientUnits="userSpaceOnUse"
       x1="-37.537502"
       y1="1069.4266"
       x2="-37.537502"
       y2="1136.6122" />
    <linearGradient
       inkscape:collect="always"
       xlink:href="#linearGradient3913"
       id="linearGradient3935"
       gradientUnits="userSpaceOnUse"
       x1="-37.537502"
       y1="1069.4266"
       x2="-37.537502"
       y2="1136.6122" />
    <linearGradient
       inkscape:collect="always"
       xlink:href="#linearGradient3913"
       id="linearGradient3937"
       gradientUnits="userSpaceOnUse"
       x1="-37.537502"
       y1="1069.4266"
       x2="-37.537502"
       y2="1136.6122" />
    <linearGradient
       inkscape:collect="always"
       xlink:href="#linearGradient3913"
       id="linearGradient3939"
       gradientUnits="userSpaceOnUse"
       x1="-37.537502"
       y1="1069.4266"
       x2="-37.537502"
       y2="1136.6122" />
    <linearGradient
       inkscape:collect="always"
       xlink:href="#linearGradient3913"
       id="linearGradient3941"
       gradientUnits="userSpaceOnUse"
       x1="-37.537502"
       y1="1069.4266"
       x2="-37.537502"
       y2="1136.6122" />
    <linearGradient
       inkscape:collect="always"
       xlink:href="#linearGradient3913"
       id="linearGradient3943"
       gradientUnits="userSpaceOnUse"
       x1="-37.537502"
       y1="1069.4266"
       x2="-37.537502"
       y2="1136.6122" />
    <linearGradient
       inkscape:collect="always"
       xlink:href="#linearGradient3913"
       id="linearGradient3945"
       gradientUnits="userSpaceOnUse"
       x1="-37.537502"
       y1="1069.4266"
       x2="-37.537502"
       y2="1136.6122" />
    <linearGradient
       inkscape:collect="always"
       xlink:href="#linearGradient3913"
       id="linearGradient3947"
       gradientUnits="userSpaceOnUse"
       x1="-37.537502"
       y1="1069.4266"
       x2="-37.537502"
       y2="1136.6122" />
    <linearGradient
       inkscape:collect="always"
       xlink:href="#linearGradient3913"
       id="linearGradient3949"
       gradientUnits="userSpaceOnUse"
       x1="-37.537502"
       y1="1069.4266"
       x2="-37.537502"
       y2="1136.6122" />
    <linearGradient
       inkscape:collect="always"
       xlink:href="#linearGradient3986"
       id="linearGradient3992"
       x1="-38.221783"
       y1="1091.3234"
       x2="-38.221783"
       y2="1121.6769"
       gradientUnits="userSpaceOnUse" />
    <linearGradient
       inkscape:collect="always"
       xlink:href="#linearGradient3994"
       id="linearGradient4000"
       x1="-35.81879"
       y1="1012.3944"
       x2="-35.81879"
       y2="1125.3542"
       gradientUnits="userSpaceOnUse" />
    <radialGradient
       inkscape:collect="always"
       xlink:href="#linearGradient3812"
       id="radialGradient4004"
       gradientUnits="userSpaceOnUse"
       gradientTransform="matrix(0.90456736,0,0,2.3361402,-56.522116,-1354.504)"
       cx="24"
       cy="1028.3621"
       fx="24"
       fy="1028.3621"
       r="16.179441" />
    <linearGradient
       inkscape:collect="always"
       xlink:href="#linearGradient3994"
       id="linearGradient4033"
       gradientUnits="userSpaceOnUse"
       x1="-35.81879"
       y1="1012.3944"
       x2="-35.81879"
       y2="1125.3542" />
    <linearGradient
       inkscape:collect="always"
       xlink:href="#linearGradient3994"
       id="linearGradient4035"
       gradientUnits="userSpaceOnUse"
       x1="-35.81879"
       y1="1012.3944"
       x2="-35.81879"
       y2="1125.3542" />
    <linearGradient
       inkscape:collect="always"
       xlink:href="#linearGradient3994"
       id="linearGradient4037"
       gradientUnits="userSpaceOnUse"
       x1="-35.81879"
       y1="1012.3944"
       x2="-35.81879"
       y2="1125.3542" />
    <linearGradient
       inkscape:collect="always"
       xlink:href="#linearGradient3994"
       id="linearGradient4039"
       gradientUnits="userSpaceOnUse"
       x1="-35.81879"
       y1="1012.3944"
       x2="-35.81879"
       y2="1125.3542" />
    <linearGradient
       inkscape:collect="always"
       xlink:href="#linearGradient3994"
       id="linearGradient4041"
       gradientUnits="userSpaceOnUse"
       x1="-35.81879"
       y1="1012.3944"
       x2="-35.81879"
       y2="1125.3542" />
    <linearGradient
       inkscape:collect="always"
       xlink:href="#linearGradient3994"
       id="linearGradient4043"
       gradientUnits="userSpaceOnUse"
       x1="-35.81879"
       y1="1012.3944"
       x2="-35.81879"
       y2="1125.3542" />
    <linearGradient
       inkscape:collect="always"
       xlink:href="#linearGradient3994"
       id="linearGradient4045"
       gradientUnits="userSpaceOnUse"
       x1="-35.81879"
       y1="1012.3944"
       x2="-35.81879"
       y2="1125.3542" />
    <linearGradient
       inkscape:collect="always"
       xlink:href="#linearGradient3986"
       id="linearGradient4047"
       gradientUnits="userSpaceOnUse"
       x1="-38.221783"
       y1="1091.3234"
       x2="-38.221783"
       y2="1121.6769" />
    <linearGradient
       inkscape:collect="always"
       xlink:href="#linearGradient3986"
       id="linearGradient4049"
       gradientUnits="userSpaceOnUse"
       x1="-38.221783"
       y1="1091.3234"
       x2="-38.221783"
       y2="1121.6769" />
    <linearGradient
       inkscape:collect="always"
       xlink:href="#linearGradient3986"
       id="linearGradient4051"
       gradientUnits="userSpaceOnUse"
       x1="-38.221783"
       y1="1091.3234"
       x2="-38.221783"
       y2="1121.6769" />
    <linearGradient
       inkscape:collect="always"
       xlink:href="#linearGradient3986"
       id="linearGradient4053"
       gradientUnits="userSpaceOnUse"
       x1="-38.221783"
       y1="1091.3234"
       x2="-38.221783"
       y2="1121.6769" />
    <linearGradient
       inkscape:collect="always"
       xlink:href="#linearGradient3986"
       id="linearGradient4055"
       gradientUnits="userSpaceOnUse"
       x1="-38.221783"
       y1="1091.3234"
       x2="-38.221783"
       y2="1121.6769" />
    <linearGradient
       inkscape:collect="always"
       xlink:href="#linearGradient3986"
       id="linearGradient4057"
       gradientUnits="userSpaceOnUse"
       x1="-38.221783"
       y1="1091.3234"
       x2="-38.221783"
       y2="1121.6769" />
    <linearGradient
       inkscape:collect="always"
       xlink:href="#linearGradient3986"
       id="linearGradient4059"
       gradientUnits="userSpaceOnUse"
       x1="-38.221783"
       y1="1091.3234"
       x2="-38.221783"
       y2="1121.6769" />
    <linearGradient
       inkscape:collect="always"
       xlink:href="#linearGradient3986"
       id="linearGradient4061"
       gradientUnits="userSpaceOnUse"
       x1="-38.221783"
       y1="1091.3234"
       x2="-38.221783"
       y2="1121.6769" />
    <radialGradient
       inkscape:collect="always"
       xlink:href="#linearGradient3812"
       id="radialGradient4073"
       gradientUnits="userSpaceOnUse"
       gradientTransform="matrix(1.5149296,0,0,2.3361402,-12.35831,-1380.254)"
       cx="24"
       cy="1028.3621"
       fx="24"
       fy="1028.3621"
       r="16.179441" />
    <linearGradient
       inkscape:collect="always"
       xlink:href="#linearGradient3810"
       id="linearGradient4078"
       gradientUnits="userSpaceOnUse"
       gradientTransform="translate(10e-7,-2.6e-5)"
       x1="23.204165"
       y1="1053.158"
       x2="23.204165"
       y2="1028.1819" />
    <linearGradient
       inkscape:collect="always"
       xlink:href="#linearGradient3802"
       id="linearGradient4096"
       gradientUnits="userSpaceOnUse"
       gradientTransform="matrix(0.97916667,0,0,0.69791667,0.500001,304.43281)"
       x1="23.204165"
       y1="1067.9232"
       x2="23.204165"
       y2="1016.5837" />
    <radialGradient
       inkscape:collect="always"
       xlink:href="#linearGradient3986"
       id="radialGradient4098"
       cx="-38.625"
       cy="1109.3622"
       fx="-38.625"
       fy="1109.3622"
       r="16.15"
       gradientTransform="matrix(1,0,0,0.6749226,0,360.62858)"
       gradientUnits="userSpaceOnUse" />
    <radialGradient
       inkscape:collect="always"
       xlink:href="#linearGradient3986"
       id="radialGradient4144"
       gradientUnits="userSpaceOnUse"
       gradientTransform="matrix(1,0,0,0.6749226,0,360.62858)"
       cx="-38.625"
       cy="1109.3622"
       fx="-38.625"
       fy="1109.3622"
       r="16.15" />
    <radialGradient
       inkscape:collect="always"
       xlink:href="#linearGradient3986"
       id="radialGradient4146"
       gradientUnits="userSpaceOnUse"
       gradientTransform="matrix(1,0,0,0.6749226,0,360.62858)"
       cx="-38.625"
       cy="1109.3622"
       fx="-38.625"
       fy="1109.3622"
       r="16.15" />
    <radialGradient
       inkscape:collect="always"
       xlink:href="#linearGradient3986"
       id="radialGradient4148"
       gradientUnits="userSpaceOnUse"
       gradientTransform="matrix(1,0,0,0.6749226,0,360.62858)"
       cx="-38.625"
       cy="1109.3622"
       fx="-38.625"
       fy="1109.3622"
       r="16.15" />
    <radialGradient
       inkscape:collect="always"
       xlink:href="#linearGradient3986"
       id="radialGradient4150"
       gradientUnits="userSpaceOnUse"
       gradientTransform="matrix(1,0,0,0.6749226,0,360.62858)"
       cx="-38.625"
       cy="1109.3622"
       fx="-38.625"
       fy="1109.3622"
       r="16.15" />
    <radialGradient
       inkscape:collect="always"
       xlink:href="#linearGradient3986"
       id="radialGradient4152"
       gradientUnits="userSpaceOnUse"
       gradientTransform="matrix(1,0,0,0.6749226,0,360.62858)"
       cx="-38.625"
       cy="1109.3622"
       fx="-38.625"
       fy="1109.3622"
       r="16.15" />
    <radialGradient
       inkscape:collect="always"
       xlink:href="#linearGradient3986"
       id="radialGradient4154"
       gradientUnits="userSpaceOnUse"
       gradientTransform="matrix(1,0,0,0.6749226,0,360.62858)"
       cx="-38.625"
       cy="1109.3622"
       fx="-38.625"
       fy="1109.3622"
       r="16.15" />
    <radialGradient
       inkscape:collect="always"
       xlink:href="#linearGradient3986"
       id="radialGradient4156"
       gradientUnits="userSpaceOnUse"
       gradientTransform="matrix(1,0,0,0.6749226,0,360.62858)"
       cx="-38.625"
       cy="1109.3622"
       fx="-38.625"
       fy="1109.3622"
       r="16.15" />
    <radialGradient
       inkscape:collect="always"
       xlink:href="#linearGradient3986"
       id="radialGradient4158"
       gradientUnits="userSpaceOnUse"
       gradientTransform="matrix(1,0,0,0.6749226,0,360.62858)"
       cx="-38.625"
       cy="1109.3622"
       fx="-38.625"
       fy="1109.3622"
       r="16.15" />
    <radialGradient
       inkscape:collect="always"
       xlink:href="#linearGradient3986"
       id="radialGradient4208"
       gradientUnits="userSpaceOnUse"
       gradientTransform="matrix(1,0,0,0.6749226,0,360.62858)"
       cx="-38.625"
       cy="1109.3622"
       fx="-38.625"
       fy="1109.3622"
       r="16.15" />
    <radialGradient
       inkscape:collect="always"
       xlink:href="#linearGradient3986"
       id="radialGradient4210"
       gradientUnits="userSpaceOnUse"
       gradientTransform="matrix(1,0,0,0.6749226,0,360.62858)"
       cx="-38.625"
       cy="1109.3622"
       fx="-38.625"
       fy="1109.3622"
       r="16.15" />
    <radialGradient
       inkscape:collect="always"
       xlink:href="#linearGradient3986"
       id="radialGradient4212"
       gradientUnits="userSpaceOnUse"
       gradientTransform="matrix(1,0,0,0.6749226,0,360.62858)"
       cx="-38.625"
       cy="1109.3622"
       fx="-38.625"
       fy="1109.3622"
       r="16.15" />
    <radialGradient
       inkscape:collect="always"
       xlink:href="#linearGradient3986"
       id="radialGradient4214"
       gradientUnits="userSpaceOnUse"
       gradientTransform="matrix(1,0,0,0.6749226,0,360.62858)"
       cx="-38.625"
       cy="1109.3622"
       fx="-38.625"
       fy="1109.3622"
       r="16.15" />
    <radialGradient
       inkscape:collect="always"
       xlink:href="#linearGradient3986"
       id="radialGradient4216"
       gradientUnits="userSpaceOnUse"
       gradientTransform="matrix(1,0,0,0.6749226,0,360.62858)"
       cx="-38.625"
       cy="1109.3622"
       fx="-38.625"
       fy="1109.3622"
       r="16.15" />
    <radialGradient
       inkscape:collect="always"
       xlink:href="#linearGradient3986"
       id="radialGradient4218"
       gradientUnits="userSpaceOnUse"
       gradientTransform="matrix(1,0,0,0.6749226,0,360.62858)"
       cx="-38.625"
       cy="1109.3622"
       fx="-38.625"
       fy="1109.3622"
       r="16.15" />
    <radialGradient
       inkscape:collect="always"
       xlink:href="#linearGradient3986"
       id="radialGradient4220"
       gradientUnits="userSpaceOnUse"
       gradientTransform="matrix(1,0,0,0.6749226,0,360.62858)"
       cx="-38.625"
       cy="1109.3622"
       fx="-38.625"
       fy="1109.3622"
       r="16.15" />
    <radialGradient
       inkscape:collect="always"
       xlink:href="#linearGradient3986"
       id="radialGradient4222"
       gradientUnits="userSpaceOnUse"
       gradientTransform="matrix(1,0,0,0.6749226,0,360.62858)"
       cx="-38.625"
       cy="1109.3622"
       fx="-38.625"
       fy="1109.3622"
       r="16.15" />
    <radialGradient
       inkscape:collect="always"
       xlink:href="#linearGradient3986"
       id="radialGradient4256"
       gradientUnits="userSpaceOnUse"
       gradientTransform="matrix(1,0,0,0.6749226,0,360.62858)"
       cx="-38.625"
       cy="1109.3622"
       fx="-38.625"
       fy="1109.3622"
       r="16.15" />
    <radialGradient
       inkscape:collect="always"
       xlink:href="#linearGradient3986"
       id="radialGradient4258"
       gradientUnits="userSpaceOnUse"
       gradientTransform="matrix(1,0,0,0.6749226,0,360.62858)"
       cx="-38.625"
       cy="1109.3622"
       fx="-38.625"
       fy="1109.3622"
       r="16.15" />
    <radialGradient
       inkscape:collect="always"
       xlink:href="#linearGradient3986"
       id="radialGradient4260"
       gradientUnits="userSpaceOnUse"
       gradientTransform="matrix(1,0,0,0.6749226,0,360.62858)"
       cx="-38.625"
       cy="1109.3622"
       fx="-38.625"
       fy="1109.3622"
       r="16.15" />
    <radialGradient
       inkscape:collect="always"
       xlink:href="#linearGradient3986"
       id="radialGradient4262"
       gradientUnits="userSpaceOnUse"
       gradientTransform="matrix(1,0,0,0.6749226,0,360.62858)"
       cx="-38.625"
       cy="1109.3622"
       fx="-38.625"
       fy="1109.3622"
       r="16.15" />
    <radialGradient
       inkscape:collect="always"
       xlink:href="#linearGradient3986"
       id="radialGradient4264"
       gradientUnits="userSpaceOnUse"
       gradientTransform="matrix(1,0,0,0.6749226,0,360.62858)"
       cx="-38.625"
       cy="1109.3622"
       fx="-38.625"
       fy="1109.3622"
       r="16.15" />
    <radialGradient
       inkscape:collect="always"
       xlink:href="#linearGradient3986"
       id="radialGradient4266"
       gradientUnits="userSpaceOnUse"
       gradientTransform="matrix(1,0,0,0.6749226,0,360.62858)"
       cx="-38.625"
       cy="1109.3622"
       fx="-38.625"
       fy="1109.3622"
       r="16.15" />
    <radialGradient
       inkscape:collect="always"
       xlink:href="#linearGradient3986"
       id="radialGradient4268"
       gradientUnits="userSpaceOnUse"
       gradientTransform="matrix(1,0,0,0.6749226,0,360.62858)"
       cx="-38.625"
       cy="1109.3622"
       fx="-38.625"
       fy="1109.3622"
       r="16.15" />
    <radialGradient
       inkscape:collect="always"
       xlink:href="#linearGradient3986"
       id="radialGradient4270"
       gradientUnits="userSpaceOnUse"
       gradientTransform="matrix(1,0,0,0.6749226,0,360.62858)"
       cx="-38.625"
       cy="1109.3622"
       fx="-38.625"
       fy="1109.3622"
       r="16.15" />
    <linearGradient
       inkscape:collect="always"
       xlink:href="#linearGradient3994"
       id="linearGradient4282"
       gradientUnits="userSpaceOnUse"
       x1="-35.81879"
       y1="1012.3944"
       x2="-35.81879"
       y2="1125.3542"
       gradientTransform="translate(-3.3955322,0)" />
    <linearGradient
       inkscape:collect="always"
       xlink:href="#linearGradient3994"
       id="linearGradient4286"
       gradientUnits="userSpaceOnUse"
       gradientTransform="translate(-1.6977661,0)"
       x1="-35.81879"
       y1="1012.3944"
       x2="-35.81879"
       y2="1125.3542" />
    <linearGradient
       inkscape:collect="always"
       xlink:href="#linearGradient3994"
       id="linearGradient4290"
       gradientUnits="userSpaceOnUse"
       gradientTransform="translate(-8.4888305,0)"
       x1="-35.81879"
       y1="1012.3944"
       x2="-35.81879"
       y2="1125.3542" />
    <linearGradient
       inkscape:collect="always"
       xlink:href="#linearGradient3994"
       id="linearGradient4294"
       gradientUnits="userSpaceOnUse"
       gradientTransform="translate(-20.373193,0)"
       x1="-35.81879"
       y1="1012.3944"
       x2="-35.81879"
       y2="1125.3542" />
    <linearGradient
       inkscape:collect="always"
       xlink:href="#linearGradient3994"
       id="linearGradient4298"
       gradientUnits="userSpaceOnUse"
       gradientTransform="translate(-27.164257,0)"
       x1="-35.81879"
       y1="1012.3944"
       x2="-35.81879"
       y2="1125.3542" />
    <linearGradient
       inkscape:collect="always"
       xlink:href="#linearGradient3994"
       id="linearGradient4302"
       gradientUnits="userSpaceOnUse"
       gradientTransform="translate(-25.466491,0)"
       x1="-35.81879"
       y1="1012.3944"
       x2="-35.81879"
       y2="1125.3542" />
  </defs>
  <sodipodi:namedview
     id="base"
     pagecolor="#ffffff"
     bordercolor="#666666"
     borderopacity="1.0"
     inkscape:pageopacity="0.0"
     inkscape:pageshadow="2"
     inkscape:zoom="11.313708"
     inkscape:cx="40.327749"
     inkscape:cy="23.560835"
     inkscape:document-units="px"
     inkscape:current-layer="layer1"
     showgrid="false"
     inkscape:window-width="1278"
     inkscape:window-height="655"
     inkscape:window-x="0"
     inkscape:window-y="0"
     inkscape:window-maximized="1" />
  <metadata
     id="metadata7">
    <rdf:RDF>
      <cc:Work
         rdf:about="">
        <dc:format>image/svg+xml</dc:format>
        <dc:type
           rdf:resource="http://purl.org/dc/dcmitype/StillImage" />
        <dc:title />
      </cc:Work>
    </rdf:RDF>
  </metadata>
  <g
     inkscape:label="Capa 1"
     inkscape:groupmode="layer"
     id="layer1"
     transform="translate(0,-1004.3622)">
    <rect
       style="fill:#ffffff;fill-opacity:1;stroke:none"
       id="rect3137"
       width="47"
       height="33.5"
       x="0.5"
       y="1005.3939"
       ry="1.3571293" />
    <rect
       ry="1.3571293"
       y="1005.3939"
       x="0.5"
       height="33.5"
       width="47"
       id="rect3029"
       style="fill:url(#linearGradient4096);fill-opacity:1;stroke:none" />
    <g
       style="stroke:url(#linearGradient4045)"
       id="g3888"
       transform="matrix(1.1780186,0,0,1.1780186,66.555922,-284.05113)">
      <path
         inkscape:connector-curvature="0"
         id="path3843"
         d="m -50.5,1093.8622 0,32"
         style="fill:none;stroke:url(#linearGradient4033);stroke-width:0.30000001;stroke-linecap:butt;stroke-linejoin:miter;stroke-miterlimit:4;stroke-opacity:1;stroke-dasharray:none" />
      <path
         style="fill:none;stroke:url(#linearGradient4035);stroke-width:0.30000001;stroke-linecap:butt;stroke-linejoin:miter;stroke-miterlimit:4;stroke-opacity:1;stroke-dasharray:none"
         d="m -44.75,1093.8622 0,32"
         id="path3851"
         inkscape:connector-curvature="0" />
      <path
         style="fill:none;stroke:url(#linearGradient4037);stroke-width:0.30000001;stroke-linecap:butt;stroke-linejoin:miter;stroke-miterlimit:4;stroke-opacity:1;stroke-dasharray:none"
         d="m -39,1093.8622 0,32"
         id="path3853"
         inkscape:connector-curvature="0" />
      <path
         inkscape:connector-curvature="0"
         id="path3855"
         d="m -33.25,1093.8622 0,32"
         style="fill:none;stroke:url(#linearGradient4039);stroke-width:0.30000001;stroke-linecap:butt;stroke-linejoin:miter;stroke-miterlimit:4;stroke-opacity:1;stroke-dasharray:none" />
      <path
         style="fill:none;stroke:url(#linearGradient4041);stroke-width:0.30000001;stroke-linecap:butt;stroke-linejoin:miter;stroke-miterlimit:4;stroke-opacity:1;stroke-dasharray:none"
         d="m -27.5,1093.8622 0,32"
         id="path3857"
         inkscape:connector-curvature="0" />
      <path
         inkscape:connector-curvature="0"
         id="path3873"
         d="m -21.75,1093.8622 0,32"
         style="fill:none;stroke:url(#linearGradient4043);stroke-width:0.30000001;stroke-linecap:butt;stroke-linejoin:miter;stroke-miterlimit:4;stroke-opacity:1;stroke-dasharray:none" />
      <path
         style="fill:none;stroke:url(#linearGradient4282);stroke-width:0.30000001;stroke-linecap:butt;stroke-linejoin:miter;stroke-miterlimit:4;stroke-opacity:1;stroke-dasharray:none"
         d="m -25.145532,1093.8622 0,32"
         id="path4280"
         inkscape:connector-curvature="0" />
      <path
         inkscape:connector-curvature="0"
         id="path4284"
         d="m -23.447766,1093.8622 0,32"
         style="fill:none;stroke:url(#linearGradient4286);stroke-width:0.30000001;stroke-linecap:butt;stroke-linejoin:miter;stroke-miterlimit:4;stroke-opacity:1;stroke-dasharray:none" />
      <path
         style="fill:none;stroke:url(#linearGradient4290);stroke-width:0.30000001;stroke-linecap:butt;stroke-linejoin:miter;stroke-miterlimit:4;stroke-opacity:1;stroke-dasharray:none"
         d="m -30.23883,1093.8622 0,32"
         id="path4288"
         inkscape:connector-curvature="0" />
      <path
         inkscape:connector-curvature="0"
         id="path4292"
         d="m -42.123192,1093.8622 0,32"
         style="fill:none;stroke:url(#linearGradient4294);stroke-width:0.30000001;stroke-linecap:butt;stroke-linejoin:miter;stroke-miterlimit:4;stroke-opacity:1;stroke-dasharray:none" />
      <path
         style="fill:none;stroke:url(#linearGradient4298);stroke-width:0.30000001;stroke-linecap:butt;stroke-linejoin:miter;stroke-miterlimit:4;stroke-opacity:1;stroke-dasharray:none"
         d="m -48.914256,1093.8622 0,32"
         id="path4296"
         inkscape:connector-curvature="0" />
      <path
         inkscape:connector-curvature="0"
         id="path4300"
         d="m -47.21649,1093.8622 0,32"
         style="fill:none;stroke:url(#linearGradient4302);stroke-width:0.30000001;stroke-linecap:butt;stroke-linejoin:miter;stroke-miterlimit:4;stroke-opacity:1;stroke-dasharray:none" />
    </g>
    <g
       style="opacity:0.45588235;stroke:url(#radialGradient4222)"
       id="g3879"
       transform="matrix(1.1780186,0,0,1.1780186,69.500968,-283.46212)">
      <path
         style="fill:none;stroke:url(#radialGradient4208);stroke-width:0.30000001;stroke-linecap:butt;stroke-linejoin:miter;stroke-miterlimit:4;stroke-opacity:1;stroke-dasharray:none"
         d="m -54.625,1102.1955 32,0"
         id="path3845"
         inkscape:connector-curvature="0" />
      <path
         inkscape:connector-curvature="0"
         id="path3865"
         d="m -54.625,1105.7789 32,0"
         style="fill:none;stroke:url(#radialGradient4210);stroke-width:0.30000001;stroke-linecap:butt;stroke-linejoin:miter;stroke-miterlimit:4;stroke-opacity:1;stroke-dasharray:none" />
      <path
         style="fill:none;stroke:url(#radialGradient4212);stroke-width:0.30000001;stroke-linecap:butt;stroke-linejoin:miter;stroke-miterlimit:4;stroke-opacity:1;stroke-dasharray:none"
         d="m -54.625,1109.3622 32,0"
         id="path3867"
         inkscape:connector-curvature="0" />
      <path
         inkscape:connector-curvature="0"
         id="path3869"
         d="m -54.625,1112.9455 32,0"
         style="fill:none;stroke:url(#radialGradient4214);stroke-width:0.30000001;stroke-linecap:butt;stroke-linejoin:miter;stroke-miterlimit:4;stroke-opacity:1;stroke-dasharray:none" />
      <path
         style="fill:none;stroke:url(#radialGradient4216);stroke-width:0.30000001;stroke-linecap:butt;stroke-linejoin:miter;stroke-miterlimit:4;stroke-opacity:1;stroke-dasharray:none"
         d="m -54.625,1116.5289 32,0"
         id="path3871"
         inkscape:connector-curvature="0" />
      <path
         inkscape:connector-curvature="0"
         id="path3875"
         d="m -54.625,1120.1122 32,0"
         style="fill:none;stroke:url(#radialGradient4218);stroke-width:0.30000001;stroke-linecap:butt;stroke-linejoin:miter;stroke-miterlimit:4;stroke-opacity:1;stroke-dasharray:none" />
      <path
         style="fill:none;stroke:url(#radialGradient4220);stroke-width:0.30000001;stroke-linecap:butt;stroke-linejoin:miter;stroke-miterlimit:4;stroke-opacity:1;stroke-dasharray:none"
         d="m -54.625,1098.6122 32,0"
         id="path3877"
         inkscape:connector-curvature="0" />
    </g>
    <path
       style="fill:url(#linearGradient4078);fill-opacity:1;stroke:none"
       d="m 1.9375,1004.3622 c -1.077277,0 -1.9375,0.8602 -1.9375,1.9375 l 0,44.125 c 0,1.0773 0.860223,1.9375 1.9375,1.9375 l 44.125,0 c 1.077277,0 1.9375,-0.8602 1.9375,-1.9375 l 0,-44.125 c 0,-1.0773 -0.860223,-1.9375 -1.9375,-1.9375 l -44.125,0 z m 2.71875,4.25 38.6875,0 c 0.639633,0 1.15625,0.5166 1.15625,1.1563 l 0,26.1875 c 0,0.6396 -0.516617,1.1562 -1.15625,1.1562 l -38.6875,0 c -0.639633,0 -1.15625,-0.5166 -1.15625,-1.1562 l 0,-26.1875 c 0,-0.6397 0.516617,-1.1563 1.15625,-1.1563 z"
       id="rect3020"
       inkscape:connector-curvature="0" />
    <path
       sodipodi:type="arc"
       style="fill:url(#linearGradient3827);fill-opacity:1;stroke:none"
       id="path3819"
       sodipodi:cx="-20.625"
       sodipodi:cy="67.625"
       sodipodi:rx="2.625"
       sodipodi:ry="2.625"
       d="m -18,67.625 c 0,1.449747 -1.175253,2.625 -2.625,2.625 -1.449747,0 -2.625,-1.175253 -2.625,-2.625 0,-1.449747 1.175253,-2.625 2.625,-2.625 1.449747,0 2.625,1.175253 2.625,2.625 z"
       transform="translate(58.8125,978.6122)" />
    <path
       transform="matrix(0.70537217,0,0,0.70537217,52.735801,998.5364)"
       d="m -18,67.625 c 0,1.449747 -1.175253,2.625 -2.625,2.625 -1.449747,0 -2.625,-1.175253 -2.625,-2.625 0,-1.449747 1.175253,-2.625 2.625,-2.625 1.449747,0 2.625,1.175253 2.625,2.625 z"
       sodipodi:ry="2.625"
       sodipodi:rx="2.625"
       sodipodi:cy="67.625"
       sodipodi:cx="-20.625"
       id="path3829"
       style="fill:url(#linearGradient3833);fill-opacity:1;stroke:none"
       sodipodi:type="arc" />
    <path
       inkscape:connector-curvature="0"
       id="path4002"
       d="m 3.957299,1023.8432 15.188667,0 3.182162,-11.876 0,20.3535 4.251619,-15.8672 1.99734,7.4541 15.465614,0"
       style="fill:none;stroke:url(#radialGradient4073);stroke-width:0.77348059px;stroke-linecap:butt;stroke-linejoin:miter;stroke-opacity:1"
       sodipodi:nodetypes="ccccccc" />
    <rect
       style="fill:none;stroke:#808080;stroke-width:0.30205238;stroke-miterlimit:4;stroke-dasharray:none"
       id="rect4006"
       width="41.29216"
       height="28.52729"
       x="3.35392"
       y="1008.5479"
       ry="1.1556783" />
    <path
       style="fill:#ffffff;stroke:none;fill-opacity:1;opacity:0.15"
       d="M 0 0 L 0 48 L 16.78125 48 L 29.625 0 L 0 0 z "
       transform="translate(0,1004.3622)"
       id="rect3790" />
    <g
       transform="matrix(1.1780186,0,0,1.1780186,69.500968,-285.46212)"
       id="g4128"
       style="opacity:0.45588235;stroke:url(#radialGradient4158)">
      <path
         inkscape:connector-curvature="0"
         id="path4130"
         d="m -54.625,1102.1955 32,0"
         style="fill:none;stroke:url(#radialGradient4144);stroke-width:0.30000001;stroke-linecap:butt;stroke-linejoin:miter;stroke-miterlimit:4;stroke-opacity:1;stroke-dasharray:none" />
      <path
         style="fill:none;stroke:url(#radialGradient4146);stroke-width:0.30000001;stroke-linecap:butt;stroke-linejoin:miter;stroke-miterlimit:4;stroke-opacity:1;stroke-dasharray:none"
         d="m -54.625,1105.7789 32,0"
         id="path4132"
         inkscape:connector-curvature="0" />
      <path
         inkscape:connector-curvature="0"
         id="path4134"
         d="m -54.625,1109.3622 32,0"
         style="fill:none;stroke:url(#radialGradient4148);stroke-width:0.30000001;stroke-linecap:butt;stroke-linejoin:miter;stroke-miterlimit:4;stroke-opacity:1;stroke-dasharray:none" />
      <path
         style="fill:none;stroke:url(#radialGradient4150);stroke-width:0.30000001;stroke-linecap:butt;stroke-linejoin:miter;stroke-miterlimit:4;stroke-opacity:1;stroke-dasharray:none"
         d="m -54.625,1112.9455 32,0"
         id="path4136"
         inkscape:connector-curvature="0" />
      <path
         inkscape:connector-curvature="0"
         id="path4138"
         d="m -54.625,1116.5289 32,0"
         style="fill:none;stroke:url(#radialGradient4152);stroke-width:0.30000001;stroke-linecap:butt;stroke-linejoin:miter;stroke-miterlimit:4;stroke-opacity:1;stroke-dasharray:none" />
      <path
         style="fill:none;stroke:url(#radialGradient4154);stroke-width:0.30000001;stroke-linecap:butt;stroke-linejoin:miter;stroke-miterlimit:4;stroke-opacity:1;stroke-dasharray:none"
         d="m -54.625,1120.1122 32,0"
         id="path4140"
         inkscape:connector-curvature="0" />
      <path
         inkscape:connector-curvature="0"
         id="path4142"
         d="m -54.625,1098.6122 32,0"
         style="fill:none;stroke:url(#radialGradient4156);stroke-width:0.30000001;stroke-linecap:butt;stroke-linejoin:miter;stroke-miterlimit:4;stroke-opacity:1;stroke-dasharray:none" />
    </g>
    <g
       style="opacity:0.45588235;stroke:url(#radialGradient4270)"
       id="g4224"
       transform="matrix(1.1780186,0,0,1.1780186,69.500968,-286.69956)">
      <path
         style="fill:none;stroke:url(#radialGradient4256);stroke-width:0.30000001;stroke-linecap:butt;stroke-linejoin:miter;stroke-miterlimit:4;stroke-opacity:1;stroke-dasharray:none"
         d="m -54.625,1102.1955 32,0"
         id="path4226"
         inkscape:connector-curvature="0" />
      <path
         inkscape:connector-curvature="0"
         id="path4228"
         d="m -54.625,1105.7789 32,0"
         style="fill:none;stroke:url(#radialGradient4258);stroke-width:0.30000001;stroke-linecap:butt;stroke-linejoin:miter;stroke-miterlimit:4;stroke-opacity:1;stroke-dasharray:none" />
      <path
         style="fill:none;stroke:url(#radialGradient4260);stroke-width:0.30000001;stroke-linecap:butt;stroke-linejoin:miter;stroke-miterlimit:4;stroke-opacity:1;stroke-dasharray:none"
         d="m -54.625,1109.3622 32,0"
         id="path4230"
         inkscape:connector-curvature="0" />
      <path
         inkscape:connector-curvature="0"
         id="path4232"
         d="m -54.625,1112.9455 32,0"
         style="fill:none;stroke:url(#radialGradient4262);stroke-width:0.30000001;stroke-linecap:butt;stroke-linejoin:miter;stroke-miterlimit:4;stroke-opacity:1;stroke-dasharray:none" />
      <path
         style="fill:none;stroke:url(#radialGradient4264);stroke-width:0.30000001;stroke-linecap:butt;stroke-linejoin:miter;stroke-miterlimit:4;stroke-opacity:1;stroke-dasharray:none"
         d="m -54.625,1116.5289 32,0"
         id="path4234"
         inkscape:connector-curvature="0" />
      <path
         inkscape:connector-curvature="0"
         id="path4236"
         d="m -54.625,1120.1122 32,0"
         style="fill:none;stroke:url(#radialGradient4266);stroke-width:0.30000001;stroke-linecap:butt;stroke-linejoin:miter;stroke-miterlimit:4;stroke-opacity:1;stroke-dasharray:none" />
      <path
         style="fill:none;stroke:url(#radialGradient4268);stroke-width:0.30000001;stroke-linecap:butt;stroke-linejoin:miter;stroke-miterlimit:4;stroke-opacity:1;stroke-dasharray:none"
         d="m -54.625,1098.6122 32,0"
         id="path4238"
         inkscape:connector-curvature="0" />
    </g>
  </g>
</svg>
