<?xml version="1.0" encoding="UTF-8" standalone="no"?>
<!-- Created with Inkscape (http://www.inkscape.org/) -->

<svg
   xmlns:dc="http://purl.org/dc/elements/1.1/"
   xmlns:cc="http://creativecommons.org/ns#"
   xmlns:rdf="http://www.w3.org/1999/02/22-rdf-syntax-ns#"
   xmlns:svg="http://www.w3.org/2000/svg"
   xmlns="http://www.w3.org/2000/svg"
   xmlns:xlink="http://www.w3.org/1999/xlink"
   xmlns:sodipodi="http://sodipodi.sourceforge.net/DTD/sodipodi-0.dtd"
   xmlns:inkscape="http://www.inkscape.org/namespaces/inkscape"
   width="48"
   height="48"
   id="svg2"
   version="1.1"
   inkscape:version="0.48+devel r11772"
   sodipodi:docname="background.svg">
  <defs
     id="defs4">
    <linearGradient
       id="linearGradient3795">
      <stop
         style="stop-color:#33c1f5;stop-opacity:1;"
         offset="0"
         id="stop3797" />
      <stop
         style="stop-color:#4d80a0;stop-opacity:1;"
         offset="1"
         id="stop3799" />
    </linearGradient>
    <linearGradient
       id="linearGradient3698">
      <stop
         id="stop3700"
         offset="0"
         style="stop-color:#96d0e1;stop-opacity:1" />
      <stop
         style="stop-color:#89b7e1;stop-opacity:1"
         offset="0.67819428"
         id="stop3706" />
      <stop
         id="stop3702"
         offset="1"
         style="stop-color:#699dd3;stop-opacity:1" />
    </linearGradient>
    <linearGradient
       id="linearGradient3708">
      <stop
         id="stop3710"
         offset="0"
         style="stop-color:#658db6;stop-opacity:1" />
      <stop
         style="stop-color:#527fab;stop-opacity:1;"
         offset="0.76777935"
         id="stop3716" />
      <stop
         id="stop3712"
         offset="1"
         style="stop-color:#4071a0;stop-opacity:1" />
    </linearGradient>
    <linearGradient
       id="linearGradient3750">
      <stop
         style="stop-color:#d0e2f1;stop-opacity:1"
         offset="0"
         id="stop3752" />
      <stop
         id="stop3756"
         offset="0.85580856"
         style="stop-color:#cadef0;stop-opacity:1" />
      <stop
         style="stop-color:#95bee3;stop-opacity:1"
         offset="1"
         id="stop3754" />
    </linearGradient>
    <linearGradient
       id="linearGradient3803">
      <stop
         id="stop3805"
         offset="0"
         style="stop-color:#d7def0;stop-opacity:1;" />
      <stop
         style="stop-color:#ffffff;stop-opacity:1"
         offset="0.5"
         id="stop3811" />
      <stop
         id="stop3807"
         offset="1"
         style="stop-color:#d5def0;stop-opacity:1" />
    </linearGradient>
    <linearGradient
       inkscape:collect="always"
       xlink:href="#linearGradient4374"
       id="linearGradient3801"
       x1="23.204165"
       y1="1025.408"
       x2="23.204165"
       y2="1004.8474"
       gradientUnits="userSpaceOnUse"
       gradientTransform="translate(0,-2056.7244)" />
    <linearGradient
       inkscape:collect="always"
       xlink:href="#linearGradient3795"
       id="linearGradient3859"
       x1="26.192217"
       y1="1024.0002"
       x2="28.641211"
       y2="1024.0002"
       gradientUnits="userSpaceOnUse" />
    <linearGradient
       inkscape:collect="always"
       xlink:href="#linearGradient3795"
       id="linearGradient3867"
       gradientUnits="userSpaceOnUse"
       x1="26.192217"
       y1="1024.0002"
       x2="28.641211"
       y2="1024.0002" />
    <linearGradient
       inkscape:collect="always"
       xlink:href="#linearGradient3795"
       id="linearGradient3869"
       gradientUnits="userSpaceOnUse"
       x1="26.192217"
       y1="1024.0002"
       x2="28.641211"
       y2="1024.0002" />
    <linearGradient
       inkscape:collect="always"
       xlink:href="#linearGradient3795"
       id="linearGradient3871"
       gradientUnits="userSpaceOnUse"
       x1="26.192217"
       y1="1024.0002"
       x2="28.641211"
       y2="1024.0002" />
    <linearGradient
       inkscape:collect="always"
       xlink:href="#linearGradient3795"
       id="linearGradient3877"
       gradientUnits="userSpaceOnUse"
       x1="29.718235"
       y1="1027.8575"
       x2="22.811094"
       y2="1015.5485" />
    <linearGradient
       inkscape:collect="always"
       xlink:href="#linearGradient3795"
       id="linearGradient3879"
       gradientUnits="userSpaceOnUse"
       x1="17.196316"
       y1="1006.2238"
       x2="31.448042"
       y2="1030.9086" />
    <linearGradient
       inkscape:collect="always"
       xlink:href="#linearGradient3795"
       id="linearGradient3895"
       x1="21.973417"
       y1="34.43922"
       x2="42.475323"
       y2="24.798252"
       gradientUnits="userSpaceOnUse" />
    <linearGradient
       gradientTransform="matrix(1.0896358,0,0,1.0896358,-2.1512592,1002.5247)"
       inkscape:collect="always"
       xlink:href="#linearGradient4479"
       id="linearGradient4485"
       x1="25.71875"
       y1="13.793711"
       x2="25.71875"
       y2="-0.171647"
       gradientUnits="userSpaceOnUse" />
    <linearGradient
       inkscape:collect="always"
       id="linearGradient4479">
      <stop
         style="stop-color:#ffba00;stop-opacity:1"
         offset="0"
         id="stop4481" />
      <stop
         style="stop-color:#ffe680;stop-opacity:1"
         offset="1"
         id="stop4483" />
    </linearGradient>
    <linearGradient
       gradientTransform="matrix(1.0896358,0,0,1.0896358,-2.1512592,1002.5247)"
       inkscape:collect="always"
       xlink:href="#linearGradient4495"
       id="linearGradient4501"
       x1="34.55476"
       y1="13.793711"
       x2="34.55476"
       y2="-0.171647"
       gradientUnits="userSpaceOnUse" />
    <linearGradient
       inkscape:collect="always"
       id="linearGradient4495">
      <stop
         style="stop-color:#ff9500;stop-opacity:1;"
         offset="0"
         id="stop4497" />
      <stop
         style="stop-color:#ffcb82;stop-opacity:1"
         offset="1"
         id="stop4499" />
    </linearGradient>
    <linearGradient
       gradientTransform="matrix(1.0896358,0,0,1.0896358,-2.1512592,1002.5247)"
       inkscape:collect="always"
       xlink:href="#linearGradient4444"
       id="linearGradient4442"
       x1="20.919416"
       y1="13.793711"
       x2="20.919416"
       y2="-0.171647"
       gradientUnits="userSpaceOnUse" />
    <linearGradient
       inkscape:collect="always"
       id="linearGradient4444">
      <stop
         style="stop-color:#aad400;stop-opacity:1"
         offset="0"
         id="stop4446" />
      <stop
         style="stop-color:#cdde87;stop-opacity:1"
         offset="1"
         id="stop4448" />
    </linearGradient>
    <linearGradient
       inkscape:collect="always"
       xlink:href="#linearGradient4311"
       id="linearGradient4363"
       x1="11.667261"
       y1="1018.1559"
       x2="11.667261"
       y2="1004.1906"
       gradientUnits="userSpaceOnUse"
       gradientTransform="matrix(1.0896358,0,0,1.0896358,-2.1512592,-91.864217)" />
    <linearGradient
       id="linearGradient4311"
       inkscape:collect="always">
      <stop
         id="stop4313"
         offset="0"
         style="stop-color:#2c5ba0;stop-opacity:1" />
      <stop
         id="stop4315"
         offset="1"
         style="stop-color:#a8cfe7;stop-opacity:1" />
    </linearGradient>
    <linearGradient
       gradientTransform="matrix(1.0896358,0,0,1.0896358,-2.1512592,-1.8375)"
       inkscape:collect="always"
       xlink:href="#linearGradient915"
       id="linearGradient921"
       x1="4.9375"
       y1="13.816264"
       x2="4.9375"
       y2="-0.68373519"
       gradientUnits="userSpaceOnUse" />
    <linearGradient
       inkscape:collect="always"
       id="linearGradient915">
      <stop
         style="stop-color:#5a2ca0;stop-opacity:1;"
         offset="0"
         id="stop917" />
      <stop
         style="stop-color:#a884dd;stop-opacity:1"
         offset="1"
         id="stop919" />
    </linearGradient>
    <linearGradient
       y2="1049.5842"
       x2="24.113745"
       y1="1030.0641"
       x1="24.113745"
       gradientTransform="matrix(0.96799712,0,0,1.0252613,0.76812033,-25.978058)"
       gradientUnits="userSpaceOnUse"
       id="linearGradient3083"
       xlink:href="#linearGradient4374"
       inkscape:collect="always" />
    <linearGradient
       id="linearGradient4374">
      <stop
         id="stop4376"
         offset="0"
         style="stop-color:#ffffff;stop-opacity:1" />
      <stop
         id="stop4378"
         offset="1"
         style="stop-color:#b3b3b3;stop-opacity:1" />
    </linearGradient>
  </defs>
  <sodipodi:namedview
     id="base"
     pagecolor="#ffffff"
     bordercolor="#666666"
     borderopacity="1.0"
     inkscape:pageopacity="0.0"
     inkscape:pageshadow="2"
     inkscape:zoom="8.0000004"
     inkscape:cx="18.491246"
     inkscape:cy="30.773874"
     inkscape:document-units="px"
     inkscape:current-layer="layer1"
     showgrid="false"
     inkscape:window-width="1366"
     inkscape:window-height="712"
     inkscape:window-x="0"
     inkscape:window-y="0"
     inkscape:window-maximized="1">
    <inkscape:grid
       type="xygrid"
       id="grid3850" />
  </sodipodi:namedview>
  <metadata
     id="metadata7">
    <rdf:RDF>
      <cc:Work
         rdf:about="">
        <dc:format>image/svg+xml</dc:format>
        <dc:type
           rdf:resource="http://purl.org/dc/dcmitype/StillImage" />
        <dc:title />
      </cc:Work>
    </rdf:RDF>
  </metadata>
  <g
     inkscape:label="Capa 1"
     inkscape:groupmode="layer"
     id="layer1"
     transform="translate(0,-1004.3622)">
    <rect
       style="fill:url(#linearGradient3801);fill-opacity:1;stroke:none"
       id="rect2991"
       width="48"
       height="48"
       x="0"
       y="-1052.3622"
       ry="1.9445436"
       transform="scale(1,-1)" />
    <path
       style="fill:url(#linearGradient921);fill-opacity:1;stroke:none"
       d="M 1.9375 0 C 0.86022285 0 0 0.86022285 0 1.9375 L 0 9.625 C 0.046988232 9.6737941 0.092022912 9.72333 0.125 9.78125 C 0.2135438 9.83025 0.33795884 9.87475 0.46875 9.84375 C 0.5454495 9.88775 0.66572942 9.8701 0.71875 9.9375 C 0.812633 9.9375 0.84512872 10.02655 0.875 10.09375 C 0.8441742 10.22615 0.78712388 10.30165 0.75 10.40625 C 0.7669656 10.56785 0.6646597 10.72355 0.75 10.84375 C 0.7925612 10.90375 0.90068699 10.9277 0.96875 11 C 1.0187861 11.052 1.0849878 11.0999 1.15625 11.125 C 1.1581 11.185 1.199126 11.22605 1.21875 11.28125 C 1.24318 11.35025 1.270899 11.44955 1.28125 11.53125 C 1.28822 11.58525 1.2734 11.66425 1.28125 11.71875 C 1.28561 11.74775 1.27722 11.75225 1.28125 11.78125 C 1.335449 12.16935 1.300874 12.5992 1.3125 13 C 1.278046 13.08 1.300667 13.1596 1.28125 13.25 C 1.253083 13.3797 1.1953894 13.52185 1.1875 13.65625 C 1.18587 13.68125 1.1899 13.69475 1.1875 13.71875 C 1.18576 13.73875 1.159235 13.76125 1.15625 13.78125 C 1.15265 13.80625 1.1559297 13.87575 1.15625 13.90625 C 1.1565769 13.94325 1.173848 13.9676 1.15625 14 C 1.201056 14.06 1.177791 14.13375 1.1875 14.21875 C 1.200521 14.33305 1.217475 14.42445 1.21875 14.53125 C 1.22049 14.67915 1.300983 14.88685 1.28125 15.03125 C 1.264077 15.15815 1.224818 15.2928 1.25 15.4375 C 1.24324 15.5583 1.230169 15.68215 1.21875 15.78125 C 1.21603 15.80525 1.21733 15.82275 1.21875 15.84375 C 1.2189635 15.84375 1.21755 15.875 1.21875 15.875 C 1.22278 15.889 1.21624 15.89325 1.21875 15.90625 C 1.234005 15.98525 1.23358 16.01525 1.21875 16.09375 C 1.263447 16.26575 1.245522 16.48165 1.21875 16.65625 C 1.206056 16.73925 1.2188567 16.8503 1.21875 16.9375 C 1.2185375 17.0305 1.231433 17.052 1.25 17.125 C 1.27869 17.2368 1.2675 17.4063 1.25 17.5 C 1.226104 17.6277 1.209575 17.77015 1.21875 17.90625 C 1.22605 18.01525 1.2623547 18.15345 1.3125 18.21875 C 1.4158738 18.35085 1.6963241 18.35025 1.8125 18.21875 C 1.878532 18.06175 1.9408125 17.91445 1.9375 17.71875 C 1.93532 17.59445 1.936879 17.46715 1.96875 17.34375 C 1.905061 17.20645 1.970888 17.06795 2.03125 16.96875 C 1.995619 16.92275 2.001918 16.79505 2 16.71875 C 1.99608 16.57055 1.982609 16.40235 2 16.28125 C 1.968531 16.15385 1.987306 16.03695 2 15.90625 C 2.039477 15.50325 2.008956 15.0774 2.03125 14.6875 C 2.0367 14.5925 2.02199 14.49675 2.03125 14.40625 C 2.041928 14.30385 2.069964 14.19395 2.0625 14.09375 C 2.05847 14.03875 2.043737 13.9865 2.03125 13.9375 C 2.019515 13.8905 2.013544 13.82745 2 13.78125 C 1.922974 13.52155 1.99531 13.2398 2 13 C 2.00153 12.919 1.99749 12.8339 2 12.75 C 2.00479 12.5853 2.056736 12.4153 2.0625 12.25 C 2.0637 12.214 2.0304 12.19665 2.03125 12.15625 C 2.0321043 12.12425 2.063775 12.0919 2.0625 12.0625 C 2.05738 11.9527 2.02858 11.7888 2.03125 11.6875 C 2.03221 11.6555 2.02874 11.5939 2.03125 11.5625 C 2.041819 11.4329 2.041493 11.3514 2.03125 11.25 C 2.055571 11.186 2.1046236 11.08035 2.125 11.03125 C 2.150181 10.97125 2.172561 10.9512 2.1875 10.875 C 2.1972 10.825 2.224721 10.74165 2.25 10.71875 C 2.3607353 10.62075 2.3902246 10.799 2.5 10.8125 C 2.519417 10.8855 2.5946966 10.93275 2.65625 10.96875 C 2.682706 10.98375 2.699551 11.02125 2.71875 11.03125 C 2.736141 11.04225 2.763119 11.02025 2.78125 11.03125 C 2.807173 11.04525 2.823799 11.07675 2.84375 11.09375 C 2.898046 11.13875 2.9659707 11.1301 3 11.1875 C 3.07756 11.2235 3.1822698 11.2301 3.1875 11.3125 C 3.18903 11.3365 3.198909 11.36 3.1875 11.375 C 3.202221 11.418 3.198058 11.4628 3.21875 11.5 C 3.194854 11.527 3.204716 11.5916 3.1875 11.625 C 3.203866 11.599 3.238374 11.5254 3.25 11.5 C 3.324248 11.5 3.4114624 11.37065 3.46875 11.46875 C 3.482294 11.45675 3.498605 11.4375 3.53125 11.4375 C 3.53768 11.4655 3.4825 11.482 3.5 11.5 C 3.555157 11.511 3.5782765 11.489 3.625 11.5 C 3.650922 11.551 3.7522447 11.6072 3.75 11.6875 C 3.768458 11.7025 3.765777 11.6615 3.78125 11.6875 C 3.9042535 12.0562 3.969824 12.47895 3.9375 12.90625 C 3.92911 13.01685 3.94055 13.11205 3.9375 13.21875 C 3.936966 13.24175 3.9371796 13.25725 3.9375 13.28125 C 3.93913 13.42795 3.991577 13.5756 4 13.6875 C 4.010569 13.8258 4.0073 13.9807 4 14.125 C 3.987731 14.3719 4.031032 14.6307 4.03125 14.875 C 4.0314625 15.0405 4.091614 15.1568 4.09375 15.3125 C 4.0944964 15.3845 4.08939 15.48115 4.09375 15.53125 C 4.1004 15.60725 4.0938568 15.7536 4.09375 15.8125 C 4.0934308 15.9453 4.037112 16.0193 4.03125 16.125 C 4.016311 16.3961 4.077779 16.6943 3.96875 16.9375 C 3.97147 17.1143 3.8963354 17.2652 3.875 17.4375 C 3.858459 17.5721 3.87053 17.67165 3.875 17.78125 C 3.885352 18.03105 3.928859 18.27535 3.9375 18.53125 C 3.94033 18.61525 3.93281 18.69845 3.9375 18.78125 C 3.954139 19.07785 3.874879 19.4309 3.9375 19.6875 C 3.909976 19.7345 3.94251 19.77245 3.9375 19.84375 C 3.92933 19.95655 3.898568 20.10865 3.90625 20.21875 C 3.921723 20.44195 3.917991 20.6678 3.875 20.875 C 3.846092 21.0152 3.897185 21.1928 3.875 21.3125 C 3.938471 21.3955 3.85165 21.5247 3.84375 21.625 C 3.826675 21.8431 3.876177 22.02215 3.875 22.21875 C 3.8744661 22.31475 3.837136 22.39245 3.84375 22.46875 C 3.84735 22.51175 3.870413 22.55785 3.875 22.59375 C 3.88394 22.66275 3.86846 22.72565 3.875 22.78125 C 3.893666 22.93835 3.9914325 23.06215 4.125 23.09375 C 4.3612985 23.14975 4.5400048 22.88785 4.5 22.59375 C 4.562305 22.45535 4.54341 22.2819 4.53125 22.125 C 4.52188 22.0022 4.550547 21.8644 4.5625 21.75 C 4.56424 21.735 4.5588 21.73975 4.5625 21.71875 C 4.56566 21.70275 4.543726 21.67125 4.5625 21.65625 C 4.547027 21.64525 4.53466 21.645 4.53125 21.625 C 4.550885 21.4968 4.6395013 21.3905 4.65625 21.25 C 4.66606 21.167 4.666929 21.03095 4.65625 20.96875 C 4.618167 20.74945 4.618702 20.49835 4.625 20.28125 C 4.62663 20.22625 4.654332 20.1795 4.65625 20.125 C 4.65876 20.053 4.679077 20.02655 4.6875 19.96875 C 4.711178 19.80505 4.668834 19.6014 4.6875 19.4375 C 4.706492 19.2709 4.715656 19.08245 4.71875 18.90625 C 4.72169 18.74355 4.691978 18.57385 4.6875 18.40625 C 4.68423 18.28455 4.68478 18.135 4.6875 18 C 4.69219 17.7698 4.632148 17.6027 4.625 17.375 C 4.61814 17.16 4.59801 16.9088 4.625 16.6875 C 4.62827 16.6595 4.654115 16.653 4.65625 16.625 C 4.66083 16.562 4.6558229 16.46945 4.65625 16.40625 C 4.65732 16.25165 4.676517 16.12055 4.6875 15.96875 C 4.69654 15.84335 4.682739 15.71655 4.71875 15.59375 C 4.685472 15.53275 4.70894 15.42005 4.71875 15.34375 C 4.673628 15.27875 4.695498 15.2013 4.6875 15.125 C 4.68336 15.085 4.660946 15.07065 4.65625 15.03125 C 4.634065 14.84805 4.66431 14.64425 4.65625 14.46875 C 4.65331 14.40575 4.625 14.34445 4.625 14.28125 C 4.625 14.05255 4.675243 13.8307 4.625 13.625 C 4.63372 13.613 4.655291 13.61375 4.65625 13.59375 C 4.622537 13.53675 4.65778 13.4361 4.65625 13.375 C 4.64982 13.0985 4.617743 12.8327 4.625 12.5625 C 4.644842 12.5465 4.631899 12.59375 4.65625 12.59375 C 4.587015 12.14855 4.6552301 11.6504 4.90625 11.375 C 5.0193324 11.34 4.9474872 11.1581 5.125 11.1875 C 5.174502 11.1215 5.2488108 11.0523 5.3125 11 C 5.352294 10.926 5.305119 10.79395 5.34375 10.71875 C 5.359757 10.68775 5.386942 10.67825 5.40625 10.65625 C 5.41926 10.64125 5.419793 10.644 5.4375 10.625 C 5.45403 10.606 5.476638 10.60575 5.5 10.59375 C 5.49412 10.59375 5.50381 10.5665 5.5 10.5625 C 5.50107 10.5155 5.485824 10.49715 5.46875 10.46875 C 5.524223 10.32835 5.444636 10.25265 5.46875 10.09375 C 5.517718 10.03775 5.6006993 9.9654 5.53125 9.875 C 5.466177 9.86 5.3905753 9.84565 5.375 9.78125 C 5.403058 9.75425 5.431954 9.70575 5.4375 9.65625 C 5.414029 9.59225 5.3542226 9.5779 5.28125 9.5625 C 5.198993 9.4995 5.3075 9.29505 5.25 9.21875 C 5.25577 9.17975 5.267804 9.1564 5.28125 9.125 C 5.1451251 9.2676 4.9777268 9.1595 4.90625 9.0625 C 4.9068362 9.0315 4.885351 9.019 4.875 9 C 4.906218 9 4.9362137 8.985 4.96875 9 C 4.97453 8.985 5.018229 9.011 5.03125 9 C 5.078061 8.985 5.1081206 8.875 5.15625 8.875 C 5.20803 8.875 5.2947709 8.96875 5.34375 8.96875 C 5.416799 8.96875 5.4207955 8.903 5.46875 8.875 C 5.556444 8.824 5.6769421 8.79305 5.75 8.71875 C 5.848242 8.69475 5.975943 8.65475 6.09375 8.71875 C 6.179156 8.69675 6.3065327 8.7395 6.375 8.6875 C 6.420329 8.6995 6.4359197 8.7045 6.46875 8.6875 C 6.501581 8.6705 6.508183 8.653 6.53125 8.625 C 6.53539 8.4893 6.508586 8.3607 6.5 8.25 C 6.558143 8.0983 6.4802757 7.93745 6.59375 7.84375 C 6.650367 7.79675 6.7906044 7.77125 6.875 7.71875 C 6.936859 7.68175 6.9867539 7.66525 7.0625 7.65625 C 7.079324 7.59825 7.1539717 7.612 7.1875 7.5625 C 7.217901 7.5175 7.2482226 7.40805 7.28125 7.34375 C 7.362395 7.39575 7.4503119 7.4538 7.53125 7.5 L 7.53125 0 L 5.875 0 L 1.9375 0 z M 1.59375 17.3125 C 1.676856 17.3515 1.639296 17.48585 1.625 17.59375 C 1.6153 17.66675 1.585012 17.74415 1.5625 17.78125 C 1.502221 17.69925 1.535085 17.53075 1.53125 17.40625 C 1.543312 17.40625 1.552791 17.40575 1.5625 17.40625 C 1.5567389 17.38875 1.5768944 17.331 1.59375 17.3125 z "
       transform="translate(0,1004.3622)"
       id="rect871" />
    <path
       inkscape:connector-curvature="0"
       style="fill:url(#linearGradient4363);fill-opacity:1;stroke:none"
       d="m 7.5192585,1004.3635 0,7.3892 c 0.023198,0.011 0.040807,0.028 0.068102,0.034 -0.064452,0.075 -0.071502,0.1436 -0.068102,0.2043 0.010243,0.1822 0.2432743,0.3086 0.2383579,0.5449 0.1426605,-0.013 0.1768555,0.1371 0.2724089,0.1703 0.1636143,0.5508 0.7771718,0.9357 1.3960959,0.6469 0.2455919,0.3847 0.2856273,0.9907 0.5107668,1.3961 -0.2402266,1.0239 -0.1417606,2.2263 -0.1702556,3.337 -0.015255,0.5985 -0.2529579,1.1118 -0.272409,1.6345 -0.014416,0.3875 0.079271,0.7386 -0.3064601,0.8853 -0.025639,0.1541 0.032057,0.2472 0.068102,0.3405 -0.078116,0.674 -0.1767509,1.3244 -0.3745623,2.1452 -0.1366284,0.5681 -0.9912755,1.828 0.2383578,1.8729 0.2918579,-0.2243 0.3630558,-0.5107 0.4767157,-0.8854 0.1709922,-0.5638 0.5358662,-1.2146 0.7150732,-1.8728 0.04445,-0.1635 -0.04509,-0.3445 0,-0.4426 0.165964,-0.3619 0.321588,-0.6207 0.374563,-0.9876 0.103766,-0.7186 0.256859,-1.3797 0.340511,-2.043 0.07057,-0.5595 0.240513,-1.191 0.238358,-1.7707 -0.002,-0.6264 -0.05902,-1.2432 0,-1.8728 0.0332,-0.3581 0.211938,-0.6591 0.0681,-1.0215 0.244086,-0.1555 0.57969,-0.4892 0.272409,-0.8172 0.07795,-0.2354 0.405572,-0.3259 0.374562,-0.5448 0.04477,0.03 0.04652,0.084 0.0681,0.1362 -0.211097,-0.5453 -0.352782,-1.1531 -0.476715,-1.7367 0.14121,0.6186 0.346033,1.2281 0.578869,1.8048 0.250406,0.2546 0.434981,0.5581 0.544818,0.9534 0.02636,0.095 0.116865,0.1371 0.136204,0.2383 l 0.03405,0 c 0.325243,0.1068 0.418864,0.5538 0.749125,0.5448 0.457689,-0.016 0.627328,-0.7322 0.442664,-1.1917 0.131567,-0.1553 0.148442,-0.4165 0.340512,-0.5108 0.270736,0.3549 0.776447,0.76 1.259891,0.5108 0.04873,-0.069 0.117216,-0.1315 0.170255,-0.2043 l 0,-8.8874 L 7.5192585,1004.3635 Z"
       id="rect873" />
    <path
       style="fill:url(#linearGradient4442);fill-opacity:1;stroke:none"
       d="m 15.827731,1004.3635 0,8.0361 0,1.0556 c -0.142958,0.3697 -0.534159,0.7705 0,1.0555 -0.115149,0.388 0.02615,0.9888 -0.05521,1.2679 -0.584611,2.0061 -0.59771,1.194 -0.455555,1.8308 1.06134,-0.021 0.207793,-1.3005 1.362044,-1.3961 0.335584,0.5276 0.834408,1.3416 -0.476715,1.3109 l -0.544818,0.2896 0.646971,0.1191 -0.374562,0.7662 -0.102154,0.5618 c 0.223866,1.2099 1.314509,-0.2768 0.57887,-0.3575 0.227682,0.2368 0.04909,0.8799 0.734726,0.6588 l -0.374563,0.5959 c 6.28e-4,0 0.0013,0 0.002,0 6.47e-4,0 0.0013,0 0.002,0 6.66e-4,-10e-5 0.0013,-10e-5 0.0021,-2e-4 6.81e-4,-1e-4 0.0014,-2e-4 0.0021,-3e-4 l 0.0021,-4e-4 0.0022,-3e-4 0.0022,-3e-4 c 7.24e-4,-10e-5 0.0014,-2e-4 0.0022,-3e-4 7.31e-4,-2e-4 0.0014,-3e-4 0.0022,-4e-4 7.34e-4,0 0.0014,-10e-5 0.0022,-10e-5 7.37e-4,-10e-5 0.0015,-10e-5 0.0022,-10e-5 7.36e-4,0 0.0015,0 0.0022,0 7.34e-4,10e-5 0.0014,2e-4 0.0022,3e-4 7.31e-4,1e-4 0.0014,3e-4 0.0022,5e-4 7.25e-4,10e-5 0.0014,4e-4 0.0022,6e-4 7.16e-4,2e-4 0.0014,6e-4 0.0022,10e-4 1.024966,0.6657 0.359206,2.2502 0.218705,3.3421 -0.213028,0.6786 0.210335,0.7514 0.783176,0.4428 0.0063,-0.5221 -0.629288,-0.7992 -0.30646,-1.294 -0.01395,-0.3649 0.391461,-1.2771 0.496368,-1.6737 0.128188,-0.084 0.248508,-0.1705 0.408614,-0.1362 0.100388,0.091 -0.08463,0.2484 0.136204,0.3064 0.148318,-0.1569 0.136205,-0.3745 0.136205,-0.3745 0.821432,0.057 0.270351,-0.1547 0.797574,-0.4375 0.122086,0.2041 -0.119882,0.2594 -0.0681,0.4087 0.282199,0.1735 0.511895,-0.046 0.544818,-0.2385 -0.364056,-0.7013 -0.136032,-0.5516 0.272409,-0.2383 0.07828,0.4144 0.419669,0.7468 0.510767,1.1578 -0.154237,0.2364 -0.402325,0.026 -0.544818,0.3064 -0.16839,0.2462 0.222043,0.3616 0.03405,0.6129 -0.204673,0.711 -1.217986,0.4327 -1.430147,0.9875 -0.120828,0.3159 0.116225,0.6271 0.476716,0.8173 0.746933,0.076 1.149491,-0.2875 1.259891,-1.2259 0.0389,-0.2116 -0.281864,-0.3389 -0.136204,-0.5789 0.136053,-0.1807 0.271765,-0.3481 0.476716,-0.2724 0.168281,0.072 -0.254883,0.3006 0.03405,0.3405 0.205904,-0.2122 0.104616,-0.4847 0.30646,-0.5448 0.233356,0.071 0.204498,0.2541 0.374562,0.2043 0.4355,-0.3439 0.704398,-0.243 1.123687,-0.4426 0.521203,0.2946 0.88112,0.4824 1.259891,0.6469 0.02794,-0.022 0.04529,-0.044 0.0681,-0.068 -0.359174,-0.5846 -0.111522,-0.9485 0,-1.362 -0.04097,-0.05 -0.07309,-0.1131 -0.0681,-0.1702 0.0204,-0.032 0.04624,-0.043 0.0681,-0.068 l 0,-0.5959 -0.204307,-0.3447 0.732099,0.5235 c 0.449525,-0.3988 -0.106,-0.6971 -0.527792,-1.0088 0.19936,0.048 0.252993,-0.1228 0.272409,-0.3447 l -0.272409,-0.2086 -0.272409,-0.2937 0.749124,0.2 c 0.07916,-0.7215 -0.09233,-0.6694 -0.30646,-0.8045 L 24.034106,1008.3475 24.034051,1004.3635 z m 1.362045,13.8248 c 0.05628,0 0.108604,0.013 0.170256,0.034 -0.165596,0.069 -0.292356,0.2292 -0.510767,0.1025 0.0559,-0.061 0.106043,-0.084 0.170256,-0.1025 C 17.073251,1018.2077 17.133494,1018.1898 17.189776,1018.1883 z m 0.30646,0.067 c 0.10551,-0.027 0.23915,0.043 0.340512,0 0.155359,0.1427 -0.129075,0.094 -0.136205,0.2384 l -0.30646,-0.1703 C 17.421323,1018.2853 17.460948,1018.2654 17.496236,1018.2564 z m 6.129202,0.5448 c 0.07786,0.063 -0.09735,0.2149 0,0.2724 -0.101435,0.06 -0.232042,0.025 -0.374563,-0.067 C 23.357186,1018.9018 23.511255,1018.8755 23.625438,1018.8012 z m -0.238358,2.0091 c 0.03515,-0.015 0.06583,0 0.102153,0 0.157671,0.2257 0.01273,0.5118 0,0.7831 -0.204345,0.1136 -0.419429,0.1268 -0.715073,-0.1024 C 22.935914,1021.111 23.142644,1020.8823 23.38708,1020.8103 Z"
       id="rect875"
       inkscape:connector-curvature="0"
       sodipodi:nodetypes="ccccsccccccccccssssssssssssssscccccccccccccccccccccccccccccccccccccccccscccscccccccccccccc" />
    <path
       inkscape:connector-curvature="0"
       style="fill:url(#linearGradient4501);fill-opacity:1;stroke:none"
       d="m 32.240371,1004.3635 c -0.185211,0.4579 0.03405,1.4157 0.03405,4.1883 l 0,5.0736 c 0.02612,0.022 0.04437,0.044 0.0681,0.068 0.07823,0.078 0.181967,0.1734 0.238358,0.2724 0.0969,0.053 0.231424,0.1024 0.374562,0.067 0.08393,0.048 0.214383,0.062 0.272409,0.1362 0.102742,0 0.137567,0.062 0.170256,0.1362 -0.03374,0.145 -0.09557,0.2601 -0.136205,0.3747 0.01857,0.1768 -0.09339,0.3109 0,0.4426 0.04658,0.065 0.163872,0.1269 0.238358,0.2043 0.05475,0.058 0.126323,0.1079 0.204307,0.1362 0.0021,0.065 0.04662,0.075 0.0681,0.1362 0.02672,0.075 0.05677,0.2169 0.0681,0.3065 0.0076,0.06 -0.0086,0.1103 0,0.1702 0.0048,0.033 -0.0046,0.071 0,0.1024 0.05933,0.4248 0.02132,0.8894 0.03405,1.328 -0.0377,0.087 -0.0128,0.1733 -0.03405,0.2724 -0.03083,0.142 -0.0935,0.2956 -0.102153,0.4427 -0.0017,0.027 0.0026,0.041 0,0.068 -0.0017,0.022 -0.03078,0.045 -0.03405,0.067 -0.0039,0.027 -3.51e-4,0.069 0,0.1024 3.57e-4,0.04 0.01925,0.1003 0,0.1362 0.04903,0.065 0.02343,0.1454 0.03405,0.2385 0.01425,0.125 0.03266,0.2237 0.03405,0.3405 0.0017,0.1618 0.0897,0.3867 0.0681,0.5448 -0.0188,0.1388 -0.06161,0.2843 -0.03405,0.4426 -0.0074,0.1322 -0.02155,0.2661 -0.03405,0.3746 -0.0029,0.026 -0.0015,0.045 0,0.068 2.32e-4,0 -0.0013,0.034 0,0.034 0.0046,0.015 -0.0027,0.02 0,0.034 0.01669,0.087 0.01622,0.1525 0,0.2383 0.04891,0.1883 0.0293,0.3877 0,0.579 -0.01389,0.09 1.16e-4,0.2108 0,0.3064 -2.34e-4,0.1013 0.01373,0.1242 0.03405,0.2043 0.03141,0.1224 0.01916,0.306 0,0.4086 -0.02615,0.1398 -0.04409,0.3277 -0.03405,0.4767 0.008,0.1199 0.04726,0.2348 0.102153,0.3065 0.113142,0.1444 0.417676,0.1435 0.544818,0 0.07226,-0.1719 0.13983,-0.3306 0.136205,-0.5448 -0.0024,-0.1361 -8.17e-4,-0.2736 0.03405,-0.4086 -0.0697,-0.1503 0.0021,-0.3001 0.0681,-0.4086 -0.039,-0.05 -0.03195,-0.189 -0.03405,-0.2724 -0.0043,-0.1624 -0.01904,-0.3442 0,-0.4768 -0.03443,-0.1393 -0.01389,-0.2655 0,-0.4086 0.0432,-0.4411 0.0097,-0.9013 0.03405,-1.328 0.006,-0.1035 -0.01013,-0.2076 0,-0.3064 0.01169,-0.112 0.04222,-0.2309 0.03405,-0.3405 -0.0046,-0.06 -0.02039,-0.1167 -0.03405,-0.1704 -0.0129,-0.051 -0.01923,-0.1202 -0.03405,-0.1702 -0.08429,-0.284 -0.0051,-0.5889 0,-0.8513 0.0016,-0.088 -0.0027,-0.2146 0,-0.3064 0.0052,-0.1802 0.06179,-0.33 0.0681,-0.5108 0.0013,-0.039 -0.03498,-0.058 -0.03405,-0.1024 9.35e-4,-0.035 0.03545,-0.1036 0.03405,-0.1362 -0.0056,-0.1199 -0.03697,-0.2978 -0.03405,-0.4087 0.0011,-0.035 -0.0026,-0.067 0,-0.1024 0.01157,-0.142 0.01121,-0.2637 0,-0.3745 0.02662,-0.071 0.113902,-0.1507 0.136205,-0.2043 0.02756,-0.065 0.01771,-0.1203 0.03405,-0.2043 0.01057,-0.054 0.04044,-0.1109 0.0681,-0.1362 0.121193,-0.109 0.186322,0.088 0.30646,0.1024 0.02125,0.08 0.06884,0.097 0.136205,0.1362 0.02895,0.016 0.04709,0.092 0.0681,0.1024 0.01904,0.013 0.04826,-0.013 0.0681,0 0.02839,0.015 0.08032,0.052 0.102153,0.068 0.05942,0.049 0.09896,0.039 0.136205,0.1024 0.08488,0.039 0.232634,0.012 0.238358,0.1025 0.0016,0.026 0.01251,0.052 0,0.067 0.01613,0.047 0.01141,0.1301 0.03405,0.1702 -0.02615,0.029 -0.01521,0.065 -0.03405,0.1024 0.01791,-0.028 0.05537,-0.075 0.0681,-0.1024 0.08125,0 0.14161,-0.1417 0.204307,-0.034 0.01482,-0.013 0.03237,-0.034 0.0681,-0.034 0.0071,0.03 -0.05318,0.048 -0.03405,0.067 0.06037,0.013 0.11912,-0.013 0.170255,0 0.02839,0.058 0.104605,0.083 0.102154,0.1703 0.0202,0.016 0.01712,-0.028 0.03405,0 0.134615,0.4036 0.239682,0.8944 0.204307,1.3621 -0.0092,0.1211 0.0034,0.2236 0,0.3405 -5.86e-4,0.025 -3.51e-4,0.041 0,0.067 0.0017,0.1605 0.05888,0.3202 0.0681,0.4427 0.01157,0.1513 0.008,0.3183 0,0.4767 -0.01342,0.27 0.03381,0.55 0.03405,0.8172 2.31e-4,0.1812 0.0317,0.3063 0.03405,0.4767 8.18e-4,0.079 -0.0048,0.1835 0,0.2384 0.0073,0.084 1.19e-4,0.242 0,0.3064 -3.48e-4,0.1454 -0.02763,0.2589 -0.03405,0.3746 -0.01636,0.2968 0.05124,0.5851 -0.0681,0.8513 0.0029,0.1934 -0.112856,0.3561 -0.136205,0.5448 -0.0181,0.1472 -0.0049,0.2547 0,0.3746 0.01133,0.2734 0.0927,0.5372 0.102154,0.8172 0.0033,0.092 -0.0051,0.2159 0,0.3064 0.01821,0.3246 -0.06853,0.6726 0,0.9535 -0.03012,0.051 0.0054,0.1268 0,0.2043 -0.0089,0.1238 -0.04247,0.2881 -0.03405,0.4086 0.01693,0.2443 -0.02103,0.4884 -0.0681,0.7151 -0.03163,0.1533 0.02428,0.3459 0,0.4767 0.06946,0.091 -0.02541,0.2308 -0.03405,0.3405 -0.01868,0.2388 0.03534,0.4659 0.03405,0.6811 -5.84e-4,0.1046 -0.04129,0.1548 -0.03405,0.2383 0.0039,0.047 0.02903,0.1309 0.03405,0.1703 0.0098,0.075 -0.0072,0.1089 0,0.1702 0.02043,0.1719 0.126233,0.3059 0.272409,0.3405 0.258602,0.061 0.452395,-0.1888 0.408614,-0.5107 0.06819,-0.1515 0.04736,-0.3731 0.03405,-0.5448 -0.01024,-0.1344 0.02097,-0.2835 0.03405,-0.4087 0.0017,-0.016 -0.004,-0.011 0,-0.034 0.0035,-0.017 -0.02055,-0.052 0,-0.068 -0.01693,-0.013 -0.03031,-0.012 -0.03405,-0.034 0.02149,-0.1402 0.151922,-0.2548 0.170255,-0.4086 0.0109,-0.09 0.01168,-0.2387 0,-0.3065 -0.04168,-0.24 -0.075,-0.5116 -0.0681,-0.7491 0.0017,-0.061 0.066,-0.1105 0.0681,-0.1702 0.0027,-0.079 0.02483,-0.1418 0.03405,-0.2043 0.02591,-0.1792 -0.02043,-0.3655 0,-0.5448 0.02079,-0.1825 0.03066,-0.4201 0.03405,-0.613 0.0033,-0.1781 -0.02915,-0.3273 -0.03405,-0.5108 -0.0036,-0.1331 -0.0029,-0.295 0,-0.4426 0.0051,-0.2518 -0.09433,-0.466 -0.102153,-0.7151 -0.0075,-0.2353 -0.02954,-0.5069 0,-0.7492 0.0036,-0.032 0.06575,-0.04 0.0681,-0.067 0.005,-0.071 -4.67e-4,-0.1692 0,-0.2383 0.0012,-0.1692 0.02203,-0.3106 0.03405,-0.4767 0.0099,-0.1372 -0.0054,-0.2744 0.03405,-0.4086 -0.03641,-0.067 -0.0109,-0.155 0,-0.2385 -0.04938,-0.072 -0.0253,-0.1889 -0.03405,-0.2724 -0.0046,-0.046 -0.02891,-0.059 -0.03405,-0.1024 -0.02428,-0.2004 0.0088,-0.4208 0,-0.6129 -0.0031,-0.07 -0.0681,-0.1693 -0.0681,-0.2384 0,-0.2503 0.05498,-0.4559 0,-0.681 0.0096,-0.013 0.06706,-0.012 0.0681,-0.034 -0.0369,-0.062 0.0016,-0.1716 0,-0.2384 -0.0071,-0.3027 -0.07605,-0.5896 -0.0681,-0.8854 0.02172,-0.02 0.04141,0.034 0.0681,0.034 -0.07577,-0.4873 -0.03636,-1.0605 0.238358,-1.362 0.123762,-0.038 0.07814,-0.2027 0.272409,-0.1703 0.05418,-0.073 0.100552,-0.1811 0.170256,-0.2383 0.04355,-0.082 -0.0083,-0.1903 0.03405,-0.2725 0.01752,-0.034 0.08103,-0.043 0.102153,-0.067 0.01424,-0.016 0.01466,-0.047 0.03405,-0.068 0.01809,-0.02 0.04255,-0.021 0.0681,-0.034 -0.0064,0 0.004,-0.031 0,-0.034 0.0012,-0.051 -0.01536,-0.073 -0.03405,-0.1025 0.06073,-0.1537 -0.02639,-0.2348 0,-0.4086 0.05359,-0.061 0.144107,-0.1398 0.0681,-0.2383 -0.07122,-0.016 -0.153211,-0.032 -0.170256,-0.1024 0.03071,-0.029 0.06203,-0.049 0.0681,-0.1024 -0.02568,-0.071 -0.124449,-0.12 -0.204306,-0.1362 -0.09004,-0.071 0.02887,-0.2571 -0.03405,-0.3405 0.0063,-0.043 0.01933,-0.1014 0.03405,-0.1362 -0.148974,0.1559 -0.330389,0.037 -0.408614,-0.068 6.42e-4,-0.034 -0.02272,-0.047 -0.03405,-0.068 0.03416,-2e-4 0.06654,-0.016 0.102153,0 0.0063,-0.016 0.0879,0.013 0.102154,0 0.05123,-0.016 0.08353,-0.1024 0.136204,-0.1024 0.05667,0 0.116653,0.068 0.170256,0.068 0.07995,0 0.117801,-0.04 0.170255,-0.068 0.09596,-0.058 0.226505,-0.1226 0.30646,-0.2043 0.107515,-0.026 0.245635,-0.069 0.374563,0 0.09347,-0.024 0.197479,0.022 0.272409,-0.034 0.04961,0.013 0.100268,0.018 0.136204,0 0.03592,-0.017 0.04286,-0.038 0.0681,-0.067 0.0046,-0.1485 -0.02467,-0.2875 -0.03405,-0.4086 0.06364,-0.1661 -0.02202,-0.3402 0.102154,-0.4428 0.06196,-0.051 0.214097,-0.078 0.30646,-0.1362 0.0677,-0.04 0.121409,-0.058 0.204306,-0.067 0.01841,-0.063 0.09951,-0.049 0.136205,-0.1024 0.03327,-0.049 0.06601,-0.1681 0.102153,-0.2385 0.02095,0.013 0.04761,0.022 0.0681,0.034 l 0,-6.9805 L 32.240371,1004.3635 z m 1.940914,17.8428 c 0.09095,0.045 0.0497,0.2223 0.03405,0.3405 -0.01057,0.08 -0.04347,0.1298 -0.0681,0.1703 -0.06597,-0.089 -0.02986,-0.2725 -0.03405,-0.4086 0.01319,0 0.02343,-5e-4 0.03405,0 C 34.140929,1022.2893 34.162837,1022.2266 34.181285,1022.2063 Z"
       id="rect879" />
    <path
       style="fill:#ff3d00;fill-opacity:1;stroke:none"
       d="M 40.46875 0 L 40.46875 6.9375 L 40.5 6.9375 C 40.46777 6.9755 40.47814 7.029 40.46875 7.0625 L 40.46875 7.21875 C 40.52311 7.36515 40.691736 7.4839 40.6875 7.6875 C 40.830161 7.6745 40.873197 7.8419 40.96875 7.875 C 41.132364 8.4258 41.724826 8.7889 42.34375 8.5 C 42.589342 8.8848 42.64986 9.50075 42.875 9.90625 C 42.634773 10.93005 42.715995 12.1392 42.6875 13.25 C 42.67225 13.8484 42.425701 14.3523 42.40625 14.875 C 42.39183 15.2625 42.51073 15.63455 42.125 15.78125 C 42.09936 15.93535 42.15146 16.00035 42.1875 16.09375 C 42.10938 16.76765 42.010311 17.4292 41.8125 18.25 C 41.675872 18.8182 40.832867 20.0801 42.0625 20.125 C 42.354358 19.9007 42.41759 19.6246 42.53125 19.25 C 42.702242 18.6861 43.070793 18.0332 43.25 17.375 C 43.29445 17.2116 43.20491 17.0357 43.25 16.9375 C 43.415964 16.5756 43.572026 16.3044 43.625 15.9375 C 43.728766 15.2189 43.885098 14.56965 43.96875 13.90625 C 44.03933 13.34685 44.189656 12.7047 44.1875 12.125 C 44.1855 11.4986 44.12849 10.8796 44.1875 10.25 C 44.2207 9.8918 44.393839 9.58115 44.25 9.21875 C 44.494086 9.06325 44.838531 8.73425 44.53125 8.40625 C 44.6092 8.17085 44.93726 8.0939 44.90625 7.875 C 44.95102 7.905 44.94717 7.9478 44.96875 8 C 44.757653 7.4547 44.623933 6.86485 44.5 6.28125 C 44.641211 6.89985 44.829664 7.4859 45.0625 8.0625 C 45.312905 8.3171 45.515164 8.63595 45.625 9.03125 C 45.65136 9.12625 45.730661 9.1488 45.75 9.25 L 45.78125 9.25 C 46.106493 9.3568 46.200989 9.8215 46.53125 9.8125 C 46.988939 9.7965 47.184664 9.0845 47 8.625 C 47.131567 8.4697 47.120431 8.18815 47.3125 8.09375 C 47.470217 8.3005274 47.733603 8.5257081 48 8.625 L 48 1.9375 C 48 0.86022285 47.139777 0 46.0625 0 L 42.125 0 L 40.46875 0 z "
       transform="translate(0,1004.3622)"
       id="rect881" />
    <path
       inkscape:connector-curvature="0"
       style="fill:url(#linearGradient4485);fill-opacity:1;stroke:none"
       d="m 24.034051,1004.3635 0,6.0611 c 0.04058,0.063 0.06718,0.1369 0.102153,0.2043 -0.0069,0.088 -0.04144,0.1525 -0.0681,0.2384 0.150959,0.2687 -0.05878,0.6477 0.03405,0.9875 0.03518,0 0.09485,-0.032 0.102154,0 0.01121,0.1226 -0.0098,0.2957 -0.03405,0.4427 -0.0468,0.2838 -0.08209,0.5572 0.204306,0.681 0.04659,-0.016 -0.01898,-0.1253 0.03405,-0.1362 0.05934,0.1168 0.15414,0.061 0.238358,0.1702 0.06309,-0.047 0.05746,-0.1386 0.136205,-0.1702 0.06261,0.063 0.128359,0.1203 0.102153,0.2724 0.117091,0.038 0.08021,-0.078 0.170256,-0.068 -0.01285,0.1036 0.08372,0.1639 0.170255,0.1362 0.02079,0.04 0.01584,0.094 0.03405,0.1363 -0.04475,0.071 -0.114157,0.1113 -0.102153,0.2383 0.0278,0 0.06451,0.011 0.0681,0.034 -0.04283,0.4714 0.0093,0.8708 0.340511,1.0556 0.01092,0.162 0.121669,0.216 0.204307,0.3065 0.218911,-0.029 0.231547,0.3854 0.510767,0.3745 0.02767,-0.035 0.0266,-0.1155 0.0681,-0.1362 0.130944,0.1182 0.367335,0.029 0.476716,0.1703 -0.0043,-0.011 0.01555,-0.028 0.03405,-0.034 0.112368,0.082 0.228497,0.1873 0.170256,0.3746 0.172799,0.095 0.16759,0.3819 0.340511,0.4767 -0.0089,0.1249 -0.127161,0.1478 -0.136205,0.2725 -0.0319,-0.011 -0.01872,-0.045 -0.0681,-0.034 0.01626,0.1013 -0.0792,0.1817 -0.03405,0.2384 0.0881,0.025 0.02147,-0.086 0.102153,-0.068 0.171923,0.1275 0.114314,0.5045 0.170256,0.7492 0.0039,-0.035 0.03449,-0.034 0.0681,-0.034 -0.03992,0.3477 -0.231547,0.5633 -0.170255,0.8513 0.09949,-0.05 0.08742,0.1013 0.136204,0.1702 -0.03023,0 -0.02988,-0.011 -0.0681,0 0.01481,0.1482 -3.05e-4,0.217 0.03405,0.3746 -0.06443,-0.017 -0.05519,0.034 -0.102153,0.034 0.02899,0.1068 0.05266,0.1556 0,0.2384 0.134559,0.023 0.06138,0.1577 0.102153,0.2383 -0.07547,0 -0.05981,-0.099 -0.102153,-0.1362 -0.02715,0.028 -0.0029,0.078 0,0.1362 0.13901,-0.011 0.01413,0.2215 0.136204,0.1703 -0.07125,0.027 -0.04959,0.077 -0.03405,0.1362 -0.0163,4e-4 -0.04211,0.028 -0.03405,0.068 3.7e-4,0.037 0.06276,0.034 0.0681,0.068 -0.118437,0.118 0.02707,0.3542 0,0.5107 -0.01003,-0.039 0.09583,-0.056 0.102153,0 -0.07875,0 -0.08556,0.078 -0.170255,0.067 -0.03943,0.088 0.09667,0.1024 0.03405,0.1362 -0.03022,0 -0.03,-0.045 -0.0681,-0.034 0.05218,0.3054 -0.01559,0.5793 0.102153,0.8173 -0.004,-0.013 0.03453,-0.021 0.03405,-0.034 0.01908,0.011 0.06331,0.011 0.0681,0.034 -0.07172,0.024 -0.03009,0.037 0,0.067 -0.01735,0.038 -0.12315,-0.011 -0.102153,0.068 0.03738,0.016 0.241954,-0.025 0.272409,0.068 -0.116251,0.035 -0.27862,-0.033 -0.340511,0.034 0.021,0.091 0.109628,-0.016 0.136204,0.034 -0.0093,0.014 -0.01721,0.027 -0.03405,0.034 0.0345,0.027 0.08718,0.015 0.102153,0 0.01924,0.025 0.06329,0.029 0.0681,0.067 -0.06674,0 -0.167096,6e-4 -0.170256,0.068 -0.06928,-0.021 0.01408,-0.095 0,-0.1362 -0.03931,0.016 -0.09043,0.025 -0.102153,0.067 0.01796,0.037 0.07224,0.044 0.0681,0.1025 -0.0739,-0.042 -0.03304,0 -0.0681,0.067 0.0052,0.074 0.179811,0.091 0.102153,0.1702 -0.06213,0.011 -0.02632,-0.089 -0.102153,-0.067 0.0097,0.077 0.05688,0.1278 0.102153,0.1703 -0.04345,0.088 -0.04973,0.3262 0.0681,0.4426 -0.07257,0.017 -0.06351,-0.086 -0.136204,-0.068 -0.05557,0.4425 -0.113802,0.8943 -0.102153,1.294 0.03712,0 0.07916,0.016 0.0681,0.067 -0.08786,-0.022 -2.42e-4,0.2528 0,0.2724 0.0014,0.1378 -0.09535,0.3431 0.0681,0.3747 -0.0949,0.1701 -0.01094,0.3532 -0.0681,0.5448 0.02791,0.058 0.154467,0.032 0.170255,0.1024 -0.02731,0.1509 0.06893,0.2174 0,0.3405 0.203016,0.151 0.111776,0.5906 0.510767,0.5448 -0.03664,0.084 0.07758,0.011 0.0681,0.068 0.05824,0 0.108299,0.026 0.136205,0 0.04695,0 0.03783,0.05 0.102153,0.034 0.483569,-0.421 0.338801,-1.5439 0.442665,-2.1112 -0.04403,0 -0.08663,-0.037 -0.102154,-0.068 0.04489,-0.011 0.07747,-0.045 0.136205,-0.034 -0.05933,-0.2805 0.0109,-0.6803 -0.0681,-0.9535 -0.04399,-0.012 -0.05482,0.016 -0.0681,0.034 0.0098,-0.035 0.02935,-0.072 0.03405,-0.1024 0.0047,-0.031 -0.0056,-0.055 -0.03405,-0.1024 0.03253,0 0.04918,0.013 0.0681,0 l 0,-0.1703 c -0.07693,0.1013 -0.02359,0.079 -0.136205,0.1703 -0.0295,-0.092 0.01671,-0.1235 -0.0681,-0.1703 -0.007,0.011 -0.02386,0 -0.03405,0 -0.04125,0 -0.08116,0.017 -0.102154,0 -0.004,0.036 -0.0021,0.091 -0.03405,0.1024 -0.06736,0.019 -0.07753,0.012 -0.102153,0 0.01292,0.011 -0.0097,0.035 -0.0681,0.067 0.01035,0.015 0.02045,0.032 0.03405,0.034 -0.05218,0.034 0.01922,0.055 -0.03405,0.068 -0.04897,-0.035 -0.151436,0.028 -0.204307,0 0.0438,0.019 0.08131,0.083 0.136204,0.034 0.0193,0.1155 -0.149182,-0.017 -0.136204,0.034 -6.1e-4,-0.022 -0.04978,-0.023 -0.0681,-0.034 0.01308,-0.037 0.04452,-0.044 0.0681,-0.034 -0.01762,-0.011 0.0032,-0.035 0,-0.068 0.156014,0.048 0.02226,-0.037 0.136204,0 -0.0019,-0.041 0.01573,-0.082 0.03405,-0.1024 -0.03533,0 -0.09485,0.032 -0.102154,0 0.101434,0.011 0.08241,-0.1253 0.0681,-0.1362 -0.08009,0.042 -0.129024,-0.1246 -0.238357,-0.1703 0.185297,0.018 0.292241,0.011 0.408613,0.1024 -0.02112,-0.082 0.05063,-0.032 0.0681,-0.068 0.02038,0.036 0.04306,0.079 0.102154,0.068 0.0898,-0.1133 0.1105,-0.1259 0.03405,-0.2043 0.109695,-0.024 0.134297,0.018 0.204307,0.034 0.01046,-0.1417 -0.0717,-0.067 -0.102154,-0.1362 0.008,-0.057 0.02292,-0.1174 0.102154,-0.1025 -0.0012,-0.011 -0.03196,-0.02 -0.03405,-0.034 -0.01626,-0.018 -0.04961,-0.018 -0.0681,-0.034 0.0035,0.075 -0.07881,0.089 -0.136204,0.1024 -0.0087,-0.085 -0.07386,-0.091 -0.03405,-0.1702 -0.01138,0 -0.01109,0 -0.03405,0 -0.04744,-0.048 0.02082,-0.054 0.03405,-0.1024 -0.07426,-0.013 -0.114608,0.026 -0.136205,0 -0.0012,-0.074 -0.03609,-0.1364 0.03405,-0.1702 0.03277,0.017 0.04181,0.05 0.03405,0.067 0.01416,-0.04 0.05569,-0.059 0.03405,-0.1362 l 0.170256,-0.034 c -0.04102,-0.022 -0.07155,-0.066 -0.03405,-0.1025 -0.09927,-0.035 -0.189128,0.051 -0.204307,-0.034 0.09563,-0.039 0.130069,-0.055 0.272409,-0.068 -0.0073,-0.02 0.0074,-0.051 0,-0.068 -0.0537,0.011 -0.109991,-0.011 -0.170255,0 -0.06027,0.011 -0.110796,0.053 -0.170256,0.1025 0.05885,-0.097 0.02905,-0.083 0.136204,-0.1703 0.0038,0.027 0.0064,0.057 0.03405,0.067 0.0044,-0.036 0.03073,-0.034 0.0681,-0.034 -0.01002,-0.027 0.0082,-0.072 0,-0.1024 0.06042,0 0.14126,9e-4 0.170255,-0.034 -0.02924,-0.057 -0.08147,-0.1046 -0.136204,-0.1362 0.01651,-0.094 0.0907,-0.14 0.136204,-0.2043 -0.124017,-0.018 -0.07086,-0.2607 0,-0.3065 -0.141846,-0.05 0.04218,-0.1893 -0.136204,-0.2383 -0.04065,0.011 0.03334,0.08 -0.0681,0.068 0.0033,-0.044 0.0024,-0.087 0.03405,-0.1025 l 0.102153,0 c -0.01166,-0.075 0.05298,-0.088 0.03405,-0.1702 -0.0314,5e-4 -0.07241,-0.047 -0.102153,-0.067 -0.04462,-0.032 -0.06516,-0.043 0,-0.068 -0.0057,0.035 -0.01325,0.055 0,0.068 0.01325,0.014 0.04735,0.022 0.0681,0 0.06129,-0.063 -0.01445,-0.027 0,-0.1025 0.07234,0.018 0.064,-0.05 0.136205,-0.034 0.0097,-0.057 -0.05371,-0.036 -0.03405,-0.1025 -0.08894,-0.028 -0.10198,0.036 -0.136205,-0.034 0.05724,-0.032 0.0014,-0.08 0.03405,-0.1025 0.06298,0.064 0.06945,-0.011 0.136205,0 0.0056,-0.1545 -0.176162,-0.098 -0.204307,-0.1702 0.03665,0 0.01626,-0.05 0,-0.067 0.113344,-0.016 0.216464,-0.2387 0.102153,-0.2724 0.0966,-0.037 0.130048,-0.011 0.204307,-0.034 -0.130571,-0.024 -0.174603,-0.2116 -0.102153,-0.3064 -0.09939,-0.028 -0.07431,0.023 -0.136205,0.034 -0.04319,-0.027 -0.05895,-0.076 -0.102153,-0.1025 0.06989,-0.08 -0.05759,-0.3174 0.136204,-0.3065 0.02851,-0.1269 0.0947,-0.1702 -0.03405,-0.1702 -0.01651,-0.084 0.06684,-0.1046 0.102154,-0.067 -0.0013,-0.1455 0.06763,-0.197 0.136204,-0.2724 l 0.749125,0 c -0.01711,0.1707 0.0473,0.375 0.102153,0.4426 -0.11795,0.2591 0.06509,0.7694 0.30646,0.9534 0.639988,-0.021 0.612274,-0.7356 0.987482,-1.0215 0.07803,0.064 0.220107,0.048 0.272409,0.1362 0.02767,0.2832 0.404763,0.5251 0.646972,0.3065 0.06081,-0.2899 0.141857,-0.5429 0.0681,-0.8172 l 0.102153,0 c -0.0047,-0.011 0.0047,-0.025 0,-0.034 -0.02159,-0.1046 -0.04238,-0.2062 -0.0681,-0.3064 -0.0028,0.019 -0.009,0.052 -0.03405,0.067 -0.01002,0.011 -0.02408,-6e-4 -0.03405,0 -0.0082,-0.02 0.008,-0.049 0,-0.067 0.03902,-0.032 0.07684,-0.023 0.102153,-0.068 0.0074,-0.1105 -0.139308,-0.1553 0,-0.2043 -0.07523,-0.035 -0.144703,-0.052 -0.136204,-0.1703 0.0023,-0.061 0.06592,-0.041 0.0681,-0.1024 -0.0301,-0.033 -0.09997,-0.011 -0.102153,-0.068 0.06856,-0.021 0.03688,-0.011 0.03405,-0.067 l 0.102153,0 c 0.0097,-0.056 -0.05359,-0.07 -0.03405,-0.1362 l -0.0681,0 c 0.05,-0.053 -0.03874,-0.092 -0.0681,-0.1363 0.08119,-0.081 0.07067,0.034 0.136205,0.034 0.03982,-0.174 -0.14454,-0.2303 -0.0681,-0.4767 -0.02081,-0.036 -0.05237,-0.017 -0.0681,0 0.01837,-0.015 0.03735,-0.034 0.0681,-0.034 -0.03897,-0.076 -0.06294,-0.1697 -0.0681,-0.3065 0.190752,-0.056 0.0133,-0.1647 0.03405,-0.3064 0.09352,0.023 0.08104,-0.052 0.102153,-0.1024 -0.07341,0.016 -0.07544,-0.085 -0.0681,-0.1362 -0.02812,-0.051 -0.04438,-0.1175 0,-0.1702 -0.05996,-0.052 -0.1481,-0.082 -0.204307,-0.1362 -0.0057,-0.011 0.0043,-0.027 0,-0.034 0.06513,-10e-5 0.07665,-0.025 0.136204,-0.034 0.0071,-0.046 -0.01876,-0.045 -0.03405,-0.067 0.07718,-0.011 0.157758,-0.028 0.170256,-0.1025 -0.127903,0.034 -0.15645,-0.154 -0.238358,-0.034 0.0066,0.011 0.02305,0.03 0.03405,0.034 -0.01121,-3e-4 -0.02514,0.022 -0.03405,0.034 0.0052,-0.021 -0.0056,-0.047 0,-0.067 0.0089,-0.034 0.02444,-0.069 0.03405,-0.1025 0.112641,-0.3915 0.280308,-0.752 0.476716,-1.0555 l 0,-9.0236 L 24.034051,1004.3635 z m 4.596901,16.8894 c -0.02707,0.07 -0.02529,0.1452 0.03405,0.1703 C 28.693898,1021.3697 28.654574,1021.3149 28.630952,1021.2529 z m -0.170255,0.5789 c 0.08349,-0.013 0.08676,0.081 0.170255,0.067 -0.05547,-0.051 -0.09717,-0.1204 -0.102153,-0.1703 C 28.478416,1021.761 28.506203,1021.8135 28.460697,1021.8318 z m 0.102153,0.6469 c 0.04805,-0.047 0.07061,0 0.102153,0.034 0.04404,-0.097 -0.01677,-0.1433 0.102154,-0.068 l 0,-0.1703 c -0.04391,0.023 -0.08663,-0.071 -0.102154,0 0.07354,0.062 -0.110968,0.05 -0.136204,0.1362 C 28.577669,1022.4164 28.583856,1022.4509 28.56285,1022.4787 z m 0.204307,0.1703 c 0.0025,0.05 -0.02358,0.086 -0.03405,0.1024 -0.01046,0.016 -0.0052,0.011 0.03405,0.034 L 28.767157,1022.649 z m -4.494748,-10.7942 c 0.01641,0 0.02076,-9e-4 0.03405,0 -0.0078,0.032 0.0096,0.071 0,0.1024 -6.1e-4,-0.024 -0.04978,0.011 -0.0681,0 C 24.256675,1011.9363 24.274043,1011.8962 24.272409,1011.8548 z m 7.355042,3.9499 c 0.03574,0.011 0.07036,0.024 0.0681,0.067 -0.03634,-0.011 -0.05676,0 -0.0681,0 C 31.626693,1015.8507 31.627907,1015.827 31.627451,1015.8047 z m -3.64347,1.9749 c 0.08215,-0.011 0.0666,0.068 0.102153,0.1025 -0.04089,0.029 -0.05649,0.078 -0.136204,0.067 C 27.982423,1017.9194 27.983738,1017.8428 27.983981,1017.7796 z m 0,0.2725 c 0.09004,0 0.09503,0.057 0.170255,0.067 -0.07669,-0.027 -0.08852,0.1346 -0.136204,0.2043 -0.04247,-0.067 -0.117801,-0.1122 -0.102153,-0.2383 C 27.943294,1018.0883 27.978751,1018.0706 27.983981,1018.0521 z m 0.408613,0 c 0.03824,-0.011 0.03789,0.034 0.0681,0.034 0.0072,0.06 -0.04026,0.079 -0.102154,0.068 C 28.37698,1018.1336 28.394338,1018.0935 28.392594,1018.0521 z m 3.132703,0.067 c -0.0098,0.085 -0.11196,0.1003 -0.102153,0.2043 C 31.354577,1018.2543 31.443269,1018.1202 31.525297,1018.1202 z m 0.204307,0 c 0.07584,-0.021 0.04002,0.078 0.102153,0.068 -0.02002,0.055 -0.0981,0.011 -0.136204,0 C 31.701513,1018.1621 31.729253,1018.1518 31.729604,1018.1202 z m -0.272409,0.2724 c 0.01226,-0.011 0.04195,-0.011 0.0681,0 0.0523,0.015 0.108343,0.062 0.102154,0.1024 -0.09453,0.011 -0.07791,-0.078 -0.170256,-0.067 C 31.450096,1018.4123 31.444932,1018.3994 31.457195,1018.3926 z m -3.33701,0.2724 c 0.07088,0 0.06257,0.1046 0.03405,0.1362 C 28.133108,1018.7483 28.066924,1018.7216 28.120185,1018.665 z m -0.476715,0.1362 0.0681,0 c 0.0098,0.082 -0.01491,0.1175 -0.102153,0.1025 C 27.565495,1018.8615 27.630122,1018.8513 27.64347,1018.8012 z m 0.238358,0.3405 c 0.03211,0 0.04546,0.025 0.03405,0.068 -0.06662,0.02 -0.04525,-0.045 -0.102154,-0.034 C 27.814757,1019.1409 27.849715,1019.1378 27.881828,1019.1417 z m 0.510766,0.1025 c 0.07098,-0.024 0.06255,0.061 0.0681,0.1024 l -0.0681,0 C 28.382635,1019.297 28.385076,1019.2755 28.392594,1019.2439 z m -0.544818,0.5107 c 0.04205,0.019 0.08261,0.1215 0.136205,0.1362 -0.02015,0.036 -0.07747,0.078 -0.136205,0.067 0.02852,-0.1002 -0.02501,-0.1078 -0.03405,-0.1702 C 27.835567,1019.7712 27.833758,1019.7484 27.847776,1019.7546 z m 0.408614,0.2043 c 0.01953,0.066 -0.04364,0.046 -0.03405,0.1024 -0.02742,-0.013 -0.0473,-0.045 -0.102154,-0.034 -0.01479,0 -0.01737,-0.027 -0.03405,-0.034 C 28.114043,1019.9571 28.214156,1019.9873 28.25639,1019.9589 z m -0.476716,0.6129 c 0.07486,0.024 0.02467,0.043 -0.03405,0.068 C 27.770909,1020.6298 27.788533,1020.616 27.779674,1020.5718 z m 0.442665,0.034 c 0.04448,0 0.07774,0.078 0.0681,0.1362 -0.102426,-0.019 -0.03756,-0.071 -0.136205,-0.1024 C 28.168919,1020.6219 28.207512,1020.6043 28.222339,1020.6059 z m 0.170255,0.2724 0.0681,0 c 0.01699,0.072 -0.01711,0.098 0,0.1702 -0.0229,0 -0.02882,-0.051 -0.03405,-0.068 -0.03347,0 -0.06396,0.011 -0.0681,0.034 -0.03537,-0.049 0.0072,-0.06 0.03405,-0.067 C 28.397753,1020.9361 28.411587,1020.9059 28.392594,1020.8784 z m 0.136205,0 c 0.0057,0.034 0.05982,0.072 0.0681,0.1024 -0.05224,0 -0.07144,0.02 -0.0681,0.034 C 28.514605,1020.9485 28.480639,1020.907 28.528799,1020.8784 z m -0.749125,0.1362 c -0.0021,0.034 0.0066,0.058 0.03405,0.068 -0.02403,0.041 -0.103809,-0.016 -0.136204,0.034 0.0277,-6e-4 0.05065,0.014 0.102153,0 -0.02002,0.068 -0.03881,0.1464 -0.102153,0.1704 0.0398,-0.084 -0.01216,-0.1513 -0.0681,-0.1025 -0.03555,-0.021 -0.0038,-0.011 -0.03405,-0.067 0.04198,0.017 0.07446,6e-4 0.102154,0 C 27.631045,1021.0905 27.731741,1021.0255 27.779674,1021.0146 z m -0.170255,0.6129 c 0.07281,0.022 0.07183,0.1136 0.102153,0 0.03205,0.011 0.02991,0.065 0.03405,0.1025 -0.0202,-0.011 -0.05664,-0.011 -0.0681,0 -0.0229,0 -0.02871,0.016 -0.03405,0.034 C 27.604439,1021.7398 27.631015,1021.6689 27.609419,1021.6275 z m -0.136205,0.068 c 0.01013,0.012 0.03473,0.011 0.0681,0 -0.01711,0.073 0.05128,0.064 0.03405,0.1362 C 27.541466,1021.7855 27.509528,1021.7391 27.473214,1021.6956 z m 0.885329,0.1702 c 0.09015,0.019 0.09302,0.1694 0.03405,0.2043 -0.02401,-0.016 -0.02175,-0.045 -0.0681,-0.034 C 28.332021,1021.9803 28.372382,1021.9421 28.358543,1021.8658 z m -0.204307,0.2384 c 0.02925,0.021 0.03898,0.1598 0.0681,0.1024 0.06892,0.026 -0.02733,0.078 -0.0681,0.068 -0.02841,-0.031 -0.0093,-0.035 0,-0.068 -0.0745,-0.011 -0.0543,0.052 -0.136204,0.034 C 28.014754,1022.1506 28.080937,1022.1173 28.154236,1022.1042 z m -0.238357,0.4426 c 0.02123,0.021 0.07315,0.1335 0.102153,0.068 0.04878,0.013 -0.03953,0.088 -0.102153,0.067 C 27.913699,1022.5949 27.889422,1022.622 27.915879,1022.5468 z m 0.510766,0.068 c 0.01743,0 0.03152,0.021 0.03405,0.067 -0.07524,-0.057 -0.112072,0.011 -0.170256,0 C 28.340012,1022.6695 28.391773,1022.6067 28.426645,1022.6149 z m -0.136204,0.1362 c 0.07924,0.022 0.02216,0.028 0.03405,0.1024 C 28.232636,1022.8442 28.250876,1022.7882 28.290441,1022.7511 z m 0.340511,0.034 c -0.06152,0.043 -0.07424,0.072 -0.102153,0.1025 -0.0074,-0.034 -0.06684,0.011 -0.102154,0 l 0,-0.068 C 28.529663,1022.8072 28.547105,1022.8027 28.630952,1022.7852 z m -1.089636,0.4087 c 0.0233,0.032 0.03667,0.044 0.0681,0.068 -0.01024,0.037 -0.06099,0.028 -0.03405,0.1024 C 27.527558,1023.3447 27.522783,1023.2506 27.541316,1023.1938 z m -0.0681,0.1702 0.0681,0 c -0.01831,0.021 -0.03579,0.061 -0.03405,0.1024 l -0.102153,0 c -0.03623,-0.061 0.05572,-0.062 0.0681,-0.068 C 27.468845,1023.3851 27.458766,1023.364 27.473214,1023.364 z m 0.749125,0.067 c 0.04453,0 0.01362,0.079 0.0681,0.068 -0.01468,0.084 -0.106294,-0.018 -0.102153,0.1024 -0.03798,0.011 -0.03778,-0.034 -0.0681,-0.034 l 0,-0.034 c 0.02755,0 0.02882,-0.017 0.03405,0 C 28.195882,1023.4839 28.257163,1023.5084 28.222339,1023.4321 z m -0.510767,0.2043 c 0.0118,-0.012 0.0374,-0.011 0.0681,0 -0.02933,0.071 0.02221,0.097 0,0.2043 0.01905,-0.022 0.06189,-2e-4 0.0681,-0.034 0.07038,0.062 -0.09601,0.099 -0.0681,0.1362 -0.0813,-0.021 0.01458,-0.092 -0.102153,-0.1025 -0.01098,-0.035 0.0058,-0.077 0.03405,-0.1024 -0.0057,0 0.01376,-0.033 0,-0.034 C 27.704533,1023.6746 27.699771,1023.6484 27.711572,1023.6364 z m -0.238358,0.1025 c 0.02856,-0.011 0.09182,0.067 0.03405,0.067 0.01035,0.03 0.02758,0.034 0.0681,0.034 -0.0073,0.035 -0.06696,0.023 -0.102153,0.034 C 27.534986,1023.8226 27.399914,1023.8018 27.473214,1023.7386 z m 0.61292,0.1024 c 0.06225,-0.011 -0.0077,0.088 0.0681,0.067 0.0182,0.06 -0.0688,0.1036 0,0.1362 -0.0381,0.037 -0.09288,0.011 -0.136204,0 C 27.985626,1023.9263 28.087442,1023.9279 28.086134,1023.8407 z m 0.510767,0.067 c 0.0756,0.027 0.140236,0.064 0.136205,0.1703 -0.09466,0.04 -0.181534,-0.1123 -0.170256,0.034 C 28.416753,1024.0505 28.589383,1024.0069 28.596901,1023.9088 z m -1.089636,0.2043 c 0.01271,7e-4 0.02569,0 0.03405,0 0.01506,0.053 0.04684,0.1246 0,0.1704 C 27.528698,1024.225 27.532022,1024.2058 27.507265,1024.1132 z m 0.204307,0 c 0.03206,0 0.07829,0.02 0.0681,0.068 -0.03931,0 -0.09677,2e-4 -0.136204,0 C 27.64353,1024.1453 27.67952,1024.1163 27.711572,1024.1132 z m 0.204307,0.034 c 0.05897,0 0.04758,0.069 0.0681,0 0.02765,0.035 0.105858,0 0.102153,0.068 -0.104485,0.011 -0.09891,-0.032 -0.170255,0 L 27.915879,1024.1473 z m 0.136204,0.1362 c 0.08422,-0.054 0.207859,0.027 0.272409,0.068 C 28.287604,1024.3712 28.07757,1024.3532 28.052083,1024.2835 Z"
       id="rect4463" />
    <path
       style="fill:#ffffff;stroke:none;fill-opacity:1;opacity:0.15"
       d="M 0 0 L 0 48 L 16.78125 48 L 29.625 0 L 0 0 z "
       transform="translate(0,1004.3622)"
       id="rect3790" />
  </g>
</svg>
