<?xml version="1.0" encoding="UTF-8" standalone="no"?>
<!-- Created with Inkscape (http://www.inkscape.org/) -->

<svg
   xmlns:dc="http://purl.org/dc/elements/1.1/"
   xmlns:cc="http://creativecommons.org/ns#"
   xmlns:rdf="http://www.w3.org/1999/02/22-rdf-syntax-ns#"
   xmlns:svg="http://www.w3.org/2000/svg"
   xmlns="http://www.w3.org/2000/svg"
   xmlns:sodipodi="http://sodipodi.sourceforge.net/DTD/sodipodi-0.dtd"
   xmlns:inkscape="http://www.inkscape.org/namespaces/inkscape"
   width="24"
   height="24"
   id="svg3803"
   version="1.1"
   inkscape:version="0.48+devel r11717"
   sodipodi:docname="user-busy.svg">
  <defs
     id="defs3805" />
  <sodipodi:namedview
     id="base"
     pagecolor="#ffffff"
     bordercolor="#666666"
     borderopacity="1.0"
     inkscape:pageopacity="0.0"
     inkscape:pageshadow="2"
     inkscape:zoom="5.6"
     inkscape:cx="-19.592283"
     inkscape:cy="28.524065"
     inkscape:document-units="px"
     inkscape:current-layer="layer1"
     showgrid="false"
     inkscape:window-width="1366"
     inkscape:window-height="746"
     inkscape:window-x="0"
     inkscape:window-y="0"
     inkscape:window-maximized="1"
     width="0px"
     height="0px"
     fit-margin-top="0"
     fit-margin-left="0"
     fit-margin-right="0"
     fit-margin-bottom="0" />
  <metadata
     id="metadata3808">
    <rdf:RDF>
      <cc:Work
         rdf:about="">
        <dc:format>image/svg+xml</dc:format>
        <dc:type
           rdf:resource="http://purl.org/dc/dcmitype/StillImage" />
        <dc:title></dc:title>
      </cc:Work>
    </rdf:RDF>
  </metadata>
  <g
     inkscape:label="Capa 1"
     inkscape:groupmode="layer"
     id="layer1"
     transform="translate(0,-1028.3622)">
    <rect
       style="fill:none;stroke:none"
       id="rect4338"
       width="48"
       height="48"
       x="0"
       y="1004.3622"
       ry="0" />
    <g
       id="g815"
       transform="matrix(0.50402146,0,0,0.50403713,-0.09651525,522.02948)">
      <g
         style="fill:#da321f;fill-opacity:1"
         transform="matrix(-1.4815403,0,0,1.4815403,64.407706,-497.55134)"
         id="g4334">
        <path
           style="fill:#da321f;fill-opacity:1;stroke:none"
           d="M 19.128994,1036.3746 17.720275,1041.632 22.171506,1037.1808 Z"
           id="path3015"
           inkscape:connector-curvature="0" />
        <rect
           style="fill:#da321f;fill-opacity:1;stroke:none"
           id="rect4332"
           width="24.496199"
           height="18.940361"
           x="15.026019"
           y="1018.2695"
           ry="7.5761442" />
      </g>
      <path
         inkscape:connector-curvature="0"
         id="path2986"
         d="m 14.535714,1025.0864 18.928572,0"
         style="fill:none;stroke:#ffffff;stroke-width:4.5;stroke-linecap:butt;stroke-linejoin:miter;stroke-miterlimit:4;stroke-opacity:1;stroke-dasharray:none" />
    </g>
  </g>
</svg>
